
\\\\\\\\\\\\\\\\\\\\\\\\\\\\\\\\\\\\\\\\ file 0

\ combo: 0-0-3-2-0-0-0-0-0-0-0-2-3-0-0-0-1-0-0-0-0-1-1-0-0-1-1
\ dimension 2; is not compact
MAXIMIZE
Subject To
  ie0: -2 x3 >= 5          \ x3**-1 <= 0.00249183
  ie1: +4 x1 -2 x3 >= 3    \ x1**2 * x3**-1 <= 0.0274101
  ie2: +2 x3 >= -7         \ x3 <= 4414.43
  eq0: +2 x21 = -5         \ x21 = 401.312
  eq1: +1 x20 = -5         \ x20 = 161051.0
  eq2: +1 x19 = -5         \ x19 = 161051.0
  eq3: +1 x18 = -5         \ x18 = 161051.0
  eq4: +1 x17 = -6         \ x17 = 1.77156e+06
  eq5: +2 x16 = -1         \ x16 = 3.31662
  eq6: +1 x15 = -5         \ x15 = 161051.0
  eq7: +1 x14 = -5         \ x14 = 161051.0
  eq8: +1 x13 = -6         \ x13 = 1.77156e+06
  eq9: +2 x3 -2 x12 = 5    \ x3 * x12**-1 = 0.00249183
  eq10: +2 x3 -2 x11 = 3   \ x3 * x11**-1 = 0.0274101
  eq11: +1 x10 = -5        \ x10 = 161051.0
  eq12: +2 x3 -2 x9 = -3   \ x3 * x9**-1 = 36.4829
  eq13: +2 x8 = -7         \ x8 = 4414.43
  eq14: +1 x7 = -6         \ x7 = 1.77156e+06
  eq15: +2 x6 = -5         \ x6 = 401.312
  eq16: +1 x3 -1 x5 = -1   \ x3 * x5**-1 = 11.0
  eq17: +1 x4 = -5         \ x4 = 161051.0
  eq18: +1 x2 = -5         \ x2 = 161051.0
END

\\\\\\\\\\\\\\\\\\\\\\\\\\\\\\\\\\\\\\\\ file 1

\ combo: 1-1-0-2-0-0-0-2-2-0-0-2-0-0-0-0-1-0-0-0-0-1-1-0-0-1-1
\ dimension 2; is not compact
MAXIMIZE
Subject To
  ie0: -1 x1 +1 x9 >= 2    \ x1**-1 * x9 <= 0.00826446
  ie1: +3 x1 >= 4          \ x1 <= 0.0408768
  eq0: +1 x1 -2 x21 = 2    \ x1 * x21**-2 = 0.00826446
  eq1: +1 x20 = -5         \ x20 = 161051.0
  eq2: +1 x19 = -5         \ x19 = 161051.0
  eq3: +1 x18 = -5         \ x18 = 161051.0
  eq4: +1 x17 = -6         \ x17 = 1.77156e+06
  eq5: +1 x1 -2 x16 = -2   \ x1 * x16**-2 = 121.0
  eq6: +1 x15 = -5         \ x15 = 161051.0
  eq7: +1 x14 = -5         \ x14 = 161051.0
  eq8: +1 x13 = -6         \ x13 = 1.77156e+06
  eq9: +1 x1 -2 x12 = 4    \ x1 * x12**-2 = 6.83013e-05
  eq10: +1 x1 -2 x11 = 2   \ x1 * x11**-2 = 0.00826446
  eq11: +1 x10 = -5        \ x10 = 161051.0
  eq12: +1 x1 -2 x8 = 4    \ x1 * x8**-2 = 6.83013e-05
  eq13: +1 x7 = -6         \ x7 = 1.77156e+06
  eq14: +1 x1 -2 x6 = 2    \ x1 * x6**-2 = 0.00826446
  eq15: +1 x1 -2 x5 = 0    \ x1 * x5**-2 = 1.0
  eq16: +1 x4 = -5         \ x4 = 161051.0
  eq17: +1 x1 -2 x3 = 2    \ x1 * x3**-2 = 0.00826446
  eq18: +1 x2 = -5         \ x2 = 161051.0
END

\\\\\\\\\\\\\\\\\\\\\\\\\\\\\\\\\\\\\\\\ file 2

\ combo: 1-1-0-2-0-0-0-1-1-0-0-2-0-0-0-0-1-0-0-0-0-1-1-0-0-1-1
\ dimension 2; is not compact
MAXIMIZE
Subject To
  ie0: -3 x1 >= -4         \ x1**-1 <= 24.4638
  ie1: -1 x1 +1 x9 >= 2    \ x1**-1 * x9 <= 0.00826446
  ie2: +2 x1 >= -1         \ x1 <= 3.31662
  eq0: +1 x1 -2 x21 = 2    \ x1 * x21**-2 = 0.00826446
  eq1: +1 x20 = -5         \ x20 = 161051.0
  eq2: +1 x19 = -5         \ x19 = 161051.0
  eq3: +1 x18 = -5         \ x18 = 161051.0
  eq4: +1 x17 = -6         \ x17 = 1.77156e+06
  eq5: +1 x1 -2 x16 = -2   \ x1 * x16**-2 = 121.0
  eq6: +1 x15 = -5         \ x15 = 161051.0
  eq7: +1 x14 = -5         \ x14 = 161051.0
  eq8: +1 x13 = -6         \ x13 = 1.77156e+06
  eq9: +2 x1 -1 x12 = 4    \ x1**2 * x12**-1 = 6.83013e-05
  eq10: +2 x1 -1 x11 = 3   \ x1**2 * x11**-1 = 0.000751315
  eq11: +1 x10 = -5        \ x10 = 161051.0
  eq12: +1 x1 -2 x8 = 4    \ x1 * x8**-2 = 6.83013e-05
  eq13: +1 x7 = -6         \ x7 = 1.77156e+06
  eq14: +1 x1 -2 x6 = 2    \ x1 * x6**-2 = 0.00826446
  eq15: +1 x1 -2 x5 = 0    \ x1 * x5**-2 = 1.0
  eq16: +1 x4 = -5         \ x4 = 161051.0
  eq17: +1 x1 -2 x3 = 2    \ x1 * x3**-2 = 0.00826446
  eq18: +1 x2 = -5         \ x2 = 161051.0
END

\\\\\\\\\\\\\\\\\\\\\\\\\\\\\\\\\\\\\\\\ file 3

\ combo: 0-0-3-2-0-0-0-1-1-0-0-2-3-0-0-0-1-0-0-0-0-1-1-0-0-1-1
\ dimension 2; is compact
MAXIMIZE
Subject To
  ie0: -4 x1 +2 x3 >= -3         \ x1**-2 * x3 <= 36.4829
  ie1: -2 x1 >= 1                \ x1**-1 <= 0.301511
  ie2: +3 x1 -2 x3 >= 1          \ x1**3 * x3**-2 <= 0.0909091
  ie3: +1 x1 >= -1               \ x1 <= 11.0
  eq0: +2 x1 -1 x3 +1 x21 = -1   \ x1**2 * x3**-1 * x21 = 11.0
  eq1: +1 x20 = -5               \ x20 = 161051.0
  eq2: +1 x19 = -5               \ x19 = 161051.0
  eq3: +1 x18 = -5               \ x18 = 161051.0
  eq4: +1 x17 = -6               \ x17 = 1.77156e+06
  eq5: +2 x1 -1 x3 +1 x16 = 1    \ x1**2 * x3**-1 * x16 = 0.0909091
  eq6: +1 x15 = -5               \ x15 = 161051.0
  eq7: +1 x14 = -5               \ x14 = 161051.0
  eq8: +1 x13 = -6               \ x13 = 1.77156e+06
  eq9: +2 x1 -1 x12 = 4          \ x1**2 * x12**-1 = 6.83013e-05
  eq10: +2 x1 -1 x11 = 3         \ x1**2 * x11**-1 = 0.000751315
  eq11: +1 x10 = -5              \ x10 = 161051.0
  eq12: +2 x1 -2 x3 +1 x9 = 3    \ x1**2 * x3**-2 * x9 = 0.000751315
  eq13: +2 x1 -1 x3 +1 x8 = -2   \ x1**2 * x3**-1 * x8 = 121.0
  eq14: +1 x7 = -6               \ x7 = 1.77156e+06
  eq15: +2 x1 -1 x3 +1 x6 = -1   \ x1**2 * x3**-1 * x6 = 11.0
  eq16: +1 x3 -1 x5 = -1         \ x3 * x5**-1 = 11.0
  eq17: +1 x4 = -5               \ x4 = 161051.0
  eq18: +1 x2 = -5               \ x2 = 161051.0
END

\\\\\\\\\\\\\\\\\\\\\\\\\\\\\\\\\\\\\\\\ file 4

\ combo: 0-0-0-2-0-0-0-1-1-0-0-2-0-0-0-0-1-0-0-0-0-1-1-0-0-1-1
\ dimension 2; is compact
MAXIMIZE
Subject To
  ie0: -2 x1 +1 x3 >= -3   \ x1**-2 * x3 <= 1331.0
  ie1: -1 x1 +1 x3 >= -2   \ x1**-1 * x3 <= 121.0
  ie2: +2 x1 >= -1         \ x1 <= 3.31662
  ie3: +1 x1 -2 x3 >= 2    \ x1 * x3**-2 <= 0.00826446
  eq0: +1 x3 -1 x21 = 0    \ x3 * x21**-1 = 1.0
  eq1: +1 x20 = -5         \ x20 = 161051.0
  eq2: +1 x19 = -5         \ x19 = 161051.0
  eq3: +1 x18 = -5         \ x18 = 161051.0
  eq4: +1 x17 = -6         \ x17 = 1.77156e+06
  eq5: +1 x3 -1 x16 = -2   \ x3 * x16**-1 = 121.0
  eq6: +1 x15 = -5         \ x15 = 161051.0
  eq7: +1 x14 = -5         \ x14 = 161051.0
  eq8: +1 x13 = -6         \ x13 = 1.77156e+06
  eq9: +2 x1 -1 x12 = 4    \ x1**2 * x12**-1 = 6.83013e-05
  eq10: +2 x1 -1 x11 = 3   \ x1**2 * x11**-1 = 0.000751315
  eq11: +1 x10 = -5        \ x10 = 161051.0
  eq12: +2 x3 -1 x9 = -4   \ x3**2 * x9**-1 = 14641.0
  eq13: +1 x3 -1 x8 = 1    \ x3 * x8**-1 = 0.0909091
  eq14: +1 x7 = -6         \ x7 = 1.77156e+06
  eq15: +1 x3 -1 x6 = 0    \ x3 * x6**-1 = 1.0
  eq16: +1 x3 -1 x5 = -1   \ x3 * x5**-1 = 11.0
  eq17: +1 x4 = -5         \ x4 = 161051.0
  eq18: +1 x2 = -5         \ x2 = 161051.0
END

\\\\\\\\\\\\\\\\\\\\\\\\\\\\\\\\\\\\\\\\ file 5

\ combo: 1-1-3-2-0-0-0-1-1-0-0-2-3-0-0-0-1-0-0-0-0-1-1-0-0-1-1
\ dimension 2; is not compact
MAXIMIZE
Subject To
  ie0: -2 x1 >= 1          \ x1**-1 <= 0.301511
  ie1: -1 x1 +1 x9 >= 2    \ x1**-1 * x9 <= 0.00826446
  ie2: +1 x1 >= -1         \ x1 <= 11.0
  eq0: +1 x1 +2 x21 = -3   \ x1 * x21**2 = 1331.0
  eq1: +1 x20 = -5         \ x20 = 161051.0
  eq2: +1 x19 = -5         \ x19 = 161051.0
  eq3: +1 x18 = -5         \ x18 = 161051.0
  eq4: +1 x17 = -6         \ x17 = 1.77156e+06
  eq5: +1 x1 +2 x16 = 1    \ x1 * x16**2 = 0.0909091
  eq6: +1 x15 = -5         \ x15 = 161051.0
  eq7: +1 x14 = -5         \ x14 = 161051.0
  eq8: +1 x13 = -6         \ x13 = 1.77156e+06
  eq9: +2 x1 -1 x12 = 4    \ x1**2 * x12**-1 = 6.83013e-05
  eq10: +2 x1 -1 x11 = 3   \ x1**2 * x11**-1 = 0.000751315
  eq11: +1 x10 = -5        \ x10 = 161051.0
  eq12: +1 x1 +2 x8 = -5   \ x1 * x8**2 = 161051.0
  eq13: +1 x7 = -6         \ x7 = 1.77156e+06
  eq14: +1 x1 +2 x6 = -3   \ x1 * x6**2 = 1331.0
  eq15: +3 x1 -2 x5 = -1   \ x1**3 * x5**-2 = 11.0
  eq16: +1 x4 = -5         \ x4 = 161051.0
  eq17: +3 x1 -2 x3 = 1    \ x1**3 * x3**-2 = 0.0909091
  eq18: +1 x2 = -5         \ x2 = 161051.0
END

\\\\\\\\\\\\\\\\\\\\\\\\\\\\\\\\\\\\\\\\ file 6

\ combo: 1-1-3-2-0-0-0-1-1-0-0-2-3-0-0-0-1-0-0-0-0-0-1-0-0-1-1
\ dimension 2; is not compact
MAXIMIZE
Subject To
  ie0: -1 x1 >= 1           \ x1**-1 <= 0.0909091
  ie1: -1 x1 +1 x9 >= 2     \ x1**-1 * x9 <= 0.00826446
  ie2: +1 x1 >= -7          \ x1 <= 1.94872e+07
  eq0: +1 x1 -2 x21 = 1     \ x1 * x21**-2 = 0.0909091
  eq1: +1 x20 = -5          \ x20 = 161051.0
  eq2: +1 x19 = -5          \ x19 = 161051.0
  eq3: +1 x18 = -5          \ x18 = 161051.0
  eq4: +1 x17 = -6          \ x17 = 1.77156e+06
  eq5: +1 x1 -2 x16 = -3    \ x1 * x16**-2 = 1331.0
  eq6: +1 x15 = -5          \ x15 = 161051.0
  eq7: +1 x14 = -5          \ x14 = 161051.0
  eq8: +1 x13 = -6          \ x13 = 1.77156e+06
  eq9: +1 x12 = -6          \ x12 = 1.77156e+06
  eq10: +1 x11 = -5         \ x11 = 161051.0
  eq11: +2 x1 +1 x10 = -7   \ x1**2 * x10 = 1.94872e+07
  eq12: +1 x1 -2 x8 = 3     \ x1 * x8**-2 = 0.000751315
  eq13: +1 x7 = -6          \ x7 = 1.77156e+06
  eq14: +1 x1 -2 x6 = 1     \ x1 * x6**-2 = 0.0909091
  eq15: +1 x1 -2 x5 = 1     \ x1 * x5**-2 = 0.0909091
  eq16: +1 x4 = -5          \ x4 = 161051.0
  eq17: +1 x1 -2 x3 = 3     \ x1 * x3**-2 = 0.000751315
  eq18: +1 x2 = -5          \ x2 = 161051.0
END

\\\\\\\\\\\\\\\\\\\\\\\\\\\\\\\\\\\\\\\\ file 7

\ combo: 0-0-0-2-0-0-0-2-2-0-0-2-0-0-0-0-1-0-0-0-0-1-1-0-0-1-1
\ dimension 2; is not compact
MAXIMIZE
Subject To
  ie0: +1 x3 >= -1         \ x3 <= 11.0
  ie1: +1 x1 -2 x3 >= 2    \ x1 * x3**-2 <= 0.00826446
  ie2: +2 x1 -1 x3 >= 3    \ x1**2 * x3**-1 <= 0.000751315
  eq0: +1 x3 -1 x21 = 0    \ x3 * x21**-1 = 1.0
  eq1: +1 x20 = -5         \ x20 = 161051.0
  eq2: +1 x19 = -5         \ x19 = 161051.0
  eq3: +1 x18 = -5         \ x18 = 161051.0
  eq4: +1 x17 = -6         \ x17 = 1.77156e+06
  eq5: +1 x3 -1 x16 = -2   \ x3 * x16**-1 = 121.0
  eq6: +1 x15 = -5         \ x15 = 161051.0
  eq7: +1 x14 = -5         \ x14 = 161051.0
  eq8: +1 x13 = -6         \ x13 = 1.77156e+06
  eq9: +1 x3 -1 x12 = 1    \ x3 * x12**-1 = 0.0909091
  eq10: +1 x3 -1 x11 = 0   \ x3 * x11**-1 = 1.0
  eq11: +1 x10 = -5        \ x10 = 161051.0
  eq12: +2 x3 -1 x9 = -4   \ x3**2 * x9**-1 = 14641.0
  eq13: +1 x3 -1 x8 = 1    \ x3 * x8**-1 = 0.0909091
  eq14: +1 x7 = -6         \ x7 = 1.77156e+06
  eq15: +1 x3 -1 x6 = 0    \ x3 * x6**-1 = 1.0
  eq16: +1 x3 -1 x5 = -1   \ x3 * x5**-1 = 11.0
  eq17: +1 x4 = -5         \ x4 = 161051.0
  eq18: +1 x2 = -5         \ x2 = 161051.0
END

\\\\\\\\\\\\\\\\\\\\\\\\\\\\\\\\\\\\\\\\ file 8

\ combo: 0-0-0-2-0-0-0-0-0-0-0-2-0-0-0-0-1-0-0-0-0-1-1-0-0-1-1
\ dimension 2; is not compact
MAXIMIZE
Subject To
  ie0: -1 x3 >= 1           \ x3**-1 <= 0.0909091
  ie1: +1 x1 -1 x3 >= 2     \ x1 * x3**-1 <= 0.00826446
  ie2: +2 x3 >= -5          \ x3 <= 401.312
  eq0: +1 x3 -1 x21 = 0     \ x3 * x21**-1 = 1.0
  eq1: +1 x20 = -5          \ x20 = 161051.0
  eq2: +1 x19 = -5          \ x19 = 161051.0
  eq3: +1 x18 = -5          \ x18 = 161051.0
  eq4: +1 x17 = -6          \ x17 = 1.77156e+06
  eq5: +1 x3 -1 x16 = -2    \ x3 * x16**-1 = 121.0
  eq6: +1 x15 = -5          \ x15 = 161051.0
  eq7: +1 x14 = -5          \ x14 = 161051.0
  eq8: +1 x13 = -6          \ x13 = 1.77156e+06
  eq9: +2 x3 -1 x12 = 0     \ x3**2 * x12**-1 = 1.0
  eq10: +2 x3 -1 x11 = -1   \ x3**2 * x11**-1 = 11.0
  eq11: +1 x10 = -5         \ x10 = 161051.0
  eq12: +2 x3 -1 x9 = -4    \ x3**2 * x9**-1 = 14641.0
  eq13: +1 x3 -1 x8 = 1     \ x3 * x8**-1 = 0.0909091
  eq14: +1 x7 = -6          \ x7 = 1.77156e+06
  eq15: +1 x3 -1 x6 = 0     \ x3 * x6**-1 = 1.0
  eq16: +1 x3 -1 x5 = -1    \ x3 * x5**-1 = 11.0
  eq17: +1 x4 = -5          \ x4 = 161051.0
  eq18: +1 x2 = -5          \ x2 = 161051.0
END

\\\\\\\\\\\\\\\\\\\\\\\\\\\\\\\\\\\\\\\\ file 9

\ combo: 0-0-3-2-0-0-0-1-1-0-0-2-3-0-0-0-1-0-0-0-0-0-1-0-0-1-1
\ dimension 2; is compact
MAXIMIZE
Subject To
  ie0: -2 x1 +2 x3 >= -5    \ x1**-1 * x3 <= 401.312
  ie1: -1 x1 >= 1           \ x1**-1 <= 0.0909091
  ie2: +1 x1 -2 x3 >= 3     \ x1 * x3**-2 <= 0.000751315
  ie3: +1 x3 >= -5          \ x3 <= 161051.0
  eq0: +1 x3 -1 x21 = -1    \ x3 * x21**-1 = 11.0
  eq1: +1 x20 = -5          \ x20 = 161051.0
  eq2: +1 x19 = -5          \ x19 = 161051.0
  eq3: +1 x18 = -5          \ x18 = 161051.0
  eq4: +1 x17 = -6          \ x17 = 1.77156e+06
  eq5: +1 x3 -1 x16 = -3    \ x3 * x16**-1 = 1331.0
  eq6: +1 x15 = -5          \ x15 = 161051.0
  eq7: +1 x14 = -5          \ x14 = 161051.0
  eq8: +1 x13 = -6          \ x13 = 1.77156e+06
  eq9: +1 x12 = -6          \ x12 = 1.77156e+06
  eq10: +1 x11 = -5         \ x11 = 161051.0
  eq11: +2 x1 +1 x10 = -7   \ x1**2 * x10 = 1.94872e+07
  eq12: +2 x3 -1 x9 = -5    \ x3**2 * x9**-1 = 161051.0
  eq13: +1 x3 -1 x8 = 0     \ x3 * x8**-1 = 1.0
  eq14: +1 x7 = -6          \ x7 = 1.77156e+06
  eq15: +1 x3 -1 x6 = -1    \ x3 * x6**-1 = 11.0
  eq16: +1 x3 -1 x5 = -1    \ x3 * x5**-1 = 11.0
  eq17: +1 x4 = -5          \ x4 = 161051.0
  eq18: +1 x2 = -5          \ x2 = 161051.0
END

\\\\\\\\\\\\\\\\\\\\\\\\\\\\\\\\\\\\\\\\ file 10

\ combo: 0-0-3-2-0-0-0-0-0-0-0-2-3-0-0-0-1-0-0-0-0-0-1-0-0-1-1
\ dimension 2; is not compact
MAXIMIZE
Subject To
  ie0: -2 x3 >= 7            \ x3**-1 <= 0.00022653
  ie1: +2 x1 -2 x3 >= 5      \ x1 * x3**-1 <= 0.00249183
  ie2: +1 x3 >= -5           \ x3 <= 161051.0
  eq0: +1 x3 -1 x21 = -1     \ x3 * x21**-1 = 11.0
  eq1: +1 x20 = -5           \ x20 = 161051.0
  eq2: +1 x19 = -5           \ x19 = 161051.0
  eq3: +1 x18 = -5           \ x18 = 161051.0
  eq4: +1 x17 = -6           \ x17 = 1.77156e+06
  eq5: +1 x3 -1 x16 = -3     \ x3 * x16**-1 = 1331.0
  eq6: +1 x15 = -5           \ x15 = 161051.0
  eq7: +1 x14 = -5           \ x14 = 161051.0
  eq8: +1 x13 = -6           \ x13 = 1.77156e+06
  eq9: +1 x12 = -6           \ x12 = 1.77156e+06
  eq10: +1 x11 = -5          \ x11 = 161051.0
  eq11: +2 x3 +1 x10 = -12   \ x3**2 * x10 = 3.13843e+12
  eq12: +2 x3 -1 x9 = -5     \ x3**2 * x9**-1 = 161051.0
  eq13: +1 x3 -1 x8 = 0      \ x3 * x8**-1 = 1.0
  eq14: +1 x7 = -6           \ x7 = 1.77156e+06
  eq15: +1 x3 -1 x6 = -1     \ x3 * x6**-1 = 11.0
  eq16: +1 x3 -1 x5 = -1     \ x3 * x5**-1 = 11.0
  eq17: +1 x4 = -5           \ x4 = 161051.0
  eq18: +1 x2 = -5           \ x2 = 161051.0
END

\\\\\\\\\\\\\\\\\\\\\\\\\\\\\\\\\\\\\\\\ file 11

\ combo: 0-0-3-2-0-0-0-0-0-0-0-2-3-0-0-0-1-0-0-0-0-0-1-0-0-1-0
\ dimension 2; is not compact
MAXIMIZE
Subject To
  ie0: +1 x2 >= -5          \ x2 <= 161051.0
  ie1: +2 x1 +1 x2 >= -10   \ x1**2 * x2 <= 2.59374e+10
  eq0: +1 x21 = -4          \ x21 = 14641.0
  eq1: +1 x20 = -5          \ x20 = 161051.0
  eq2: +1 x19 = -5          \ x19 = 161051.0
  eq3: +1 x18 = -5          \ x18 = 161051.0
  eq4: +1 x17 = -6          \ x17 = 1.77156e+06
  eq5: +1 x16 = -2          \ x16 = 121.0
  eq6: +1 x15 = -5          \ x15 = 161051.0
  eq7: +1 x14 = -5          \ x14 = 161051.0
  eq8: +1 x13 = -6          \ x13 = 1.77156e+06
  eq9: +1 x12 = -6          \ x12 = 1.77156e+06
  eq10: +1 x11 = -5         \ x11 = 161051.0
  eq11: +1 x2 -1 x10 = -3   \ x2 * x10**-1 = 1331.0
  eq12: +1 x2 +1 x9 = -10   \ x2 * x9 = 2.59374e+10
  eq13: +1 x8 = -5          \ x8 = 161051.0
  eq14: +1 x7 = -6          \ x7 = 1.77156e+06
  eq15: +1 x6 = -4          \ x6 = 14641.0
  eq16: +1 x5 = -4          \ x5 = 14641.0
  eq17: +1 x4 = -5          \ x4 = 161051.0
  eq18: +1 x3 = -5          \ x3 = 161051.0
END

\\\\\\\\\\\\\\\\\\\\\\\\\\\\\\\\\\\\\\\\ file 12

\ combo: 0-0-3-2-0-0-0-1-1-0-0-2-3-0-0-0-1-0-0-0-0-0-1-0-0-1-0
\ dimension 2; is not compact
MAXIMIZE
Subject To
  ie0: -2 x1 -1 x2 >= 10    \ x1**-2 * x2**-1 <= 3.85543e-11
  ie1: +1 x2 >= -5          \ x2 <= 161051.0
  ie2: +1 x1 +1 x2 >= -12   \ x1 * x2 <= 3.13843e+12
  eq0: +1 x21 = -4          \ x21 = 14641.0
  eq1: +1 x20 = -5          \ x20 = 161051.0
  eq2: +1 x19 = -5          \ x19 = 161051.0
  eq3: +1 x18 = -5          \ x18 = 161051.0
  eq4: +1 x17 = -6          \ x17 = 1.77156e+06
  eq5: +1 x16 = -2          \ x16 = 121.0
  eq6: +1 x15 = -5          \ x15 = 161051.0
  eq7: +1 x14 = -5          \ x14 = 161051.0
  eq8: +1 x13 = -6          \ x13 = 1.77156e+06
  eq9: +1 x12 = -6          \ x12 = 1.77156e+06
  eq10: +1 x11 = -5         \ x11 = 161051.0
  eq11: +2 x1 +1 x10 = -7   \ x1**2 * x10 = 1.94872e+07
  eq12: +1 x2 +1 x9 = -10   \ x2 * x9 = 2.59374e+10
  eq13: +1 x8 = -5          \ x8 = 161051.0
  eq14: +1 x7 = -6          \ x7 = 1.77156e+06
  eq15: +1 x6 = -4          \ x6 = 14641.0
  eq16: +1 x5 = -4          \ x5 = 14641.0
  eq17: +1 x4 = -5          \ x4 = 161051.0
  eq18: +1 x3 = -5          \ x3 = 161051.0
END

\\\\\\\\\\\\\\\\\\\\\\\\\\\\\\\\\\\\\\\\ file 13

\ combo: 1-1-3-2-0-0-0-1-1-0-0-2-3-0-0-0-1-0-0-0-0-0-1-0-0-1-0
\ dimension 2; is not compact
MAXIMIZE
Subject To
  ie0: -1 x1 >= 7           \ x1**-1 <= 5.13158e-08
  ie1: -1 x1 +1 x9 >= 2     \ x1**-1 * x9 <= 0.00826446
  eq0: +1 x21 = -4          \ x21 = 14641.0
  eq1: +1 x20 = -5          \ x20 = 161051.0
  eq2: +1 x19 = -5          \ x19 = 161051.0
  eq3: +1 x18 = -5          \ x18 = 161051.0
  eq4: +1 x17 = -6          \ x17 = 1.77156e+06
  eq5: +1 x16 = -2          \ x16 = 121.0
  eq6: +1 x15 = -5          \ x15 = 161051.0
  eq7: +1 x14 = -5          \ x14 = 161051.0
  eq8: +1 x13 = -6          \ x13 = 1.77156e+06
  eq9: +1 x12 = -6          \ x12 = 1.77156e+06
  eq10: +1 x11 = -5         \ x11 = 161051.0
  eq11: +2 x1 +1 x10 = -7   \ x1**2 * x10 = 1.94872e+07
  eq12: +1 x8 = -5          \ x8 = 161051.0
  eq13: +1 x7 = -6          \ x7 = 1.77156e+06
  eq14: +1 x6 = -4          \ x6 = 14641.0
  eq15: +1 x5 = -4          \ x5 = 14641.0
  eq16: +1 x4 = -5          \ x4 = 161051.0
  eq17: +1 x3 = -5          \ x3 = 161051.0
  eq18: +1 x1 +1 x2 = -12   \ x1 * x2 = 3.13843e+12
END

\\\\\\\\\\\\\\\\\\\\\\\\\\\\\\\\\\\\\\\\ end

