[
  ["#0",
    [[0,0,0,0,0,1,1,1,1,1,1,1],
     [0,0,0,0,1,1,1,1,1,1,1,1],
     [0,0,0,0,1,0,1,1,1,1,1,1],
     [0,0,0,0,1,1,1,1,1,1,1,1],
     [0,1,1,1,0,0,0,0,1,1,1,1],
     [1,1,0,1,0,0,0,0,1,1,1,1],
     [1,1,1,1,0,0,0,0,1,0,1,1],
     [1,1,1,1,0,0,0,0,1,1,1,0],
     [1,1,1,1,1,1,1,1,0,0,0,0],
     [1,1,1,1,1,1,0,1,0,0,0,0],
     [1,1,1,1,1,1,1,1,0,0,0,0],
     [1,1,1,1,1,1,1,0,0,0,0,0]], [
    [[[1,0,1,-1,0,0,0,0,0,1,0,0,0,0,0,0,0,0,0,0,0,-1]], [[5,0,1,0,0,0,0,0,0,0,0,0,0,0,0,0,0,0,0,0,0,0],[6,0,0,1,0,0,0,0,0,0,0,0,0,0,0,0,0,0,0,0,0,0],[2,1,0,0,0,0,0,0,0,-1,0,0,0,0,0,0,0,0,0,0,0,0]], 0],
    [[[3,1,1,-1,0,0,0,0,0,0,0,0,0,0,0,0,0,0,0,0,0,-1]], [[-2,-1,0,0,0,0,0,0,0,1,0,0,0,0,0,0,0,0,0,0,0,0],[5,0,1,0,0,0,0,0,0,0,0,0,0,0,0,0,0,0,0,0,0,0],[6,0,0,1,0,0,0,0,0,0,0,0,0,0,0,0,0,0,0,0,0,0]], 1],
    [[[7,0,1,0,0,0,0,0,0,1,0,0,0,0,0,0,0,0,0,0,0,-1]], [[-6,0,0,-1,0,0,0,0,0,0,0,0,0,0,0,0,0,0,0,0,0,0],[5,0,1,0,0,0,0,0,0,0,0,0,0,0,0,0,0,0,0,0,0,0],[2,1,0,0,0,0,0,0,0,-1,0,0,0,0,0,0,0,0,0,0,0,0]], 2],
    [[[9,1,1,0,0,0,0,0,0,0,0,0,0,0,0,0,0,0,0,0,0,-1]], [[-6,0,0,-1,0,0,0,0,0,0,0,0,0,0,0,0,0,0,0,0,0,0],[5,0,1,0,0,0,0,0,0,0,0,0,0,0,0,0,0,0,0,0,0,0],[-2,-1,0,0,0,0,0,0,0,1,0,0,0,0,0,0,0,0,0,0,0,0]], 4],
    [[[4,0,0,1,0,0,0,0,0,-1,0,0,0,0,0,0,0,0,0,0,0,1]], [[-5,0,-1,0,0,0,0,0,0,0,0,0,0,0,0,0,0,0,0,0,0,0],[7,1,1,0,0,0,0,0,0,-1,0,0,0,0,0,0,0,0,0,0,0,0],[6,0,0,1,0,0,0,0,0,0,0,0,0,0,0,0,0,0,0,0,0,0],[7,0,1,0,0,0,0,0,0,0,0,0,0,0,0,0,0,0,0,0,0,0]], 6],
    [[[2,0,0,0,0,0,0,0,0,1,0,0,0,0,0,0,0,0,0,0,0,-1]], [[-5,0,-1,0,0,0,0,0,0,0,0,0,0,0,0,0,0,0,0,0,0,0],[-6,0,0,-1,0,0,0,0,0,0,0,0,0,0,0,0,0,0,0,0,0,0],[7,1,1,0,0,0,0,0,0,-1,0,0,0,0,0,0,0,0,0,0,0,0],[7,0,1,0,0,0,0,0,0,0,0,0,0,0,0,0,0,0,0,0,0,0]], 9],
    [[[3,1,1,-1,0,0,0,0,0,0,0,0,0,0,0,0,0,0,0,0,0,-1]], [[-5,0,-1,0,0,0,0,0,0,0,0,0,0,0,0,0,0,0,0,0,0,0],[-7,-1,-1,0,0,0,0,0,0,1,0,0,0,0,0,0,0,0,0,0,0,0],[6,0,0,1,0,0,0,0,0,0,0,0,0,0,0,0,0,0,0,0,0,0],[7,0,1,0,0,0,0,0,0,0,0,0,0,0,0,0,0,0,0,0,0,0]], 11],
    [[[9,1,1,0,0,0,0,0,0,0,0,0,0,0,0,0,0,0,0,0,0,-1]], [[-5,0,-1,0,0,0,0,0,0,0,0,0,0,0,0,0,0,0,0,0,0,0],[-6,0,0,-1,0,0,0,0,0,0,0,0,0,0,0,0,0,0,0,0,0,0],[7,0,1,0,0,0,0,0,0,0,0,0,0,0,0,0,0,0,0,0,0,0],[-7,-1,-1,0,0,0,0,0,0,1,0,0,0,0,0,0,0,0,0,0,0,0]], 14],
    [[[4,0,0,1,0,0,0,0,0,-1,0,0,0,0,0,0,0,0,0,0,0,1]], [[0,1,0,0,0,0,0,0,0,-1,0,0,0,0,0,0,0,0,0,0,0,0],[-7,0,-1,0,0,0,0,0,0,0,0,0,0,0,0,0,0,0,0,0,0,0],[6,0,0,1,0,0,0,0,0,0,0,0,0,0,0,0,0,0,0,0,0,0]], 16],
    [[[-4,1,0,-1,0,0,0,0,0,0,0,0,0,0,0,0,0,0,0,0,0,-1]], [[6,0,0,1,0,0,0,0,0,0,0,0,0,0,0,0,0,0,0,0,0,0],[-7,0,-1,0,0,0,0,0,0,0,0,0,0,0,0,0,0,0,0,0,0,0],[0,-1,0,0,0,0,0,0,0,1,0,0,0,0,0,0,0,0,0,0,0,0]], 17],
    [[[2,0,0,0,0,0,0,0,0,1,0,0,0,0,0,0,0,0,0,0,0,-1]], [[0,1,0,0,0,0,0,0,0,-1,0,0,0,0,0,0,0,0,0,0,0,0],[-7,0,-1,0,0,0,0,0,0,0,0,0,0,0,0,0,0,0,0,0,0,0],[-6,0,0,-1,0,0,0,0,0,0,0,0,0,0,0,0,0,0,0,0,0,0]], 18],
    [[[2,1,0,0,0,0,0,0,0,0,0,0,0,0,0,0,0,0,0,0,0,-1]], [[-6,0,0,-1,0,0,0,0,0,0,0,0,0,0,0,0,0,0,0,0,0,0],[-7,0,-1,0,0,0,0,0,0,0,0,0,0,0,0,0,0,0,0,0,0,0],[0,-1,0,0,0,0,0,0,0,1,0,0,0,0,0,0,0,0,0,0,0,0]], 19]
  ]],
  ["#1",
    [[0,0,0,0,0,1,1,1,1,1,1,1],
     [0,0,0,0,1,1,1,1,1,1,1,1],
     [0,0,0,0,1,0,1,1,1,1,1,1],
     [0,0,0,0,1,1,1,1,1,1,1,1],
     [0,1,1,1,0,0,0,0,1,1,1,1],
     [1,1,0,1,0,0,0,0,1,1,1,1],
     [1,1,1,1,0,0,0,0,1,0,1,1],
     [1,1,1,1,0,0,0,0,1,1,1,0],
     [1,1,1,1,1,1,1,1,0,0,0,0],
     [1,1,1,1,1,1,0,1,0,0,0,0],
     [1,1,1,1,1,1,1,1,0,0,0,0],
     [1,1,1,1,1,1,1,0,0,0,0,0]], [
    [[[1,0,1,-1,0,0,0,0,0,1,0,0,0,0,0,0,0,0,0,0,0,-1]], [[5,0,1,0,0,0,0,0,0,0,0,0,0,0,0,0,0,0,0,0,0,0],[6,0,0,1,0,0,0,0,0,0,0,0,0,0,0,0,0,0,0,0,0,0],[2,1,0,0,0,0,0,0,0,-1,0,0,0,0,0,0,0,0,0,0,0,0]], 0],
    [[[3,1,1,-1,0,0,0,0,0,0,0,0,0,0,0,0,0,0,0,0,0,-1]], [[-2,-1,0,0,0,0,0,0,0,1,0,0,0,0,0,0,0,0,0,0,0,0],[5,0,1,0,0,0,0,0,0,0,0,0,0,0,0,0,0,0,0,0,0,0],[6,0,0,1,0,0,0,0,0,0,0,0,0,0,0,0,0,0,0,0,0,0]], 1],
    [[[7,0,1,0,0,0,0,0,0,1,0,0,0,0,0,0,0,0,0,0,0,-1]], [[-6,0,0,-1,0,0,0,0,0,0,0,0,0,0,0,0,0,0,0,0,0,0],[5,0,1,0,0,0,0,0,0,0,0,0,0,0,0,0,0,0,0,0,0,0],[2,1,0,0,0,0,0,0,0,-1,0,0,0,0,0,0,0,0,0,0,0,0]], 2],
    [[[9,1,1,0,0,0,0,0,0,0,0,0,0,0,0,0,0,0,0,0,0,-1]], [[-6,0,0,-1,0,0,0,0,0,0,0,0,0,0,0,0,0,0,0,0,0,0],[5,0,1,0,0,0,0,0,0,0,0,0,0,0,0,0,0,0,0,0,0,0],[-2,-1,0,0,0,0,0,0,0,1,0,0,0,0,0,0,0,0,0,0,0,0]], 4],
    [[[4,0,0,1,0,0,0,0,0,-1,0,0,0,0,0,0,0,0,0,0,0,1]], [[-5,0,-1,0,0,0,0,0,0,0,0,0,0,0,0,0,0,0,0,0,0,0],[7,1,1,0,0,0,0,0,0,-1,0,0,0,0,0,0,0,0,0,0,0,0],[6,0,0,1,0,0,0,0,0,0,0,0,0,0,0,0,0,0,0,0,0,0],[7,0,1,0,0,0,0,0,0,0,0,0,0,0,0,0,0,0,0,0,0,0]], 6],
    [[[2,0,0,0,0,0,0,0,0,1,0,0,0,0,0,0,0,0,0,0,0,-1]], [[-5,0,-1,0,0,0,0,0,0,0,0,0,0,0,0,0,0,0,0,0,0,0],[-6,0,0,-1,0,0,0,0,0,0,0,0,0,0,0,0,0,0,0,0,0,0],[7,1,1,0,0,0,0,0,0,-1,0,0,0,0,0,0,0,0,0,0,0,0],[7,0,1,0,0,0,0,0,0,0,0,0,0,0,0,0,0,0,0,0,0,0]], 9],
    [[[3,1,1,-1,0,0,0,0,0,0,0,0,0,0,0,0,0,0,0,0,0,-1]], [[-5,0,-1,0,0,0,0,0,0,0,0,0,0,0,0,0,0,0,0,0,0,0],[-7,-1,-1,0,0,0,0,0,0,1,0,0,0,0,0,0,0,0,0,0,0,0],[6,0,0,1,0,0,0,0,0,0,0,0,0,0,0,0,0,0,0,0,0,0],[7,0,1,0,0,0,0,0,0,0,0,0,0,0,0,0,0,0,0,0,0,0]], 11],
    [[[9,1,1,0,0,0,0,0,0,0,0,0,0,0,0,0,0,0,0,0,0,-1]], [[-5,0,-1,0,0,0,0,0,0,0,0,0,0,0,0,0,0,0,0,0,0,0],[-6,0,0,-1,0,0,0,0,0,0,0,0,0,0,0,0,0,0,0,0,0,0],[7,0,1,0,0,0,0,0,0,0,0,0,0,0,0,0,0,0,0,0,0,0],[-7,-1,-1,0,0,0,0,0,0,1,0,0,0,0,0,0,0,0,0,0,0,0]], 14],
    [[[4,0,0,1,0,0,0,0,0,-1,0,0,0,0,0,0,0,0,0,0,0,1]], [[0,1,0,0,0,0,0,0,0,-1,0,0,0,0,0,0,0,0,0,0,0,0],[-7,0,-1,0,0,0,0,0,0,0,0,0,0,0,0,0,0,0,0,0,0,0],[6,0,0,1,0,0,0,0,0,0,0,0,0,0,0,0,0,0,0,0,0,0]], 16],
    [[[-4,1,0,-1,0,0,0,0,0,0,0,0,0,0,0,0,0,0,0,0,0,-1]], [[6,0,0,1,0,0,0,0,0,0,0,0,0,0,0,0,0,0,0,0,0,0],[-7,0,-1,0,0,0,0,0,0,0,0,0,0,0,0,0,0,0,0,0,0,0],[0,-1,0,0,0,0,0,0,0,1,0,0,0,0,0,0,0,0,0,0,0,0]], 17],
    [[[2,0,0,0,0,0,0,0,0,1,0,0,0,0,0,0,0,0,0,0,0,-1]], [[0,1,0,0,0,0,0,0,0,-1,0,0,0,0,0,0,0,0,0,0,0,0],[-7,0,-1,0,0,0,0,0,0,0,0,0,0,0,0,0,0,0,0,0,0,0],[-6,0,0,-1,0,0,0,0,0,0,0,0,0,0,0,0,0,0,0,0,0,0]], 18],
    [[[2,1,0,0,0,0,0,0,0,0,0,0,0,0,0,0,0,0,0,0,0,-1]], [[-6,0,0,-1,0,0,0,0,0,0,0,0,0,0,0,0,0,0,0,0,0,0],[-7,0,-1,0,0,0,0,0,0,0,0,0,0,0,0,0,0,0,0,0,0,0],[0,-1,0,0,0,0,0,0,0,1,0,0,0,0,0,0,0,0,0,0,0,0]], 19]
  ]],
  ["#2",
    [[0,0,0,0,0,1,1,1,1,1,1,1],
     [0,0,1,1,1,0,1,0,0,1,1,1],
     [0,1,0,0,0,1,1,1,1,1,1,1],
     [0,1,0,0,0,1,1,0,1,1,1,1],
     [0,1,0,0,0,1,1,1,1,1,1,1],
     [1,0,1,1,1,0,0,0,0,1,1,1],
     [1,1,1,1,1,0,0,1,1,0,0,0],
     [1,0,1,0,1,0,1,0,0,1,1,1],
     [1,0,1,1,1,0,1,0,0,1,0,1],
     [1,1,1,1,1,1,0,1,1,0,0,0],
     [1,1,1,1,1,1,0,1,0,0,0,0],
     [1,1,1,1,1,1,0,1,1,0,0,0]], [
    [[[1,0,0,0,1,1,0,0,0,0,0,0,0,0,0,0,-1,0,0,-1,0,0]], [[3,0,0,0,0,0,0,0,0,0,0,0,0,0,0,0,1,0,0,0,0,0],[-1,0,0,0,-1,-1,0,0,0,0,0,0,1,0,0,0,1,0,0,0,0,0],[5,0,0,0,1,0,0,0,0,0,0,0,0,0,0,0,0,0,0,0,0,0]], 0],
    [[[4,0,0,0,1,1,0,0,0,0,0,0,0,0,0,0,0,0,0,-1,0,0]], [[-3,0,0,0,0,0,0,0,0,0,0,0,0,0,0,0,-1,0,0,0,0,0],[5,0,0,0,0,0,0,0,0,0,0,0,0,0,0,0,1,0,0,0,0,0],[5,0,0,0,1,0,0,0,0,0,0,0,0,0,0,0,0,0,0,0,0,0],[-1,0,0,0,-1,-1,0,0,0,0,0,0,1,0,0,0,1,0,0,0,0,0]], 1],
    [[[1,0,0,0,1,1,0,0,0,0,0,0,-1,0,0,0,-1,0,0,0,0,0]], [[0,0,0,0,0,0,0,0,0,0,0,0,-1,0,0,0,0,0,0,1,0,0],[5,0,0,0,1,0,0,0,0,0,0,0,0,0,0,0,0,0,0,0,0,0],[4,0,0,0,1,1,0,0,0,0,0,0,-1,0,0,0,0,0,0,0,0,0]], 3],
    [[[-4,0,0,0,0,1,0,0,0,0,0,0,0,0,0,0,-1,0,0,-1,0,0]], [[-5,0,0,0,-1,0,0,0,0,0,0,0,0,0,0,0,0,0,0,0,0,0],[3,0,0,0,0,0,0,0,0,0,0,0,0,0,0,0,1,0,0,0,0,0],[4,0,0,0,0,-1,0,0,0,0,0,0,1,0,0,0,1,0,0,0,0,0]], 6],
    [[[-4,0,0,0,0,1,0,0,0,0,0,0,-1,0,0,0,-1,0,0,0,0,0]], [[-1,0,0,0,0,1,0,0,0,0,0,0,-1,0,0,0,0,0,0,0,0,0],[-5,0,0,0,-1,0,0,0,0,0,0,0,0,0,0,0,0,0,0,0,0,0],[0,0,0,0,0,0,0,0,0,0,0,0,-1,0,0,0,0,0,0,1,0,0]], 7],
    [[[1,0,0,0,1,1,0,0,0,0,0,0,-1,0,0,0,-1,0,0,0,0,0]], [[-4,0,0,0,-1,-1,0,0,0,0,0,0,0,0,0,0,0,0,0,1,0,0],[6,0,0,0,1,1,0,0,0,0,0,0,-1,0,0,0,0,0,0,0,0,0],[-4,0,0,0,-1,-1,0,0,0,0,0,0,1,0,0,0,0,0,0,0,0,0],[5,0,0,0,1,0,0,0,0,0,0,0,0,0,0,0,0,0,0,0,0,0]], 9],
    [[[6,0,0,0,1,1,0,0,0,0,0,0,-1,0,0,0,0,0,0,0,0,0]], [[-5,0,0,0,0,0,0,0,0,0,0,0,0,0,0,0,-1,0,0,0,0,0],[-4,0,0,0,-1,-1,0,0,0,0,0,0,0,0,0,0,0,0,0,1,0,0],[5,0,0,0,1,0,0,0,0,0,0,0,0,0,0,0,0,0,0,0,0,0]], 10],
    [[[-1,0,0,0,0,1,0,0,0,0,0,0,0,0,0,0,0,0,0,-1,0,0]], [[-5,0,0,0,-1,0,0,0,0,0,0,0,0,0,0,0,0,0,0,0,0,0],[-3,0,0,0,0,0,0,0,0,0,0,0,0,0,0,0,-1,0,0,0,0,0],[4,0,0,0,0,-1,0,0,0,0,0,0,1,0,0,0,1,0,0,0,0,0],[5,0,0,0,0,0,0,0,0,0,0,0,0,0,0,0,1,0,0,0,0,0]], 12],
    [[[-4,0,0,0,0,1,0,0,0,0,0,0,-1,0,0,0,-1,0,0,0,0,0]], [[1,0,0,0,0,1,0,0,0,0,0,0,-1,0,0,0,0,0,0,0,0,0],[1,0,0,0,0,-1,0,0,0,0,0,0,1,0,0,0,0,0,0,0,0,0],[1,0,0,0,0,-1,0,0,0,0,0,0,0,0,0,0,0,0,0,1,0,0],[-5,0,0,0,-1,0,0,0,0,0,0,0,0,0,0,0,0,0,0,0,0,0]], 14],
    [[[4,0,0,0,1,1,0,0,0,0,0,0,0,0,0,0,0,0,0,-1,0,0]], [[-5,0,0,0,0,0,0,0,0,0,0,0,0,0,0,0,-1,0,0,0,0,0],[5,0,0,0,1,0,0,0,0,0,0,0,0,0,0,0,0,0,0,0,0,0],[-6,0,0,0,-1,-1,0,0,0,0,0,0,1,0,0,0,0,0,0,0,0,0]], 16],
    [[[1,0,0,0,0,1,0,0,0,0,0,0,-1,0,0,0,0,0,0,0,0,0]], [[-5,0,0,0,0,0,0,0,0,0,0,0,0,0,0,0,-1,0,0,0,0,0],[1,0,0,0,0,-1,0,0,0,0,0,0,0,0,0,0,0,0,0,1,0,0],[-5,0,0,0,-1,0,0,0,0,0,0,0,0,0,0,0,0,0,0,0,0,0]], 18],
    [[[-1,0,0,0,0,1,0,0,0,0,0,0,0,0,0,0,0,0,0,-1,0,0]], [[-5,0,0,0,-1,0,0,0,0,0,0,0,0,0,0,0,0,0,0,0,0,0],[-1,0,0,0,0,-1,0,0,0,0,0,0,1,0,0,0,0,0,0,0,0,0],[-5,0,0,0,0,0,0,0,0,0,0,0,0,0,0,0,-1,0,0,0,0,0]], 19]
  ]],
  ["#3",
    [[0,0,0,1],
     [0,0,1,0],
     [0,1,0,0],
     [1,0,0,0]], [
    [[[0,0,0,1,0,-1,0,0,0,0,0,0,0,0,0,1,0,0,-1,0,0,0]], [[4,0,0,0,0,0,0,0,0,0,0,0,0,0,0,1,0,0,0,0,0,0],[6,0,0,0,0,1,0,0,0,0,0,0,0,0,0,0,0,0,0,0,0,0]], 0],
    [[[6,0,0,1,0,0,0,0,0,0,0,0,0,0,0,1,0,0,-1,0,0,0]], [[4,0,0,0,0,0,0,0,0,0,0,0,0,0,0,1,0,0,0,0,0,0],[-6,0,0,0,0,-1,0,0,0,0,0,0,0,0,0,0,0,0,0,0,0,0]], 1],
    [[[-4,0,0,1,0,-1,0,0,0,0,0,0,0,0,0,0,0,0,-1,0,0,0]], [[-4,0,0,0,0,0,0,0,0,0,0,0,0,0,0,-1,0,0,0,0,0,0],[6,0,0,0,0,1,0,0,0,0,0,0,0,0,0,0,0,0,0,0,0,0]], 2],
    [[[2,0,0,1,0,0,0,0,0,0,0,0,0,0,0,0,0,0,-1,0,0,0]], [[-4,0,0,0,0,0,0,0,0,0,0,0,0,0,0,-1,0,0,0,0,0,0],[-6,0,0,0,0,-1,0,0,0,0,0,0,0,0,0,0,0,0,0,0,0,0]], 3]
  ]],
  ["#4",
    [[0,0,0,1],
     [0,0,1,0],
     [0,1,0,0],
     [1,0,0,0]], [
    [[[1,0,0,0,0,0,1,0,0,0,0,0,0,0,1,0,-1,-1,0,0,0,0]], [[5,0,0,0,0,0,1,0,0,0,0,0,0,0,0,0,0,0,0,0,0,0],[7,0,0,0,0,0,1,0,0,0,0,0,0,0,1,0,-1,0,0,0,0,0]], 0],
    [[[7,0,0,0,0,0,1,0,0,0,0,0,0,0,1,0,-1,0,0,0,0,0]], [[5,0,0,0,0,0,1,0,0,0,0,0,0,0,0,0,0,0,0,0,0,0],[-6,0,0,0,0,0,0,0,0,0,0,0,0,0,0,0,0,-1,0,0,0,0]], 1],
    [[[-4,0,0,0,0,0,0,0,0,0,0,0,0,0,1,0,-1,-1,0,0,0,0]], [[-5,0,0,0,0,0,-1,0,0,0,0,0,0,0,0,0,0,0,0,0,0,0],[2,0,0,0,0,0,0,0,0,0,0,0,0,0,1,0,-1,0,0,0,0,0]], 2],
    [[[2,0,0,0,0,0,0,0,0,0,0,0,0,0,1,0,-1,0,0,0,0,0]], [[-5,0,0,0,0,0,-1,0,0,0,0,0,0,0,0,0,0,0,0,0,0,0],[-6,0,0,0,0,0,0,0,0,0,0,0,0,0,0,0,0,-1,0,0,0,0]], 3]
  ]],
  ["#5",
    [[0,0,0,1],
     [0,0,1,0],
     [0,1,0,0],
     [1,0,0,0]], [
    [[[0,0,0,0,0,0,1,1,-1,0,0,0,0,0,-1,0,0,0,0,0,0,0]], [[6,0,0,0,0,0,0,1,0,0,0,0,0,0,0,0,0,0,0,0,0,0],[6,0,0,0,0,0,0,0,1,0,0,0,0,0,0,0,0,0,0,0,0,0]], 0],
    [[[6,0,0,0,0,0,1,1,0,0,0,0,0,0,-1,0,0,0,0,0,0,0]], [[6,0,0,0,0,0,0,1,0,0,0,0,0,0,0,0,0,0,0,0,0,0],[-6,0,0,0,0,0,0,0,-1,0,0,0,0,0,0,0,0,0,0,0,0,0]], 1],
    [[[-6,0,0,0,0,0,1,0,-1,0,0,0,0,0,-1,0,0,0,0,0,0,0]], [[-6,0,0,0,0,0,0,-1,0,0,0,0,0,0,0,0,0,0,0,0,0,0],[6,0,0,0,0,0,0,0,1,0,0,0,0,0,0,0,0,0,0,0,0,0]], 2],
    [[[0,0,0,0,0,0,1,0,0,0,0,0,0,0,-1,0,0,0,0,0,0,0]], [[-6,0,0,0,0,0,0,-1,0,0,0,0,0,0,0,0,0,0,0,0,0,0],[-6,0,0,0,0,0,0,0,-1,0,0,0,0,0,0,0,0,0,0,0,0,0]], 3]
  ]],
  ["#6",
    [[0,0,0,1],
     [0,0,1,0],
     [0,1,0,0],
     [1,0,0,0]], [
    [[[0,0,0,0,0,0,1,1,-1,0,0,0,0,0,-1,0,0,0,0,0,0,0]], [[6,0,0,0,0,0,0,1,0,0,0,0,0,0,0,0,0,0,0,0,0,0],[6,0,0,0,0,0,0,0,1,0,0,0,0,0,0,0,0,0,0,0,0,0]], 0],
    [[[6,0,0,0,0,0,1,1,0,0,0,0,0,0,-1,0,0,0,0,0,0,0]], [[6,0,0,0,0,0,0,1,0,0,0,0,0,0,0,0,0,0,0,0,0,0],[-6,0,0,0,0,0,0,0,-1,0,0,0,0,0,0,0,0,0,0,0,0,0]], 1],
    [[[-6,0,0,0,0,0,1,0,-1,0,0,0,0,0,-1,0,0,0,0,0,0,0]], [[-6,0,0,0,0,0,0,-1,0,0,0,0,0,0,0,0,0,0,0,0,0,0],[6,0,0,0,0,0,0,0,1,0,0,0,0,0,0,0,0,0,0,0,0,0]], 2],
    [[[0,0,0,0,0,0,1,0,0,0,0,0,0,0,-1,0,0,0,0,0,0,0]], [[-6,0,0,0,0,0,0,-1,0,0,0,0,0,0,0,0,0,0,0,0,0,0],[-6,0,0,0,0,0,0,0,-1,0,0,0,0,0,0,0,0,0,0,0,0,0]], 3]
  ]],
  ["#7",
    [[0,0,0,1,1,1],
     [0,0,0,1,1,1],
     [0,0,0,1,1,1],
     [1,1,1,0,0,0],
     [1,1,1,0,0,0],
     [1,1,1,0,0,0]], [
    [[[2,0,0,0,0,0,0,0,0,1,1,-1,0,0,0,0,0,0,0,0,0,0]], [[5,0,0,0,0,0,0,0,0,0,1,0,0,0,0,0,0,0,0,0,0,0],[2,0,0,0,0,1,0,0,0,-1,0,0,0,0,0,0,0,0,0,0,0,0],[0,2,0,0,0,0,0,0,0,-1,0,0,0,0,0,0,0,0,0,0,0,0]], 0],
    [[[2,2,0,0,0,0,0,0,0,0,1,-1,0,0,0,0,0,0,0,0,0,0]], [[5,0,0,0,0,0,0,0,0,0,1,0,0,0,0,0,0,0,0,0,0,0],[0,-2,0,0,0,0,0,0,0,1,0,0,0,0,0,0,0,0,0,0,0,0],[2,-2,0,0,0,1,0,0,0,0,0,0,0,0,0,0,0,0,0,0,0,0]], 1],
    [[[4,0,0,0,0,1,0,0,0,0,1,-1,0,0,0,0,0,0,0,0,0,0]], [[5,0,0,0,0,0,0,0,0,0,1,0,0,0,0,0,0,0,0,0,0,0],[-2,0,0,0,0,-1,0,0,0,1,0,0,0,0,0,0,0,0,0,0,0,0],[-2,2,0,0,0,-1,0,0,0,0,0,0,0,0,0,0,0,0,0,0,0,0]], 2],
    [[[-3,0,0,0,0,0,0,0,0,1,0,-1,0,0,0,0,0,0,0,0,0,0]], [[-5,0,0,0,0,0,0,0,0,0,-1,0,0,0,0,0,0,0,0,0,0,0],[0,2,0,0,0,0,0,0,0,-1,0,0,0,0,0,0,0,0,0,0,0,0],[2,0,0,0,0,1,0,0,0,-1,0,0,0,0,0,0,0,0,0,0,0,0]], 33],
    [[[-3,2,0,0,0,0,0,0,0,0,0,-1,0,0,0,0,0,0,0,0,0,0]], [[-5,0,0,0,0,0,0,0,0,0,-1,0,0,0,0,0,0,0,0,0,0,0],[2,-2,0,0,0,1,0,0,0,0,0,0,0,0,0,0,0,0,0,0,0,0],[0,-2,0,0,0,0,0,0,0,1,0,0,0,0,0,0,0,0,0,0,0,0]], 34],
    [[[-1,0,0,0,0,1,0,0,0,0,0,-1,0,0,0,0,0,0,0,0,0,0]], [[-5,0,0,0,0,0,0,0,0,0,-1,0,0,0,0,0,0,0,0,0,0,0],[-2,2,0,0,0,-1,0,0,0,0,0,0,0,0,0,0,0,0,0,0,0,0],[-2,0,0,0,0,-1,0,0,0,1,0,0,0,0,0,0,0,0,0,0,0,0]], 35]
  ]],
  ["#8",
    [[0,0,0,1,1,1],
     [0,0,0,1,1,1],
     [0,0,0,1,1,1],
     [1,1,1,0,0,0],
     [1,1,1,0,0,0],
     [1,1,1,0,0,0]], [
    [[[2,0,0,0,0,0,0,0,0,1,1,-1,0,0,0,0,0,0,0,0,0,0]], [[5,0,0,0,0,0,0,0,0,0,1,0,0,0,0,0,0,0,0,0,0,0],[2,0,0,0,0,1,0,0,0,-1,0,0,0,0,0,0,0,0,0,0,0,0],[0,2,0,0,0,0,0,0,0,-1,0,0,0,0,0,0,0,0,0,0,0,0]], 0],
    [[[2,2,0,0,0,0,0,0,0,0,1,-1,0,0,0,0,0,0,0,0,0,0]], [[5,0,0,0,0,0,0,0,0,0,1,0,0,0,0,0,0,0,0,0,0,0],[0,-2,0,0,0,0,0,0,0,1,0,0,0,0,0,0,0,0,0,0,0,0],[2,-2,0,0,0,1,0,0,0,0,0,0,0,0,0,0,0,0,0,0,0,0]], 1],
    [[[4,0,0,0,0,1,0,0,0,0,1,-1,0,0,0,0,0,0,0,0,0,0]], [[5,0,0,0,0,0,0,0,0,0,1,0,0,0,0,0,0,0,0,0,0,0],[-2,0,0,0,0,-1,0,0,0,1,0,0,0,0,0,0,0,0,0,0,0,0],[-2,2,0,0,0,-1,0,0,0,0,0,0,0,0,0,0,0,0,0,0,0,0]], 2],
    [[[-3,0,0,0,0,0,0,0,0,1,0,-1,0,0,0,0,0,0,0,0,0,0]], [[-5,0,0,0,0,0,0,0,0,0,-1,0,0,0,0,0,0,0,0,0,0,0],[0,2,0,0,0,0,0,0,0,-1,0,0,0,0,0,0,0,0,0,0,0,0],[2,0,0,0,0,1,0,0,0,-1,0,0,0,0,0,0,0,0,0,0,0,0]], 33],
    [[[-3,2,0,0,0,0,0,0,0,0,0,-1,0,0,0,0,0,0,0,0,0,0]], [[-5,0,0,0,0,0,0,0,0,0,-1,0,0,0,0,0,0,0,0,0,0,0],[2,-2,0,0,0,1,0,0,0,0,0,0,0,0,0,0,0,0,0,0,0,0],[0,-2,0,0,0,0,0,0,0,1,0,0,0,0,0,0,0,0,0,0,0,0]], 34],
    [[[-1,0,0,0,0,1,0,0,0,0,0,-1,0,0,0,0,0,0,0,0,0,0]], [[-5,0,0,0,0,0,0,0,0,0,-1,0,0,0,0,0,0,0,0,0,0,0],[-2,2,0,0,0,-1,0,0,0,0,0,0,0,0,0,0,0,0,0,0,0,0],[-2,0,0,0,0,-1,0,0,0,1,0,0,0,0,0,0,0,0,0,0,0,0]], 35]
  ]],
  ["#9",
    [[0,0],
     [0,0]], [
    [[[5,0,0,0,0,0,0,0,0,0,0,1,-1,1,0,0,0,0,0,0,0,0]], [[1,0,0,0,0,0,0,0,0,0,0,-1,1,0,0,0,0,0,0,0,0,0]], 0],
    [[[-1,0,0,0,0,0,0,0,0,0,0,1,-1,0,0,0,0,0,0,0,0,0]], [[-6,0,0,0,0,0,0,0,0,0,0,0,0,-1,0,0,0,0,0,0,0,0]], 1]
  ]],
  ["#10",
    [[0,0],
     [0,0]], [
    [[[5,0,0,0,0,0,0,0,0,0,0,1,-1,1,0,0,0,0,0,0,0,0]], [[1,0,0,0,0,0,0,0,0,0,0,-1,1,0,0,0,0,0,0,0,0,0]], 0],
    [[[-1,0,0,0,0,0,0,0,0,0,0,1,-1,0,0,0,0,0,0,0,0,0]], [[-6,0,0,0,0,0,0,0,0,0,0,0,0,-1,0,0,0,0,0,0,0,0]], 1]
  ]],
  ["#11",
    [[0,0,0,1],
     [0,0,1,0],
     [0,1,0,0],
     [1,0,0,0]], [
    [[[0,0,0,1,0,-1,0,0,0,0,0,0,0,0,0,1,0,0,-1,0,0,0]], [[4,0,0,0,0,0,0,0,0,0,0,0,0,0,0,1,0,0,0,0,0,0],[6,0,0,0,0,1,0,0,0,0,0,0,0,0,0,0,0,0,0,0,0,0]], 0],
    [[[6,0,0,1,0,0,0,0,0,0,0,0,0,0,0,1,0,0,-1,0,0,0]], [[4,0,0,0,0,0,0,0,0,0,0,0,0,0,0,1,0,0,0,0,0,0],[-6,0,0,0,0,-1,0,0,0,0,0,0,0,0,0,0,0,0,0,0,0,0]], 1],
    [[[-4,0,0,1,0,-1,0,0,0,0,0,0,0,0,0,0,0,0,-1,0,0,0]], [[-4,0,0,0,0,0,0,0,0,0,0,0,0,0,0,-1,0,0,0,0,0,0],[6,0,0,0,0,1,0,0,0,0,0,0,0,0,0,0,0,0,0,0,0,0]], 2],
    [[[2,0,0,1,0,0,0,0,0,0,0,0,0,0,0,0,0,0,-1,0,0,0]], [[-4,0,0,0,0,0,0,0,0,0,0,0,0,0,0,-1,0,0,0,0,0,0],[-6,0,0,0,0,-1,0,0,0,0,0,0,0,0,0,0,0,0,0,0,0,0]], 3]
  ]],
  ["#12",
    [[0,0,0,0,0,1,1,1,1,1,1,1],
     [0,0,1,1,1,0,1,0,0,1,1,1],
     [0,1,0,0,0,1,1,1,1,1,1,1],
     [0,1,0,0,0,1,1,0,1,1,1,1],
     [0,1,0,0,0,1,1,1,1,1,1,1],
     [1,0,1,1,1,0,0,0,0,1,1,1],
     [1,1,1,1,1,0,0,1,1,0,0,0],
     [1,0,1,0,1,0,1,0,0,1,1,1],
     [1,0,1,1,1,0,1,0,0,1,0,1],
     [1,1,1,1,1,1,0,1,1,0,0,0],
     [1,1,1,1,1,1,0,1,0,0,0,0],
     [1,1,1,1,1,1,0,1,1,0,0,0]], [
    [[[1,0,0,0,1,1,0,0,0,0,0,0,0,0,0,0,-1,0,0,-1,0,0]], [[3,0,0,0,0,0,0,0,0,0,0,0,0,0,0,0,1,0,0,0,0,0],[-1,0,0,0,-1,-1,0,0,0,0,0,0,1,0,0,0,1,0,0,0,0,0],[5,0,0,0,1,0,0,0,0,0,0,0,0,0,0,0,0,0,0,0,0,0]], 0],
    [[[4,0,0,0,1,1,0,0,0,0,0,0,0,0,0,0,0,0,0,-1,0,0]], [[-3,0,0,0,0,0,0,0,0,0,0,0,0,0,0,0,-1,0,0,0,0,0],[5,0,0,0,0,0,0,0,0,0,0,0,0,0,0,0,1,0,0,0,0,0],[5,0,0,0,1,0,0,0,0,0,0,0,0,0,0,0,0,0,0,0,0,0],[-1,0,0,0,-1,-1,0,0,0,0,0,0,1,0,0,0,1,0,0,0,0,0]], 1],
    [[[1,0,0,0,1,1,0,0,0,0,0,0,-1,0,0,0,-1,0,0,0,0,0]], [[0,0,0,0,0,0,0,0,0,0,0,0,-1,0,0,0,0,0,0,1,0,0],[5,0,0,0,1,0,0,0,0,0,0,0,0,0,0,0,0,0,0,0,0,0],[4,0,0,0,1,1,0,0,0,0,0,0,-1,0,0,0,0,0,0,0,0,0]], 3],
    [[[-4,0,0,0,0,1,0,0,0,0,0,0,0,0,0,0,-1,0,0,-1,0,0]], [[-5,0,0,0,-1,0,0,0,0,0,0,0,0,0,0,0,0,0,0,0,0,0],[3,0,0,0,0,0,0,0,0,0,0,0,0,0,0,0,1,0,0,0,0,0],[4,0,0,0,0,-1,0,0,0,0,0,0,1,0,0,0,1,0,0,0,0,0]], 6],
    [[[-4,0,0,0,0,1,0,0,0,0,0,0,-1,0,0,0,-1,0,0,0,0,0]], [[-1,0,0,0,0,1,0,0,0,0,0,0,-1,0,0,0,0,0,0,0,0,0],[-5,0,0,0,-1,0,0,0,0,0,0,0,0,0,0,0,0,0,0,0,0,0],[0,0,0,0,0,0,0,0,0,0,0,0,-1,0,0,0,0,0,0,1,0,0]], 7],
    [[[1,0,0,0,1,1,0,0,0,0,0,0,-1,0,0,0,-1,0,0,0,0,0]], [[-4,0,0,0,-1,-1,0,0,0,0,0,0,0,0,0,0,0,0,0,1,0,0],[6,0,0,0,1,1,0,0,0,0,0,0,-1,0,0,0,0,0,0,0,0,0],[-4,0,0,0,-1,-1,0,0,0,0,0,0,1,0,0,0,0,0,0,0,0,0],[5,0,0,0,1,0,0,0,0,0,0,0,0,0,0,0,0,0,0,0,0,0]], 9],
    [[[6,0,0,0,1,1,0,0,0,0,0,0,-1,0,0,0,0,0,0,0,0,0]], [[-5,0,0,0,0,0,0,0,0,0,0,0,0,0,0,0,-1,0,0,0,0,0],[-4,0,0,0,-1,-1,0,0,0,0,0,0,0,0,0,0,0,0,0,1,0,0],[5,0,0,0,1,0,0,0,0,0,0,0,0,0,0,0,0,0,0,0,0,0]], 10],
    [[[-1,0,0,0,0,1,0,0,0,0,0,0,0,0,0,0,0,0,0,-1,0,0]], [[-5,0,0,0,-1,0,0,0,0,0,0,0,0,0,0,0,0,0,0,0,0,0],[-3,0,0,0,0,0,0,0,0,0,0,0,0,0,0,0,-1,0,0,0,0,0],[4,0,0,0,0,-1,0,0,0,0,0,0,1,0,0,0,1,0,0,0,0,0],[5,0,0,0,0,0,0,0,0,0,0,0,0,0,0,0,1,0,0,0,0,0]], 12],
    [[[-4,0,0,0,0,1,0,0,0,0,0,0,-1,0,0,0,-1,0,0,0,0,0]], [[1,0,0,0,0,1,0,0,0,0,0,0,-1,0,0,0,0,0,0,0,0,0],[1,0,0,0,0,-1,0,0,0,0,0,0,1,0,0,0,0,0,0,0,0,0],[1,0,0,0,0,-1,0,0,0,0,0,0,0,0,0,0,0,0,0,1,0,0],[-5,0,0,0,-1,0,0,0,0,0,0,0,0,0,0,0,0,0,0,0,0,0]], 14],
    [[[4,0,0,0,1,1,0,0,0,0,0,0,0,0,0,0,0,0,0,-1,0,0]], [[-5,0,0,0,0,0,0,0,0,0,0,0,0,0,0,0,-1,0,0,0,0,0],[5,0,0,0,1,0,0,0,0,0,0,0,0,0,0,0,0,0,0,0,0,0],[-6,0,0,0,-1,-1,0,0,0,0,0,0,1,0,0,0,0,0,0,0,0,0]], 16],
    [[[1,0,0,0,0,1,0,0,0,0,0,0,-1,0,0,0,0,0,0,0,0,0]], [[-5,0,0,0,0,0,0,0,0,0,0,0,0,0,0,0,-1,0,0,0,0,0],[1,0,0,0,0,-1,0,0,0,0,0,0,0,0,0,0,0,0,0,1,0,0],[-5,0,0,0,-1,0,0,0,0,0,0,0,0,0,0,0,0,0,0,0,0,0]], 18],
    [[[-1,0,0,0,0,1,0,0,0,0,0,0,0,0,0,0,0,0,0,-1,0,0]], [[-5,0,0,0,-1,0,0,0,0,0,0,0,0,0,0,0,0,0,0,0,0,0],[-1,0,0,0,0,-1,0,0,0,0,0,0,1,0,0,0,0,0,0,0,0,0],[-5,0,0,0,0,0,0,0,0,0,0,0,0,0,0,0,-1,0,0,0,0,0]], 19]
  ]],
  ["#13",
    [[0,0,0,1],
     [0,0,1,0],
     [0,1,0,0],
     [1,0,0,0]], [
    [[[1,0,0,0,0,0,1,0,0,0,0,0,0,0,1,0,-1,-1,0,0,0,0]], [[5,0,0,0,0,0,1,0,0,0,0,0,0,0,0,0,0,0,0,0,0,0],[7,0,0,0,0,0,1,0,0,0,0,0,0,0,1,0,-1,0,0,0,0,0]], 0],
    [[[7,0,0,0,0,0,1,0,0,0,0,0,0,0,1,0,-1,0,0,0,0,0]], [[5,0,0,0,0,0,1,0,0,0,0,0,0,0,0,0,0,0,0,0,0,0],[-6,0,0,0,0,0,0,0,0,0,0,0,0,0,0,0,0,-1,0,0,0,0]], 1],
    [[[-4,0,0,0,0,0,0,0,0,0,0,0,0,0,1,0,-1,-1,0,0,0,0]], [[-5,0,0,0,0,0,-1,0,0,0,0,0,0,0,0,0,0,0,0,0,0,0],[2,0,0,0,0,0,0,0,0,0,0,0,0,0,1,0,-1,0,0,0,0,0]], 2],
    [[[2,0,0,0,0,0,0,0,0,0,0,0,0,0,1,0,-1,0,0,0,0,0]], [[-5,0,0,0,0,0,-1,0,0,0,0,0,0,0,0,0,0,0,0,0,0,0],[-6,0,0,0,0,0,0,0,0,0,0,0,0,0,0,0,0,-1,0,0,0,0]], 3]
  ]],
  ["#14",
    [[0,0],
     [0,0]], [
    [[[6,0,0,0,0,0,0,0,1,0,0,0,0,0,0,0,0,0,0,0,1,-1]], [[6,0,0,0,0,0,0,0,0,0,0,0,0,0,0,0,0,0,0,0,1,0]], 0],
    [[[0,0,0,0,0,0,0,0,1,0,0,0,0,0,0,0,0,0,0,0,0,-1]], [[-6,0,0,0,0,0,0,0,0,0,0,0,0,0,0,0,0,0,0,0,-1,0]], 1]
  ]],
  ["#15",
    [[0,0],
     [0,0]], [
    [[[6,0,0,0,0,0,0,0,1,0,0,0,0,0,0,0,0,0,0,0,1,-1]], [[6,0,0,0,0,0,0,0,0,0,0,0,0,0,0,0,0,0,0,0,1,0]], 0],
    [[[0,0,0,0,0,0,0,0,1,0,0,0,0,0,0,0,0,0,0,0,0,-1]], [[-6,0,0,0,0,0,0,0,0,0,0,0,0,0,0,0,0,0,0,0,-1,0]], 1]
  ]],
  ["#16",
    [[0,0],
     [0,0]], [
    [[[5,0,0,0,0,0,0,0,0,0,0,0,0,0,0,0,0,0,0,0,0,1]], [[5,0,0,0,0,0,0,0,0,0,0,0,0,0,0,0,0,0,0,0,1,0]], 0],
    [[[5,0,0,0,0,0,0,0,0,0,0,0,0,0,0,0,0,0,0,0,1,0]], [[5,0,0,0,0,0,0,0,0,0,0,0,0,0,0,0,0,0,0,0,0,1]], 1]
  ]],
  ["#17",
    [[0]], [
    [[[5,0,0,0,0,0,0,0,0,0,0,0,0,0,0,0,0,0,0,1,0,0]], [], 0]
  ]],
  ["#18",
    [[0]], [
    [[[5,0,0,0,0,0,0,0,0,0,0,0,0,0,0,0,0,0,1,0,0,0]], [], 0]
  ]],
  ["#19",
    [[0]], [
    [[[5,0,0,0,0,0,0,0,0,0,0,0,0,0,1,0,0,0,0,0,0,0]], [], 0]
  ]],
  ["#20",
    [[0,0],
     [0,0]], [
    [[[6,0,0,0,0,0,0,0,0,0,0,0,0,1,0,0,0,0,0,0,0,0]], [[6,0,0,0,0,0,0,0,0,0,0,0,1,0,0,0,0,0,0,0,0,0]], 0],
    [[[6,0,0,0,0,0,0,0,0,0,0,0,1,0,0,0,0,0,0,0,0,0]], [[6,0,0,0,0,0,0,0,0,0,0,0,0,1,0,0,0,0,0,0,0,0]], 1]
  ]],
  ["#21",
    [[0,0],
     [0,0]], [
    [[[5,0,0,0,0,0,0,0,0,0,0,1,0,0,0,0,0,0,0,0,0,0]], [[5,0,0,0,0,0,0,0,0,0,1,0,0,0,0,0,0,0,0,0,0,0]], 0],
    [[[5,0,0,0,0,0,0,0,0,0,1,0,0,0,0,0,0,0,0,0,0,0]], [[5,0,0,0,0,0,0,0,0,0,0,1,0,0,0,0,0,0,0,0,0,0]], 1]
  ]],
  ["#22",
    [[0,0],
     [0,0]], [
    [[[6,0,0,0,0,0,0,0,1,0,0,0,0,0,0,0,0,0,0,0,0,0]], [[6,0,0,0,0,0,0,1,0,0,0,0,0,0,0,0,0,0,0,0,0,0]], 0],
    [[[6,0,0,0,0,0,0,1,0,0,0,0,0,0,0,0,0,0,0,0,0,0]], [[6,0,0,0,0,0,0,0,1,0,0,0,0,0,0,0,0,0,0,0,0,0]], 1]
  ]],
  ["#23",
    [[0,0],
     [0,0]], [
    [[[6,0,0,0,0,0,0,0,0,0,0,0,0,0,0,0,0,1,0,0,0,0]], [[6,0,0,0,0,0,1,0,0,0,0,0,0,0,0,0,0,0,0,0,0,0]], 0],
    [[[6,0,0,0,0,0,1,0,0,0,0,0,0,0,0,0,0,0,0,0,0,0]], [[6,0,0,0,0,0,0,0,0,0,0,0,0,0,0,0,0,1,0,0,0,0]], 1]
  ]],
  ["#24",
    [[0,0],
     [0,0]], [
    [[[5,0,0,0,0,0,0,0,0,0,0,0,0,0,0,1,0,0,0,0,0,0]], [[5,0,0,0,0,1,0,0,0,0,0,0,0,0,0,0,0,0,0,0,0,0]], 0],
    [[[5,0,0,0,0,1,0,0,0,0,0,0,0,0,0,0,0,0,0,0,0,0]], [[5,0,0,0,0,0,0,0,0,0,0,0,0,0,0,1,0,0,0,0,0,0]], 1]
  ]],
  ["#25",
    [[0,0],
     [0,0]], [
    [[[5,0,0,0,0,0,0,0,0,0,0,0,0,0,0,0,1,0,0,0,0,0]], [[5,0,0,0,1,0,0,0,0,0,0,0,0,0,0,0,0,0,0,0,0,0]], 0],
    [[[5,0,0,0,1,0,0,0,0,0,0,0,0,0,0,0,0,0,0,0,0,0]], [[5,0,0,0,0,0,0,0,0,0,0,0,0,0,0,0,1,0,0,0,0,0]], 1]
  ]],
  ["#26",
    [[0,0],
     [0,0]], [
    [[[5,0,0,1,0,0,0,0,0,0,0,0,0,0,0,0,0,0,0,0,0,0]], [[5,0,1,0,0,0,0,0,0,0,0,0,0,0,0,0,0,0,0,0,0,0]], 0],
    [[[5,0,1,0,0,0,0,0,0,0,0,0,0,0,0,0,0,0,0,0,0,0]], [[5,0,0,1,0,0,0,0,0,0,0,0,0,0,0,0,0,0,0,0,0,0]], 1]
  ]]
]
