[
  ["#0",
    [[0,0,0,0,1,1],
     [0,0,0,1,0,1],
     [0,0,0,1,1,0],
     [0,1,1,0,0,0],
     [1,0,1,0,0,0],
     [1,1,0,0,0,0]], [
    [[[-1,1,-1,0,0,0,0,0,0]], [[1,0,0,0,0,0,0,0,1],[0,1,0,0,0,0,0,0,0]], 0],
    [[[-2,1,-1,0,0,0,0,0,-1]], [[1,-1,1,0,0,0,0,0,0],[1,0,1,0,0,0,0,0,0],[1,1,0,0,0,0,0,0,0]], 1],
    [[[3,0,1,0,0,0,0,0,1]], [[1,0,1,0,0,0,0,0,0],[-1,-1,0,0,0,0,0,0,0]], 2],
    [[[0,1,0,0,0,0,0,0,0]], [[1,0,0,0,0,0,0,0,1],[-1,0,-1,0,0,0,0,0,0]], 3],
    [[[-1,1,0,0,0,0,0,0,-1]], [[0,-1,0,0,0,0,0,0,0],[-1,0,-1,0,0,0,0,0,0],[1,1,0,0,0,0,0,0,0]], 4],
    [[[2,0,0,0,0,0,0,0,1]], [[-1,-1,0,0,0,0,0,0,0],[-1,0,-1,0,0,0,0,0,0]], 5]
  ]],
  ["#1",
    [[0,0,0,0,1,1],
     [0,0,0,1,0,1],
     [0,0,0,1,1,0],
     [0,1,1,0,0,0],
     [1,0,1,0,0,0],
     [1,1,0,0,0,0]], [
    [[[-1,1,-1,0,0,0,0,0,0]], [[1,0,0,0,0,0,0,0,1],[0,1,0,0,0,0,0,0,0]], 0],
    [[[-2,1,-1,0,0,0,0,0,-1]], [[1,-1,1,0,0,0,0,0,0],[1,0,1,0,0,0,0,0,0],[1,1,0,0,0,0,0,0,0]], 1],
    [[[3,0,1,0,0,0,0,0,1]], [[1,0,1,0,0,0,0,0,0],[-1,-1,0,0,0,0,0,0,0]], 2],
    [[[0,1,0,0,0,0,0,0,0]], [[1,0,0,0,0,0,0,0,1],[-1,0,-1,0,0,0,0,0,0]], 3],
    [[[-1,1,0,0,0,0,0,0,-1]], [[0,-1,0,0,0,0,0,0,0],[-1,0,-1,0,0,0,0,0,0],[1,1,0,0,0,0,0,0,0]], 4],
    [[[2,0,0,0,0,0,0,0,1]], [[-1,-1,0,0,0,0,0,0,0],[-1,0,-1,0,0,0,0,0,0]], 5]
  ]],
  ["#2",
    [[0,0,0,1],
     [0,0,1,0],
     [0,1,0,0],
     [1,0,0,0]], [
    [[[2,0,1,1,-1,0,0,0,0]], [[1,0,0,1,0,0,0,0,0],[3,0,1,1,0,0,0,0,0]], 0],
    [[[3,0,1,1,0,0,0,0,0]], [[-2,0,-1,0,0,0,0,0,0],[-1,0,0,0,-1,0,0,0,0]], 1],
    [[[1,0,1,0,-1,0,0,0,0]], [[-1,0,0,-1,0,0,0,0,0],[2,0,1,0,0,0,0,0,0]], 2],
    [[[2,0,1,0,0,0,0,0,0]], [[-1,0,0,-1,0,0,0,0,0],[-1,0,0,0,-1,0,0,0,0]], 3]
  ]],
  ["#3",
    [[0,0,0,0,0,1,1,1,1,1,1,1,1,1,1,1,1,1,1,1,1],
     [0,0,0,0,1,1,1,1,1,1,1,1,1,1,1,1,1,1,1,1,1],
     [0,0,0,0,1,1,1,1,1,1,1,1,1,0,1,1,1,1,1,1,1],
     [0,0,0,0,1,1,1,1,1,1,1,1,1,1,1,1,0,1,1,1,1],
     [0,1,1,1,0,1,1,1,0,1,1,1,1,0,0,1,1,1,1,1,1],
     [1,1,1,1,1,0,1,1,1,0,0,1,1,1,1,1,1,1,1,1,1],
     [1,1,1,1,1,1,0,0,0,1,1,1,1,1,1,1,1,1,1,1,1],
     [1,1,1,1,1,1,0,0,1,1,1,1,1,1,1,1,1,1,1,1,1],
     [1,1,1,1,0,1,0,1,0,1,1,1,1,0,0,1,1,1,1,1,1],
     [1,1,1,1,1,0,1,1,1,0,0,0,1,1,1,0,1,1,1,1,1],
     [1,1,1,1,1,0,1,1,1,0,0,1,1,1,1,1,1,1,1,0,1],
     [1,1,1,1,1,1,1,1,1,0,1,0,0,1,1,0,1,1,1,1,1],
     [1,1,1,1,1,1,1,1,1,1,1,0,0,1,1,1,1,0,1,1,0],
     [1,1,0,1,0,1,1,1,0,1,1,1,1,0,0,1,1,1,1,1,1],
     [1,1,1,1,0,1,1,1,0,1,1,1,1,0,0,1,1,1,1,1,1],
     [1,1,1,1,1,1,1,1,1,0,1,0,1,1,1,0,1,1,1,0,0],
     [1,1,1,0,1,1,1,1,1,1,1,1,1,1,1,1,0,1,0,1,1],
     [1,1,1,1,1,1,1,1,1,1,1,1,0,1,1,1,1,0,1,1,0],
     [1,1,1,1,1,1,1,1,1,1,1,1,1,1,1,1,0,1,0,1,1],
     [1,1,1,1,1,1,1,1,1,1,0,1,1,1,1,0,1,1,1,0,0],
     [1,1,1,1,1,1,1,1,1,1,1,1,0,1,1,0,1,0,1,0,0]], [
    [[[0,0,0,0,1,-1,0,0,0]], [[1,0,0,0,1,0,0,0,0],[1,0,0,1,0,0,0,0,0],[2,0,1,0,0,0,0,0,0],[2,0,1,1,-1,0,0,0,0]], 0],
    [[[1,0,0,0,1,0,0,0,0]], [[-1,0,0,0,0,-1,0,0,0],[1,0,0,1,0,0,0,0,0],[2,0,1,0,0,0,0,0,0]], 1],
    [[[2,0,1,0,1,-1,0,0,0]], [[-2,0,-1,0,0,0,0,0,0],[0,0,0,1,-1,0,0,0,0],[3,0,1,0,1,0,0,0,0]], 7],
    [[[3,0,1,0,1,0,0,0,0]], [[3,0,1,1,0,0,0,0,0],[-2,0,-1,0,0,0,0,0,0],[-1,0,0,0,0,-1,0,0,0]], 9],
    [[[2,0,1,1,-1,0,0,0,0]], [[-2,0,-1,-1,0,1,0,0,0],[2,0,1,0,0,0,0,0,0],[1,0,0,1,0,0,0,0,0]], 20],
    [[[1,0,0,0,0,1,0,0,0]], [[-1,0,0,0,-1,0,0,0,0],[2,0,1,0,0,0,0,0,0],[1,0,0,1,0,0,0,0,0]], 45],
    [[[0,0,0,0,1,-1,0,0,0]], [[-1,0,0,-1,0,0,0,0,0],[1,0,1,0,-1,0,0,0,0],[1,0,0,0,1,0,0,0,0]], 54],
    [[[1,0,0,0,1,0,0,0,0]], [[-1,0,0,-1,0,0,0,0,0],[2,0,1,0,0,0,0,0,0],[-1,0,0,0,0,-1,0,0,0]], 56],
    [[[1,0,1,0,-1,0,0,0,0]], [[2,0,1,0,0,0,0,0,0],[-1,0,0,-1,0,0,0,0,0],[-1,0,-1,0,0,1,0,0,0]], 69],
    [[[1,0,0,1,0,0,0,0,0]], [[2,0,1,0,0,0,0,0,0],[-1,0,0,0,-1,0,0,0,0],[-1,0,0,0,0,-1,0,0,0]], 80],
    [[[2,0,1,0,0,0,0,0,0]], [[1,0,0,1,0,0,0,0,0],[-1,0,0,0,-1,0,0,0,0],[-1,0,0,0,0,-1,0,0,0]], 85],
    [[[1,0,0,0,0,1,0,0,0]], [[2,0,1,0,0,0,0,0,0],[-1,0,0,-1,0,0,0,0,0],[-1,0,0,0,-1,0,0,0,0]], 102],
    [[[2,0,1,0,0,0,0,0,0]], [[1,0,0,0,0,1,0,0,0],[-1,0,0,0,-1,0,0,0,0],[-1,0,0,-1,0,0,0,0,0]], 106],
    [[[0,0,0,1,-1,0,0,0,0]], [[-2,0,-1,-1,0,1,0,0,0],[-2,0,-1,0,0,0,0,0,0],[1,0,0,1,0,0,0,0,0],[1,0,0,0,0,1,0,0,0]], 108],
    [[[1,0,0,0,1,0,0,0,0]], [[1,0,0,0,0,1,0,0,0],[-1,0,0,-1,0,0,0,0,0],[-2,0,-1,0,0,0,0,0,0]], 118],
    [[[2,0,1,0,0,0,0,0,0]], [[-1,0,0,0,0,-1,0,0,0],[-1,0,0,0,-1,0,0,0,0],[-1,0,0,-1,0,0,0,0,0]], 130],
    [[[0,0,0,1,-1,0,0,0,0]], [[-3,0,-1,-1,0,0,0,0,0],[1,0,0,1,0,0,0,0,0],[-1,0,0,0,0,-1,0,0,0]], 131],
    [[[1,0,0,1,0,0,0,0,0]], [[1,0,0,0,0,1,0,0,0],[-1,0,0,0,-1,0,0,0,0],[-2,0,-1,0,0,0,0,0,0]], 139],
    [[[1,0,0,0,1,0,0,0,0]], [[-1,0,0,0,0,-1,0,0,0],[-2,0,-1,0,0,0,0,0,0],[-1,0,0,-1,0,0,0,0,0]], 143],
    [[[1,0,0,1,0,0,0,0,0]], [[-1,0,0,0,0,-1,0,0,0],[-1,0,0,0,-1,0,0,0,0],[-2,0,-1,0,0,0,0,0,0]], 152],
    [[[1,0,0,0,0,1,0,0,0]], [[-1,0,0,0,-1,0,0,0,0],[-1,0,0,-1,0,0,0,0,0],[-2,0,-1,0,0,0,0,0,0]], 155]
  ]],
  ["#4",
    [[0,0,0,1],
     [0,0,1,0],
     [0,1,0,0],
     [1,0,0,0]], [
    [[[2,0,1,0,1,-1,0,0,0]], [[1,0,0,0,1,0,0,0,0],[3,0,1,0,1,0,0,0,0]], 0],
    [[[3,0,1,0,1,0,0,0,0]], [[-2,0,-1,0,0,0,0,0,0],[-1,0,0,0,0,-1,0,0,0]], 1],
    [[[1,0,1,0,0,-1,0,0,0]], [[-1,0,0,0,-1,0,0,0,0],[2,0,1,0,0,0,0,0,0]], 2],
    [[[2,0,1,0,0,0,0,0,0]], [[-1,0,0,0,-1,0,0,0,0],[-1,0,0,0,0,-1,0,0,0]], 3]
  ]],
  ["#5",
    [[0,0,0,1],
     [0,0,1,0],
     [0,1,0,0],
     [1,0,0,0]], [
    [[[2,0,0,0,0,1,1,-1,0]], [[1,0,0,0,0,0,1,0,0],[3,0,0,0,0,1,1,0,0]], 0],
    [[[3,0,0,0,0,1,1,0,0]], [[-2,0,0,0,0,-1,0,0,0],[-1,0,0,0,0,0,0,-1,0]], 1],
    [[[1,0,0,0,0,1,0,-1,0]], [[-1,0,0,0,0,0,-1,0,0],[2,0,0,0,0,1,0,0,0]], 2],
    [[[2,0,0,0,0,1,0,0,0]], [[-1,0,0,0,0,0,-1,0,0],[-1,0,0,0,0,0,0,-1,0]], 3]
  ]],
  ["#6",
    [[0,0,0,0,0,1,1,1,1,1,1,1,1,1,1,1,1,1,1,1,1],
     [0,0,0,0,1,1,1,1,1,1,1,1,1,1,1,1,1,1,1,1,1],
     [0,0,0,0,1,1,1,1,1,1,1,1,1,0,1,1,1,1,1,1,1],
     [0,0,0,0,1,1,1,1,1,1,1,1,1,1,1,1,0,1,1,1,1],
     [0,1,1,1,0,1,1,1,0,1,1,1,1,0,0,1,1,1,1,1,1],
     [1,1,1,1,1,0,1,1,1,0,0,1,1,1,1,1,1,1,1,1,1],
     [1,1,1,1,1,1,0,0,0,1,1,1,1,1,1,1,1,1,1,1,1],
     [1,1,1,1,1,1,0,0,1,1,1,1,1,1,1,1,1,1,1,1,1],
     [1,1,1,1,0,1,0,1,0,1,1,1,1,0,0,1,1,1,1,1,1],
     [1,1,1,1,1,0,1,1,1,0,0,0,1,1,1,0,1,1,1,1,1],
     [1,1,1,1,1,0,1,1,1,0,0,1,1,1,1,1,1,1,1,0,1],
     [1,1,1,1,1,1,1,1,1,0,1,0,0,1,1,0,1,1,1,1,1],
     [1,1,1,1,1,1,1,1,1,1,1,0,0,1,1,1,1,0,1,1,0],
     [1,1,0,1,0,1,1,1,0,1,1,1,1,0,0,1,1,1,1,1,1],
     [1,1,1,1,0,1,1,1,0,1,1,1,1,0,0,1,1,1,1,1,1],
     [1,1,1,1,1,1,1,1,1,0,1,0,1,1,1,0,1,1,1,0,0],
     [1,1,1,0,1,1,1,1,1,1,1,1,1,1,1,1,0,1,0,1,1],
     [1,1,1,1,1,1,1,1,1,1,1,1,0,1,1,1,1,0,1,1,0],
     [1,1,1,1,1,1,1,1,1,1,1,1,1,1,1,1,0,1,0,1,1],
     [1,1,1,1,1,1,1,1,1,1,0,1,1,1,1,0,1,1,1,0,0],
     [1,1,1,1,1,1,1,1,1,1,1,1,0,1,1,0,1,0,1,0,0]], [
    [[[0,0,0,0,0,0,0,1,-1]], [[1,0,0,0,0,0,0,1,0],[1,0,0,0,0,0,1,0,0],[2,0,0,0,0,1,0,0,0],[2,0,0,0,0,1,1,-1,0]], 0],
    [[[1,0,0,0,0,0,0,1,0]], [[-1,0,0,0,0,0,0,0,-1],[1,0,0,0,0,0,1,0,0],[2,0,0,0,0,1,0,0,0]], 1],
    [[[2,0,0,0,0,1,0,1,-1]], [[-2,0,0,0,0,-1,0,0,0],[0,0,0,0,0,0,1,-1,0],[3,0,0,0,0,1,0,1,0]], 7],
    [[[3,0,0,0,0,1,0,1,0]], [[3,0,0,0,0,1,1,0,0],[-2,0,0,0,0,-1,0,0,0],[-1,0,0,0,0,0,0,0,-1]], 9],
    [[[2,0,0,0,0,1,1,-1,0]], [[-2,0,0,0,0,-1,-1,0,1],[2,0,0,0,0,1,0,0,0],[1,0,0,0,0,0,1,0,0]], 20],
    [[[1,0,0,0,0,0,0,0,1]], [[-1,0,0,0,0,0,0,-1,0],[2,0,0,0,0,1,0,0,0],[1,0,0,0,0,0,1,0,0]], 45],
    [[[0,0,0,0,0,0,0,1,-1]], [[-1,0,0,0,0,0,-1,0,0],[1,0,0,0,0,1,0,-1,0],[1,0,0,0,0,0,0,1,0]], 54],
    [[[1,0,0,0,0,0,0,1,0]], [[-1,0,0,0,0,0,-1,0,0],[2,0,0,0,0,1,0,0,0],[-1,0,0,0,0,0,0,0,-1]], 56],
    [[[1,0,0,0,0,1,0,-1,0]], [[2,0,0,0,0,1,0,0,0],[-1,0,0,0,0,0,-1,0,0],[-1,0,0,0,0,-1,0,0,1]], 69],
    [[[1,0,0,0,0,0,1,0,0]], [[2,0,0,0,0,1,0,0,0],[-1,0,0,0,0,0,0,-1,0],[-1,0,0,0,0,0,0,0,-1]], 80],
    [[[2,0,0,0,0,1,0,0,0]], [[1,0,0,0,0,0,1,0,0],[-1,0,0,0,0,0,0,-1,0],[-1,0,0,0,0,0,0,0,-1]], 85],
    [[[1,0,0,0,0,0,0,0,1]], [[2,0,0,0,0,1,0,0,0],[-1,0,0,0,0,0,-1,0,0],[-1,0,0,0,0,0,0,-1,0]], 102],
    [[[2,0,0,0,0,1,0,0,0]], [[1,0,0,0,0,0,0,0,1],[-1,0,0,0,0,0,0,-1,0],[-1,0,0,0,0,0,-1,0,0]], 106],
    [[[0,0,0,0,0,0,1,-1,0]], [[-2,0,0,0,0,-1,-1,0,1],[-2,0,0,0,0,-1,0,0,0],[1,0,0,0,0,0,1,0,0],[1,0,0,0,0,0,0,0,1]], 108],
    [[[1,0,0,0,0,0,0,1,0]], [[1,0,0,0,0,0,0,0,1],[-1,0,0,0,0,0,-1,0,0],[-2,0,0,0,0,-1,0,0,0]], 118],
    [[[2,0,0,0,0,1,0,0,0]], [[-1,0,0,0,0,0,0,0,-1],[-1,0,0,0,0,0,0,-1,0],[-1,0,0,0,0,0,-1,0,0]], 130],
    [[[0,0,0,0,0,0,1,-1,0]], [[-3,0,0,0,0,-1,-1,0,0],[1,0,0,0,0,0,1,0,0],[-1,0,0,0,0,0,0,0,-1]], 131],
    [[[1,0,0,0,0,0,1,0,0]], [[1,0,0,0,0,0,0,0,1],[-1,0,0,0,0,0,0,-1,0],[-2,0,0,0,0,-1,0,0,0]], 139],
    [[[1,0,0,0,0,0,0,1,0]], [[-1,0,0,0,0,0,0,0,-1],[-2,0,0,0,0,-1,0,0,0],[-1,0,0,0,0,0,-1,0,0]], 143],
    [[[1,0,0,0,0,0,1,0,0]], [[-1,0,0,0,0,0,0,0,-1],[-1,0,0,0,0,0,0,-1,0],[-2,0,0,0,0,-1,0,0,0]], 152],
    [[[1,0,0,0,0,0,0,0,1]], [[-1,0,0,0,0,0,0,-1,0],[-1,0,0,0,0,0,-1,0,0],[-2,0,0,0,0,-1,0,0,0]], 155]
  ]],
  ["#7",
    [[0,0,0,1],
     [0,0,1,0],
     [0,1,0,0],
     [1,0,0,0]], [
    [[[2,0,0,0,0,1,0,1,-1]], [[1,0,0,0,0,0,0,1,0],[3,0,0,0,0,1,0,1,0]], 0],
    [[[3,0,0,0,0,1,0,1,0]], [[-2,0,0,0,0,-1,0,0,0],[-1,0,0,0,0,0,0,0,-1]], 1],
    [[[1,0,0,0,0,1,0,0,-1]], [[-1,0,0,0,0,0,0,-1,0],[2,0,0,0,0,1,0,0,0]], 2],
    [[[2,0,0,0,0,1,0,0,0]], [[-1,0,0,0,0,0,0,-1,0],[-1,0,0,0,0,0,0,0,-1]], 3]
  ]],
  ["#8",
    [[0,0,0],
     [0,0,0],
     [0,0,0]], [
    [[[2,0,0,0,0,0,0,0,1]], [[2,0,0,0,0,0,0,1,0],[2,0,0,0,0,0,1,0,0]], 0],
    [[[2,0,0,0,0,0,0,1,0]], [[2,0,0,0,0,0,0,0,1],[2,0,0,0,0,0,1,0,0]], 1],
    [[[2,0,0,0,0,0,1,0,0]], [[2,0,0,0,0,0,0,0,1],[2,0,0,0,0,0,0,1,0]], 2]
  ]],
  ["#9",
    [[0,0,0],
     [0,0,0],
     [0,0,0]], [
    [[[2,0,0,0,0,1,0,0,0]], [[2,0,0,0,1,0,0,0,0],[2,0,0,1,0,0,0,0,0]], 0],
    [[[2,0,0,0,1,0,0,0,0]], [[2,0,0,0,0,1,0,0,0],[2,0,0,1,0,0,0,0,0]], 1],
    [[[2,0,0,1,0,0,0,0,0]], [[2,0,0,0,0,1,0,0,0],[2,0,0,0,1,0,0,0,0]], 2]
  ]],
  ["#10",
    [[0,0],
     [0,0]], [
    [[[2,0,1,0,0,0,0,0,0]], [[2,1,0,0,0,0,0,0,0]], 0],
    [[[2,1,0,0,0,0,0,0,0]], [[2,0,1,0,0,0,0,0,0]], 1]
  ]]
]
