[
  ["#0",
    [[0,0],
     [0,0]], [
    [[[0,1,-1,0,0,0,0,0,0,0,0,0,0,0,0,0,0,0,0]], [[1,-1,0,0,0,0,0,1,0,0,0,0,0,0,0,0,0,0,0]], 0],
    [[[-1,1,0,0,0,0,0,-1,0,0,0,0,0,0,0,0,0,0,0]], [[0,-1,1,0,0,0,0,0,0,0,0,0,0,0,0,0,0,0,0]], 1]
  ]],
  ["#1",
    [[0]], [
    [[[-1,0,1,0,0,0,0,0,-1,0,0,0,0,0,0,0,0,0,0]], [], 0]
  ]],
  ["#2",
    [[0,0],
     [0,0]], [
    [[[1,0,0,1,0,0,-1,0,0,0,0,0,0,0,0,0,0,0,0]], [[0,0,0,-1,0,0,0,0,0,0,1,0,0,0,0,0,0,0,0]], 0],
    [[[0,0,0,1,0,0,0,0,0,0,-1,0,0,0,0,0,0,0,0]], [[-1,0,0,-1,0,0,1,0,0,0,0,0,0,0,0,0,0,0,0]], 1]
  ]],
  ["#3",
    [[0]], [
    [[[-2,0,0,0,1,0,0,0,0,0,0,-1,0,0,0,0,0,0,0]], [], 0]
  ]],
  ["#4",
    [[0,0],
     [0,0]], [
    [[[0,0,0,0,1,-1,0,0,0,0,0,0,0,0,0,0,0,0,0]], [[1,0,0,0,-1,0,0,0,0,1,0,0,0,0,0,0,0,0,0]], 0],
    [[[-1,0,0,0,0,1,0,0,0,-1,0,0,0,0,0,0,0,0,0]], [[0,0,0,0,1,-1,0,0,0,0,0,0,0,0,0,0,0,0,0]], 1]
  ]],
  ["#5",
    [[0]], [
    [[[0,0,0,0,0,0,1,0,0,0,0,0,-1,0,0,0,0,0,0]], [], 0]
  ]],
  ["#6",
    [[0,0,0,1,1,1,1,1,1,1,1,1,1,1,1,1],
     [0,0,0,1,1,1,1,1,1,1,1,1,1,1,1,1],
     [0,0,0,1,1,1,1,1,1,1,1,1,1,1,1,1],
     [1,1,1,0,0,0,1,1,1,1,1,1,1,1,1,1],
     [1,1,1,0,0,0,1,1,1,1,1,1,1,1,1,1],
     [1,1,1,0,0,0,1,1,1,1,1,1,1,1,1,1],
     [1,1,1,1,1,1,0,0,0,1,1,1,1,1,1,1],
     [1,1,1,1,1,1,0,0,0,1,1,1,1,1,1,1],
     [1,1,1,1,1,1,0,0,0,1,1,1,1,1,1,1],
     [1,1,1,1,1,1,1,1,1,0,0,1,1,1,1,1],
     [1,1,1,1,1,1,1,1,1,0,0,1,1,1,1,1],
     [1,1,1,1,1,1,1,1,1,1,1,0,0,0,1,1],
     [1,1,1,1,1,1,1,1,1,1,1,0,0,0,1,1],
     [1,1,1,1,1,1,1,1,1,1,1,0,0,0,1,1],
     [1,1,1,1,1,1,1,1,1,1,1,1,1,1,0,0],
     [1,1,1,1,1,1,1,1,1,1,1,1,1,1,0,0]], [
    [[[-1,0,0,0,0,0,0,1,0,0,0,0,0,0,0,0,0,-1,0]], [[4,0,0,0,0,0,0,-1,1,0,0,0,0,0,0,0,0,0,0],[4,1,0,0,0,0,0,-1,0,0,0,0,0,0,0,0,0,0,0],[3,0,0,0,0,0,0,0,1,0,0,0,0,0,0,0,0,0,0],[4,0,0,0,0,0,0,1,0,0,0,0,0,0,0,0,0,0,0]], 0],
    [[[-4,0,0,0,0,0,0,1,-1,0,0,0,0,0,0,0,0,0,0]], [[1,0,0,0,0,0,0,-1,0,0,0,0,0,0,0,0,0,1,0],[4,1,0,0,0,0,0,-1,0,0,0,0,0,0,0,0,0,0,0],[-1,0,0,0,0,0,0,1,0,0,0,0,0,0,0,0,0,0,0]], 1],
    [[[4,1,0,0,0,0,0,-1,0,0,0,0,0,0,0,0,0,0,0]], [[-3,-1,0,0,0,0,0,0,0,0,0,0,0,0,0,0,0,1,0],[0,-1,0,0,0,0,0,0,1,0,0,0,0,0,0,0,0,0,0],[8,1,0,0,0,0,0,0,0,0,0,0,0,0,0,0,0,0,0],[3,0,0,0,0,0,0,0,1,0,0,0,0,0,0,0,0,0,0]], 3],
    [[[-1,0,0,0,0,0,0,1,0,0,0,0,0,0,0,0,0,-1,0]], [[-3,0,0,0,0,0,0,0,-1,0,0,0,0,0,0,0,0,0,0],[4,1,0,0,0,0,0,-1,0,0,0,0,0,0,0,0,0,0,0],[4,0,0,0,0,0,0,1,0,0,0,0,0,0,0,0,0,0,0],[4,0,0,0,0,0,0,-1,1,0,0,0,0,0,0,0,0,0,0]], 17],
    [[[-4,0,0,0,0,0,0,1,-1,0,0,0,0,0,0,0,0,0,0]], [[4,1,0,0,0,0,0,-1,0,0,0,0,0,0,0,0,0,0,0],[1,0,0,0,0,0,0,-1,0,0,0,0,0,0,0,0,0,0,0],[4,0,0,0,0,0,0,1,0,0,0,0,0,0,0,0,0,0,0],[1,0,0,0,0,0,0,-1,0,0,0,0,0,0,0,0,0,1,0]], 20],
    [[[4,1,0,0,0,0,0,-1,0,0,0,0,0,0,0,0,0,0,0]], [[8,1,0,0,0,0,0,0,0,0,0,0,0,0,0,0,0,0,0],[-3,0,0,0,0,0,0,0,-1,0,0,0,0,0,0,0,0,0,0],[0,-1,0,0,0,0,0,0,1,0,0,0,0,0,0,0,0,0,0],[-3,-1,0,0,0,0,0,0,0,0,0,0,0,0,0,0,0,1,0]], 21],
    [[[-1,0,0,0,0,0,0,1,0,0,0,0,0,0,0,0,0,-1,0]], [[4,1,0,0,0,0,0,-1,0,0,0,0,0,0,0,0,0,0,0],[5,0,0,0,0,0,0,1,0,0,0,0,0,0,0,0,0,0,0],[1,0,0,0,0,0,0,1,-1,0,0,0,0,0,0,0,0,0,0],[-4,0,0,0,0,0,0,-1,0,0,0,0,0,0,0,0,0,0,0],[4,0,0,0,0,0,0,-1,1,0,0,0,0,0,0,0,0,0,0]], 45],
    [[[-4,0,0,0,0,0,0,1,-1,0,0,0,0,0,0,0,0,0,0]], [[4,1,0,0,0,0,0,-1,0,0,0,0,0,0,0,0,0,0,0],[5,0,0,0,0,0,0,1,0,0,0,0,0,0,0,0,0,0,0],[1,0,0,0,0,0,0,-1,0,0,0,0,0,0,0,0,0,1,0],[-4,0,0,0,0,0,0,-1,0,0,0,0,0,0,0,0,0,0,0]], 48],
    [[[4,1,0,0,0,0,0,-1,0,0,0,0,0,0,0,0,0,0,0]], [[9,1,0,0,0,0,0,0,0,0,0,0,0,0,0,0,0,0,0],[5,1,0,0,0,0,0,0,-1,0,0,0,0,0,0,0,0,0,0],[0,-1,0,0,0,0,0,0,1,0,0,0,0,0,0,0,0,0,0],[-3,-1,0,0,0,0,0,0,0,0,0,0,0,0,0,0,0,1,0],[-8,-1,0,0,0,0,0,0,0,0,0,0,0,0,0,0,0,0,0]], 49],
    [[[-1,0,0,0,0,0,0,1,0,0,0,0,0,0,0,0,0,-1,0]], [[-4,0,0,0,0,0,0,-1,0,0,0,0,0,0,0,0,0,0,0],[4,1,0,0,0,0,0,-1,0,0,0,0,0,0,0,0,0,0,0],[5,0,0,0,0,0,0,1,0,0,0,0,0,0,0,0,0,0,0],[-1,0,0,0,0,0,0,-1,1,0,0,0,0,0,0,0,0,0,0]], 61],
    [[[4,1,0,0,0,0,0,-1,0,0,0,0,0,0,0,0,0,0,0]], [[9,1,0,0,0,0,0,0,0,0,0,0,0,0,0,0,0,0,0],[-5,-1,0,0,0,0,0,0,1,0,0,0,0,0,0,0,0,0,0],[-3,-1,0,0,0,0,0,0,0,0,0,0,0,0,0,0,0,1,0],[-8,-1,0,0,0,0,0,0,0,0,0,0,0,0,0,0,0,0,0]], 63],
    [[[-1,0,0,0,0,0,0,1,0,0,0,0,0,0,0,0,0,-1,0]], [[4,1,0,0,0,0,0,-1,0,0,0,0,0,0,0,0,0,0,0],[1,0,0,0,0,0,0,1,-1,0,0,0,0,0,0,0,0,0,0],[4,0,0,0,0,0,0,-1,1,0,0,0,0,0,0,0,0,0,0],[-5,0,0,0,0,0,0,-1,0,0,0,0,0,0,0,0,0,0,0]], 74],
    [[[-4,0,0,0,0,0,0,1,-1,0,0,0,0,0,0,0,0,0,0]], [[4,1,0,0,0,0,0,-1,0,0,0,0,0,0,0,0,0,0,0],[1,0,0,0,0,0,0,-1,0,0,0,0,0,0,0,0,0,1,0],[-5,0,0,0,0,0,0,-1,0,0,0,0,0,0,0,0,0,0,0]], 76],
    [[[4,1,0,0,0,0,0,-1,0,0,0,0,0,0,0,0,0,0,0]], [[5,1,0,0,0,0,0,0,-1,0,0,0,0,0,0,0,0,0,0],[0,-1,0,0,0,0,0,0,1,0,0,0,0,0,0,0,0,0,0],[-3,-1,0,0,0,0,0,0,0,0,0,0,0,0,0,0,0,1,0],[-9,-1,0,0,0,0,0,0,0,0,0,0,0,0,0,0,0,0,0]], 77],
    [[[-1,0,0,0,0,0,0,1,0,0,0,0,0,0,0,0,0,-1,0]], [[4,1,0,0,0,0,0,-1,0,0,0,0,0,0,0,0,0,0,0],[-1,0,0,0,0,0,0,-1,1,0,0,0,0,0,0,0,0,0,0],[-5,0,0,0,0,0,0,-1,0,0,0,0,0,0,0,0,0,0,0]], 81],
    [[[4,1,0,0,0,0,0,-1,0,0,0,0,0,0,0,0,0,0,0]], [[-5,-1,0,0,0,0,0,0,1,0,0,0,0,0,0,0,0,0,0],[-3,-1,0,0,0,0,0,0,0,0,0,0,0,0,0,0,0,1,0],[-9,-1,0,0,0,0,0,0,0,0,0,0,0,0,0,0,0,0,0]], 83]
  ]],
  ["#7",
    [[0,0,0,1,1,1,1,1,1,1,1,1,1,1,1],
     [0,0,0,1,1,1,1,1,1,1,1,1,1,1,1],
     [0,0,0,1,1,1,1,1,1,1,1,1,1,1,1],
     [1,1,1,0,0,1,1,1,1,1,1,1,1,1,1],
     [1,1,1,0,0,1,1,1,1,1,1,1,1,1,1],
     [1,1,1,1,1,0,0,1,1,1,1,1,1,1,1],
     [1,1,1,1,1,0,0,1,1,1,1,1,1,1,1],
     [1,1,1,1,1,1,1,0,0,0,0,1,1,1,1],
     [1,1,1,1,1,1,1,0,0,0,1,1,1,1,1],
     [1,1,1,1,1,1,1,0,0,0,1,1,1,1,1],
     [1,1,1,1,1,1,1,0,1,1,0,1,1,0,0],
     [1,1,1,1,1,1,1,1,1,1,1,0,0,1,1],
     [1,1,1,1,1,1,1,1,1,1,1,0,0,1,1],
     [1,1,1,1,1,1,1,1,1,1,0,1,1,0,0],
     [1,1,1,1,1,1,1,1,1,1,0,1,1,0,0]], [
    [[[-1,0,0,0,0,0,0,0,1,0,0,0,0,0,0,0,0,0,-1]], [[3,0,0,0,0,0,0,0,1,0,0,0,0,0,0,0,0,0,0],[5,0,0,0,0,0,0,1,-1,0,0,0,0,0,0,0,0,0,0],[4,0,0,0,0,0,0,1,0,0,0,0,0,0,0,0,0,0,0],[3,0,1,0,0,0,0,0,-1,0,0,0,0,0,0,0,0,0,0]], 0],
    [[[3,0,1,0,0,0,0,0,-1,0,0,0,0,0,0,0,0,0,0]], [[-2,0,-1,0,0,0,0,0,0,0,0,0,0,0,0,0,0,0,1],[4,0,0,0,0,0,0,1,0,0,0,0,0,0,0,0,0,0,0],[6,0,1,0,0,0,0,0,0,0,0,0,0,0,0,0,0,0,0],[2,0,-1,0,0,0,0,1,0,0,0,0,0,0,0,0,0,0,0]], 1],
    [[[5,0,0,0,0,0,0,1,-1,0,0,0,0,0,0,0,0,0,0]], [[-4,0,0,0,0,0,0,-1,0,0,0,0,0,0,0,0,0,0,1],[-2,0,1,0,0,0,0,-1,0,0,0,0,0,0,0,0,0,0,0],[4,0,0,0,0,0,0,1,0,0,0,0,0,0,0,0,0,0,0]], 3],
    [[[-1,0,0,0,0,0,0,0,1,0,0,0,0,0,0,0,0,0,-1]], [[-3,0,0,0,0,0,0,0,-1,0,0,0,0,0,0,0,0,0,0],[3,0,1,0,0,0,0,0,-1,0,0,0,0,0,0,0,0,0,0],[4,0,0,0,0,0,0,1,0,0,0,0,0,0,0,0,0,0,0]], 17],
    [[[3,0,1,0,0,0,0,0,-1,0,0,0,0,0,0,0,0,0,0]], [[4,0,0,0,0,0,0,1,0,0,0,0,0,0,0,0,0,0,0],[-6,0,-1,0,0,0,0,0,0,0,0,0,0,0,0,0,0,0,0],[-2,0,-1,0,0,0,0,0,0,0,0,0,0,0,0,0,0,0,1]], 19],
    [[[-1,0,0,0,0,0,0,0,1,0,0,0,0,0,0,0,0,0,-1]], [[3,0,1,0,0,0,0,0,-1,0,0,0,0,0,0,0,0,0,0],[5,0,0,0,0,0,0,1,0,0,0,0,0,0,0,0,0,0,0],[1,0,0,0,0,0,0,1,-1,0,0,0,0,0,0,0,0,0,0],[-4,0,0,0,0,0,0,-1,0,0,0,0,0,0,0,0,0,0,0]], 46],
    [[[3,0,1,0,0,0,0,0,-1,0,0,0,0,0,0,0,0,0,0]], [[5,0,0,0,0,0,0,1,0,0,0,0,0,0,0,0,0,0,0],[-2,0,-1,0,0,0,0,1,0,0,0,0,0,0,0,0,0,0,0],[-2,0,-1,0,0,0,0,0,0,0,0,0,0,0,0,0,0,0,1],[-4,0,0,0,0,0,0,-1,0,0,0,0,0,0,0,0,0,0,0]], 48],
    [[[-1,0,0,0,0,0,0,0,1,0,0,0,0,0,0,0,0,0,0]], [[2,0,1,0,0,0,0,0,0,0,0,0,0,0,0,0,0,0,0],[5,0,0,0,0,0,0,1,0,0,0,0,0,0,0,0,0,0,0],[0,0,0,0,0,0,0,0,0,0,0,0,0,0,0,0,0,0,1],[-4,0,0,0,0,0,0,-1,0,0,0,0,0,0,0,0,0,0,0]], 58],
    [[[-1,0,0,0,0,0,0,0,1,0,0,0,0,0,0,0,0,0,-1]], [[-4,0,0,0,0,0,0,-1,0,0,0,0,0,0,0,0,0,0,0],[3,0,1,0,0,0,0,0,-1,0,0,0,0,0,0,0,0,0,0],[5,0,0,0,0,0,0,1,0,0,0,0,0,0,0,0,0,0,0],[1,0,0,0,0,0,0,0,-1,0,0,0,0,0,0,0,0,0,0],[-1,0,0,0,0,0,0,-1,1,0,0,0,0,0,0,0,0,0,0]], 59],
    [[[3,0,1,0,0,0,0,0,-1,0,0,0,0,0,0,0,0,0,0]], [[5,0,0,0,0,0,0,1,0,0,0,0,0,0,0,0,0,0,0],[-2,0,-1,0,0,0,0,0,0,0,0,0,0,0,0,0,0,0,1],[-2,0,-1,0,0,0,0,0,0,0,0,0,0,0,0,0,0,0,0],[2,0,1,0,0,0,0,-1,0,0,0,0,0,0,0,0,0,0,0],[-4,0,0,0,0,0,0,-1,0,0,0,0,0,0,0,0,0,0,0]], 61],
    [[[4,0,0,0,0,0,0,1,1,0,0,0,0,0,0,0,0,0,0]], [[7,0,1,0,0,0,0,1,0,0,0,0,0,0,0,0,0,0,0],[5,0,0,0,0,0,0,1,0,0,0,0,0,0,0,0,0,0,1],[-5,0,0,0,0,0,0,-1,0,0,0,0,0,0,0,0,0,0,0]], 66],
    [[[-1,0,0,0,0,0,0,0,1,0,0,0,0,0,0,0,0,0,-1]], [[3,0,1,0,0,0,0,0,-1,0,0,0,0,0,0,0,0,0,0],[1,0,0,0,0,0,0,1,-1,0,0,0,0,0,0,0,0,0,0],[-5,0,0,0,0,0,0,-1,0,0,0,0,0,0,0,0,0,0,0]], 73],
    [[[3,0,1,0,0,0,0,0,-1,0,0,0,0,0,0,0,0,0,0]], [[-2,0,-1,0,0,0,0,1,0,0,0,0,0,0,0,0,0,0,0],[-2,0,-1,0,0,0,0,0,0,0,0,0,0,0,0,0,0,0,1],[-5,0,0,0,0,0,0,-1,0,0,0,0,0,0,0,0,0,0,0]], 75],
    [[[-1,0,0,0,0,0,0,0,1,0,0,0,0,0,0,0,0,0,-1]], [[3,0,1,0,0,0,0,0,-1,0,0,0,0,0,0,0,0,0,0],[-1,0,0,0,0,0,0,-1,1,0,0,0,0,0,0,0,0,0,0],[-5,0,0,0,0,0,0,-1,0,0,0,0,0,0,0,0,0,0,0],[-4,0,0,0,0,0,0,-1,-1,0,0,0,0,0,0,0,0,0,0]], 78],
    [[[3,0,1,0,0,0,0,0,-1,0,0,0,0,0,0,0,0,0,0]], [[-2,0,-1,0,0,0,0,0,0,0,0,0,0,0,0,0,0,0,1],[2,0,1,0,0,0,0,-1,0,0,0,0,0,0,0,0,0,0,0],[-5,0,0,0,0,0,0,-1,0,0,0,0,0,0,0,0,0,0,0],[-7,0,-1,0,0,0,0,-1,0,0,0,0,0,0,0,0,0,0,0]], 80]
  ]],
  ["#8",
    [[0,0,0,0,1,1,1,1,1,1,1,1],
     [0,0,0,0,1,1,1,1,1,1,1,1],
     [0,0,0,0,1,1,1,1,1,1,1,1],
     [0,0,0,0,1,0,1,1,0,1,1,1],
     [1,1,1,1,0,0,0,0,1,1,1,1],
     [1,1,1,0,0,0,0,0,0,1,1,1],
     [1,1,1,1,0,0,0,0,1,1,1,1],
     [1,1,1,1,0,0,0,0,1,1,1,1],
     [1,1,1,0,1,0,1,1,0,0,0,0],
     [1,1,1,1,1,1,1,1,0,0,0,0],
     [1,1,1,1,1,1,1,1,0,0,0,0],
     [1,1,1,1,1,1,1,1,0,0,0,0]], [
    [[[-1,0,0,0,0,0,0,0,0,1,0,0,0,-1,0,0,0,0,0]], [[4,0,0,0,0,0,0,0,0,-1,0,1,0,0,0,0,0,0,0],[4,0,0,0,0,1,0,0,0,-1,0,0,0,0,0,0,0,0,0],[3,0,0,0,0,0,0,0,1,0,0,0,0,0,0,0,0,0,0],[5,0,0,0,0,0,0,1,0,-1,0,0,0,0,0,0,0,0,0],[4,0,0,0,0,0,0,1,0,0,0,0,0,0,0,0,0,0,0]], 0],
    [[[-4,0,0,0,0,0,0,0,0,1,0,-1,0,0,0,0,0,0,0]], [[1,0,0,0,0,0,0,0,0,-1,0,0,0,1,0,0,0,0,0],[4,0,0,0,0,1,0,0,0,-1,0,0,0,0,0,0,0,0,0],[3,0,0,0,0,0,0,0,1,0,0,0,0,0,0,0,0,0,0],[5,0,0,0,0,0,0,1,0,-1,0,0,0,0,0,0,0,0,0],[4,0,0,0,0,0,0,1,0,0,0,0,0,0,0,0,0,0,0]], 1],
    [[[4,0,0,0,0,1,0,0,0,-1,0,0,0,0,0,0,0,0,0]], [[-3,0,0,0,0,-1,0,0,0,0,0,0,0,1,0,0,0,0,0],[0,0,0,0,0,-1,0,0,0,0,0,1,0,0,0,0,0,0,0],[4,0,0,0,0,0,0,1,0,0,0,0,0,0,0,0,0,0,0],[1,0,0,0,0,-1,0,1,0,0,0,0,0,0,0,0,0,0,0],[3,0,0,0,0,0,0,0,1,0,0,0,0,0,0,0,0,0,0]], 3],
    [[[5,0,0,0,0,0,0,1,0,-1,0,0,0,0,0,0,0,0,0]], [[-4,0,0,0,0,0,0,-1,0,0,0,0,0,1,0,0,0,0,0],[-1,0,0,0,0,0,0,-1,0,0,0,1,0,0,0,0,0,0,0],[-1,0,0,0,0,1,0,-1,0,0,0,0,0,0,0,0,0,0,0],[4,0,0,0,0,0,0,1,0,0,0,0,0,0,0,0,0,0,0],[3,0,0,0,0,0,0,0,1,0,0,0,0,0,0,0,0,0,0]], 4],
    [[[-1,0,0,0,0,0,0,0,0,1,0,0,0,-1,0,0,0,0,0]], [[-3,0,0,0,0,0,0,0,-1,0,0,0,0,0,0,0,0,0,0],[4,0,0,0,0,1,0,0,0,-1,0,0,0,0,0,0,0,0,0],[1,0,0,0,0,0,0,1,-1,0,0,0,0,0,0,0,0,0,0],[2,0,0,0,0,0,0,1,-1,-1,0,0,0,0,0,0,0,0,0],[4,0,0,0,0,0,0,0,0,-1,0,1,0,0,0,0,0,0,0]], 13],
    [[[2,0,0,0,0,0,0,1,-1,-1,0,0,0,0,0,0,0,0,0]], [[2,0,0,0,0,1,0,-1,1,0,0,0,0,0,0,0,0,0,0],[1,0,0,0,0,0,0,1,-1,0,0,0,0,0,0,0,0,0,0],[-3,0,0,0,0,0,0,0,-1,0,0,0,0,0,0,0,0,0,0],[2,0,0,0,0,0,0,-1,1,0,0,1,0,0,0,0,0,0,0],[-1,0,0,0,0,0,0,-1,1,0,0,0,0,1,0,0,0,0,0]], 15],
    [[[-4,0,0,0,0,0,0,0,0,1,0,-1,0,0,0,0,0,0,0]], [[4,0,0,0,0,1,0,0,0,-1,0,0,0,0,0,0,0,0,0],[-3,0,0,0,0,0,0,0,-1,0,0,0,0,0,0,0,0,0,0],[1,0,0,0,0,0,0,1,-1,0,0,0,0,0,0,0,0,0,0],[2,0,0,0,0,0,0,1,-1,-1,0,0,0,0,0,0,0,0,0],[1,0,0,0,0,0,0,0,0,-1,0,0,0,1,0,0,0,0,0]], 17],
    [[[4,0,0,0,0,1,0,0,0,-1,0,0,0,0,0,0,0,0,0]], [[1,0,0,0,0,0,0,1,-1,0,0,0,0,0,0,0,0,0,0],[-2,0,0,0,0,-1,0,1,-1,0,0,0,0,0,0,0,0,0,0],[-3,0,0,0,0,0,0,0,-1,0,0,0,0,0,0,0,0,0,0],[0,0,0,0,0,-1,0,0,0,0,0,1,0,0,0,0,0,0,0],[-3,0,0,0,0,-1,0,0,0,0,0,0,0,1,0,0,0,0,0]], 18],
    [[[-1,0,0,0,0,0,0,0,0,1,0,0,0,0,0,0,0,0,0]], [[3,0,0,0,0,1,0,0,0,0,0,0,0,0,0,0,0,0,0],[3,0,0,0,0,0,0,0,0,0,0,1,0,0,0,0,0,0,0],[-4,0,0,0,0,0,0,-1,0,0,0,0,0,0,0,0,0,0,0],[0,0,0,0,0,0,0,0,0,0,0,0,0,1,0,0,0,0,0],[-1,0,0,0,0,0,0,-1,1,0,0,0,0,0,0,0,0,0,0]], 24],
    [[[-1,0,0,0,0,0,0,0,0,1,0,0,0,-1,0,0,0,0,0]], [[-4,0,0,0,0,0,0,-1,0,0,0,0,0,0,0,0,0,0,0],[4,0,0,0,0,1,0,0,0,-1,0,0,0,0,0,0,0,0,0],[4,0,0,0,0,0,0,0,0,-1,0,1,0,0,0,0,0,0,0],[1,0,0,0,0,0,0,0,0,-1,0,0,0,0,0,0,0,0,0],[-1,0,0,0,0,0,0,-1,1,0,0,0,0,0,0,0,0,0,0]], 25],
    [[[-4,0,0,0,0,0,0,0,0,1,0,-1,0,0,0,0,0,0,0]], [[4,0,0,0,0,1,0,0,0,-1,0,0,0,0,0,0,0,0,0],[-4,0,0,0,0,0,0,-1,0,0,0,0,0,0,0,0,0,0,0],[1,0,0,0,0,0,0,0,0,-1,0,0,0,1,0,0,0,0,0],[1,0,0,0,0,0,0,0,0,-1,0,0,0,0,0,0,0,0,0],[-1,0,0,0,0,0,0,-1,1,0,0,0,0,0,0,0,0,0,0]], 28],
    [[[4,0,0,0,0,1,0,0,0,-1,0,0,0,0,0,0,0,0,0]], [[0,0,0,0,0,-1,0,0,0,0,0,1,0,0,0,0,0,0,0],[-3,0,0,0,0,-1,0,0,0,0,0,0,0,1,0,0,0,0,0],[-4,0,0,0,0,0,0,-1,0,0,0,0,0,0,0,0,0,0,0],[-3,0,0,0,0,-1,0,0,0,0,0,0,0,0,0,0,0,0,0],[-1,0,0,0,0,0,0,-1,1,0,0,0,0,0,0,0,0,0,0]], 29]
  ]],
  ["#9",
    [[0,0,0,0,1,1,1,1,1,1,1,1],
     [0,0,0,0,1,1,1,1,1,1,1,1],
     [0,0,0,0,1,0,1,1,0,1,1,1],
     [0,0,0,0,1,1,1,1,1,1,1,1],
     [1,1,1,1,0,0,0,0,1,1,1,1],
     [1,1,0,1,0,0,0,0,0,1,1,1],
     [1,1,1,1,0,0,0,0,1,1,1,1],
     [1,1,1,1,0,0,0,0,1,1,1,1],
     [1,1,0,1,1,0,1,1,0,0,0,0],
     [1,1,1,1,1,1,1,1,0,0,0,0],
     [1,1,1,1,1,1,1,1,0,0,0,0],
     [1,1,1,1,1,1,1,1,0,0,0,0]], [
    [[[-1,0,0,0,0,0,0,0,0,0,1,0,0,0,-1,0,0,0,0]], [[4,0,0,0,0,0,0,0,0,0,-1,0,1,0,0,0,0,0,0],[5,0,0,1,0,0,0,0,0,0,-1,0,0,0,0,0,0,0,0],[3,0,0,0,0,0,0,0,1,0,0,0,0,0,0,0,0,0,0],[4,0,0,0,0,0,0,1,0,0,-1,0,0,0,0,0,0,0,0],[4,0,0,0,0,0,0,1,0,0,0,0,0,0,0,0,0,0,0]], 0],
    [[[-4,0,0,0,0,0,0,0,0,0,1,0,-1,0,0,0,0,0,0]], [[1,0,0,0,0,0,0,0,0,0,-1,0,0,0,1,0,0,0,0],[5,0,0,1,0,0,0,0,0,0,-1,0,0,0,0,0,0,0,0],[3,0,0,0,0,0,0,0,1,0,0,0,0,0,0,0,0,0,0],[4,0,0,0,0,0,0,1,0,0,-1,0,0,0,0,0,0,0,0],[4,0,0,0,0,0,0,1,0,0,0,0,0,0,0,0,0,0,0]], 1],
    [[[4,0,0,0,0,0,0,1,0,0,-1,0,0,0,0,0,0,0,0]], [[-3,0,0,0,0,0,0,-1,0,0,0,0,0,0,1,0,0,0,0],[0,0,0,0,0,0,0,-1,0,0,0,0,1,0,0,0,0,0,0],[1,0,0,1,0,0,0,-1,0,0,0,0,0,0,0,0,0,0,0],[4,0,0,0,0,0,0,1,0,0,0,0,0,0,0,0,0,0,0],[3,0,0,0,0,0,0,0,1,0,0,0,0,0,0,0,0,0,0]], 3],
    [[[5,0,0,1,0,0,0,0,0,0,-1,0,0,0,0,0,0,0,0]], [[-4,0,0,-1,0,0,0,0,0,0,0,0,0,0,1,0,0,0,0],[-1,0,0,-1,0,0,0,0,0,0,0,0,1,0,0,0,0,0,0],[4,0,0,0,0,0,0,1,0,0,0,0,0,0,0,0,0,0,0],[-1,0,0,-1,0,0,0,1,0,0,0,0,0,0,0,0,0,0,0],[3,0,0,0,0,0,0,0,1,0,0,0,0,0,0,0,0,0,0]], 5],
    [[[-1,0,0,0,0,0,0,0,0,0,1,0,0,0,-1,0,0,0,0]], [[-3,0,0,0,0,0,0,0,-1,0,0,0,0,0,0,0,0,0,0],[5,0,0,1,0,0,0,0,0,0,-1,0,0,0,0,0,0,0,0],[1,0,0,0,0,0,0,1,-1,0,0,0,0,0,0,0,0,0,0],[1,0,0,0,0,0,0,1,-1,0,-1,0,0,0,0,0,0,0,0],[4,0,0,0,0,0,0,0,0,0,-1,0,1,0,0,0,0,0,0]], 13],
    [[[1,0,0,0,0,0,0,1,-1,0,-1,0,0,0,0,0,0,0,0]], [[4,0,0,1,0,0,0,-1,1,0,0,0,0,0,0,0,0,0,0],[1,0,0,0,0,0,0,1,-1,0,0,0,0,0,0,0,0,0,0],[-3,0,0,0,0,0,0,0,-1,0,0,0,0,0,0,0,0,0,0],[3,0,0,0,0,0,0,-1,1,0,0,0,1,0,0,0,0,0,0],[0,0,0,0,0,0,0,-1,1,0,0,0,0,0,1,0,0,0,0]], 14],
    [[[-4,0,0,0,0,0,0,0,0,0,1,0,-1,0,0,0,0,0,0]], [[5,0,0,1,0,0,0,0,0,0,-1,0,0,0,0,0,0,0,0],[-3,0,0,0,0,0,0,0,-1,0,0,0,0,0,0,0,0,0,0],[1,0,0,0,0,0,0,1,-1,0,0,0,0,0,0,0,0,0,0],[1,0,0,0,0,0,0,1,-1,0,-1,0,0,0,0,0,0,0,0],[1,0,0,0,0,0,0,0,0,0,-1,0,0,0,1,0,0,0,0]], 17],
    [[[5,0,0,1,0,0,0,0,0,0,-1,0,0,0,0,0,0,0,0]], [[1,0,0,0,0,0,0,1,-1,0,0,0,0,0,0,0,0,0,0],[-4,0,0,-1,0,0,0,1,-1,0,0,0,0,0,0,0,0,0,0],[-3,0,0,0,0,0,0,0,-1,0,0,0,0,0,0,0,0,0,0],[-1,0,0,-1,0,0,0,0,0,0,0,0,1,0,0,0,0,0,0],[-4,0,0,-1,0,0,0,0,0,0,0,0,0,0,1,0,0,0,0]], 19],
    [[[0,0,0,0,0,0,0,0,0,0,1,0,0,0,0,0,0,0,0]], [[5,0,0,1,0,0,0,0,0,0,0,0,0,0,0,0,0,0,0],[4,0,0,0,0,0,0,0,0,0,0,0,1,0,0,0,0,0,0],[1,0,0,0,0,0,0,0,0,0,0,0,0,0,1,0,0,0,0],[-4,0,0,0,0,0,0,-1,0,0,0,0,0,0,0,0,0,0,0],[-1,0,0,0,0,0,0,-1,1,0,0,0,0,0,0,0,0,0,0]], 23],
    [[[-1,0,0,0,0,0,0,0,0,0,1,0,0,0,-1,0,0,0,0]], [[-4,0,0,0,0,0,0,-1,0,0,0,0,0,0,0,0,0,0,0],[5,0,0,1,0,0,0,0,0,0,-1,0,0,0,0,0,0,0,0],[4,0,0,0,0,0,0,0,0,0,-1,0,1,0,0,0,0,0,0],[0,0,0,0,0,0,0,0,0,0,-1,0,0,0,0,0,0,0,0],[-1,0,0,0,0,0,0,-1,1,0,0,0,0,0,0,0,0,0,0]], 24],
    [[[-4,0,0,0,0,0,0,0,0,0,1,0,-1,0,0,0,0,0,0]], [[5,0,0,1,0,0,0,0,0,0,-1,0,0,0,0,0,0,0,0],[-4,0,0,0,0,0,0,-1,0,0,0,0,0,0,0,0,0,0,0],[1,0,0,0,0,0,0,0,0,0,-1,0,0,0,1,0,0,0,0],[0,0,0,0,0,0,0,0,0,0,-1,0,0,0,0,0,0,0,0],[-1,0,0,0,0,0,0,-1,1,0,0,0,0,0,0,0,0,0,0]], 27],
    [[[5,0,0,1,0,0,0,0,0,0,-1,0,0,0,0,0,0,0,0]], [[-1,0,0,-1,0,0,0,0,0,0,0,0,1,0,0,0,0,0,0],[-4,0,0,-1,0,0,0,0,0,0,0,0,0,0,1,0,0,0,0],[-4,0,0,0,0,0,0,-1,0,0,0,0,0,0,0,0,0,0,0],[-5,0,0,-1,0,0,0,0,0,0,0,0,0,0,0,0,0,0,0],[-1,0,0,0,0,0,0,-1,1,0,0,0,0,0,0,0,0,0,0]], 29]
  ]],
  ["#10",
    [[0,0,0,1,1,1,1,1,1],
     [0,0,0,1,1,1,1,1,1],
     [0,0,0,0,1,1,0,1,1],
     [1,1,0,0,0,0,0,1,1],
     [1,1,1,0,0,0,1,1,1],
     [1,1,1,0,0,0,1,1,1],
     [1,1,0,0,1,1,0,0,0],
     [1,1,1,1,1,1,0,0,0],
     [1,1,1,1,1,1,0,0,0]], [
    [[[-1,0,0,0,0,0,0,0,0,0,0,1,0,0,0,-1,0,0,0]], [[4,0,0,0,0,0,0,0,1,0,0,-1,0,0,0,0,0,0,0],[3,0,0,0,0,0,0,0,1,0,0,0,0,0,0,0,0,0,0],[4,0,0,0,0,0,0,1,0,0,0,0,0,0,0,0,0,0,0],[3,0,0,0,1,0,0,0,0,0,0,-1,0,0,0,0,0,0,0]], 0],
    [[[3,0,0,0,1,0,0,0,0,0,0,-1,0,0,0,0,0,0,0]], [[-2,0,0,0,-1,0,0,0,0,0,0,0,0,0,0,1,0,0,0],[1,0,0,0,-1,0,0,0,1,0,0,0,0,0,0,0,0,0,0],[4,0,0,0,0,0,0,1,0,0,0,0,0,0,0,0,0,0,0],[3,0,0,0,0,0,0,0,1,0,0,0,0,0,0,0,0,0,0]], 1],
    [[[4,0,0,0,0,0,0,0,1,0,0,-1,0,0,0,0,0,0,0]], [[-3,0,0,0,0,0,0,0,-1,0,0,0,0,0,0,1,0,0,0],[-1,0,0,0,1,0,0,0,-1,0,0,0,0,0,0,0,0,0,0],[3,0,0,0,0,0,0,0,1,0,0,0,0,0,0,0,0,0,0],[4,0,0,0,0,0,0,1,0,0,0,0,0,0,0,0,0,0,0]], 2],
    [[[-1,0,0,0,0,0,0,0,0,0,0,1,0,0,0,0,0,0,0]], [[2,0,0,0,1,0,0,0,0,0,0,0,0,0,0,0,0,0,0],[-3,0,0,0,0,0,0,0,-1,0,0,0,0,0,0,0,0,0,0],[1,0,0,0,0,0,0,1,-1,0,0,0,0,0,0,0,0,0,0],[0,0,0,0,0,0,0,0,0,0,0,0,0,0,0,1,0,0,0]], 10],
    [[[-1,0,0,0,0,0,0,0,0,0,0,1,0,0,0,-1,0,0,0]], [[-3,0,0,0,0,0,0,0,-1,0,0,0,0,0,0,0,0,0,0],[3,0,0,0,1,0,0,0,0,0,0,-1,0,0,0,0,0,0,0],[1,0,0,0,0,0,0,1,-1,0,0,0,0,0,0,0,0,0,0],[1,0,0,0,0,0,0,0,0,0,0,-1,0,0,0,0,0,0,0]], 11],
    [[[3,0,0,0,1,0,0,0,0,0,0,-1,0,0,0,0,0,0,0]], [[1,0,0,0,0,0,0,1,-1,0,0,0,0,0,0,0,0,0,0],[-3,0,0,0,0,0,0,0,-1,0,0,0,0,0,0,0,0,0,0],[-2,0,0,0,-1,0,0,0,0,0,0,0,0,0,0,1,0,0,0],[-2,0,0,0,-1,0,0,0,0,0,0,0,0,0,0,0,0,0,0]], 13],
    [[[0,0,0,0,0,0,0,1,-1,0,0,1,0,0,0,0,0,0,0]], [[3,0,0,0,1,0,0,1,-1,0,0,0,0,0,0,0,0,0,0],[-4,0,0,0,0,0,0,-1,0,0,0,0,0,0,0,0,0,0,0],[1,0,0,0,0,0,0,1,-1,0,0,0,0,0,0,1,0,0,0],[-1,0,0,0,0,0,0,-1,1,0,0,0,0,0,0,0,0,0,0]], 16],
    [[[-1,0,0,0,0,0,0,0,0,0,0,1,0,0,0,-1,0,0,0]], [[-4,0,0,0,0,0,0,-1,0,0,0,0,0,0,0,0,0,0,0],[3,0,0,0,1,0,0,0,0,0,0,-1,0,0,0,0,0,0,0],[-1,0,0,0,0,0,0,-1,1,0,0,0,0,0,0,0,0,0,0],[0,0,0,0,0,0,0,-1,1,0,0,-1,0,0,0,0,0,0,0]], 18],
    [[[3,0,0,0,1,0,0,0,0,0,0,-1,0,0,0,0,0,0,0]], [[-4,0,0,0,0,0,0,-1,0,0,0,0,0,0,0,0,0,0,0],[-2,0,0,0,-1,0,0,0,0,0,0,0,0,0,0,1,0,0,0],[-1,0,0,0,0,0,0,-1,1,0,0,0,0,0,0,0,0,0,0],[-3,0,0,0,-1,0,0,-1,1,0,0,0,0,0,0,0,0,0,0]], 20]
  ]],
  ["#11",
    [[0,0,0,1,1,1,1,1,1],
     [0,0,0,0,0,1,1,1,1],
     [0,0,0,1,1,1,1,1,1],
     [1,0,1,0,0,0,0,1,1],
     [1,0,1,0,0,1,1,0,0],
     [1,1,1,0,1,0,0,1,1],
     [1,1,1,0,1,0,0,1,1],
     [1,1,1,1,0,1,1,0,0],
     [1,1,1,1,0,1,1,0,0]], [
    [[[-1,0,0,0,0,0,0,0,0,0,0,0,1,0,0,0,-1,0,0]], [[3,0,0,0,0,0,0,0,1,0,0,0,-1,0,0,0,0,0,0],[3,0,0,0,0,0,0,0,1,0,0,0,0,0,0,0,0,0,0],[4,0,0,0,0,0,0,1,0,0,0,0,0,0,0,0,0,0,0],[4,0,0,0,0,0,1,0,0,0,0,0,-1,0,0,0,0,0,0]], 0],
    [[[3,0,0,0,0,0,0,0,1,0,0,0,-1,0,0,0,0,0,0]], [[-2,0,0,0,0,0,0,0,-1,0,0,0,0,0,0,0,1,0,0],[1,0,0,0,0,0,1,0,-1,0,0,0,0,0,0,0,0,0,0],[3,0,0,0,0,0,0,0,1,0,0,0,0,0,0,0,0,0,0],[4,0,0,0,0,0,0,1,0,0,0,0,0,0,0,0,0,0,0]], 1],
    [[[4,0,0,0,0,0,1,0,0,0,0,0,-1,0,0,0,0,0,0]], [[-3,0,0,0,0,0,-1,0,0,0,0,0,0,0,0,0,1,0,0],[-1,0,0,0,0,0,-1,0,1,0,0,0,0,0,0,0,0,0,0],[4,0,0,0,0,0,0,1,0,0,0,0,0,0,0,0,0,0,0],[3,0,0,0,0,0,0,0,1,0,0,0,0,0,0,0,0,0,0]], 3],
    [[[0,0,0,0,0,0,0,0,0,0,0,0,1,0,0,0,0,0,0]], [[4,0,0,0,0,0,1,0,0,0,0,0,0,0,0,0,0,0,0],[-3,0,0,0,0,0,0,0,-1,0,0,0,0,0,0,0,0,0,0],[1,0,0,0,0,0,0,1,-1,0,0,0,0,0,0,0,0,0,0],[1,0,0,0,0,0,0,0,0,0,0,0,0,0,0,0,1,0,0]], 9],
    [[[1,0,0,0,0,0,0,1,-1,0,0,0,1,0,0,0,0,0,0]], [[5,0,0,0,0,0,1,1,-1,0,0,0,0,0,0,0,0,0,0],[-4,0,0,0,0,0,0,-1,0,0,0,0,0,0,0,0,0,0,0],[2,0,0,0,0,0,0,1,-1,0,0,0,0,0,0,0,1,0,0],[-1,0,0,0,0,0,0,-1,1,0,0,0,0,0,0,0,0,0,0]], 10],
    [[[-1,0,0,0,0,0,0,0,0,0,0,0,1,0,0,0,-1,0,0]], [[-3,0,0,0,0,0,0,0,-1,0,0,0,0,0,0,0,0,0,0],[4,0,0,0,0,0,1,0,0,0,0,0,-1,0,0,0,0,0,0],[1,0,0,0,0,0,0,1,-1,0,0,0,0,0,0,0,0,0,0],[0,0,0,0,0,0,0,0,0,0,0,0,-1,0,0,0,0,0,0]], 11],
    [[[4,0,0,0,0,0,1,0,0,0,0,0,-1,0,0,0,0,0,0]], [[1,0,0,0,0,0,0,1,-1,0,0,0,0,0,0,0,0,0,0],[-3,0,0,0,0,0,0,0,-1,0,0,0,0,0,0,0,0,0,0],[-3,0,0,0,0,0,-1,0,0,0,0,0,0,0,0,0,1,0,0],[-4,0,0,0,0,0,-1,0,0,0,0,0,0,0,0,0,0,0,0]], 14],
    [[[-1,0,0,0,0,0,0,0,0,0,0,0,1,0,0,0,-1,0,0]], [[-4,0,0,0,0,0,0,-1,0,0,0,0,0,0,0,0,0,0,0],[4,0,0,0,0,0,1,0,0,0,0,0,-1,0,0,0,0,0,0],[-1,0,0,0,0,0,0,-1,1,0,0,0,0,0,0,0,0,0,0],[-1,0,0,0,0,0,0,-1,1,0,0,0,-1,0,0,0,0,0,0]], 18],
    [[[4,0,0,0,0,0,1,0,0,0,0,0,-1,0,0,0,0,0,0]], [[-4,0,0,0,0,0,0,-1,0,0,0,0,0,0,0,0,0,0,0],[-3,0,0,0,0,0,-1,0,0,0,0,0,0,0,0,0,1,0,0],[-1,0,0,0,0,0,0,-1,1,0,0,0,0,0,0,0,0,0,0],[-5,0,0,0,0,0,-1,-1,1,0,0,0,0,0,0,0,0,0,0]], 20]
  ]],
  ["#12",
    [[0]], [
    [[[-1,0,0,0,0,0,0,0,0,1,0,0,0,-1,0,0,0,0,0]], [], 0]
  ]],
  ["#13",
    [[0]], [
    [[[-1,0,0,0,0,0,0,0,0,0,1,0,0,0,-1,0,0,0,0]], [], 0]
  ]],
  ["#14",
    [[0]], [
    [[[-1,0,0,0,0,0,0,0,0,0,0,1,0,0,0,-1,0,0,0]], [], 0]
  ]],
  ["#15",
    [[0]], [
    [[[-1,0,0,0,0,0,0,0,0,0,0,0,1,0,0,0,-1,0,0]], [], 0]
  ]],
  ["#16",
    [[0]], [
    [[[-1,0,0,0,0,0,0,1,0,0,0,0,0,0,0,0,0,-1,0]], [], 0]
  ]],
  ["#17",
    [[0]], [
    [[[-1,0,0,0,0,0,0,0,1,0,0,0,0,0,0,0,0,0,-1]], [], 0]
  ]],
  ["#18",
    [[0,0,0,0,0,0,0,0,0,0,0,0,0,0,0,0,0,0],
     [0,0,0,0,0,0,0,0,0,0,0,0,0,0,0,0,0,0],
     [0,0,0,0,0,0,0,0,0,0,0,0,0,0,0,0,0,0],
     [0,0,0,0,0,0,0,0,0,0,0,0,0,0,0,0,0,0],
     [0,0,0,0,0,0,0,0,0,0,0,0,0,0,0,0,0,0],
     [0,0,0,0,0,0,0,0,0,0,0,0,0,0,0,0,0,0],
     [0,0,0,0,0,0,0,0,0,0,0,0,0,0,0,0,0,0],
     [0,0,0,0,0,0,0,0,0,0,0,0,0,0,0,0,0,0],
     [0,0,0,0,0,0,0,0,0,0,0,0,0,0,0,0,0,0],
     [0,0,0,0,0,0,0,0,0,0,0,0,0,0,0,0,0,0],
     [0,0,0,0,0,0,0,0,0,0,0,0,0,0,0,0,0,0],
     [0,0,0,0,0,0,0,0,0,0,0,0,0,0,0,0,0,0],
     [0,0,0,0,0,0,0,0,0,0,0,0,0,0,0,0,0,0],
     [0,0,0,0,0,0,0,0,0,0,0,0,0,0,0,0,0,0],
     [0,0,0,0,0,0,0,0,0,0,0,0,0,0,0,0,0,0],
     [0,0,0,0,0,0,0,0,0,0,0,0,0,0,0,0,0,0],
     [0,0,0,0,0,0,0,0,0,0,0,0,0,0,0,0,0,0],
     [0,0,0,0,0,0,0,0,0,0,0,0,0,0,0,0,0,0]], [
    [[[4,0,0,0,0,0,1,0,0,0,0,0,0,0,0,0,0,0,0]], [[6,0,0,0,0,0,0,0,0,0,0,0,0,0,0,0,0,0,1],[6,0,0,0,0,0,0,0,0,0,0,0,0,0,0,0,0,1,0],[6,0,0,0,0,0,0,0,0,0,0,0,0,0,0,0,1,0,0],[6,0,0,0,0,0,0,0,0,0,0,0,0,0,0,1,0,0,0],[6,0,0,0,0,0,0,0,0,0,0,0,0,0,1,0,0,0,0],[6,0,0,0,0,0,0,0,0,0,0,0,0,1,0,0,0,0,0],[6,0,0,0,0,0,0,0,0,0,0,0,1,0,0,0,0,0,0],[6,0,0,0,0,0,0,0,0,0,0,1,0,0,0,0,0,0,0],[6,0,0,0,0,0,0,0,0,0,1,0,0,0,0,0,0,0,0],[6,0,0,0,0,0,0,0,0,1,0,0,0,0,0,0,0,0,0],[6,0,0,0,0,0,0,0,1,0,0,0,0,0,0,0,0,0,0],[6,0,0,0,0,0,0,1,0,0,0,0,0,0,0,0,0,0,0],[4,0,0,0,0,1,0,0,0,0,0,0,0,0,0,0,0,0,0],[4,0,0,0,1,0,0,0,0,0,0,0,0,0,0,0,0,0,0],[4,0,0,1,0,0,0,0,0,0,0,0,0,0,0,0,0,0,0],[4,0,1,0,0,0,0,0,0,0,0,0,0,0,0,0,0,0,0],[4,1,0,0,0,0,0,0,0,0,0,0,0,0,0,0,0,0,0]], 0],
    [[[4,0,0,0,0,1,0,0,0,0,0,0,0,0,0,0,0,0,0]], [[6,0,0,0,0,0,0,0,0,0,0,0,0,0,0,0,0,0,1],[6,0,0,0,0,0,0,0,0,0,0,0,0,0,0,0,0,1,0],[6,0,0,0,0,0,0,0,0,0,0,0,0,0,0,0,1,0,0],[6,0,0,0,0,0,0,0,0,0,0,0,0,0,0,1,0,0,0],[6,0,0,0,0,0,0,0,0,0,0,0,0,0,1,0,0,0,0],[6,0,0,0,0,0,0,0,0,0,0,0,0,1,0,0,0,0,0],[6,0,0,0,0,0,0,0,0,0,0,0,1,0,0,0,0,0,0],[6,0,0,0,0,0,0,0,0,0,0,1,0,0,0,0,0,0,0],[6,0,0,0,0,0,0,0,0,0,1,0,0,0,0,0,0,0,0],[6,0,0,0,0,0,0,0,0,1,0,0,0,0,0,0,0,0,0],[6,0,0,0,0,0,0,0,1,0,0,0,0,0,0,0,0,0,0],[6,0,0,0,0,0,0,1,0,0,0,0,0,0,0,0,0,0,0],[4,0,0,0,0,0,1,0,0,0,0,0,0,0,0,0,0,0,0],[4,0,0,0,1,0,0,0,0,0,0,0,0,0,0,0,0,0,0],[4,0,0,1,0,0,0,0,0,0,0,0,0,0,0,0,0,0,0],[4,0,1,0,0,0,0,0,0,0,0,0,0,0,0,0,0,0,0],[4,1,0,0,0,0,0,0,0,0,0,0,0,0,0,0,0,0,0]], 1],
    [[[4,0,0,0,1,0,0,0,0,0,0,0,0,0,0,0,0,0,0]], [[6,0,0,0,0,0,0,0,0,0,0,0,0,0,0,0,0,0,1],[6,0,0,0,0,0,0,0,0,0,0,0,0,0,0,0,0,1,0],[6,0,0,0,0,0,0,0,0,0,0,0,0,0,0,0,1,0,0],[6,0,0,0,0,0,0,0,0,0,0,0,0,0,0,1,0,0,0],[6,0,0,0,0,0,0,0,0,0,0,0,0,0,1,0,0,0,0],[6,0,0,0,0,0,0,0,0,0,0,0,0,1,0,0,0,0,0],[6,0,0,0,0,0,0,0,0,0,0,0,1,0,0,0,0,0,0],[6,0,0,0,0,0,0,0,0,0,0,1,0,0,0,0,0,0,0],[6,0,0,0,0,0,0,0,0,0,1,0,0,0,0,0,0,0,0],[6,0,0,0,0,0,0,0,0,1,0,0,0,0,0,0,0,0,0],[6,0,0,0,0,0,0,0,1,0,0,0,0,0,0,0,0,0,0],[6,0,0,0,0,0,0,1,0,0,0,0,0,0,0,0,0,0,0],[4,0,0,0,0,0,1,0,0,0,0,0,0,0,0,0,0,0,0],[4,0,0,0,0,1,0,0,0,0,0,0,0,0,0,0,0,0,0],[4,0,0,1,0,0,0,0,0,0,0,0,0,0,0,0,0,0,0],[4,0,1,0,0,0,0,0,0,0,0,0,0,0,0,0,0,0,0],[4,1,0,0,0,0,0,0,0,0,0,0,0,0,0,0,0,0,0]], 2],
    [[[4,0,0,1,0,0,0,0,0,0,0,0,0,0,0,0,0,0,0]], [[6,0,0,0,0,0,0,0,0,0,0,0,0,0,0,0,0,0,1],[6,0,0,0,0,0,0,0,0,0,0,0,0,0,0,0,0,1,0],[6,0,0,0,0,0,0,0,0,0,0,0,0,0,0,0,1,0,0],[6,0,0,0,0,0,0,0,0,0,0,0,0,0,0,1,0,0,0],[6,0,0,0,0,0,0,0,0,0,0,0,0,0,1,0,0,0,0],[6,0,0,0,0,0,0,0,0,0,0,0,0,1,0,0,0,0,0],[6,0,0,0,0,0,0,0,0,0,0,0,1,0,0,0,0,0,0],[6,0,0,0,0,0,0,0,0,0,0,1,0,0,0,0,0,0,0],[6,0,0,0,0,0,0,0,0,0,1,0,0,0,0,0,0,0,0],[6,0,0,0,0,0,0,0,0,1,0,0,0,0,0,0,0,0,0],[6,0,0,0,0,0,0,0,1,0,0,0,0,0,0,0,0,0,0],[6,0,0,0,0,0,0,1,0,0,0,0,0,0,0,0,0,0,0],[4,0,0,0,0,0,1,0,0,0,0,0,0,0,0,0,0,0,0],[4,0,0,0,0,1,0,0,0,0,0,0,0,0,0,0,0,0,0],[4,0,0,0,1,0,0,0,0,0,0,0,0,0,0,0,0,0,0],[4,0,1,0,0,0,0,0,0,0,0,0,0,0,0,0,0,0,0],[4,1,0,0,0,0,0,0,0,0,0,0,0,0,0,0,0,0,0]], 3],
    [[[4,0,1,0,0,0,0,0,0,0,0,0,0,0,0,0,0,0,0]], [[6,0,0,0,0,0,0,0,0,0,0,0,0,0,0,0,0,0,1],[6,0,0,0,0,0,0,0,0,0,0,0,0,0,0,0,0,1,0],[6,0,0,0,0,0,0,0,0,0,0,0,0,0,0,0,1,0,0],[6,0,0,0,0,0,0,0,0,0,0,0,0,0,0,1,0,0,0],[6,0,0,0,0,0,0,0,0,0,0,0,0,0,1,0,0,0,0],[6,0,0,0,0,0,0,0,0,0,0,0,0,1,0,0,0,0,0],[6,0,0,0,0,0,0,0,0,0,0,0,1,0,0,0,0,0,0],[6,0,0,0,0,0,0,0,0,0,0,1,0,0,0,0,0,0,0],[6,0,0,0,0,0,0,0,0,0,1,0,0,0,0,0,0,0,0],[6,0,0,0,0,0,0,0,0,1,0,0,0,0,0,0,0,0,0],[6,0,0,0,0,0,0,0,1,0,0,0,0,0,0,0,0,0,0],[6,0,0,0,0,0,0,1,0,0,0,0,0,0,0,0,0,0,0],[4,0,0,0,0,0,1,0,0,0,0,0,0,0,0,0,0,0,0],[4,0,0,0,0,1,0,0,0,0,0,0,0,0,0,0,0,0,0],[4,0,0,0,1,0,0,0,0,0,0,0,0,0,0,0,0,0,0],[4,0,0,1,0,0,0,0,0,0,0,0,0,0,0,0,0,0,0],[4,1,0,0,0,0,0,0,0,0,0,0,0,0,0,0,0,0,0]], 4],
    [[[4,1,0,0,0,0,0,0,0,0,0,0,0,0,0,0,0,0,0]], [[6,0,0,0,0,0,0,0,0,0,0,0,0,0,0,0,0,0,1],[6,0,0,0,0,0,0,0,0,0,0,0,0,0,0,0,0,1,0],[6,0,0,0,0,0,0,0,0,0,0,0,0,0,0,0,1,0,0],[6,0,0,0,0,0,0,0,0,0,0,0,0,0,0,1,0,0,0],[6,0,0,0,0,0,0,0,0,0,0,0,0,0,1,0,0,0,0],[6,0,0,0,0,0,0,0,0,0,0,0,0,1,0,0,0,0,0],[6,0,0,0,0,0,0,0,0,0,0,0,1,0,0,0,0,0,0],[6,0,0,0,0,0,0,0,0,0,0,1,0,0,0,0,0,0,0],[6,0,0,0,0,0,0,0,0,0,1,0,0,0,0,0,0,0,0],[6,0,0,0,0,0,0,0,0,1,0,0,0,0,0,0,0,0,0],[6,0,0,0,0,0,0,0,1,0,0,0,0,0,0,0,0,0,0],[6,0,0,0,0,0,0,1,0,0,0,0,0,0,0,0,0,0,0],[4,0,0,0,0,0,1,0,0,0,0,0,0,0,0,0,0,0,0],[4,0,0,0,0,1,0,0,0,0,0,0,0,0,0,0,0,0,0],[4,0,0,0,1,0,0,0,0,0,0,0,0,0,0,0,0,0,0],[4,0,0,1,0,0,0,0,0,0,0,0,0,0,0,0,0,0,0],[4,0,1,0,0,0,0,0,0,0,0,0,0,0,0,0,0,0,0]], 5],
    [[[6,0,0,0,0,0,0,0,0,0,0,0,0,0,0,0,0,0,1]], [[6,0,0,0,0,0,0,0,0,0,0,0,0,0,0,0,0,1,0],[6,0,0,0,0,0,0,0,0,0,0,0,0,0,0,0,1,0,0],[6,0,0,0,0,0,0,0,0,0,0,0,0,0,0,1,0,0,0],[6,0,0,0,0,0,0,0,0,0,0,0,0,0,1,0,0,0,0],[6,0,0,0,0,0,0,0,0,0,0,0,0,1,0,0,0,0,0],[6,0,0,0,0,0,0,0,0,0,0,0,1,0,0,0,0,0,0],[6,0,0,0,0,0,0,0,0,0,0,1,0,0,0,0,0,0,0],[6,0,0,0,0,0,0,0,0,0,1,0,0,0,0,0,0,0,0],[6,0,0,0,0,0,0,0,0,1,0,0,0,0,0,0,0,0,0],[6,0,0,0,0,0,0,0,1,0,0,0,0,0,0,0,0,0,0],[6,0,0,0,0,0,0,1,0,0,0,0,0,0,0,0,0,0,0],[4,0,0,0,0,0,1,0,0,0,0,0,0,0,0,0,0,0,0],[4,0,0,0,0,1,0,0,0,0,0,0,0,0,0,0,0,0,0],[4,0,0,0,1,0,0,0,0,0,0,0,0,0,0,0,0,0,0],[4,0,0,1,0,0,0,0,0,0,0,0,0,0,0,0,0,0,0],[4,0,1,0,0,0,0,0,0,0,0,0,0,0,0,0,0,0,0],[4,1,0,0,0,0,0,0,0,0,0,0,0,0,0,0,0,0,0]], 6],
    [[[6,0,0,0,0,0,0,0,0,0,0,0,0,0,0,0,0,1,0]], [[6,0,0,0,0,0,0,0,0,0,0,0,0,0,0,0,0,0,1],[6,0,0,0,0,0,0,0,0,0,0,0,0,0,0,0,1,0,0],[6,0,0,0,0,0,0,0,0,0,0,0,0,0,0,1,0,0,0],[6,0,0,0,0,0,0,0,0,0,0,0,0,0,1,0,0,0,0],[6,0,0,0,0,0,0,0,0,0,0,0,0,1,0,0,0,0,0],[6,0,0,0,0,0,0,0,0,0,0,0,1,0,0,0,0,0,0],[6,0,0,0,0,0,0,0,0,0,0,1,0,0,0,0,0,0,0],[6,0,0,0,0,0,0,0,0,0,1,0,0,0,0,0,0,0,0],[6,0,0,0,0,0,0,0,0,1,0,0,0,0,0,0,0,0,0],[6,0,0,0,0,0,0,0,1,0,0,0,0,0,0,0,0,0,0],[6,0,0,0,0,0,0,1,0,0,0,0,0,0,0,0,0,0,0],[4,0,0,0,0,0,1,0,0,0,0,0,0,0,0,0,0,0,0],[4,0,0,0,0,1,0,0,0,0,0,0,0,0,0,0,0,0,0],[4,0,0,0,1,0,0,0,0,0,0,0,0,0,0,0,0,0,0],[4,0,0,1,0,0,0,0,0,0,0,0,0,0,0,0,0,0,0],[4,0,1,0,0,0,0,0,0,0,0,0,0,0,0,0,0,0,0],[4,1,0,0,0,0,0,0,0,0,0,0,0,0,0,0,0,0,0]], 7],
    [[[6,0,0,0,0,0,0,0,0,0,0,0,0,0,0,0,1,0,0]], [[6,0,0,0,0,0,0,0,0,0,0,0,0,0,0,0,0,0,1],[6,0,0,0,0,0,0,0,0,0,0,0,0,0,0,0,0,1,0],[6,0,0,0,0,0,0,0,0,0,0,0,0,0,0,1,0,0,0],[6,0,0,0,0,0,0,0,0,0,0,0,0,0,1,0,0,0,0],[6,0,0,0,0,0,0,0,0,0,0,0,0,1,0,0,0,0,0],[6,0,0,0,0,0,0,0,0,0,0,0,1,0,0,0,0,0,0],[6,0,0,0,0,0,0,0,0,0,0,1,0,0,0,0,0,0,0],[6,0,0,0,0,0,0,0,0,0,1,0,0,0,0,0,0,0,0],[6,0,0,0,0,0,0,0,0,1,0,0,0,0,0,0,0,0,0],[6,0,0,0,0,0,0,0,1,0,0,0,0,0,0,0,0,0,0],[6,0,0,0,0,0,0,1,0,0,0,0,0,0,0,0,0,0,0],[4,0,0,0,0,0,1,0,0,0,0,0,0,0,0,0,0,0,0],[4,0,0,0,0,1,0,0,0,0,0,0,0,0,0,0,0,0,0],[4,0,0,0,1,0,0,0,0,0,0,0,0,0,0,0,0,0,0],[4,0,0,1,0,0,0,0,0,0,0,0,0,0,0,0,0,0,0],[4,0,1,0,0,0,0,0,0,0,0,0,0,0,0,0,0,0,0],[4,1,0,0,0,0,0,0,0,0,0,0,0,0,0,0,0,0,0]], 8],
    [[[6,0,0,0,0,0,0,0,0,0,0,0,0,0,0,1,0,0,0]], [[6,0,0,0,0,0,0,0,0,0,0,0,0,0,0,0,0,0,1],[6,0,0,0,0,0,0,0,0,0,0,0,0,0,0,0,0,1,0],[6,0,0,0,0,0,0,0,0,0,0,0,0,0,0,0,1,0,0],[6,0,0,0,0,0,0,0,0,0,0,0,0,0,1,0,0,0,0],[6,0,0,0,0,0,0,0,0,0,0,0,0,1,0,0,0,0,0],[6,0,0,0,0,0,0,0,0,0,0,0,1,0,0,0,0,0,0],[6,0,0,0,0,0,0,0,0,0,0,1,0,0,0,0,0,0,0],[6,0,0,0,0,0,0,0,0,0,1,0,0,0,0,0,0,0,0],[6,0,0,0,0,0,0,0,0,1,0,0,0,0,0,0,0,0,0],[6,0,0,0,0,0,0,0,1,0,0,0,0,0,0,0,0,0,0],[6,0,0,0,0,0,0,1,0,0,0,0,0,0,0,0,0,0,0],[4,0,0,0,0,0,1,0,0,0,0,0,0,0,0,0,0,0,0],[4,0,0,0,0,1,0,0,0,0,0,0,0,0,0,0,0,0,0],[4,0,0,0,1,0,0,0,0,0,0,0,0,0,0,0,0,0,0],[4,0,0,1,0,0,0,0,0,0,0,0,0,0,0,0,0,0,0],[4,0,1,0,0,0,0,0,0,0,0,0,0,0,0,0,0,0,0],[4,1,0,0,0,0,0,0,0,0,0,0,0,0,0,0,0,0,0]], 9],
    [[[6,0,0,0,0,0,0,0,0,0,0,0,0,0,1,0,0,0,0]], [[6,0,0,0,0,0,0,0,0,0,0,0,0,0,0,0,0,0,1],[6,0,0,0,0,0,0,0,0,0,0,0,0,0,0,0,0,1,0],[6,0,0,0,0,0,0,0,0,0,0,0,0,0,0,0,1,0,0],[6,0,0,0,0,0,0,0,0,0,0,0,0,0,0,1,0,0,0],[6,0,0,0,0,0,0,0,0,0,0,0,0,1,0,0,0,0,0],[6,0,0,0,0,0,0,0,0,0,0,0,1,0,0,0,0,0,0],[6,0,0,0,0,0,0,0,0,0,0,1,0,0,0,0,0,0,0],[6,0,0,0,0,0,0,0,0,0,1,0,0,0,0,0,0,0,0],[6,0,0,0,0,0,0,0,0,1,0,0,0,0,0,0,0,0,0],[6,0,0,0,0,0,0,0,1,0,0,0,0,0,0,0,0,0,0],[6,0,0,0,0,0,0,1,0,0,0,0,0,0,0,0,0,0,0],[4,0,0,0,0,0,1,0,0,0,0,0,0,0,0,0,0,0,0],[4,0,0,0,0,1,0,0,0,0,0,0,0,0,0,0,0,0,0],[4,0,0,0,1,0,0,0,0,0,0,0,0,0,0,0,0,0,0],[4,0,0,1,0,0,0,0,0,0,0,0,0,0,0,0,0,0,0],[4,0,1,0,0,0,0,0,0,0,0,0,0,0,0,0,0,0,0],[4,1,0,0,0,0,0,0,0,0,0,0,0,0,0,0,0,0,0]], 10],
    [[[6,0,0,0,0,0,0,0,0,0,0,0,0,1,0,0,0,0,0]], [[6,0,0,0,0,0,0,0,0,0,0,0,0,0,0,0,0,0,1],[6,0,0,0,0,0,0,0,0,0,0,0,0,0,0,0,0,1,0],[6,0,0,0,0,0,0,0,0,0,0,0,0,0,0,0,1,0,0],[6,0,0,0,0,0,0,0,0,0,0,0,0,0,0,1,0,0,0],[6,0,0,0,0,0,0,0,0,0,0,0,0,0,1,0,0,0,0],[6,0,0,0,0,0,0,0,0,0,0,0,1,0,0,0,0,0,0],[6,0,0,0,0,0,0,0,0,0,0,1,0,0,0,0,0,0,0],[6,0,0,0,0,0,0,0,0,0,1,0,0,0,0,0,0,0,0],[6,0,0,0,0,0,0,0,0,1,0,0,0,0,0,0,0,0,0],[6,0,0,0,0,0,0,0,1,0,0,0,0,0,0,0,0,0,0],[6,0,0,0,0,0,0,1,0,0,0,0,0,0,0,0,0,0,0],[4,0,0,0,0,0,1,0,0,0,0,0,0,0,0,0,0,0,0],[4,0,0,0,0,1,0,0,0,0,0,0,0,0,0,0,0,0,0],[4,0,0,0,1,0,0,0,0,0,0,0,0,0,0,0,0,0,0],[4,0,0,1,0,0,0,0,0,0,0,0,0,0,0,0,0,0,0],[4,0,1,0,0,0,0,0,0,0,0,0,0,0,0,0,0,0,0],[4,1,0,0,0,0,0,0,0,0,0,0,0,0,0,0,0,0,0]], 11],
    [[[6,0,0,0,0,0,0,0,0,0,0,0,1,0,0,0,0,0,0]], [[6,0,0,0,0,0,0,0,0,0,0,0,0,0,0,0,0,0,1],[6,0,0,0,0,0,0,0,0,0,0,0,0,0,0,0,0,1,0],[6,0,0,0,0,0,0,0,0,0,0,0,0,0,0,0,1,0,0],[6,0,0,0,0,0,0,0,0,0,0,0,0,0,0,1,0,0,0],[6,0,0,0,0,0,0,0,0,0,0,0,0,0,1,0,0,0,0],[6,0,0,0,0,0,0,0,0,0,0,0,0,1,0,0,0,0,0],[6,0,0,0,0,0,0,0,0,0,0,1,0,0,0,0,0,0,0],[6,0,0,0,0,0,0,0,0,0,1,0,0,0,0,0,0,0,0],[6,0,0,0,0,0,0,0,0,1,0,0,0,0,0,0,0,0,0],[6,0,0,0,0,0,0,0,1,0,0,0,0,0,0,0,0,0,0],[6,0,0,0,0,0,0,1,0,0,0,0,0,0,0,0,0,0,0],[4,0,0,0,0,0,1,0,0,0,0,0,0,0,0,0,0,0,0],[4,0,0,0,0,1,0,0,0,0,0,0,0,0,0,0,0,0,0],[4,0,0,0,1,0,0,0,0,0,0,0,0,0,0,0,0,0,0],[4,0,0,1,0,0,0,0,0,0,0,0,0,0,0,0,0,0,0],[4,0,1,0,0,0,0,0,0,0,0,0,0,0,0,0,0,0,0],[4,1,0,0,0,0,0,0,0,0,0,0,0,0,0,0,0,0,0]], 12],
    [[[6,0,0,0,0,0,0,0,0,0,0,1,0,0,0,0,0,0,0]], [[6,0,0,0,0,0,0,0,0,0,0,0,0,0,0,0,0,0,1],[6,0,0,0,0,0,0,0,0,0,0,0,0,0,0,0,0,1,0],[6,0,0,0,0,0,0,0,0,0,0,0,0,0,0,0,1,0,0],[6,0,0,0,0,0,0,0,0,0,0,0,0,0,0,1,0,0,0],[6,0,0,0,0,0,0,0,0,0,0,0,0,0,1,0,0,0,0],[6,0,0,0,0,0,0,0,0,0,0,0,0,1,0,0,0,0,0],[6,0,0,0,0,0,0,0,0,0,0,0,1,0,0,0,0,0,0],[6,0,0,0,0,0,0,0,0,0,1,0,0,0,0,0,0,0,0],[6,0,0,0,0,0,0,0,0,1,0,0,0,0,0,0,0,0,0],[6,0,0,0,0,0,0,0,1,0,0,0,0,0,0,0,0,0,0],[6,0,0,0,0,0,0,1,0,0,0,0,0,0,0,0,0,0,0],[4,0,0,0,0,0,1,0,0,0,0,0,0,0,0,0,0,0,0],[4,0,0,0,0,1,0,0,0,0,0,0,0,0,0,0,0,0,0],[4,0,0,0,1,0,0,0,0,0,0,0,0,0,0,0,0,0,0],[4,0,0,1,0,0,0,0,0,0,0,0,0,0,0,0,0,0,0],[4,0,1,0,0,0,0,0,0,0,0,0,0,0,0,0,0,0,0],[4,1,0,0,0,0,0,0,0,0,0,0,0,0,0,0,0,0,0]], 13],
    [[[6,0,0,0,0,0,0,0,0,0,1,0,0,0,0,0,0,0,0]], [[6,0,0,0,0,0,0,0,0,0,0,0,0,0,0,0,0,0,1],[6,0,0,0,0,0,0,0,0,0,0,0,0,0,0,0,0,1,0],[6,0,0,0,0,0,0,0,0,0,0,0,0,0,0,0,1,0,0],[6,0,0,0,0,0,0,0,0,0,0,0,0,0,0,1,0,0,0],[6,0,0,0,0,0,0,0,0,0,0,0,0,0,1,0,0,0,0],[6,0,0,0,0,0,0,0,0,0,0,0,0,1,0,0,0,0,0],[6,0,0,0,0,0,0,0,0,0,0,0,1,0,0,0,0,0,0],[6,0,0,0,0,0,0,0,0,0,0,1,0,0,0,0,0,0,0],[6,0,0,0,0,0,0,0,0,1,0,0,0,0,0,0,0,0,0],[6,0,0,0,0,0,0,0,1,0,0,0,0,0,0,0,0,0,0],[6,0,0,0,0,0,0,1,0,0,0,0,0,0,0,0,0,0,0],[4,0,0,0,0,0,1,0,0,0,0,0,0,0,0,0,0,0,0],[4,0,0,0,0,1,0,0,0,0,0,0,0,0,0,0,0,0,0],[4,0,0,0,1,0,0,0,0,0,0,0,0,0,0,0,0,0,0],[4,0,0,1,0,0,0,0,0,0,0,0,0,0,0,0,0,0,0],[4,0,1,0,0,0,0,0,0,0,0,0,0,0,0,0,0,0,0],[4,1,0,0,0,0,0,0,0,0,0,0,0,0,0,0,0,0,0]], 14],
    [[[6,0,0,0,0,0,0,0,0,1,0,0,0,0,0,0,0,0,0]], [[6,0,0,0,0,0,0,0,0,0,0,0,0,0,0,0,0,0,1],[6,0,0,0,0,0,0,0,0,0,0,0,0,0,0,0,0,1,0],[6,0,0,0,0,0,0,0,0,0,0,0,0,0,0,0,1,0,0],[6,0,0,0,0,0,0,0,0,0,0,0,0,0,0,1,0,0,0],[6,0,0,0,0,0,0,0,0,0,0,0,0,0,1,0,0,0,0],[6,0,0,0,0,0,0,0,0,0,0,0,0,1,0,0,0,0,0],[6,0,0,0,0,0,0,0,0,0,0,0,1,0,0,0,0,0,0],[6,0,0,0,0,0,0,0,0,0,0,1,0,0,0,0,0,0,0],[6,0,0,0,0,0,0,0,0,0,1,0,0,0,0,0,0,0,0],[6,0,0,0,0,0,0,0,1,0,0,0,0,0,0,0,0,0,0],[6,0,0,0,0,0,0,1,0,0,0,0,0,0,0,0,0,0,0],[4,0,0,0,0,0,1,0,0,0,0,0,0,0,0,0,0,0,0],[4,0,0,0,0,1,0,0,0,0,0,0,0,0,0,0,0,0,0],[4,0,0,0,1,0,0,0,0,0,0,0,0,0,0,0,0,0,0],[4,0,0,1,0,0,0,0,0,0,0,0,0,0,0,0,0,0,0],[4,0,1,0,0,0,0,0,0,0,0,0,0,0,0,0,0,0,0],[4,1,0,0,0,0,0,0,0,0,0,0,0,0,0,0,0,0,0]], 15],
    [[[6,0,0,0,0,0,0,0,1,0,0,0,0,0,0,0,0,0,0]], [[6,0,0,0,0,0,0,0,0,0,0,0,0,0,0,0,0,0,1],[6,0,0,0,0,0,0,0,0,0,0,0,0,0,0,0,0,1,0],[6,0,0,0,0,0,0,0,0,0,0,0,0,0,0,0,1,0,0],[6,0,0,0,0,0,0,0,0,0,0,0,0,0,0,1,0,0,0],[6,0,0,0,0,0,0,0,0,0,0,0,0,0,1,0,0,0,0],[6,0,0,0,0,0,0,0,0,0,0,0,0,1,0,0,0,0,0],[6,0,0,0,0,0,0,0,0,0,0,0,1,0,0,0,0,0,0],[6,0,0,0,0,0,0,0,0,0,0,1,0,0,0,0,0,0,0],[6,0,0,0,0,0,0,0,0,0,1,0,0,0,0,0,0,0,0],[6,0,0,0,0,0,0,0,0,1,0,0,0,0,0,0,0,0,0],[6,0,0,0,0,0,0,1,0,0,0,0,0,0,0,0,0,0,0],[4,0,0,0,0,0,1,0,0,0,0,0,0,0,0,0,0,0,0],[4,0,0,0,0,1,0,0,0,0,0,0,0,0,0,0,0,0,0],[4,0,0,0,1,0,0,0,0,0,0,0,0,0,0,0,0,0,0],[4,0,0,1,0,0,0,0,0,0,0,0,0,0,0,0,0,0,0],[4,0,1,0,0,0,0,0,0,0,0,0,0,0,0,0,0,0,0],[4,1,0,0,0,0,0,0,0,0,0,0,0,0,0,0,0,0,0]], 16],
    [[[6,0,0,0,0,0,0,1,0,0,0,0,0,0,0,0,0,0,0]], [[6,0,0,0,0,0,0,0,0,0,0,0,0,0,0,0,0,0,1],[6,0,0,0,0,0,0,0,0,0,0,0,0,0,0,0,0,1,0],[6,0,0,0,0,0,0,0,0,0,0,0,0,0,0,0,1,0,0],[6,0,0,0,0,0,0,0,0,0,0,0,0,0,0,1,0,0,0],[6,0,0,0,0,0,0,0,0,0,0,0,0,0,1,0,0,0,0],[6,0,0,0,0,0,0,0,0,0,0,0,0,1,0,0,0,0,0],[6,0,0,0,0,0,0,0,0,0,0,0,1,0,0,0,0,0,0],[6,0,0,0,0,0,0,0,0,0,0,1,0,0,0,0,0,0,0],[6,0,0,0,0,0,0,0,0,0,1,0,0,0,0,0,0,0,0],[6,0,0,0,0,0,0,0,0,1,0,0,0,0,0,0,0,0,0],[6,0,0,0,0,0,0,0,1,0,0,0,0,0,0,0,0,0,0],[4,0,0,0,0,0,1,0,0,0,0,0,0,0,0,0,0,0,0],[4,0,0,0,0,1,0,0,0,0,0,0,0,0,0,0,0,0,0],[4,0,0,0,1,0,0,0,0,0,0,0,0,0,0,0,0,0,0],[4,0,0,1,0,0,0,0,0,0,0,0,0,0,0,0,0,0,0],[4,0,1,0,0,0,0,0,0,0,0,0,0,0,0,0,0,0,0],[4,1,0,0,0,0,0,0,0,0,0,0,0,0,0,0,0,0,0]], 17]
  ]]
]
