k1 = 1/100
k2 = 1/500000
k3 = 1/250000
k4 = 17/1000000
k5 = 1/5000
k6 = 1/5000
k7 = 1/1000
k8 = 1/1000
k9 = 1/100
k10 = 1/100000
k11 = 1/100000
k12 = 1/100000
k13 = 0
k14 = 1/100000000
k15 = 1/100000000
k16 = 1/1000
k17 = 1/100000
k18 = 1
k19 = 10000
k20 = 1000
k21 = 1000
k22 = 1
k23 = 10
k24 = 100
k25 = 200
k26 = 100
k27 = 100
k28 = 100
