[
  ["x13","x14","x15","x16","x17","x18","x19","x20"],
  [
    [[[0,0,0,0,0,0,0,0,0],0]],
    [[[0,0,0,0,0,0,0,0,0],0]],
    [[[0,0,0,0,0,0,0,0,0],0]],
    [[[0,0,0,0,0,0,0,0,0],0]],
    [[[0,0,0,0,0,0,0,0,0],0]],
    [[[0,0,0,0,0,0,0,0,0],0]],
    [[[0,0,0,0,0,0,0,0,0],0]],
    [[[0,0,0,0,0,0,0,0,0],0]],
    [[[0,0,0,0,0,0,0,0,0],0]],
    [[[0,0,0,0,0,0,0,0,0],0]],
    [[[0,0,0,0,0,0,0,0,0],0]],
    [[[0,0,0,0,0,0,0,0,0],0]],
    [[[-1,0,0,0,0,0,0,0,0],1],[[0,1,0,0,0,0,0,0,0],-1],[[0,1,0,0,0,0,1,0,0],-1],[[0,2,0,0,0,1,0,0,0],-1],[[1,1,0,0,0,0,0,0,0],-1],[[2,1,1,0,0,0,0,0,0],1],[[2,1,1,1,0,0,0,0,0],1],[[3,0,0,0,0,0,0,0,0],1],[[3,2,1,0,0,0,0,0,0],-1],[[3,2,1,1,0,0,0,0,0],-1],[[4,2,0,0,0,0,0,0,0],-1]],
    [[[1,0,1,0,0,0,0,0,0],-1],[[2,1,1,0,0,0,0,0,0],1],[[2,1,1,1,0,0,0,0,0],1],[[3,0,0,0,0,0,0,0,0],1],[[3,1,2,0,0,0,0,0,0],-1],[[3,1,2,1,0,0,0,0,0],-1],[[4,1,1,0,0,0,0,0,0],-1]],
    [[[0,1,0,1,1,0,0,0,0],-1],[[1,0,0,1,0,0,0,0,0],-1],[[1,1,1,0,0,0,0,0,0],1],[[1,1,1,1,0,0,0,0,0],1],[[2,1,1,1,0,0,0,0,0],-1],[[2,1,1,2,0,0,0,0,0],-1],[[3,0,0,0,0,0,0,0,0],1],[[4,1,0,1,0,0,0,0,0],-1]],
    [[[0,0,0,1,1,0,0,0,0],-1],[[0,1,0,0,0,0,0,0,0],1],[[1,0,0,0,0,0,0,0,0],1],[[1,0,0,0,1,0,0,0,0],-1],[[1,1,0,0,1,0,0,0,0],-1],[[3,0,0,0,1,0,0,0,0],1],[[4,0,0,0,2,0,0,0,0],-1]],
    [[[0,0,0,0,0,1,0,0,0],1],[[0,1,0,0,0,2,0,0,0],-1],[[1,0,0,0,0,1,0,0,0],-1],[[1,0,0,0,0,2,0,0,0],-1],[[3,0,0,0,0,0,0,0,0],1]],
    [[[1,0,0,0,0,0,1,0,0],-1],[[1,0,0,0,0,1,0,0,0],1],[[1,0,0,0,1,0,0,0,0],1],[[2,0,0,0,0,1,1,0,0],-1],[[2,0,0,0,1,0,1,0,0],-1],[[3,0,0,0,0,0,0,0,0],1]],
    [[[0,0,0,0,0,0,0,0,0],0]],
    [[[0,0,0,0,0,0,0,0,0],0]],
    [[[0,0,0,0,0,0,0,0,1],1]],
    [[[0,0,0,0,0,0,0,1,0],1],[[1,0,0,0,0,0,0,0,0],-1]]
  ]
]
