[
  ["#0",
    [[0,0,0,1,0,1],
     [0,0,1,0,1,0],
     [0,1,0,0,0,1],
     [1,0,0,0,1,0],
     [0,1,0,1,0,0],
     [1,0,1,0,0,0]], [
    [[[2,1,1,0,0,-1,0,0,0,0,0,0,0,0,0,0,0,0,0,0]], [[1,-1,-1,0,0,0,0,0,0,0,0,0,0,0,0,0,0,0,0,1],[-2,-1,-1,1,0,0,0,0,0,0,0,0,0,0,0,0,0,0,0,0],[1,0,-1,0,0,0,0,0,0,0,0,0,0,0,0,0,1,0,0,0]], 0],
    [[[3,1,0,0,0,-1,0,0,0,0,0,0,0,0,0,0,1,0,0,0]], [[3,0,0,0,0,-1,0,0,0,0,0,0,0,0,0,0,0,0,0,1],[0,0,0,1,0,-1,0,0,0,0,0,0,0,0,0,0,0,0,0,0],[2,1,1,0,0,-1,0,0,0,0,0,0,0,0,0,0,0,0,0,0]], 1],
    [[[2,1,1,-1,0,0,0,0,0,0,0,0,0,0,0,0,0,0,0,0]], [[1,-1,-1,0,0,0,0,0,0,0,0,0,0,0,0,0,0,0,0,1],[-2,-1,-1,0,0,1,0,0,0,0,0,0,0,0,0,0,0,0,0,0],[1,0,-1,0,0,0,0,0,0,0,0,0,0,0,0,0,1,0,0,0]], 2],
    [[[3,1,0,-1,0,0,0,0,0,0,0,0,0,0,0,0,1,0,0,0]], [[3,0,0,-1,0,0,0,0,0,0,0,0,0,0,0,0,0,0,0,1],[0,0,0,-1,0,1,0,0,0,0,0,0,0,0,0,0,0,0,0,0],[2,1,1,-1,0,0,0,0,0,0,0,0,0,0,0,0,0,0,0,0]], 3],
    [[[-1,1,1,0,0,0,0,0,0,0,0,0,0,0,0,0,0,0,0,-1]], [[-2,-1,-1,0,0,1,0,0,0,0,0,0,0,0,0,0,0,0,0,0],[-2,-1,-1,1,0,0,0,0,0,0,0,0,0,0,0,0,0,0,0,0],[1,0,-1,0,0,0,0,0,0,0,0,0,0,0,0,0,1,0,0,0]], 4],
    [[[0,1,0,0,0,0,0,0,0,0,0,0,0,0,0,0,1,0,0,-1]], [[-3,-1,0,0,0,1,0,0,0,0,0,0,0,0,0,0,-1,0,0,0],[-3,-1,0,1,0,0,0,0,0,0,0,0,0,0,0,0,-1,0,0,0],[-1,0,1,0,0,0,0,0,0,0,0,0,0,0,0,0,-1,0,0,0]], 5]
  ]],
  ["#1",
    [[0,0,0,0,0,0,0,0,1,1,1,1,1,1,0,1,1,1,1,1,0,1,1,1,1,1,1,0,1,1,1,1,1,0,0,1,1,1,1,1,1,1,1,1,1],
     [0,0,0,0,0,0,0,1,0,1,1,1,1,1,1,0,1,1,1,1,1,0,1,1,1,1,1,1,0,1,1,1,1,1,1,0,0,1,1,1,1,1,1,1,1],
     [0,0,0,0,0,0,0,1,1,0,1,1,1,1,1,1,0,1,1,1,1,1,0,1,1,1,1,1,1,0,1,1,1,1,1,1,1,0,0,1,1,1,1,1,1],
     [0,0,0,0,0,0,0,1,1,1,0,1,1,1,1,1,1,0,1,1,1,1,1,0,1,1,1,1,1,1,1,1,1,1,1,1,1,1,1,0,1,1,1,1,1],
     [0,0,0,0,0,0,0,1,1,1,1,0,1,1,1,1,1,1,1,1,1,1,1,1,0,1,1,1,1,1,0,1,1,1,1,1,1,1,1,1,0,1,1,1,1],
     [0,0,0,0,0,0,0,1,1,1,1,1,0,1,1,1,1,1,0,1,1,1,1,1,1,0,1,1,1,1,1,0,1,1,1,1,1,1,1,1,1,0,0,1,1],
     [0,0,0,0,0,0,0,1,1,1,1,1,1,0,1,1,1,1,1,0,1,1,1,1,1,1,0,1,1,1,1,1,0,1,1,1,1,1,1,1,1,1,1,0,0],
     [0,1,1,1,1,1,1,0,0,0,0,0,0,0,0,1,1,1,1,1,0,1,1,1,1,1,1,0,1,1,1,1,1,0,0,1,1,1,1,1,1,1,1,1,1],
     [1,0,1,1,1,1,1,0,0,0,0,0,0,0,1,0,1,1,1,1,1,0,1,1,1,1,1,1,0,1,1,1,1,1,1,0,0,1,1,1,1,1,1,1,1],
     [1,1,0,1,1,1,1,0,0,0,0,0,0,0,1,1,0,1,1,1,1,1,0,1,1,1,1,1,1,0,1,1,1,1,1,1,1,0,0,1,1,1,1,1,1],
     [1,1,1,0,1,1,1,0,0,0,0,0,0,0,1,1,1,0,1,1,1,1,1,0,1,1,1,1,1,1,1,1,1,1,1,1,1,1,1,0,1,1,1,1,1],
     [1,1,1,1,0,1,1,0,0,0,0,0,0,0,1,1,1,1,1,1,1,1,1,1,0,1,1,1,1,1,0,1,1,1,1,1,1,1,1,1,0,1,1,1,1],
     [1,1,1,1,1,0,1,0,0,0,0,0,0,0,1,1,1,1,0,1,1,1,1,1,1,0,1,1,1,1,1,0,1,1,1,1,1,1,1,1,1,0,0,1,1],
     [1,1,1,1,1,1,0,0,0,0,0,0,0,0,1,1,1,1,1,0,1,1,1,1,1,1,0,1,1,1,1,1,0,1,1,1,1,1,1,1,1,1,1,0,0],
     [0,1,1,1,1,1,1,0,1,1,1,1,1,1,0,0,0,0,0,0,0,1,1,1,1,1,1,0,1,1,1,1,1,0,0,1,1,1,1,1,1,1,1,1,1],
     [1,0,1,1,1,1,1,1,0,1,1,1,1,1,0,0,0,0,0,0,1,0,1,1,1,1,1,1,0,1,1,1,1,1,1,0,0,1,1,1,1,1,1,1,1],
     [1,1,0,1,1,1,1,1,1,0,1,1,1,1,0,0,0,0,0,0,1,1,0,1,1,1,1,1,1,0,1,1,1,1,1,1,1,0,0,1,1,1,1,1,1],
     [1,1,1,0,1,1,1,1,1,1,0,1,1,1,0,0,0,0,0,0,1,1,1,0,1,1,1,1,1,1,1,1,1,1,1,1,1,1,1,0,1,1,1,1,1],
     [1,1,1,1,1,0,1,1,1,1,1,1,0,1,0,0,0,0,0,0,1,1,1,1,1,0,1,1,1,1,1,0,1,1,1,1,1,1,1,1,1,0,0,1,1],
     [1,1,1,1,1,1,0,1,1,1,1,1,1,0,0,0,0,0,0,0,1,1,1,1,1,1,0,1,1,1,1,1,0,1,1,1,1,1,1,1,1,1,1,0,0],
     [0,1,1,1,1,1,1,0,1,1,1,1,1,1,0,1,1,1,1,1,0,0,0,0,0,0,0,0,1,1,1,1,1,0,0,1,1,1,1,1,1,1,1,1,1],
     [1,0,1,1,1,1,1,1,0,1,1,1,1,1,1,0,1,1,1,1,0,0,0,0,0,0,0,1,0,1,1,1,1,1,1,0,0,1,1,1,1,1,1,1,1],
     [1,1,0,1,1,1,1,1,1,0,1,1,1,1,1,1,0,1,1,1,0,0,0,0,0,0,0,1,1,0,1,1,1,1,1,1,1,0,0,1,1,1,1,1,1],
     [1,1,1,0,1,1,1,1,1,1,0,1,1,1,1,1,1,0,1,1,0,0,0,0,0,0,0,1,1,1,1,1,1,1,1,1,1,1,1,0,1,1,1,1,1],
     [1,1,1,1,0,1,1,1,1,1,1,0,1,1,1,1,1,1,1,1,0,0,0,0,0,0,0,1,1,1,0,1,1,1,1,1,1,1,1,1,0,1,1,1,1],
     [1,1,1,1,1,0,1,1,1,1,1,1,0,1,1,1,1,1,0,1,0,0,0,0,0,0,0,1,1,1,1,0,1,1,1,1,1,1,1,1,1,0,0,1,1],
     [1,1,1,1,1,1,0,1,1,1,1,1,1,0,1,1,1,1,1,0,0,0,0,0,0,0,0,1,1,1,1,1,0,1,1,1,1,1,1,1,1,1,1,0,0],
     [0,1,1,1,1,1,1,0,1,1,1,1,1,1,0,1,1,1,1,1,0,1,1,1,1,1,1,0,0,0,0,0,0,0,0,1,1,1,1,1,1,1,1,1,1],
     [1,0,1,1,1,1,1,1,0,1,1,1,1,1,1,0,1,1,1,1,1,0,1,1,1,1,1,0,0,0,0,0,0,1,1,0,0,1,1,1,1,1,1,1,1],
     [1,1,0,1,1,1,1,1,1,0,1,1,1,1,1,1,0,1,1,1,1,1,0,1,1,1,1,0,0,0,0,0,0,1,1,1,1,0,0,1,1,1,1,1,1],
     [1,1,1,1,0,1,1,1,1,1,1,0,1,1,1,1,1,1,1,1,1,1,1,1,0,1,1,0,0,0,0,0,0,1,1,1,1,1,1,1,0,1,1,1,1],
     [1,1,1,1,1,0,1,1,1,1,1,1,0,1,1,1,1,1,0,1,1,1,1,1,1,0,1,0,0,0,0,0,0,1,1,1,1,1,1,1,1,0,0,1,1],
     [1,1,1,1,1,1,0,1,1,1,1,1,1,0,1,1,1,1,1,0,1,1,1,1,1,1,0,0,0,0,0,0,0,1,1,1,1,1,1,1,1,1,1,0,0],
     [0,1,1,1,1,1,1,0,1,1,1,1,1,1,0,1,1,1,1,1,0,1,1,1,1,1,1,0,1,1,1,1,1,0,0,0,1,0,1,0,1,0,1,0,1],
     [0,1,1,1,1,1,1,0,1,1,1,1,1,1,0,1,1,1,1,1,0,1,1,1,1,1,1,0,1,1,1,1,1,0,0,1,0,1,0,1,0,1,0,1,0],
     [1,0,1,1,1,1,1,1,0,1,1,1,1,1,1,0,1,1,1,1,1,0,1,1,1,1,1,1,0,1,1,1,1,0,1,0,0,0,1,0,1,0,1,0,1],
     [1,0,1,1,1,1,1,1,0,1,1,1,1,1,1,0,1,1,1,1,1,0,1,1,1,1,1,1,0,1,1,1,1,1,0,0,0,1,0,1,0,1,0,1,0],
     [1,1,0,1,1,1,1,1,1,0,1,1,1,1,1,1,0,1,1,1,1,1,0,1,1,1,1,1,1,0,1,1,1,0,1,0,1,0,0,0,1,0,1,0,1],
     [1,1,0,1,1,1,1,1,1,0,1,1,1,1,1,1,0,1,1,1,1,1,0,1,1,1,1,1,1,0,1,1,1,1,0,1,0,0,0,1,0,1,0,1,0],
     [1,1,1,0,1,1,1,1,1,1,0,1,1,1,1,1,1,0,1,1,1,1,1,0,1,1,1,1,1,1,1,1,1,0,1,0,1,0,1,0,1,0,1,0,1],
     [1,1,1,1,0,1,1,1,1,1,1,0,1,1,1,1,1,1,1,1,1,1,1,1,0,1,1,1,1,1,0,1,1,1,0,1,0,1,0,1,0,1,0,1,0],
     [1,1,1,1,1,0,1,1,1,1,1,1,0,1,1,1,1,1,0,1,1,1,1,1,1,0,1,1,1,1,1,0,1,0,1,0,1,0,1,0,1,0,0,0,1],
     [1,1,1,1,1,0,1,1,1,1,1,1,0,1,1,1,1,1,0,1,1,1,1,1,1,0,1,1,1,1,1,0,1,1,0,1,0,1,0,1,0,0,0,1,0],
     [1,1,1,1,1,1,0,1,1,1,1,1,1,0,1,1,1,1,1,0,1,1,1,1,1,1,0,1,1,1,1,1,0,0,1,0,1,0,1,0,1,0,1,0,0],
     [1,1,1,1,1,1,0,1,1,1,1,1,1,0,1,1,1,1,1,0,1,1,1,1,1,1,0,1,1,1,1,1,0,1,0,1,0,1,0,1,0,1,0,0,0]], [
    [[[1,0,1,0,0,0,0,0,0,-1,0,0,0,0,0,0,0,0,0,0]], [[-1,0,-1,0,0,0,0,0,1,0,0,0,0,0,0,0,0,0,0,0],[-1,0,-1,0,0,1,0,0,0,0,0,0,0,0,0,0,0,0,0,0],[2,0,-1,0,0,1,0,0,0,0,0,0,0,0,0,0,1,0,0,0],[-1,0,-1,0,1,0,0,0,0,0,0,0,0,0,0,0,0,0,0,0],[-1,0,-1,1,0,0,0,0,0,0,0,0,0,0,0,0,0,0,0,0],[2,0,-1,1,0,0,0,0,0,0,0,0,0,0,0,0,1,0,0,0],[4,0,0,0,0,0,0,0,0,0,0,0,0,0,0,0,0,0,0,1],[1,0,0,0,0,0,0,0,0,0,0,1,0,0,0,0,0,0,0,0],[1,0,0,0,0,0,0,1,0,0,0,0,0,0,0,0,0,0,0,0],[1,0,0,0,0,1,0,0,0,0,0,0,0,0,0,0,0,0,0,0],[1,0,0,1,0,0,0,0,0,0,0,0,0,0,0,0,0,0,0,0],[1,1,0,0,0,0,0,0,0,0,0,0,0,0,0,0,0,0,0,0]], 0],
    [[[2,0,1,0,0,0,0,0,0,-1,0,1,0,0,0,0,0,0,0,0]], [[0,0,0,0,0,0,0,0,1,-1,0,0,0,0,0,0,0,0,0,0],[0,0,0,0,0,1,0,0,0,-1,0,0,0,0,0,0,0,0,0,0],[3,0,0,0,0,1,0,0,0,-1,0,0,0,0,0,0,1,0,0,0],[0,0,0,0,1,0,0,0,0,-1,0,0,0,0,0,0,0,0,0,0],[0,0,0,1,0,0,0,0,0,-1,0,0,0,0,0,0,0,0,0,0],[3,0,0,1,0,0,0,0,0,-1,0,0,0,0,0,0,1,0,0,0],[1,0,1,0,0,0,0,0,0,-1,0,0,0,0,0,0,0,0,0,0],[5,0,1,0,0,0,0,0,0,-1,0,0,0,0,0,0,0,0,0,1],[2,0,1,0,0,0,0,1,0,-1,0,0,0,0,0,0,0,0,0,0],[2,0,1,0,0,1,0,0,0,-1,0,0,0,0,0,0,0,0,0,0],[2,0,1,1,0,0,0,0,0,-1,0,0,0,0,0,0,0,0,0,0],[2,1,1,0,0,0,0,0,0,-1,0,0,0,0,0,0,0,0,0,0]], 1],
    [[[2,0,1,0,0,0,0,1,0,-1,0,0,0,0,0,0,0,0,0,0]], [[-2,0,-1,0,0,0,0,-1,1,0,0,0,0,0,0,0,0,0,0,0],[-2,0,-1,0,0,1,0,-1,0,0,0,0,0,0,0,0,0,0,0,0],[1,0,-1,0,0,1,0,-1,0,0,0,0,0,0,0,0,1,0,0,0],[-2,0,-1,0,1,0,0,-1,0,0,0,0,0,0,0,0,0,0,0,0],[-2,0,-1,1,0,0,0,-1,0,0,0,0,0,0,0,0,0,0,0,0],[1,0,-1,1,0,0,0,-1,0,0,0,0,0,0,0,0,1,0,0,0],[-1,0,0,0,0,0,0,-1,0,0,0,0,0,0,0,0,0,0,0,0],[3,0,0,0,0,0,0,-1,0,0,0,0,0,0,0,0,0,0,0,1],[0,0,0,0,0,0,0,-1,0,0,0,1,0,0,0,0,0,0,0,0],[0,0,0,0,0,1,0,-1,0,0,0,0,0,0,0,0,0,0,0,0],[0,0,0,1,0,0,0,-1,0,0,0,0,0,0,0,0,0,0,0,0],[0,1,0,0,0,0,0,-1,0,0,0,0,0,0,0,0,0,0,0,0]], 2],
    [[[2,0,1,0,0,1,0,0,0,-1,0,0,0,0,0,0,0,0,0,0]], [[-2,0,-1,0,0,-1,0,0,1,0,0,0,0,0,0,0,0,0,0,0],[-2,0,-1,0,0,0,0,0,0,0,0,0,0,0,0,0,0,0,0,0],[1,0,-1,0,0,0,0,0,0,0,0,0,0,0,0,0,1,0,0,0],[-2,0,-1,0,1,-1,0,0,0,0,0,0,0,0,0,0,0,0,0,0],[0,1,0,0,0,-1,0,0,0,0,0,0,0,0,0,0,0,0,0,0],[0,0,0,1,0,-1,0,0,0,0,0,0,0,0,0,0,0,0,0,0],[-1,0,0,0,0,-1,0,0,0,0,0,0,0,0,0,0,0,0,0,0],[3,0,0,0,0,-1,0,0,0,0,0,0,0,0,0,0,0,0,0,1],[0,0,0,0,0,-1,0,0,0,0,0,1,0,0,0,0,0,0,0,0],[0,0,0,0,0,-1,0,1,0,0,0,0,0,0,0,0,0,0,0,0]], 3],
    [[[2,0,1,1,0,0,0,0,0,-1,0,0,0,0,0,0,0,0,0,0]], [[-2,0,-1,-1,0,0,0,0,1,0,0,0,0,0,0,0,0,0,0,0],[0,1,0,-1,0,0,0,0,0,0,0,0,0,0,0,0,0,0,0,0],[0,0,0,-1,0,1,0,0,0,0,0,0,0,0,0,0,0,0,0,0],[-2,0,-1,-1,1,0,0,0,0,0,0,0,0,0,0,0,0,0,0,0],[-2,0,-1,0,0,0,0,0,0,0,0,0,0,0,0,0,0,0,0,0],[1,0,-1,0,0,0,0,0,0,0,0,0,0,0,0,0,1,0,0,0],[-1,0,0,-1,0,0,0,0,0,0,0,0,0,0,0,0,0,0,0,0],[3,0,0,-1,0,0,0,0,0,0,0,0,0,0,0,0,0,0,0,1],[0,0,0,-1,0,0,0,0,0,0,0,1,0,0,0,0,0,0,0,0],[0,0,0,-1,0,0,0,1,0,0,0,0,0,0,0,0,0,0,0,0]], 4],
    [[[2,1,1,0,0,0,0,0,0,-1,0,0,0,0,0,0,0,0,0,0]], [[-2,-1,-1,0,0,0,0,0,1,0,0,0,0,0,0,0,0,0,0,0],[-2,-1,-1,0,0,1,0,0,0,0,0,0,0,0,0,0,0,0,0,0],[1,-1,-1,0,0,1,0,0,0,0,0,0,0,0,0,0,1,0,0,0],[-2,-1,-1,0,1,0,0,0,0,0,0,0,0,0,0,0,0,0,0,0],[-2,-1,-1,1,0,0,0,0,0,0,0,0,0,0,0,0,0,0,0,0],[1,-1,-1,1,0,0,0,0,0,0,0,0,0,0,0,0,1,0,0,0],[-1,-1,0,0,0,0,0,0,0,0,0,0,0,0,0,0,0,0,0,0],[3,-1,0,0,0,0,0,0,0,0,0,0,0,0,0,0,0,0,0,1],[0,-1,0,0,0,0,0,0,0,0,0,1,0,0,0,0,0,0,0,0],[0,-1,0,0,0,0,0,1,0,0,0,0,0,0,0,0,0,0,0,0],[0,-1,0,0,0,1,0,0,0,0,0,0,0,0,0,0,0,0,0,0],[0,-1,0,1,0,0,0,0,0,0,0,0,0,0,0,0,0,0,0,0]], 5],
    [[[5,0,1,0,0,0,0,0,0,-1,0,0,0,0,0,0,0,0,0,1]], [[0,0,0,0,0,0,0,0,1,-1,0,0,0,0,0,0,0,0,0,0],[0,0,0,0,0,1,0,0,0,-1,0,0,0,0,0,0,0,0,0,0],[3,0,0,0,0,1,0,0,0,-1,0,0,0,0,0,0,1,0,0,0],[0,0,0,0,1,0,0,0,0,-1,0,0,0,0,0,0,0,0,0,0],[0,0,0,1,0,0,0,0,0,-1,0,0,0,0,0,0,0,0,0,0],[3,0,0,1,0,0,0,0,0,-1,0,0,0,0,0,0,1,0,0,0],[1,0,1,0,0,0,0,0,0,-1,0,0,0,0,0,0,0,0,0,0],[2,0,1,0,0,0,0,0,0,-1,0,1,0,0,0,0,0,0,0,0],[2,0,1,0,0,0,0,1,0,-1,0,0,0,0,0,0,0,0,0,0],[2,0,1,0,0,1,0,0,0,-1,0,0,0,0,0,0,0,0,0,0],[2,0,1,1,0,0,0,0,0,-1,0,0,0,0,0,0,0,0,0,0],[2,1,1,0,0,0,0,0,0,-1,0,0,0,0,0,0,0,0,0,0]], 6],
    [[[1,0,1,0,0,0,0,0,-1,0,0,0,0,0,0,0,0,0,0,0]], [[-1,0,-1,0,0,0,0,0,0,1,0,0,0,0,0,0,0,0,0,0],[-1,0,-1,0,0,1,0,0,0,0,0,0,0,0,0,0,0,0,0,0],[2,0,-1,0,0,1,0,0,0,0,0,0,0,0,0,0,1,0,0,0],[-1,0,-1,0,1,0,0,0,0,0,0,0,0,0,0,0,0,0,0,0],[-1,0,-1,1,0,0,0,0,0,0,0,0,0,0,0,0,0,0,0,0],[2,0,-1,1,0,0,0,0,0,0,0,0,0,0,0,0,1,0,0,0],[4,0,0,0,0,0,0,0,0,0,0,0,0,0,0,0,0,0,0,1],[1,0,0,0,0,0,0,0,0,0,0,1,0,0,0,0,0,0,0,0],[1,0,0,0,0,0,0,1,0,0,0,0,0,0,0,0,0,0,0,0],[1,0,0,0,0,1,0,0,0,0,0,0,0,0,0,0,0,0,0,0],[1,0,0,1,0,0,0,0,0,0,0,0,0,0,0,0,0,0,0,0],[1,1,0,0,0,0,0,0,0,0,0,0,0,0,0,0,0,0,0,0]], 7],
    [[[2,0,1,0,0,0,0,0,-1,0,0,1,0,0,0,0,0,0,0,0]], [[0,0,0,0,0,0,0,0,-1,1,0,0,0,0,0,0,0,0,0,0],[0,0,0,0,0,1,0,0,-1,0,0,0,0,0,0,0,0,0,0,0],[3,0,0,0,0,1,0,0,-1,0,0,0,0,0,0,0,1,0,0,0],[0,0,0,0,1,0,0,0,-1,0,0,0,0,0,0,0,0,0,0,0],[0,0,0,1,0,0,0,0,-1,0,0,0,0,0,0,0,0,0,0,0],[3,0,0,1,0,0,0,0,-1,0,0,0,0,0,0,0,1,0,0,0],[1,0,1,0,0,0,0,0,-1,0,0,0,0,0,0,0,0,0,0,0],[5,0,1,0,0,0,0,0,-1,0,0,0,0,0,0,0,0,0,0,1],[2,0,1,0,0,0,0,1,-1,0,0,0,0,0,0,0,0,0,0,0],[2,0,1,0,0,1,0,0,-1,0,0,0,0,0,0,0,0,0,0,0],[2,0,1,1,0,0,0,0,-1,0,0,0,0,0,0,0,0,0,0,0],[2,1,1,0,0,0,0,0,-1,0,0,0,0,0,0,0,0,0,0,0]], 8],
    [[[2,0,1,0,0,0,0,1,-1,0,0,0,0,0,0,0,0,0,0,0]], [[-2,0,-1,0,0,0,0,-1,0,1,0,0,0,0,0,0,0,0,0,0],[-2,0,-1,0,0,1,0,-1,0,0,0,0,0,0,0,0,0,0,0,0],[1,0,-1,0,0,1,0,-1,0,0,0,0,0,0,0,0,1,0,0,0],[-2,0,-1,0,1,0,0,-1,0,0,0,0,0,0,0,0,0,0,0,0],[-2,0,-1,1,0,0,0,-1,0,0,0,0,0,0,0,0,0,0,0,0],[1,0,-1,1,0,0,0,-1,0,0,0,0,0,0,0,0,1,0,0,0],[-1,0,0,0,0,0,0,-1,0,0,0,0,0,0,0,0,0,0,0,0],[3,0,0,0,0,0,0,-1,0,0,0,0,0,0,0,0,0,0,0,1],[0,0,0,0,0,0,0,-1,0,0,0,1,0,0,0,0,0,0,0,0],[0,0,0,0,0,1,0,-1,0,0,0,0,0,0,0,0,0,0,0,0],[0,0,0,1,0,0,0,-1,0,0,0,0,0,0,0,0,0,0,0,0],[0,1,0,0,0,0,0,-1,0,0,0,0,0,0,0,0,0,0,0,0]], 9],
    [[[2,0,1,0,0,1,0,0,-1,0,0,0,0,0,0,0,0,0,0,0]], [[-2,0,-1,0,0,-1,0,0,0,1,0,0,0,0,0,0,0,0,0,0],[-2,0,-1,0,0,0,0,0,0,0,0,0,0,0,0,0,0,0,0,0],[1,0,-1,0,0,0,0,0,0,0,0,0,0,0,0,0,1,0,0,0],[-2,0,-1,0,1,-1,0,0,0,0,0,0,0,0,0,0,0,0,0,0],[0,1,0,0,0,-1,0,0,0,0,0,0,0,0,0,0,0,0,0,0],[0,0,0,1,0,-1,0,0,0,0,0,0,0,0,0,0,0,0,0,0],[-1,0,0,0,0,-1,0,0,0,0,0,0,0,0,0,0,0,0,0,0],[3,0,0,0,0,-1,0,0,0,0,0,0,0,0,0,0,0,0,0,1],[0,0,0,0,0,-1,0,0,0,0,0,1,0,0,0,0,0,0,0,0],[0,0,0,0,0,-1,0,1,0,0,0,0,0,0,0,0,0,0,0,0]], 10],
    [[[2,0,1,1,0,0,0,0,-1,0,0,0,0,0,0,0,0,0,0,0]], [[-2,0,-1,-1,0,0,0,0,0,1,0,0,0,0,0,0,0,0,0,0],[0,1,0,-1,0,0,0,0,0,0,0,0,0,0,0,0,0,0,0,0],[0,0,0,-1,0,1,0,0,0,0,0,0,0,0,0,0,0,0,0,0],[-2,0,-1,-1,1,0,0,0,0,0,0,0,0,0,0,0,0,0,0,0],[-2,0,-1,0,0,0,0,0,0,0,0,0,0,0,0,0,0,0,0,0],[1,0,-1,0,0,0,0,0,0,0,0,0,0,0,0,0,1,0,0,0],[-1,0,0,-1,0,0,0,0,0,0,0,0,0,0,0,0,0,0,0,0],[3,0,0,-1,0,0,0,0,0,0,0,0,0,0,0,0,0,0,0,1],[0,0,0,-1,0,0,0,0,0,0,0,1,0,0,0,0,0,0,0,0],[0,0,0,-1,0,0,0,1,0,0,0,0,0,0,0,0,0,0,0,0]], 11],
    [[[2,1,1,0,0,0,0,0,-1,0,0,0,0,0,0,0,0,0,0,0]], [[-2,-1,-1,0,0,0,0,0,0,1,0,0,0,0,0,0,0,0,0,0],[-2,-1,-1,0,0,1,0,0,0,0,0,0,0,0,0,0,0,0,0,0],[1,-1,-1,0,0,1,0,0,0,0,0,0,0,0,0,0,1,0,0,0],[-2,-1,-1,0,1,0,0,0,0,0,0,0,0,0,0,0,0,0,0,0],[-2,-1,-1,1,0,0,0,0,0,0,0,0,0,0,0,0,0,0,0,0],[1,-1,-1,1,0,0,0,0,0,0,0,0,0,0,0,0,1,0,0,0],[-1,-1,0,0,0,0,0,0,0,0,0,0,0,0,0,0,0,0,0,0],[3,-1,0,0,0,0,0,0,0,0,0,0,0,0,0,0,0,0,0,1],[0,-1,0,0,0,0,0,0,0,0,0,1,0,0,0,0,0,0,0,0],[0,-1,0,0,0,0,0,1,0,0,0,0,0,0,0,0,0,0,0,0],[0,-1,0,0,0,1,0,0,0,0,0,0,0,0,0,0,0,0,0,0],[0,-1,0,1,0,0,0,0,0,0,0,0,0,0,0,0,0,0,0,0]], 12],
    [[[5,0,1,0,0,0,0,0,-1,0,0,0,0,0,0,0,0,0,0,1]], [[0,0,0,0,0,0,0,0,-1,1,0,0,0,0,0,0,0,0,0,0],[0,0,0,0,0,1,0,0,-1,0,0,0,0,0,0,0,0,0,0,0],[3,0,0,0,0,1,0,0,-1,0,0,0,0,0,0,0,1,0,0,0],[0,0,0,0,1,0,0,0,-1,0,0,0,0,0,0,0,0,0,0,0],[0,0,0,1,0,0,0,0,-1,0,0,0,0,0,0,0,0,0,0,0],[3,0,0,1,0,0,0,0,-1,0,0,0,0,0,0,0,1,0,0,0],[1,0,1,0,0,0,0,0,-1,0,0,0,0,0,0,0,0,0,0,0],[2,0,1,0,0,0,0,0,-1,0,0,1,0,0,0,0,0,0,0,0],[2,0,1,0,0,0,0,1,-1,0,0,0,0,0,0,0,0,0,0,0],[2,0,1,0,0,1,0,0,-1,0,0,0,0,0,0,0,0,0,0,0],[2,0,1,1,0,0,0,0,-1,0,0,0,0,0,0,0,0,0,0,0],[2,1,1,0,0,0,0,0,-1,0,0,0,0,0,0,0,0,0,0,0]], 13],
    [[[1,0,1,0,0,-1,0,0,0,0,0,0,0,0,0,0,0,0,0,0]], [[-1,0,-1,0,0,0,0,0,0,1,0,0,0,0,0,0,0,0,0,0],[-1,0,-1,0,0,0,0,0,1,0,0,0,0,0,0,0,0,0,0,0],[3,0,0,0,0,0,0,0,0,0,0,0,0,0,0,0,1,0,0,0],[-1,0,-1,0,1,0,0,0,0,0,0,0,0,0,0,0,0,0,0,0],[-1,0,-1,1,0,0,0,0,0,0,0,0,0,0,0,0,0,0,0,0],[4,0,0,0,0,0,0,0,0,0,0,0,0,0,0,0,0,0,0,1],[1,0,0,0,0,0,0,0,0,0,0,1,0,0,0,0,0,0,0,0],[1,0,0,0,0,0,0,1,0,0,0,0,0,0,0,0,0,0,0,0],[2,0,1,0,0,0,0,0,0,0,0,0,0,0,0,0,0,0,0,0],[1,1,0,0,0,0,0,0,0,0,0,0,0,0,0,0,0,0,0,0]], 14],
    [[[2,0,1,0,0,-1,0,0,0,0,0,1,0,0,0,0,0,0,0,0]], [[0,0,0,0,0,-1,0,0,0,1,0,0,0,0,0,0,0,0,0,0],[0,0,0,0,0,-1,0,0,1,0,0,0,0,0,0,0,0,0,0,0],[3,0,0,0,0,0,0,0,0,0,0,0,0,0,0,0,1,0,0,0],[0,0,0,0,1,-1,0,0,0,0,0,0,0,0,0,0,0,0,0,0],[0,0,0,1,0,-1,0,0,0,0,0,0,0,0,0,0,0,0,0,0],[1,0,1,0,0,-1,0,0,0,0,0,0,0,0,0,0,0,0,0,0],[5,0,1,0,0,-1,0,0,0,0,0,0,0,0,0,0,0,0,0,1],[2,0,1,0,0,-1,0,1,0,0,0,0,0,0,0,0,0,0,0,0],[2,0,1,0,0,0,0,0,0,0,0,0,0,0,0,0,0,0,0,0],[2,1,1,0,0,-1,0,0,0,0,0,0,0,0,0,0,0,0,0,0]], 15],
    [[[2,0,1,0,0,-1,0,1,0,0,0,0,0,0,0,0,0,0,0,0]], [[0,0,0,0,0,-1,0,0,0,1,0,0,0,0,0,0,0,0,0,0],[0,0,0,0,0,-1,0,0,1,0,0,0,0,0,0,0,0,0,0,0],[3,0,0,0,0,0,0,0,0,0,0,0,0,0,0,0,1,0,0,0],[0,0,0,0,1,-1,0,0,0,0,0,0,0,0,0,0,0,0,0,0],[0,0,0,1,0,-1,0,0,0,0,0,0,0,0,0,0,0,0,0,0],[1,0,1,0,0,-1,0,0,0,0,0,0,0,0,0,0,0,0,0,0],[5,0,1,0,0,-1,0,0,0,0,0,0,0,0,0,0,0,0,0,1],[2,0,1,0,0,-1,0,0,0,0,0,1,0,0,0,0,0,0,0,0],[2,0,1,0,0,0,0,0,0,0,0,0,0,0,0,0,0,0,0,0],[2,1,1,0,0,-1,0,0,0,0,0,0,0,0,0,0,0,0,0,0]], 16],
    [[[2,0,1,0,0,0,0,0,0,0,0,0,0,0,0,0,0,0,0,0]], [[0,0,0,0,0,-1,0,0,0,1,0,0,0,0,0,0,0,0,0,0],[0,0,0,0,0,-1,0,0,1,0,0,0,0,0,0,0,0,0,0,0],[3,0,0,0,0,0,0,0,0,0,0,0,0,0,0,0,1,0,0,0],[0,0,0,0,1,-1,0,0,0,0,0,0,0,0,0,0,0,0,0,0],[0,0,0,1,0,-1,0,0,0,0,0,0,0,0,0,0,0,0,0,0],[-1,0,0,0,0,-1,0,0,0,0,0,0,0,0,0,0,0,0,0,0],[3,0,0,0,0,-1,0,0,0,0,0,0,0,0,0,0,0,0,0,1],[0,0,0,0,0,-1,0,0,0,0,0,1,0,0,0,0,0,0,0,0],[0,0,0,0,0,-1,0,1,0,0,0,0,0,0,0,0,0,0,0,0],[0,1,0,0,0,-1,0,0,0,0,0,0,0,0,0,0,0,0,0,0]], 17],
    [[[2,1,1,0,0,-1,0,0,0,0,0,0,0,0,0,0,0,0,0,0]], [[-2,-1,-1,0,0,0,0,0,0,1,0,0,0,0,0,0,0,0,0,0],[-2,-1,-1,0,0,0,0,0,1,0,0,0,0,0,0,0,0,0,0,0],[3,0,0,0,0,0,0,0,0,0,0,0,0,0,0,0,1,0,0,0],[-2,-1,-1,0,1,0,0,0,0,0,0,0,0,0,0,0,0,0,0,0],[-2,-1,-1,1,0,0,0,0,0,0,0,0,0,0,0,0,0,0,0,0],[-1,-1,0,0,0,0,0,0,0,0,0,0,0,0,0,0,0,0,0,0],[3,-1,0,0,0,0,0,0,0,0,0,0,0,0,0,0,0,0,0,1],[0,-1,0,0,0,0,0,0,0,0,0,1,0,0,0,0,0,0,0,0],[0,-1,0,0,0,0,0,1,0,0,0,0,0,0,0,0,0,0,0,0],[2,0,1,0,0,0,0,0,0,0,0,0,0,0,0,0,0,0,0,0]], 19],
    [[[5,0,1,0,0,-1,0,0,0,0,0,0,0,0,0,0,0,0,0,1]], [[0,0,0,0,0,-1,0,0,0,1,0,0,0,0,0,0,0,0,0,0],[0,0,0,0,0,-1,0,0,1,0,0,0,0,0,0,0,0,0,0,0],[3,0,0,0,0,0,0,0,0,0,0,0,0,0,0,0,1,0,0,0],[0,0,0,0,1,-1,0,0,0,0,0,0,0,0,0,0,0,0,0,0],[0,0,0,1,0,-1,0,0,0,0,0,0,0,0,0,0,0,0,0,0],[1,0,1,0,0,-1,0,0,0,0,0,0,0,0,0,0,0,0,0,0],[2,0,1,0,0,-1,0,0,0,0,0,1,0,0,0,0,0,0,0,0],[2,0,1,0,0,-1,0,1,0,0,0,0,0,0,0,0,0,0,0,0],[2,0,1,0,0,0,0,0,0,0,0,0,0,0,0,0,0,0,0,0],[2,1,1,0,0,-1,0,0,0,0,0,0,0,0,0,0,0,0,0,0]], 20],
    [[[1,0,1,0,-1,0,0,0,0,0,0,0,0,0,0,0,0,0,0,0]], [[-1,0,-1,0,0,0,0,0,0,1,0,0,0,0,0,0,0,0,0,0],[-1,0,-1,0,0,0,0,0,1,0,0,0,0,0,0,0,0,0,0,0],[-1,0,-1,0,0,1,0,0,0,0,0,0,0,0,0,0,0,0,0,0],[2,0,-1,0,0,1,0,0,0,0,0,0,0,0,0,0,1,0,0,0],[-1,0,-1,1,0,0,0,0,0,0,0,0,0,0,0,0,0,0,0,0],[2,0,-1,1,0,0,0,0,0,0,0,0,0,0,0,0,1,0,0,0],[4,0,0,0,0,0,0,0,0,0,0,0,0,0,0,0,0,0,0,1],[1,0,0,0,0,0,0,0,0,0,0,1,0,0,0,0,0,0,0,0],[1,0,0,0,0,0,0,1,0,0,0,0,0,0,0,0,0,0,0,0],[1,0,0,0,0,1,0,0,0,0,0,0,0,0,0,0,0,0,0,0],[1,0,0,1,0,0,0,0,0,0,0,0,0,0,0,0,0,0,0,0],[1,1,0,0,0,0,0,0,0,0,0,0,0,0,0,0,0,0,0,0]], 21],
    [[[2,0,1,0,-1,0,0,0,0,0,0,1,0,0,0,0,0,0,0,0]], [[0,0,0,0,-1,0,0,0,0,1,0,0,0,0,0,0,0,0,0,0],[0,0,0,0,-1,0,0,0,1,0,0,0,0,0,0,0,0,0,0,0],[0,0,0,0,-1,1,0,0,0,0,0,0,0,0,0,0,0,0,0,0],[3,0,0,0,-1,1,0,0,0,0,0,0,0,0,0,0,1,0,0,0],[0,0,0,1,-1,0,0,0,0,0,0,0,0,0,0,0,0,0,0,0],[3,0,0,1,-1,0,0,0,0,0,0,0,0,0,0,0,1,0,0,0],[1,0,1,0,-1,0,0,0,0,0,0,0,0,0,0,0,0,0,0,0],[5,0,1,0,-1,0,0,0,0,0,0,0,0,0,0,0,0,0,0,1],[2,0,1,0,-1,0,0,1,0,0,0,0,0,0,0,0,0,0,0,0],[2,0,1,0,-1,1,0,0,0,0,0,0,0,0,0,0,0,0,0,0],[2,0,1,1,-1,0,0,0,0,0,0,0,0,0,0,0,0,0,0,0],[2,1,1,0,-1,0,0,0,0,0,0,0,0,0,0,0,0,0,0,0]], 22],
    [[[2,0,1,0,-1,0,0,1,0,0,0,0,0,0,0,0,0,0,0,0]], [[0,0,0,0,-1,0,0,0,0,1,0,0,0,0,0,0,0,0,0,0],[0,0,0,0,-1,0,0,0,1,0,0,0,0,0,0,0,0,0,0,0],[0,0,0,0,-1,1,0,0,0,0,0,0,0,0,0,0,0,0,0,0],[3,0,0,0,-1,1,0,0,0,0,0,0,0,0,0,0,1,0,0,0],[0,0,0,1,-1,0,0,0,0,0,0,0,0,0,0,0,0,0,0,0],[3,0,0,1,-1,0,0,0,0,0,0,0,0,0,0,0,1,0,0,0],[1,0,1,0,-1,0,0,0,0,0,0,0,0,0,0,0,0,0,0,0],[5,0,1,0,-1,0,0,0,0,0,0,0,0,0,0,0,0,0,0,1],[2,0,1,0,-1,0,0,0,0,0,0,1,0,0,0,0,0,0,0,0],[2,0,1,0,-1,1,0,0,0,0,0,0,0,0,0,0,0,0,0,0],[2,0,1,1,-1,0,0,0,0,0,0,0,0,0,0,0,0,0,0,0],[2,1,1,0,-1,0,0,0,0,0,0,0,0,0,0,0,0,0,0,0]], 23],
    [[[2,0,1,0,-1,1,0,0,0,0,0,0,0,0,0,0,0,0,0,0]], [[0,0,0,0,-1,0,0,0,0,1,0,0,0,0,0,0,0,0,0,0],[0,0,0,0,-1,0,0,0,1,0,0,0,0,0,0,0,0,0,0,0],[-2,0,-1,0,0,0,0,0,0,0,0,0,0,0,0,0,0,0,0,0],[1,0,-1,0,0,0,0,0,0,0,0,0,0,0,0,0,1,0,0,0],[2,1,1,0,-1,0,0,0,0,0,0,0,0,0,0,0,0,0,0,0],[2,0,1,1,-1,0,0,0,0,0,0,0,0,0,0,0,0,0,0,0],[1,0,1,0,-1,0,0,0,0,0,0,0,0,0,0,0,0,0,0,0],[5,0,1,0,-1,0,0,0,0,0,0,0,0,0,0,0,0,0,0,1],[2,0,1,0,-1,0,0,0,0,0,0,1,0,0,0,0,0,0,0,0],[2,0,1,0,-1,0,0,1,0,0,0,0,0,0,0,0,0,0,0,0]], 24],
    [[[2,0,1,1,-1,0,0,0,0,0,0,0,0,0,0,0,0,0,0,0]], [[-2,0,-1,-1,0,0,0,0,0,1,0,0,0,0,0,0,0,0,0,0],[-2,0,-1,-1,0,0,0,0,1,0,0,0,0,0,0,0,0,0,0,0],[0,1,0,-1,0,0,0,0,0,0,0,0,0,0,0,0,0,0,0,0],[0,0,0,-1,0,1,0,0,0,0,0,0,0,0,0,0,0,0,0,0],[-2,0,-1,0,0,0,0,0,0,0,0,0,0,0,0,0,0,0,0,0],[1,0,-1,0,0,0,0,0,0,0,0,0,0,0,0,0,1,0,0,0],[-1,0,0,-1,0,0,0,0,0,0,0,0,0,0,0,0,0,0,0,0],[3,0,0,-1,0,0,0,0,0,0,0,0,0,0,0,0,0,0,0,1],[0,0,0,-1,0,0,0,0,0,0,0,1,0,0,0,0,0,0,0,0],[0,0,0,-1,0,0,0,1,0,0,0,0,0,0,0,0,0,0,0,0]], 25],
    [[[2,1,1,0,-1,0,0,0,0,0,0,0,0,0,0,0,0,0,0,0]], [[-2,-1,-1,0,0,0,0,0,0,1,0,0,0,0,0,0,0,0,0,0],[-2,-1,-1,0,0,0,0,0,1,0,0,0,0,0,0,0,0,0,0,0],[-2,-1,-1,0,0,1,0,0,0,0,0,0,0,0,0,0,0,0,0,0],[1,-1,-1,0,0,1,0,0,0,0,0,0,0,0,0,0,1,0,0,0],[-2,-1,-1,1,0,0,0,0,0,0,0,0,0,0,0,0,0,0,0,0],[1,-1,-1,1,0,0,0,0,0,0,0,0,0,0,0,0,1,0,0,0],[-1,-1,0,0,0,0,0,0,0,0,0,0,0,0,0,0,0,0,0,0],[3,-1,0,0,0,0,0,0,0,0,0,0,0,0,0,0,0,0,0,1],[0,-1,0,0,0,0,0,0,0,0,0,1,0,0,0,0,0,0,0,0],[0,-1,0,0,0,0,0,1,0,0,0,0,0,0,0,0,0,0,0,0],[0,-1,0,0,0,1,0,0,0,0,0,0,0,0,0,0,0,0,0,0],[0,-1,0,1,0,0,0,0,0,0,0,0,0,0,0,0,0,0,0,0]], 26],
    [[[5,0,1,0,-1,0,0,0,0,0,0,0,0,0,0,0,0,0,0,1]], [[0,0,0,0,-1,0,0,0,0,1,0,0,0,0,0,0,0,0,0,0],[0,0,0,0,-1,0,0,0,1,0,0,0,0,0,0,0,0,0,0,0],[0,0,0,0,-1,1,0,0,0,0,0,0,0,0,0,0,0,0,0,0],[3,0,0,0,-1,1,0,0,0,0,0,0,0,0,0,0,1,0,0,0],[0,0,0,1,-1,0,0,0,0,0,0,0,0,0,0,0,0,0,0,0],[3,0,0,1,-1,0,0,0,0,0,0,0,0,0,0,0,1,0,0,0],[1,0,1,0,-1,0,0,0,0,0,0,0,0,0,0,0,0,0,0,0],[2,0,1,0,-1,0,0,0,0,0,0,1,0,0,0,0,0,0,0,0],[2,0,1,0,-1,0,0,1,0,0,0,0,0,0,0,0,0,0,0,0],[2,0,1,0,-1,1,0,0,0,0,0,0,0,0,0,0,0,0,0,0],[2,0,1,1,-1,0,0,0,0,0,0,0,0,0,0,0,0,0,0,0],[2,1,1,0,-1,0,0,0,0,0,0,0,0,0,0,0,0,0,0,0]], 27],
    [[[1,0,1,-1,0,0,0,0,0,0,0,0,0,0,0,0,0,0,0,0]], [[-1,0,-1,0,0,0,0,0,0,1,0,0,0,0,0,0,0,0,0,0],[-1,0,-1,0,0,0,0,0,1,0,0,0,0,0,0,0,0,0,0,0],[-1,0,-1,0,0,1,0,0,0,0,0,0,0,0,0,0,0,0,0,0],[1,1,0,0,0,0,0,0,0,0,0,0,0,0,0,0,0,0,0,0],[-1,0,-1,0,1,0,0,0,0,0,0,0,0,0,0,0,0,0,0,0],[3,0,0,0,0,0,0,0,0,0,0,0,0,0,0,0,1,0,0,0],[4,0,0,0,0,0,0,0,0,0,0,0,0,0,0,0,0,0,0,1],[1,0,0,0,0,0,0,0,0,0,0,1,0,0,0,0,0,0,0,0],[1,0,0,0,0,0,0,1,0,0,0,0,0,0,0,0,0,0,0,0],[2,0,1,0,0,0,0,0,0,0,0,0,0,0,0,0,0,0,0,0]], 28],
    [[[2,0,1,-1,0,0,0,0,0,0,0,1,0,0,0,0,0,0,0,0]], [[0,0,0,-1,0,0,0,0,0,1,0,0,0,0,0,0,0,0,0,0],[0,0,0,-1,0,0,0,0,1,0,0,0,0,0,0,0,0,0,0,0],[0,0,0,-1,0,1,0,0,0,0,0,0,0,0,0,0,0,0,0,0],[2,1,1,-1,0,0,0,0,0,0,0,0,0,0,0,0,0,0,0,0],[0,0,0,-1,1,0,0,0,0,0,0,0,0,0,0,0,0,0,0,0],[3,0,0,0,0,0,0,0,0,0,0,0,0,0,0,0,1,0,0,0],[1,0,1,-1,0,0,0,0,0,0,0,0,0,0,0,0,0,0,0,0],[5,0,1,-1,0,0,0,0,0,0,0,0,0,0,0,0,0,0,0,1],[2,0,1,-1,0,0,0,1,0,0,0,0,0,0,0,0,0,0,0,0],[2,0,1,0,0,0,0,0,0,0,0,0,0,0,0,0,0,0,0,0]], 29],
    [[[2,0,1,-1,0,0,0,1,0,0,0,0,0,0,0,0,0,0,0,0]], [[0,0,0,-1,0,0,0,0,0,1,0,0,0,0,0,0,0,0,0,0],[0,0,0,-1,0,0,0,0,1,0,0,0,0,0,0,0,0,0,0,0],[0,0,0,-1,0,1,0,0,0,0,0,0,0,0,0,0,0,0,0,0],[2,1,1,-1,0,0,0,0,0,0,0,0,0,0,0,0,0,0,0,0],[0,0,0,-1,1,0,0,0,0,0,0,0,0,0,0,0,0,0,0,0],[3,0,0,0,0,0,0,0,0,0,0,0,0,0,0,0,1,0,0,0],[1,0,1,-1,0,0,0,0,0,0,0,0,0,0,0,0,0,0,0,0],[5,0,1,-1,0,0,0,0,0,0,0,0,0,0,0,0,0,0,0,1],[2,0,1,-1,0,0,0,0,0,0,0,1,0,0,0,0,0,0,0,0],[2,0,1,0,0,0,0,0,0,0,0,0,0,0,0,0,0,0,0,0]], 30],
    [[[2,0,1,0,0,0,0,0,0,0,0,0,0,0,0,0,0,0,0,0]], [[0,0,0,-1,0,0,0,0,0,1,0,0,0,0,0,0,0,0,0,0],[0,0,0,-1,0,0,0,0,1,0,0,0,0,0,0,0,0,0,0,0],[0,0,0,-1,0,1,0,0,0,0,0,0,0,0,0,0,0,0,0,0],[0,1,0,-1,0,0,0,0,0,0,0,0,0,0,0,0,0,0,0,0],[0,0,0,-1,1,0,0,0,0,0,0,0,0,0,0,0,0,0,0,0],[3,0,0,0,0,0,0,0,0,0,0,0,0,0,0,0,1,0,0,0],[-1,0,0,-1,0,0,0,0,0,0,0,0,0,0,0,0,0,0,0,0],[3,0,0,-1,0,0,0,0,0,0,0,0,0,0,0,0,0,0,0,1],[0,0,0,-1,0,0,0,0,0,0,0,1,0,0,0,0,0,0,0,0],[0,0,0,-1,0,0,0,1,0,0,0,0,0,0,0,0,0,0,0,0]], 32],
    [[[2,1,1,-1,0,0,0,0,0,0,0,0,0,0,0,0,0,0,0,0]], [[-2,-1,-1,0,0,0,0,0,0,1,0,0,0,0,0,0,0,0,0,0],[-2,-1,-1,0,0,0,0,0,1,0,0,0,0,0,0,0,0,0,0,0],[-2,-1,-1,0,0,1,0,0,0,0,0,0,0,0,0,0,0,0,0,0],[2,0,1,0,0,0,0,0,0,0,0,0,0,0,0,0,0,0,0,0],[-2,-1,-1,0,1,0,0,0,0,0,0,0,0,0,0,0,0,0,0,0],[3,0,0,0,0,0,0,0,0,0,0,0,0,0,0,0,1,0,0,0],[-1,-1,0,0,0,0,0,0,0,0,0,0,0,0,0,0,0,0,0,0],[3,-1,0,0,0,0,0,0,0,0,0,0,0,0,0,0,0,0,0,1],[0,-1,0,0,0,0,0,0,0,0,0,1,0,0,0,0,0,0,0,0],[0,-1,0,0,0,0,0,1,0,0,0,0,0,0,0,0,0,0,0,0]], 33],
    [[[5,0,1,-1,0,0,0,0,0,0,0,0,0,0,0,0,0,0,0,1]], [[0,0,0,-1,0,0,0,0,0,1,0,0,0,0,0,0,0,0,0,0],[0,0,0,-1,0,0,0,0,1,0,0,0,0,0,0,0,0,0,0,0],[0,0,0,-1,0,1,0,0,0,0,0,0,0,0,0,0,0,0,0,0],[2,1,1,-1,0,0,0,0,0,0,0,0,0,0,0,0,0,0,0,0],[0,0,0,-1,1,0,0,0,0,0,0,0,0,0,0,0,0,0,0,0],[3,0,0,0,0,0,0,0,0,0,0,0,0,0,0,0,1,0,0,0],[1,0,1,-1,0,0,0,0,0,0,0,0,0,0,0,0,0,0,0,0],[2,0,1,-1,0,0,0,0,0,0,0,1,0,0,0,0,0,0,0,0],[2,0,1,-1,0,0,0,1,0,0,0,0,0,0,0,0,0,0,0,0],[2,0,1,0,0,0,0,0,0,0,0,0,0,0,0,0,0,0,0,0]], 34],
    [[[-2,0,1,0,0,-1,0,0,0,0,0,0,0,0,0,0,-1,0,0,0]], [[-1,0,-1,0,0,0,0,0,0,1,0,0,0,0,0,0,0,0,0,0],[-1,0,-1,0,0,0,0,0,1,0,0,0,0,0,0,0,0,0,0,0],[-1,0,-1,0,0,1,0,0,0,0,0,0,0,0,0,0,0,0,0,0],[-1,0,-1,0,1,0,0,0,0,0,0,0,0,0,0,0,0,0,0,0],[1,1,0,0,0,0,0,0,0,0,0,0,0,0,0,0,0,0,0,0],[0,0,0,1,0,-1,0,0,0,0,0,0,0,0,0,0,0,0,0,0],[4,0,0,0,0,0,0,0,0,0,0,0,0,0,0,0,0,0,0,1],[1,0,0,0,0,0,0,0,0,0,0,1,0,0,0,0,0,0,0,0],[1,0,0,0,0,0,0,1,0,0,0,0,0,0,0,0,0,0,0,0],[1,0,0,0,0,1,0,0,0,0,0,0,0,0,0,0,0,0,0,0]], 35],
    [[[-2,0,1,-1,0,0,0,0,0,0,0,0,0,0,0,0,-1,0,0,0]], [[-1,0,-1,0,0,0,0,0,0,1,0,0,0,0,0,0,0,0,0,0],[-1,0,-1,0,0,0,0,0,1,0,0,0,0,0,0,0,0,0,0,0],[1,1,0,0,0,0,0,0,0,0,0,0,0,0,0,0,0,0,0,0],[0,0,0,-1,0,1,0,0,0,0,0,0,0,0,0,0,0,0,0,0],[-1,0,-1,0,1,0,0,0,0,0,0,0,0,0,0,0,0,0,0,0],[-1,0,-1,1,0,0,0,0,0,0,0,0,0,0,0,0,0,0,0,0],[4,0,0,0,0,0,0,0,0,0,0,0,0,0,0,0,0,0,0,1],[1,0,0,0,0,0,0,0,0,0,0,1,0,0,0,0,0,0,0,0],[1,0,0,0,0,0,0,1,0,0,0,0,0,0,0,0,0,0,0,0],[1,0,0,1,0,0,0,0,0,0,0,0,0,0,0,0,0,0,0,0]], 36],
    [[[-1,0,1,0,0,-1,0,0,0,0,0,1,0,0,0,0,-1,0,0,0]], [[-2,0,-1,0,0,0,0,0,0,1,0,-1,0,0,0,0,0,0,0,0],[-2,0,-1,0,0,0,0,0,1,0,0,-1,0,0,0,0,0,0,0,0],[-2,0,-1,0,0,1,0,0,0,0,0,-1,0,0,0,0,0,0,0,0],[-2,0,-1,0,1,0,0,0,0,0,0,-1,0,0,0,0,0,0,0,0],[0,1,0,0,0,0,0,0,0,0,0,-1,0,0,0,0,0,0,0,0],[0,0,0,1,0,-1,0,0,0,0,0,0,0,0,0,0,0,0,0,0],[-1,0,0,0,0,0,0,0,0,0,0,-1,0,0,0,0,0,0,0,0],[3,0,0,0,0,0,0,0,0,0,0,-1,0,0,0,0,0,0,0,1],[0,0,0,0,0,0,0,1,0,0,0,-1,0,0,0,0,0,0,0,0],[0,0,0,0,0,1,0,0,0,0,0,-1,0,0,0,0,0,0,0,0]], 37],
    [[[-1,0,1,-1,0,0,0,0,0,0,0,1,0,0,0,0,-1,0,0,0]], [[-2,0,-1,0,0,0,0,0,0,1,0,-1,0,0,0,0,0,0,0,0],[-2,0,-1,0,0,0,0,0,1,0,0,-1,0,0,0,0,0,0,0,0],[0,1,0,0,0,0,0,0,0,0,0,-1,0,0,0,0,0,0,0,0],[0,0,0,-1,0,1,0,0,0,0,0,0,0,0,0,0,0,0,0,0],[-2,0,-1,0,1,0,0,0,0,0,0,-1,0,0,0,0,0,0,0,0],[-2,0,-1,1,0,0,0,0,0,0,0,-1,0,0,0,0,0,0,0,0],[-1,0,0,0,0,0,0,0,0,0,0,-1,0,0,0,0,0,0,0,0],[3,0,0,0,0,0,0,0,0,0,0,-1,0,0,0,0,0,0,0,1],[0,0,0,0,0,0,0,1,0,0,0,-1,0,0,0,0,0,0,0,0],[0,0,0,1,0,0,0,0,0,0,0,-1,0,0,0,0,0,0,0,0]], 38],
    [[[-1,0,1,0,0,-1,0,1,0,0,0,0,0,0,0,0,-1,0,0,0]], [[-2,0,-1,0,0,0,0,-1,0,1,0,0,0,0,0,0,0,0,0,0],[-2,0,-1,0,0,0,0,-1,1,0,0,0,0,0,0,0,0,0,0,0],[-2,0,-1,0,0,1,0,-1,0,0,0,0,0,0,0,0,0,0,0,0],[-2,0,-1,0,1,0,0,-1,0,0,0,0,0,0,0,0,0,0,0,0],[0,1,0,0,0,0,0,-1,0,0,0,0,0,0,0,0,0,0,0,0],[0,0,0,1,0,-1,0,0,0,0,0,0,0,0,0,0,0,0,0,0],[-1,0,0,0,0,0,0,-1,0,0,0,0,0,0,0,0,0,0,0,0],[3,0,0,0,0,0,0,-1,0,0,0,0,0,0,0,0,0,0,0,1],[0,0,0,0,0,0,0,-1,0,0,0,1,0,0,0,0,0,0,0,0],[0,0,0,0,0,1,0,-1,0,0,0,0,0,0,0,0,0,0,0,0]], 39],
    [[[-1,0,1,-1,0,0,0,1,0,0,0,0,0,0,0,0,-1,0,0,0]], [[-2,0,-1,0,0,0,0,-1,0,1,0,0,0,0,0,0,0,0,0,0],[-2,0,-1,0,0,0,0,-1,1,0,0,0,0,0,0,0,0,0,0,0],[0,1,0,0,0,0,0,-1,0,0,0,0,0,0,0,0,0,0,0,0],[0,0,0,-1,0,1,0,0,0,0,0,0,0,0,0,0,0,0,0,0],[-2,0,-1,0,1,0,0,-1,0,0,0,0,0,0,0,0,0,0,0,0],[-2,0,-1,1,0,0,0,-1,0,0,0,0,0,0,0,0,0,0,0,0],[-1,0,0,0,0,0,0,-1,0,0,0,0,0,0,0,0,0,0,0,0],[3,0,0,0,0,0,0,-1,0,0,0,0,0,0,0,0,0,0,0,1],[0,0,0,0,0,0,0,-1,0,0,0,1,0,0,0,0,0,0,0,0],[0,0,0,1,0,0,0,-1,0,0,0,0,0,0,0,0,0,0,0,0]], 40],
    [[[-1,0,1,0,0,0,0,0,0,0,0,0,0,0,0,0,-1,0,0,0]], [[-2,0,-1,0,0,-1,0,0,0,1,0,0,0,0,0,0,0,0,0,0],[-2,0,-1,0,0,-1,0,0,1,0,0,0,0,0,0,0,0,0,0,0],[-2,0,-1,0,0,0,0,0,0,0,0,0,0,0,0,0,0,0,0,0],[-2,0,-1,0,1,-1,0,0,0,0,0,0,0,0,0,0,0,0,0,0],[0,1,0,0,0,-1,0,0,0,0,0,0,0,0,0,0,0,0,0,0],[0,0,0,1,0,-1,0,0,0,0,0,0,0,0,0,0,0,0,0,0],[-1,0,0,0,0,-1,0,0,0,0,0,0,0,0,0,0,0,0,0,0],[3,0,0,0,0,-1,0,0,0,0,0,0,0,0,0,0,0,0,0,1],[0,0,0,0,0,-1,0,0,0,0,0,1,0,0,0,0,0,0,0,0],[0,0,0,0,0,-1,0,1,0,0,0,0,0,0,0,0,0,0,0,0]], 41],
    [[[-1,0,1,0,0,0,0,0,0,0,0,0,0,0,0,0,-1,0,0,0]], [[-2,0,-1,-1,0,0,0,0,0,1,0,0,0,0,0,0,0,0,0,0],[-2,0,-1,-1,0,0,0,0,1,0,0,0,0,0,0,0,0,0,0,0],[0,1,0,-1,0,0,0,0,0,0,0,0,0,0,0,0,0,0,0,0],[0,0,0,-1,0,1,0,0,0,0,0,0,0,0,0,0,0,0,0,0],[-2,0,-1,-1,1,0,0,0,0,0,0,0,0,0,0,0,0,0,0,0],[-2,0,-1,0,0,0,0,0,0,0,0,0,0,0,0,0,0,0,0,0],[-1,0,0,-1,0,0,0,0,0,0,0,0,0,0,0,0,0,0,0,0],[3,0,0,-1,0,0,0,0,0,0,0,0,0,0,0,0,0,0,0,1],[0,0,0,-1,0,0,0,0,0,0,0,1,0,0,0,0,0,0,0,0],[0,0,0,-1,0,0,0,1,0,0,0,0,0,0,0,0,0,0,0,0]], 44],
    [[[-1,1,1,0,0,-1,0,0,0,0,0,0,0,0,0,0,-1,0,0,0]], [[-2,-1,-1,0,0,0,0,0,0,1,0,0,0,0,0,0,0,0,0,0],[-2,-1,-1,0,0,0,0,0,1,0,0,0,0,0,0,0,0,0,0,0],[-2,-1,-1,0,0,1,0,0,0,0,0,0,0,0,0,0,0,0,0,0],[-2,-1,-1,0,1,0,0,0,0,0,0,0,0,0,0,0,0,0,0,0],[0,0,0,1,0,-1,0,0,0,0,0,0,0,0,0,0,0,0,0,0],[-1,-1,0,0,0,0,0,0,0,0,0,0,0,0,0,0,0,0,0,0],[3,-1,0,0,0,0,0,0,0,0,0,0,0,0,0,0,0,0,0,1],[0,-1,0,0,0,0,0,0,0,0,0,1,0,0,0,0,0,0,0,0],[0,-1,0,0,0,0,0,1,0,0,0,0,0,0,0,0,0,0,0,0],[0,-1,0,0,0,1,0,0,0,0,0,0,0,0,0,0,0,0,0,0]], 45],
    [[[-1,1,1,-1,0,0,0,0,0,0,0,0,0,0,0,0,-1,0,0,0]], [[-2,-1,-1,0,0,0,0,0,0,1,0,0,0,0,0,0,0,0,0,0],[-2,-1,-1,0,0,0,0,0,1,0,0,0,0,0,0,0,0,0,0,0],[0,0,0,-1,0,1,0,0,0,0,0,0,0,0,0,0,0,0,0,0],[-2,-1,-1,0,1,0,0,0,0,0,0,0,0,0,0,0,0,0,0,0],[-2,-1,-1,1,0,0,0,0,0,0,0,0,0,0,0,0,0,0,0,0],[-1,-1,0,0,0,0,0,0,0,0,0,0,0,0,0,0,0,0,0,0],[3,-1,0,0,0,0,0,0,0,0,0,0,0,0,0,0,0,0,0,1],[0,-1,0,0,0,0,0,0,0,0,0,1,0,0,0,0,0,0,0,0],[0,-1,0,0,0,0,0,1,0,0,0,0,0,0,0,0,0,0,0,0],[0,-1,0,1,0,0,0,0,0,0,0,0,0,0,0,0,0,0,0,0]], 46],
    [[[2,0,1,0,0,-1,0,0,0,0,0,0,0,0,0,0,-1,0,0,1]], [[-3,0,0,0,0,-1,0,0,0,1,0,0,0,0,0,0,-1,0,0,0],[-3,0,0,0,0,-1,0,0,1,0,0,0,0,0,0,0,-1,0,0,0],[-3,0,0,0,0,0,0,0,0,0,0,0,0,0,0,0,-1,0,0,0],[-3,0,0,0,1,-1,0,0,0,0,0,0,0,0,0,0,-1,0,0,0],[-1,1,1,0,0,-1,0,0,0,0,0,0,0,0,0,0,-1,0,0,0],[0,0,0,1,0,-1,0,0,0,0,0,0,0,0,0,0,0,0,0,0],[-2,0,1,0,0,-1,0,0,0,0,0,0,0,0,0,0,-1,0,0,0],[-1,0,1,0,0,-1,0,0,0,0,0,1,0,0,0,0,-1,0,0,0],[-1,0,1,0,0,-1,0,1,0,0,0,0,0,0,0,0,-1,0,0,0],[-1,0,1,0,0,0,0,0,0,0,0,0,0,0,0,0,-1,0,0,0]], 47],
    [[[2,0,1,-1,0,0,0,0,0,0,0,0,0,0,0,0,-1,0,0,1]], [[-3,0,0,-1,0,0,0,0,0,1,0,0,0,0,0,0,-1,0,0,0],[-3,0,0,-1,0,0,0,0,1,0,0,0,0,0,0,0,-1,0,0,0],[-1,1,1,-1,0,0,0,0,0,0,0,0,0,0,0,0,-1,0,0,0],[0,0,0,-1,0,1,0,0,0,0,0,0,0,0,0,0,0,0,0,0],[-3,0,0,-1,1,0,0,0,0,0,0,0,0,0,0,0,-1,0,0,0],[-3,0,0,0,0,0,0,0,0,0,0,0,0,0,0,0,-1,0,0,0],[-2,0,1,-1,0,0,0,0,0,0,0,0,0,0,0,0,-1,0,0,0],[-1,0,1,-1,0,0,0,0,0,0,0,1,0,0,0,0,-1,0,0,0],[-1,0,1,-1,0,0,0,1,0,0,0,0,0,0,0,0,-1,0,0,0],[-1,0,1,0,0,0,0,0,0,0,0,0,0,0,0,0,-1,0,0,0]], 48]
  ]],
  ["#2",
    [[0,0,0,0,0,1,1,1,1],
     [0,0,0,1,1,0,0,1,1],
     [0,0,0,1,1,1,1,0,0],
     [0,1,1,0,0,0,1,0,1],
     [0,1,1,0,0,1,0,1,0],
     [1,0,1,0,1,0,0,0,1],
     [1,0,1,1,0,0,0,1,0],
     [1,1,0,0,1,0,1,0,0],
     [1,1,0,1,0,1,0,0,0]], [
    [[[0,0,0,1,-1,0,0,0,0,0,0,0,0,0,0,0,0,0,0,0]], [[3,0,0,0,0,0,0,0,0,0,0,0,0,0,0,0,1,0,0,0],[5,0,1,-1,0,0,0,0,0,0,0,0,0,0,0,0,0,0,0,1],[2,0,1,0,0,0,0,0,0,0,0,0,0,0,0,0,0,0,0,0],[2,1,1,-1,0,0,0,0,0,0,0,0,0,0,0,0,0,0,0,0]], 0],
    [[[2,0,1,1,-1,0,0,0,0,0,0,0,0,0,0,0,0,0,0,0]], [[-2,0,-1,0,0,0,0,0,0,0,0,0,0,0,0,0,0,0,0,0],[1,0,-1,0,0,0,0,0,0,0,0,0,0,0,0,0,1,0,0,0],[3,0,0,-1,0,0,0,0,0,0,0,0,0,0,0,0,0,0,0,1],[0,1,0,-1,0,0,0,0,0,0,0,0,0,0,0,0,0,0,0,0]], 1],
    [[[3,0,0,1,-1,0,0,0,0,0,0,0,0,0,0,0,1,0,0,0]], [[0,0,0,1,-1,0,0,0,0,0,0,0,0,0,0,0,0,0,0,0],[5,0,1,0,-1,0,0,0,0,0,0,0,0,0,0,0,0,0,0,1],[2,0,1,1,-1,0,0,0,0,0,0,0,0,0,0,0,0,0,0,0],[2,1,1,0,-1,0,0,0,0,0,0,0,0,0,0,0,0,0,0,0]], 2],
    [[[2,1,1,-1,0,0,0,0,0,0,0,0,0,0,0,0,0,0,0,0]], [[-2,-1,-1,0,1,0,0,0,0,0,0,0,0,0,0,0,0,0,0,0],[3,0,0,0,0,0,0,0,0,0,0,0,0,0,0,0,1,0,0,0],[3,-1,0,0,0,0,0,0,0,0,0,0,0,0,0,0,0,0,0,1],[2,0,1,0,0,0,0,0,0,0,0,0,0,0,0,0,0,0,0,0]], 3],
    [[[5,0,1,-1,0,0,0,0,0,0,0,0,0,0,0,0,0,0,0,1]], [[0,0,0,-1,1,0,0,0,0,0,0,0,0,0,0,0,0,0,0,0],[3,0,0,0,0,0,0,0,0,0,0,0,0,0,0,0,1,0,0,0],[2,0,1,0,0,0,0,0,0,0,0,0,0,0,0,0,0,0,0,0],[2,1,1,-1,0,0,0,0,0,0,0,0,0,0,0,0,0,0,0,0]], 4],
    [[[0,1,0,-1,0,0,0,0,0,0,0,0,0,0,0,0,0,0,0,0]], [[-2,-1,-1,0,1,0,0,0,0,0,0,0,0,0,0,0,0,0,0,0],[-2,0,-1,0,0,0,0,0,0,0,0,0,0,0,0,0,0,0,0,0],[1,0,-1,0,0,0,0,0,0,0,0,0,0,0,0,0,1,0,0,0],[3,-1,0,0,0,0,0,0,0,0,0,0,0,0,0,0,0,0,0,1]], 5],
    [[[-3,0,0,1,0,0,0,0,0,0,0,0,0,0,0,0,0,0,0,-1]], [[-2,0,-1,-1,1,0,0,0,0,0,0,0,0,0,0,0,0,0,0,0],[-2,0,-1,0,0,0,0,0,0,0,0,0,0,0,0,0,0,0,0,0],[1,0,-1,0,0,0,0,0,0,0,0,0,0,0,0,0,1,0,0,0],[0,1,0,-1,0,0,0,0,0,0,0,0,0,0,0,0,0,0,0,0]], 6],
    [[[-1,1,1,-1,0,0,0,0,0,0,0,0,0,0,0,0,-1,0,0,0]], [[-2,-1,-1,0,1,0,0,0,0,0,0,0,0,0,0,0,0,0,0,0],[-2,-1,-1,1,0,0,0,0,0,0,0,0,0,0,0,0,0,0,0,0],[3,-1,0,0,0,0,0,0,0,0,0,0,0,0,0,0,0,0,0,1],[0,-1,0,1,0,0,0,0,0,0,0,0,0,0,0,0,0,0,0,0]], 7],
    [[[2,0,1,-1,0,0,0,0,0,0,0,0,0,0,0,0,-1,0,0,1]], [[-3,0,0,-1,1,0,0,0,0,0,0,0,0,0,0,0,-1,0,0,0],[-3,0,0,0,0,0,0,0,0,0,0,0,0,0,0,0,-1,0,0,0],[-1,0,1,0,0,0,0,0,0,0,0,0,0,0,0,0,-1,0,0,0],[-1,1,1,-1,0,0,0,0,0,0,0,0,0,0,0,0,-1,0,0,0]], 8]
  ]],
  ["#3",
    [[0,0,0],
     [0,0,0],
     [0,0,0]], [
    [[[0,0,0,0,1,0,-1,0,0,0,0,0,0,0,0,0,0,0,0,0]], [[2,0,1,0,-1,1,0,0,0,0,0,0,0,0,0,0,0,0,0,0],[2,0,1,1,-1,0,0,0,0,0,0,0,0,0,0,0,0,0,0,0]], 0],
    [[[2,0,1,0,-1,1,0,0,0,0,0,0,0,0,0,0,0,0,0,0]], [[0,0,0,0,-1,0,1,0,0,0,0,0,0,0,0,0,0,0,0,0],[2,0,1,1,-1,0,0,0,0,0,0,0,0,0,0,0,0,0,0,0]], 1],
    [[[2,0,1,1,-1,0,0,0,0,0,0,0,0,0,0,0,0,0,0,0]], [[-2,0,-1,-1,0,0,1,0,0,0,0,0,0,0,0,0,0,0,0,0],[0,0,0,-1,0,1,0,0,0,0,0,0,0,0,0,0,0,0,0,0]], 2]
  ]],
  ["#4",
    [[0,0,0,0,0,1,1,1,1],
     [0,0,0,1,1,0,1,0,1],
     [0,0,0,1,1,1,0,1,0],
     [0,1,1,0,0,0,0,1,1],
     [0,1,1,0,0,1,1,0,0],
     [1,0,1,0,1,0,0,0,1],
     [1,1,0,0,1,0,0,1,0],
     [1,0,1,1,0,0,1,0,0],
     [1,1,0,1,0,1,0,0,0]], [
    [[[0,0,0,0,1,-1,0,0,0,0,0,0,0,0,0,0,0,0,0,0]], [[3,0,0,0,0,0,0,0,0,0,0,0,0,0,0,0,1,0,0,0],[5,0,1,0,-1,0,0,0,0,0,0,0,0,0,0,0,0,0,0,1],[2,0,1,0,0,0,0,0,0,0,0,0,0,0,0,0,0,0,0,0],[2,1,1,0,-1,0,0,0,0,0,0,0,0,0,0,0,0,0,0,0]], 0],
    [[[2,1,1,0,0,-1,0,0,0,0,0,0,0,0,0,0,0,0,0,0]], [[3,0,0,0,0,0,0,0,0,0,0,0,0,0,0,0,1,0,0,0],[-2,-1,-1,0,1,0,0,0,0,0,0,0,0,0,0,0,0,0,0,0],[3,-1,0,0,0,0,0,0,0,0,0,0,0,0,0,0,0,0,0,1],[2,0,1,0,0,0,0,0,0,0,0,0,0,0,0,0,0,0,0,0]], 1],
    [[[5,0,1,0,0,-1,0,0,0,0,0,0,0,0,0,0,0,0,0,1]], [[3,0,0,0,0,0,0,0,0,0,0,0,0,0,0,0,1,0,0,0],[0,0,0,0,1,-1,0,0,0,0,0,0,0,0,0,0,0,0,0,0],[2,0,1,0,0,0,0,0,0,0,0,0,0,0,0,0,0,0,0,0],[2,1,1,0,0,-1,0,0,0,0,0,0,0,0,0,0,0,0,0,0]], 2],
    [[[2,0,1,0,-1,1,0,0,0,0,0,0,0,0,0,0,0,0,0,0]], [[-2,0,-1,0,0,0,0,0,0,0,0,0,0,0,0,0,0,0,0,0],[1,0,-1,0,0,0,0,0,0,0,0,0,0,0,0,0,1,0,0,0],[5,0,1,0,-1,0,0,0,0,0,0,0,0,0,0,0,0,0,0,1],[2,1,1,0,-1,0,0,0,0,0,0,0,0,0,0,0,0,0,0,0]], 3],
    [[[-3,0,0,0,1,-1,0,0,0,0,0,0,0,0,0,0,-1,0,0,0]], [[0,0,0,0,-1,1,0,0,0,0,0,0,0,0,0,0,0,0,0,0],[5,0,1,0,-1,0,0,0,0,0,0,0,0,0,0,0,0,0,0,1],[2,0,1,0,-1,1,0,0,0,0,0,0,0,0,0,0,0,0,0,0],[2,1,1,0,-1,0,0,0,0,0,0,0,0,0,0,0,0,0,0,0]], 4],
    [[[0,1,0,0,0,-1,0,0,0,0,0,0,0,0,0,0,0,0,0,0]], [[-2,0,-1,0,0,0,0,0,0,0,0,0,0,0,0,0,0,0,0,0],[1,0,-1,0,0,0,0,0,0,0,0,0,0,0,0,0,1,0,0,0],[-2,-1,-1,0,1,0,0,0,0,0,0,0,0,0,0,0,0,0,0,0],[3,-1,0,0,0,0,0,0,0,0,0,0,0,0,0,0,0,0,0,1]], 5],
    [[[-3,0,0,0,0,1,0,0,0,0,0,0,0,0,0,0,0,0,0,-1]], [[-2,0,-1,0,0,0,0,0,0,0,0,0,0,0,0,0,0,0,0,0],[1,0,-1,0,0,0,0,0,0,0,0,0,0,0,0,0,1,0,0,0],[-2,0,-1,0,1,-1,0,0,0,0,0,0,0,0,0,0,0,0,0,0],[0,1,0,0,0,-1,0,0,0,0,0,0,0,0,0,0,0,0,0,0]], 6],
    [[[-1,1,1,0,0,-1,0,0,0,0,0,0,0,0,0,0,-1,0,0,0]], [[-2,-1,-1,0,0,1,0,0,0,0,0,0,0,0,0,0,0,0,0,0],[-2,-1,-1,0,1,0,0,0,0,0,0,0,0,0,0,0,0,0,0,0],[3,-1,0,0,0,0,0,0,0,0,0,0,0,0,0,0,0,0,0,1],[0,-1,0,0,0,1,0,0,0,0,0,0,0,0,0,0,0,0,0,0]], 7],
    [[[2,0,1,0,0,-1,0,0,0,0,0,0,0,0,0,0,-1,0,0,1]], [[-3,0,0,0,0,0,0,0,0,0,0,0,0,0,0,0,-1,0,0,0],[-3,0,0,0,1,-1,0,0,0,0,0,0,0,0,0,0,-1,0,0,0],[-1,0,1,0,0,0,0,0,0,0,0,0,0,0,0,0,-1,0,0,0],[-1,1,1,0,0,-1,0,0,0,0,0,0,0,0,0,0,-1,0,0,0]], 8]
  ]],
  ["#5",
    [[0,0],
     [0,0]], [
    [[[0,0,0,0,1,0,-1,0,0,0,0,0,0,0,0,0,0,0,0,0]], [[0,0,0,1,-1,0,0,0,0,0,0,0,0,0,0,0,0,0,0,0]], 0],
    [[[0,0,0,1,0,0,-1,0,0,0,0,0,0,0,0,0,0,0,0,0]], [[0,0,0,-1,1,0,0,0,0,0,0,0,0,0,0,0,0,0,0,0]], 1]
  ]],
  ["#6",
    [[0,0,0,1],
     [0,0,1,0],
     [0,1,0,0],
     [1,0,0,0]], [
    [[[2,0,1,0,0,0,0,1,-1,0,0,0,0,0,0,0,0,0,0,0]], [[-1,0,-1,0,0,0,0,-1,0,0,0,1,0,0,0,0,0,0,0,0],[1,0,-1,0,0,0,0,0,0,0,1,0,0,0,0,0,0,0,0,0]], 0],
    [[[3,0,0,0,0,0,0,1,-1,0,1,0,0,0,0,0,0,0,0,0]], [[1,0,0,0,0,0,0,0,-1,0,0,1,0,0,0,0,0,0,0,0],[2,0,1,0,0,0,0,1,-1,0,0,0,0,0,0,0,0,0,0,0]], 1],
    [[[1,0,1,0,0,0,0,1,0,0,0,-1,0,0,0,0,0,0,0,0]], [[-2,0,-1,0,0,0,0,-1,1,0,0,0,0,0,0,0,0,0,0,0],[1,0,-1,0,0,0,0,0,0,0,1,0,0,0,0,0,0,0,0,0]], 2],
    [[[2,0,0,0,0,0,0,1,0,0,1,-1,0,0,0,0,0,0,0,0]], [[-3,0,0,0,0,0,0,-1,1,0,-1,0,0,0,0,0,0,0,0,0],[-1,0,1,0,0,0,0,0,0,0,-1,0,0,0,0,0,0,0,0,0]], 3]
  ]],
  ["#7",
    [[0,0,0,1],
     [0,0,1,0],
     [0,1,0,0],
     [1,0,0,0]], [
    [[[-1,0,0,0,0,0,0,0,1,-1,0,0,0,0,0,0,0,0,0,0]], [[3,0,0,0,0,0,0,0,0,0,1,0,0,0,0,0,0,0,0,0],[2,0,1,0,0,0,0,1,-1,0,0,0,0,0,0,0,0,0,0,0]], 0],
    [[[2,0,1,0,0,0,0,1,-1,0,0,0,0,0,0,0,0,0,0,0]], [[-1,0,-1,0,0,0,0,-1,0,1,0,0,0,0,0,0,0,0,0,0],[3,0,0,0,0,0,0,0,0,0,1,0,0,0,0,0,0,0,0,0]], 1],
    [[[2,0,0,0,0,0,0,0,1,-1,1,0,0,0,0,0,0,0,0,0]], [[-1,0,0,0,0,0,0,0,1,-1,0,0,0,0,0,0,0,0,0,0],[1,0,1,0,0,0,0,1,0,-1,0,0,0,0,0,0,0,0,0,0]], 2],
    [[[-1,0,1,0,0,0,0,1,-1,0,-1,0,0,0,0,0,0,0,0,0]], [[-1,0,-1,0,0,0,0,-1,0,1,0,0,0,0,0,0,0,0,0,0],[-2,0,-1,0,0,0,0,-1,1,0,0,0,0,0,0,0,0,0,0,0]], 3]
  ]],
  ["#8",
    [[0,0,0],
     [0,0,0],
     [0,0,0]], [
    [[[-1,0,0,0,0,0,0,0,0,1,0,0,-1,0,0,0,0,0,0,0]], [[3,0,0,0,0,0,0,0,1,-1,1,0,0,0,0,0,0,0,0,0],[2,0,1,0,0,0,0,0,0,-1,0,1,0,0,0,0,0,0,0,0]], 0],
    [[[2,0,1,0,0,0,0,0,0,-1,0,1,0,0,0,0,0,0,0,0]], [[1,0,0,0,0,0,0,0,0,-1,0,0,1,0,0,0,0,0,0,0],[3,0,0,0,0,0,0,0,1,-1,1,0,0,0,0,0,0,0,0,0]], 1],
    [[[3,0,0,0,0,0,0,0,1,-1,1,0,0,0,0,0,0,0,0,0]], [[1,0,0,0,0,0,0,0,0,-1,0,0,1,0,0,0,0,0,0,0],[2,0,1,0,0,0,0,0,0,-1,0,1,0,0,0,0,0,0,0,0]], 2]
  ]],
  ["#9",
    [[0,0,0,0,0,0,1,1,1,1,0,1,1,1,1,0,1,1,1,1],
     [0,0,0,0,0,1,0,1,1,1,1,0,1,1,1,1,0,1,1,1],
     [0,0,0,0,0,1,1,0,1,1,1,1,0,1,1,1,1,0,1,1],
     [0,0,0,0,0,1,1,1,0,1,1,1,1,0,1,1,1,1,0,1],
     [0,0,0,0,0,1,1,1,1,0,1,1,1,1,0,1,1,1,1,0],
     [0,1,1,1,1,0,0,0,0,0,0,1,1,1,1,0,1,1,1,1],
     [1,0,1,1,1,0,0,0,0,0,1,0,1,1,1,1,0,1,1,1],
     [1,1,0,1,1,0,0,0,0,0,1,1,0,1,1,1,1,0,1,1],
     [1,1,1,0,1,0,0,0,0,0,1,1,1,0,1,1,1,1,0,1],
     [1,1,1,1,0,0,0,0,0,0,1,1,1,1,0,1,1,1,1,0],
     [0,1,1,1,1,0,1,1,1,1,0,0,0,0,0,0,1,1,1,1],
     [1,0,1,1,1,1,0,1,1,1,0,0,0,0,0,1,0,1,1,1],
     [1,1,0,1,1,1,1,0,1,1,0,0,0,0,0,1,1,0,1,1],
     [1,1,1,0,1,1,1,1,0,1,0,0,0,0,0,1,1,1,0,1],
     [1,1,1,1,0,1,1,1,1,0,0,0,0,0,0,1,1,1,1,0],
     [0,1,1,1,1,0,1,1,1,1,0,1,1,1,1,0,0,0,0,0],
     [1,0,1,1,1,1,0,1,1,1,1,0,1,1,1,0,0,0,0,0],
     [1,1,0,1,1,1,1,0,1,1,1,1,0,1,1,0,0,0,0,0],
     [1,1,1,0,1,1,1,1,0,1,1,1,1,0,1,0,0,0,0,0],
     [1,1,1,1,0,1,1,1,1,0,1,1,1,1,0,0,0,0,0,0]], [
    [[[-1,0,0,0,0,0,0,0,0,1,-1,0,0,0,0,0,0,0,0,0]], [[1,0,0,0,0,0,0,0,0,-1,0,0,0,0,0,1,0,0,0,0],[1,0,0,0,0,0,0,0,0,-1,0,0,0,0,1,0,0,0,0,0],[1,0,0,0,0,0,0,0,0,-1,0,1,0,0,0,0,0,0,0,0],[2,0,0,0,0,0,0,0,0,0,0,0,0,0,0,0,0,1,0,0],[2,0,0,0,0,0,0,0,0,0,0,0,0,1,0,0,0,0,0,0],[2,0,0,0,0,0,0,0,1,0,0,0,0,0,0,0,0,0,0,0],[2,0,0,0,0,0,0,1,0,0,0,0,0,0,0,0,0,0,0,0]], 0],
    [[[-3,0,0,0,0,0,0,0,0,1,-1,0,0,0,0,0,0,-1,0,0]], [[1,0,0,0,0,0,0,0,0,-1,0,0,0,0,0,1,0,0,0,0],[1,0,0,0,0,0,0,0,0,-1,0,0,0,0,1,0,0,0,0,0],[1,0,0,0,0,0,0,0,0,-1,0,1,0,0,0,0,0,0,0,0],[1,0,0,0,0,0,0,0,0,-1,1,0,0,0,0,0,0,0,0,0],[3,0,0,0,0,0,0,0,0,-1,1,0,0,1,0,0,0,0,0,0],[3,0,0,0,0,0,0,0,1,-1,1,0,0,0,0,0,0,0,0,0],[3,0,0,0,0,0,0,1,0,-1,1,0,0,0,0,0,0,0,0,0]], 1],
    [[[-3,0,0,0,0,0,0,0,0,1,-1,0,0,-1,0,0,0,0,0,0]], [[1,0,0,0,0,0,0,0,0,-1,0,0,0,0,0,1,0,0,0,0],[1,0,0,0,0,0,0,0,0,-1,0,0,0,0,1,0,0,0,0,0],[1,0,0,0,0,0,0,0,0,-1,0,1,0,0,0,0,0,0,0,0],[1,0,0,0,0,0,0,0,0,-1,1,0,0,0,0,0,0,0,0,0],[3,0,0,0,0,0,0,0,0,-1,1,0,0,0,0,0,0,1,0,0],[3,0,0,0,0,0,0,0,1,-1,1,0,0,0,0,0,0,0,0,0],[3,0,0,0,0,0,0,1,0,-1,1,0,0,0,0,0,0,0,0,0]], 2],
    [[[3,0,0,0,0,0,0,0,1,-1,1,0,0,0,0,0,0,0,0,0]], [[1,0,0,0,0,0,0,0,0,-1,0,0,0,0,0,1,0,0,0,0],[1,0,0,0,0,0,0,0,0,-1,0,0,0,0,1,0,0,0,0,0],[1,0,0,0,0,0,0,0,0,-1,0,1,0,0,0,0,0,0,0,0],[-2,0,0,0,0,0,0,0,-1,0,0,0,0,0,0,0,0,0,0,0],[0,0,0,0,0,0,0,0,-1,0,0,0,0,0,0,0,0,1,0,0],[0,0,0,0,0,0,0,0,-1,0,0,0,0,1,0,0,0,0,0,0],[0,0,0,0,0,0,0,1,-1,0,0,0,0,0,0,0,0,0,0,0]], 3],
    [[[3,0,0,0,0,0,0,1,0,-1,1,0,0,0,0,0,0,0,0,0]], [[1,0,0,0,0,0,0,0,0,-1,0,0,0,0,0,1,0,0,0,0],[1,0,0,0,0,0,0,0,0,-1,0,0,0,0,1,0,0,0,0,0],[1,0,0,0,0,0,0,0,0,-1,0,1,0,0,0,0,0,0,0,0],[-2,0,0,0,0,0,0,-1,0,0,0,0,0,0,0,0,0,0,0,0],[0,0,0,0,0,0,0,-1,0,0,0,0,0,0,0,0,0,1,0,0],[0,0,0,0,0,0,0,-1,0,0,0,0,0,1,0,0,0,0,0,0],[0,0,0,0,0,0,0,-1,1,0,0,0,0,0,0,0,0,0,0,0]], 4],
    [[[0,0,0,0,0,0,0,0,0,0,1,0,0,0,0,-1,0,0,0,0]], [[0,0,0,0,0,0,0,0,0,0,-1,0,0,0,1,0,0,0,0,0],[0,0,0,0,0,0,0,0,0,0,-1,1,0,0,0,0,0,0,0,0],[2,0,0,0,0,0,0,0,0,0,0,0,0,0,0,0,0,1,0,0],[2,0,0,0,0,0,0,0,0,0,0,0,0,1,0,0,0,0,0,0],[-1,0,0,0,0,0,0,0,0,1,-1,0,0,0,0,0,0,0,0,0],[2,0,0,0,0,0,0,0,1,0,0,0,0,0,0,0,0,0,0,0],[2,0,0,0,0,0,0,1,0,0,0,0,0,0,0,0,0,0,0,0]], 5],
    [[[2,0,0,0,0,0,0,0,0,0,1,0,0,0,0,-1,0,1,0,0]], [[0,0,0,0,0,0,0,0,0,0,0,0,0,0,1,-1,0,0,0,0],[0,0,0,0,0,0,0,0,0,0,0,1,0,0,0,-1,0,0,0,0],[0,0,0,0,0,0,0,0,0,0,1,0,0,0,0,-1,0,0,0,0],[2,0,0,0,0,0,0,0,0,0,1,0,0,1,0,-1,0,0,0,0],[-1,0,0,0,0,0,0,0,0,1,0,0,0,0,0,-1,0,0,0,0],[2,0,0,0,0,0,0,0,1,0,1,0,0,0,0,-1,0,0,0,0],[2,0,0,0,0,0,0,1,0,0,1,0,0,0,0,-1,0,0,0,0]], 6],
    [[[2,0,0,0,0,0,0,0,0,0,1,0,0,1,0,-1,0,0,0,0]], [[-2,0,0,0,0,0,0,0,0,0,-1,0,0,-1,1,0,0,0,0,0],[-2,0,0,0,0,0,0,0,0,0,-1,1,0,-1,0,0,0,0,0,0],[-2,0,0,0,0,0,0,0,0,0,0,0,0,-1,0,0,0,0,0,0],[0,0,0,0,0,0,0,0,0,0,0,0,0,-1,0,0,0,1,0,0],[-3,0,0,0,0,0,0,0,0,1,-1,0,0,-1,0,0,0,0,0,0],[0,0,0,0,0,0,0,0,1,0,0,0,0,-1,0,0,0,0,0,0],[0,0,0,0,0,0,0,1,0,0,0,0,0,-1,0,0,0,0,0,0]], 7],
    [[[2,0,0,0,0,0,0,0,1,0,1,0,0,0,0,-1,0,0,0,0]], [[-2,0,0,0,0,0,0,0,-1,0,-1,0,0,0,1,0,0,0,0,0],[-2,0,0,0,0,0,0,0,-1,0,-1,1,0,0,0,0,0,0,0,0],[-2,0,0,0,0,0,0,0,-1,0,0,0,0,0,0,0,0,0,0,0],[0,0,0,0,0,0,0,0,-1,0,0,0,0,0,0,0,0,1,0,0],[0,0,0,0,0,0,0,0,-1,0,0,0,0,1,0,0,0,0,0,0],[-3,0,0,0,0,0,0,0,-1,1,-1,0,0,0,0,0,0,0,0,0],[0,0,0,0,0,0,0,1,-1,0,0,0,0,0,0,0,0,0,0,0]], 8],
    [[[2,0,0,0,0,0,0,1,0,0,1,0,0,0,0,-1,0,0,0,0]], [[-2,0,0,0,0,0,0,-1,0,0,-1,0,0,0,1,0,0,0,0,0],[-2,0,0,0,0,0,0,-1,0,0,-1,1,0,0,0,0,0,0,0,0],[-2,0,0,0,0,0,0,-1,0,0,0,0,0,0,0,0,0,0,0,0],[0,0,0,0,0,0,0,-1,0,0,0,0,0,0,0,0,0,1,0,0],[0,0,0,0,0,0,0,-1,0,0,0,0,0,1,0,0,0,0,0,0],[-3,0,0,0,0,0,0,-1,0,1,-1,0,0,0,0,0,0,0,0,0],[0,0,0,0,0,0,0,-1,1,0,0,0,0,0,0,0,0,0,0,0]], 9],
    [[[0,0,0,0,0,0,0,0,0,0,1,0,0,0,-1,0,0,0,0,0]], [[0,0,0,0,0,0,0,0,0,0,-1,0,0,0,0,1,0,0,0,0],[0,0,0,0,0,0,0,0,0,0,-1,1,0,0,0,0,0,0,0,0],[2,0,0,0,0,0,0,0,0,0,0,0,0,0,0,0,0,1,0,0],[2,0,0,0,0,0,0,0,0,0,0,0,0,1,0,0,0,0,0,0],[-1,0,0,0,0,0,0,0,0,1,-1,0,0,0,0,0,0,0,0,0],[2,0,0,0,0,0,0,0,1,0,0,0,0,0,0,0,0,0,0,0],[2,0,0,0,0,0,0,1,0,0,0,0,0,0,0,0,0,0,0,0]], 10],
    [[[2,0,0,0,0,0,0,0,0,0,1,0,0,0,-1,0,0,1,0,0]], [[0,0,0,0,0,0,0,0,0,0,0,0,0,0,-1,1,0,0,0,0],[0,0,0,0,0,0,0,0,0,0,0,1,0,0,-1,0,0,0,0,0],[0,0,0,0,0,0,0,0,0,0,1,0,0,0,-1,0,0,0,0,0],[2,0,0,0,0,0,0,0,0,0,1,0,0,1,-1,0,0,0,0,0],[-1,0,0,0,0,0,0,0,0,1,0,0,0,0,-1,0,0,0,0,0],[2,0,0,0,0,0,0,0,1,0,1,0,0,0,-1,0,0,0,0,0],[2,0,0,0,0,0,0,1,0,0,1,0,0,0,-1,0,0,0,0,0]], 11],
    [[[2,0,0,0,0,0,0,0,0,0,1,0,0,1,-1,0,0,0,0,0]], [[-2,0,0,0,0,0,0,0,0,0,-1,0,0,-1,0,1,0,0,0,0],[-2,0,0,0,0,0,0,0,0,0,-1,1,0,-1,0,0,0,0,0,0],[-2,0,0,0,0,0,0,0,0,0,0,0,0,-1,0,0,0,0,0,0],[0,0,0,0,0,0,0,0,0,0,0,0,0,-1,0,0,0,1,0,0],[-3,0,0,0,0,0,0,0,0,1,-1,0,0,-1,0,0,0,0,0,0],[0,0,0,0,0,0,0,0,1,0,0,0,0,-1,0,0,0,0,0,0],[0,0,0,0,0,0,0,1,0,0,0,0,0,-1,0,0,0,0,0,0]], 12],
    [[[2,0,0,0,0,0,0,0,1,0,1,0,0,0,-1,0,0,0,0,0]], [[-2,0,0,0,0,0,0,0,-1,0,-1,0,0,0,0,1,0,0,0,0],[-2,0,0,0,0,0,0,0,-1,0,-1,1,0,0,0,0,0,0,0,0],[-2,0,0,0,0,0,0,0,-1,0,0,0,0,0,0,0,0,0,0,0],[0,0,0,0,0,0,0,0,-1,0,0,0,0,0,0,0,0,1,0,0],[0,0,0,0,0,0,0,0,-1,0,0,0,0,1,0,0,0,0,0,0],[-3,0,0,0,0,0,0,0,-1,1,-1,0,0,0,0,0,0,0,0,0],[0,0,0,0,0,0,0,1,-1,0,0,0,0,0,0,0,0,0,0,0]], 13],
    [[[2,0,0,0,0,0,0,1,0,0,1,0,0,0,-1,0,0,0,0,0]], [[-2,0,0,0,0,0,0,-1,0,0,-1,0,0,0,0,1,0,0,0,0],[-2,0,0,0,0,0,0,-1,0,0,-1,1,0,0,0,0,0,0,0,0],[-2,0,0,0,0,0,0,-1,0,0,0,0,0,0,0,0,0,0,0,0],[0,0,0,0,0,0,0,-1,0,0,0,0,0,0,0,0,0,1,0,0],[0,0,0,0,0,0,0,-1,0,0,0,0,0,1,0,0,0,0,0,0],[-3,0,0,0,0,0,0,-1,0,1,-1,0,0,0,0,0,0,0,0,0],[0,0,0,0,0,0,0,-1,1,0,0,0,0,0,0,0,0,0,0,0]], 14],
    [[[0,0,0,0,0,0,0,0,0,0,1,-1,0,0,0,0,0,0,0,0]], [[0,0,0,0,0,0,0,0,0,0,-1,0,0,0,0,1,0,0,0,0],[0,0,0,0,0,0,0,0,0,0,-1,0,0,0,1,0,0,0,0,0],[2,0,0,0,0,0,0,0,0,0,0,0,0,0,0,0,0,1,0,0],[2,0,0,0,0,0,0,0,0,0,0,0,0,1,0,0,0,0,0,0],[-1,0,0,0,0,0,0,0,0,1,-1,0,0,0,0,0,0,0,0,0],[2,0,0,0,0,0,0,0,1,0,0,0,0,0,0,0,0,0,0,0],[2,0,0,0,0,0,0,1,0,0,0,0,0,0,0,0,0,0,0,0]], 15],
    [[[2,0,0,0,0,0,0,0,0,0,1,-1,0,0,0,0,0,1,0,0]], [[0,0,0,0,0,0,0,0,0,0,0,-1,0,0,0,1,0,0,0,0],[0,0,0,0,0,0,0,0,0,0,0,-1,0,0,1,0,0,0,0,0],[0,0,0,0,0,0,0,0,0,0,1,-1,0,0,0,0,0,0,0,0],[2,0,0,0,0,0,0,0,0,0,1,-1,0,1,0,0,0,0,0,0],[-1,0,0,0,0,0,0,0,0,1,0,-1,0,0,0,0,0,0,0,0],[2,0,0,0,0,0,0,0,1,0,1,-1,0,0,0,0,0,0,0,0],[2,0,0,0,0,0,0,1,0,0,1,-1,0,0,0,0,0,0,0,0]], 16],
    [[[2,0,0,0,0,0,0,0,0,0,1,-1,0,1,0,0,0,0,0,0]], [[0,0,0,0,0,0,0,0,0,0,0,-1,0,0,0,1,0,0,0,0],[0,0,0,0,0,0,0,0,0,0,0,-1,0,0,1,0,0,0,0,0],[0,0,0,0,0,0,0,0,0,0,1,-1,0,0,0,0,0,0,0,0],[2,0,0,0,0,0,0,0,0,0,1,-1,0,0,0,0,0,1,0,0],[-1,0,0,0,0,0,0,0,0,1,0,-1,0,0,0,0,0,0,0,0],[2,0,0,0,0,0,0,0,1,0,1,-1,0,0,0,0,0,0,0,0],[2,0,0,0,0,0,0,1,0,0,1,-1,0,0,0,0,0,0,0,0]], 17],
    [[[2,0,0,0,0,0,0,0,1,0,1,-1,0,0,0,0,0,0,0,0]], [[-2,0,0,0,0,0,0,0,-1,0,-1,0,0,0,0,1,0,0,0,0],[-2,0,0,0,0,0,0,0,-1,0,-1,0,0,0,1,0,0,0,0,0],[-2,0,0,0,0,0,0,0,-1,0,0,0,0,0,0,0,0,0,0,0],[0,0,0,0,0,0,0,0,-1,0,0,0,0,0,0,0,0,1,0,0],[0,0,0,0,0,0,0,0,-1,0,0,0,0,1,0,0,0,0,0,0],[-3,0,0,0,0,0,0,0,-1,1,-1,0,0,0,0,0,0,0,0,0],[0,0,0,0,0,0,0,1,-1,0,0,0,0,0,0,0,0,0,0,0]], 18],
    [[[2,0,0,0,0,0,0,1,0,0,1,-1,0,0,0,0,0,0,0,0]], [[-2,0,0,0,0,0,0,-1,0,0,-1,0,0,0,0,1,0,0,0,0],[-2,0,0,0,0,0,0,-1,0,0,-1,0,0,0,1,0,0,0,0,0],[-2,0,0,0,0,0,0,-1,0,0,0,0,0,0,0,0,0,0,0,0],[0,0,0,0,0,0,0,-1,0,0,0,0,0,0,0,0,0,1,0,0],[0,0,0,0,0,0,0,-1,0,0,0,0,0,1,0,0,0,0,0,0],[-3,0,0,0,0,0,0,-1,0,1,-1,0,0,0,0,0,0,0,0,0],[0,0,0,0,0,0,0,-1,1,0,0,0,0,0,0,0,0,0,0,0]], 19]
  ]],
  ["#10",
    [[0,0,0,1],
     [0,0,1,0],
     [0,1,0,0],
     [1,0,0,0]], [
    [[[-1,0,0,0,0,0,0,0,0,1,0,-1,0,0,0,0,0,0,0,0]], [[3,0,0,0,0,0,0,1,0,-1,1,0,0,0,0,0,0,0,0,0],[1,0,1,0,0,0,0,0,0,0,0,0,0,0,0,0,0,0,0,0]], 0],
    [[[2,0,1,0,0,0,0,0,0,-1,0,1,0,0,0,0,0,0,0,0]], [[-1,0,-1,0,0,0,0,0,0,0,0,0,0,0,0,0,0,0,0,0],[3,0,0,0,0,0,0,1,0,-1,1,0,0,0,0,0,0,0,0,0]], 1],
    [[[2,0,0,0,0,0,0,1,0,0,1,-1,0,0,0,0,0,0,0,0]], [[-3,0,0,0,0,0,0,-1,0,1,-1,0,0,0,0,0,0,0,0,0],[1,0,1,0,0,0,0,0,0,0,0,0,0,0,0,0,0,0,0,0]], 2],
    [[[-1,0,1,0,0,0,0,-1,0,0,-1,1,0,0,0,0,0,0,0,0]], [[-1,0,-1,0,0,0,0,0,0,0,0,0,0,0,0,0,0,0,0,0],[-3,0,0,0,0,0,0,-1,0,1,-1,0,0,0,0,0,0,0,0,0]], 3]
  ]],
  ["#11",
    [[0,0],
     [0,0]], [
    [[[-1,0,0,0,0,0,0,0,0,1,0,0,-1,0,0,0,0,0,0,0]], [[0,0,0,0,0,0,0,0,1,-1,0,0,0,0,0,0,0,0,0,0]], 0],
    [[[-1,0,0,0,0,0,0,0,1,0,0,0,-1,0,0,0,0,0,0,0]], [[0,0,0,0,0,0,0,0,-1,1,0,0,0,0,0,0,0,0,0,0]], 1]
  ]],
  ["#12",
    [[0,0,0,1],
     [0,0,1,0],
     [0,1,0,0],
     [1,0,0,0]], [
    [[[2,0,0,0,0,0,0,0,0,0,0,0,0,1,-1,0,1,0,0,0]], [[3,0,0,0,0,0,0,0,0,0,0,0,0,0,-1,0,0,1,0,0],[2,0,0,0,0,0,0,0,0,0,1,0,0,1,-1,0,0,0,0,0]], 0],
    [[[2,0,0,0,0,0,0,0,0,0,1,0,0,1,-1,0,0,0,0,0]], [[1,0,0,0,0,0,0,0,0,0,-1,0,0,-1,0,0,0,1,0,0],[0,0,0,0,0,0,0,0,0,0,-1,0,0,0,0,0,1,0,0,0]], 1],
    [[[-1,0,0,0,0,0,0,0,0,0,0,0,0,1,0,0,1,-1,0,0]], [[-2,0,0,0,0,0,0,0,0,0,0,0,0,-1,1,0,-1,0,0,0],[0,0,0,0,0,0,0,0,0,0,1,0,0,0,0,0,-1,0,0,0]], 2],
    [[[-1,0,0,0,0,0,0,0,0,0,1,0,0,1,0,0,0,-1,0,0]], [[-2,0,0,0,0,0,0,0,0,0,-1,0,0,-1,1,0,0,0,0,0],[0,0,0,0,0,0,0,0,0,0,-1,0,0,0,0,0,1,0,0,0]], 3]
  ]],
  ["#13",
    [[0,0,0,1],
     [0,0,1,0],
     [0,1,0,0],
     [1,0,0,0]], [
    [[[3,0,0,0,0,0,0,0,0,0,1,0,0,1,-1,0,0,0,0,0]], [[1,0,0,0,0,0,0,0,0,0,-1,0,0,-1,0,1,0,0,0,0],[3,0,0,0,0,0,0,0,0,0,0,0,0,0,0,0,1,0,0,0]], 0],
    [[[-4,0,0,0,0,0,0,0,0,0,0,0,0,0,1,-1,0,0,0,0]], [[3,0,0,0,0,0,0,0,0,0,0,0,0,0,0,0,1,0,0,0],[3,0,0,0,0,0,0,0,0,0,1,0,0,1,-1,0,0,0,0,0]], 1],
    [[[0,0,0,0,0,0,0,0,0,0,1,0,0,1,-1,0,-1,0,0,0]], [[1,0,0,0,0,0,0,0,0,0,-1,0,0,-1,0,1,0,0,0,0],[-3,0,0,0,0,0,0,0,0,0,-1,0,0,-1,1,0,0,0,0,0]], 2],
    [[[-1,0,0,0,0,0,0,0,0,0,0,0,0,0,1,-1,1,0,0,0]], [[-4,0,0,0,0,0,0,0,0,0,0,0,0,0,1,-1,0,0,0,0],[-1,0,0,0,0,0,0,0,0,0,1,0,0,1,0,-1,0,0,0,0]], 3]
  ]],
  ["#14",
    [[0,0,0],
     [0,0,0],
     [0,0,0]], [
    [[[-1,0,0,0,0,0,0,0,0,0,0,0,0,0,0,1,0,0,-1,0]], [[3,0,0,0,0,0,0,0,0,0,0,0,0,0,1,-1,1,0,0,0],[3,0,0,0,0,0,0,0,0,0,1,0,0,0,0,-1,0,1,0,0]], 0],
    [[[3,0,0,0,0,0,0,0,0,0,0,0,0,0,1,-1,1,0,0,0]], [[1,0,0,0,0,0,0,0,0,0,0,0,0,0,0,-1,0,0,1,0],[3,0,0,0,0,0,0,0,0,0,1,0,0,0,0,-1,0,1,0,0]], 1],
    [[[3,0,0,0,0,0,0,0,0,0,1,0,0,0,0,-1,0,1,0,0]], [[1,0,0,0,0,0,0,0,0,0,0,0,0,0,0,-1,0,0,1,0],[3,0,0,0,0,0,0,0,0,0,0,0,0,0,1,-1,1,0,0,0]], 2]
  ]],
  ["#15",
    [[0,0,0,0,0,0,0,0,0,1,1,1,1,1,1,1,1,1,1,1,1,1,1,1],
     [0,0,0,0,0,0,1,1,1,0,1,1,1,1,0,0,1,1,1,1,1,1,1,1],
     [0,0,0,0,0,0,1,1,1,1,0,1,1,1,1,1,0,0,1,1,1,1,1,1],
     [0,0,0,0,0,0,1,1,1,1,1,0,1,1,1,1,1,1,0,0,1,1,1,1],
     [0,0,0,0,0,0,1,1,1,1,1,1,0,1,1,1,1,1,1,1,0,0,1,1],
     [0,0,0,0,0,0,1,1,1,1,1,1,1,0,1,1,1,1,1,1,1,1,0,0],
     [0,1,1,1,1,1,0,0,0,0,0,0,0,0,1,1,1,1,1,1,1,1,1,1],
     [0,1,1,1,1,1,0,0,0,1,1,1,1,1,0,1,0,1,0,1,0,1,0,1],
     [0,1,1,1,1,1,0,0,0,1,1,1,1,1,1,0,1,0,1,0,1,0,1,0],
     [1,0,1,1,1,1,0,1,1,0,0,0,0,0,0,0,1,1,1,1,1,1,1,1],
     [1,1,0,1,1,1,0,1,1,0,0,0,0,0,1,1,0,0,1,1,1,1,1,1],
     [1,1,1,0,1,1,0,1,1,0,0,0,0,0,1,1,1,1,0,0,1,1,1,1],
     [1,1,1,1,0,1,0,1,1,0,0,0,0,0,1,1,1,1,1,1,0,0,1,1],
     [1,1,1,1,1,0,0,1,1,0,0,0,0,0,1,1,1,1,1,1,1,1,0,0],
     [1,0,1,1,1,1,1,0,1,0,1,1,1,1,0,0,0,1,0,1,0,1,0,1],
     [1,0,1,1,1,1,1,1,0,0,1,1,1,1,0,0,1,0,1,0,1,0,1,0],
     [1,1,0,1,1,1,1,0,1,1,0,1,1,1,0,1,0,0,0,1,0,1,0,1],
     [1,1,0,1,1,1,1,1,0,1,0,1,1,1,1,0,0,0,1,0,1,0,1,0],
     [1,1,1,0,1,1,1,0,1,1,1,0,1,1,0,1,0,1,0,0,0,1,0,1],
     [1,1,1,0,1,1,1,1,0,1,1,0,1,1,1,0,1,0,0,0,1,0,1,0],
     [1,1,1,1,0,1,1,0,1,1,1,1,0,1,0,1,0,1,0,1,0,0,0,1],
     [1,1,1,1,0,1,1,1,0,1,1,1,0,1,1,0,1,0,1,0,0,0,1,0],
     [1,1,1,1,1,0,1,0,1,1,1,1,1,0,0,1,0,1,0,1,0,1,0,0],
     [1,1,1,1,1,0,1,1,0,1,1,1,1,0,1,0,1,0,1,0,1,0,0,0]], [
    [[[-1,0,0,0,0,0,0,0,0,0,0,0,0,0,0,1,-1,0,0,0]], [[3,0,0,0,0,0,0,0,0,0,0,0,0,0,0,-1,0,0,0,1],[4,0,0,0,0,0,0,0,0,0,0,0,0,0,0,-1,0,1,0,0],[2,0,0,0,0,0,0,0,0,0,0,0,0,0,1,0,0,0,0,0],[2,0,0,0,0,0,0,0,0,0,0,0,0,1,0,0,0,0,0,0],[2,0,0,0,0,1,0,0,0,0,0,0,0,0,0,0,0,0,0,0],[2,0,0,1,0,0,0,0,0,0,0,0,0,0,0,0,0,0,0,0],[5,0,1,0,0,0,0,0,0,0,0,0,0,0,0,-1,0,0,0,1],[2,1,0,0,0,0,0,0,0,0,0,0,0,0,0,0,0,0,0,0]], 0],
    [[[3,0,0,0,0,0,0,0,0,0,0,0,0,0,1,-1,1,0,0,0]], [[3,0,0,0,0,0,0,0,0,0,0,0,0,0,0,-1,0,0,0,1],[4,0,0,0,0,0,0,0,0,0,0,0,0,0,0,-1,0,1,0,0],[-2,0,0,0,0,0,0,0,0,0,0,0,0,0,-1,0,0,0,0,0],[0,0,0,0,0,0,0,0,0,0,0,0,0,1,-1,0,0,0,0,0],[0,0,0,0,0,1,0,0,0,0,0,0,0,0,-1,0,0,0,0,0],[0,0,0,1,0,0,0,0,0,0,0,0,0,0,-1,0,0,0,0,0],[5,0,1,0,0,0,0,0,0,0,0,0,0,0,0,-1,0,0,0,1],[0,1,0,0,0,0,0,0,0,0,0,0,0,0,-1,0,0,0,0,0]], 1],
    [[[3,0,0,0,0,0,0,0,0,0,0,0,0,1,0,-1,1,0,0,0]], [[3,0,0,0,0,0,0,0,0,0,0,0,0,0,0,-1,0,0,0,1],[4,0,0,0,0,0,0,0,0,0,0,0,0,0,0,-1,0,1,0,0],[-2,0,0,0,0,0,0,0,0,0,0,0,0,-1,0,0,0,0,0,0],[0,0,0,0,0,0,0,0,0,0,0,0,0,-1,1,0,0,0,0,0],[0,0,0,0,0,1,0,0,0,0,0,0,0,-1,0,0,0,0,0,0],[0,0,0,1,0,0,0,0,0,0,0,0,0,-1,0,0,0,0,0,0],[5,0,1,0,0,0,0,0,0,0,0,0,0,0,0,-1,0,0,0,1],[0,1,0,0,0,0,0,0,0,0,0,0,0,-1,0,0,0,0,0,0]], 2],
    [[[3,0,0,0,0,1,0,0,0,0,0,0,0,0,0,-1,1,0,0,0]], [[3,0,0,0,0,0,0,0,0,0,0,0,0,0,0,-1,0,0,0,1],[4,0,0,0,0,0,0,0,0,0,0,0,0,0,0,-1,0,1,0,0],[-2,0,0,0,0,-1,0,0,0,0,0,0,0,0,0,0,0,0,0,0],[0,0,0,0,0,-1,0,0,0,0,0,0,0,0,1,0,0,0,0,0],[0,0,0,0,0,-1,0,0,0,0,0,0,0,1,0,0,0,0,0,0],[0,0,0,1,0,-1,0,0,0,0,0,0,0,0,0,0,0,0,0,0],[5,0,1,0,0,0,0,0,0,0,0,0,0,0,0,-1,0,0,0,1],[0,1,0,0,0,-1,0,0,0,0,0,0,0,0,0,0,0,0,0,0]], 3],
    [[[3,0,0,1,0,0,0,0,0,0,0,0,0,0,0,-1,1,0,0,0]], [[3,0,0,0,0,0,0,0,0,0,0,0,0,0,0,-1,0,0,0,1],[4,0,0,0,0,0,0,0,0,0,0,0,0,0,0,-1,0,1,0,0],[-2,0,0,-1,0,0,0,0,0,0,0,0,0,0,0,0,0,0,0,0],[0,0,0,-1,0,0,0,0,0,0,0,0,0,0,1,0,0,0,0,0],[0,0,0,-1,0,0,0,0,0,0,0,0,0,1,0,0,0,0,0,0],[0,0,0,-1,0,1,0,0,0,0,0,0,0,0,0,0,0,0,0,0],[5,0,1,0,0,0,0,0,0,0,0,0,0,0,0,-1,0,0,0,1],[0,1,0,-1,0,0,0,0,0,0,0,0,0,0,0,0,0,0,0,0]], 4],
    [[[3,1,0,0,0,0,0,0,0,0,0,0,0,0,0,-1,1,0,0,0]], [[3,0,0,0,0,0,0,0,0,0,0,0,0,0,0,-1,0,0,0,1],[4,0,0,0,0,0,0,0,0,0,0,0,0,0,0,-1,0,1,0,0],[-2,-1,0,0,0,0,0,0,0,0,0,0,0,0,0,0,0,0,0,0],[0,-1,0,0,0,0,0,0,0,0,0,0,0,0,1,0,0,0,0,0],[0,-1,0,0,0,0,0,0,0,0,0,0,0,1,0,0,0,0,0,0],[0,-1,0,0,0,1,0,0,0,0,0,0,0,0,0,0,0,0,0,0],[0,-1,0,1,0,0,0,0,0,0,0,0,0,0,0,0,0,0,0,0],[5,0,1,0,0,0,0,0,0,0,0,0,0,0,0,-1,0,0,0,1]], 5],
    [[[-2,0,0,0,0,0,0,0,0,0,0,0,0,0,0,0,1,0,0,-1]], [[3,0,0,0,0,0,0,0,0,0,0,0,0,0,0,0,-1,1,0,0],[-1,0,0,0,0,0,0,0,0,0,0,0,0,0,0,1,-1,0,0,0],[2,0,0,0,0,0,0,0,0,0,0,0,0,0,1,0,0,0,0,0],[2,0,0,0,0,0,0,0,0,0,0,0,0,1,0,0,0,0,0,0],[2,0,0,0,0,1,0,0,0,0,0,0,0,0,0,0,0,0,0,0],[2,0,0,1,0,0,0,0,0,0,0,0,0,0,0,0,0,0,0,0],[2,0,1,0,0,0,0,0,0,0,0,0,0,0,0,0,0,0,0,0],[2,1,0,0,0,0,0,0,0,0,0,0,0,0,0,0,0,0,0,0]], 6],
    [[[-3,0,0,0,0,0,0,0,0,0,0,0,0,0,0,0,1,-1,0,0]], [[2,0,0,0,0,0,0,0,0,0,0,0,0,0,0,0,-1,0,0,1],[-1,0,0,0,0,0,0,0,0,0,0,0,0,0,0,1,-1,0,0,0],[2,0,0,0,0,0,0,0,0,0,0,0,0,0,1,0,0,0,0,0],[2,0,0,0,0,0,0,0,0,0,0,0,0,1,0,0,0,0,0,0],[2,0,0,0,0,1,0,0,0,0,0,0,0,0,0,0,0,0,0,0],[2,0,0,1,0,0,0,0,0,0,0,0,0,0,0,0,0,0,0,0],[4,0,1,0,0,0,0,0,0,0,0,0,0,0,0,0,-1,0,0,1],[2,1,0,0,0,0,0,0,0,0,0,0,0,0,0,0,0,0,0,0]], 7],
    [[[4,0,1,0,0,0,0,0,0,0,0,0,0,0,0,0,-1,0,0,1]], [[-2,0,-1,0,0,0,0,0,0,0,0,0,0,0,0,0,0,0,0,0],[3,0,0,0,0,0,0,0,0,0,0,0,0,0,0,0,-1,1,0,0],[-1,0,0,0,0,0,0,0,0,0,0,0,0,0,0,1,-1,0,0,0],[2,0,0,0,0,0,0,0,0,0,0,0,0,0,1,0,0,0,0,0],[2,0,0,0,0,0,0,0,0,0,0,0,0,1,0,0,0,0,0,0],[2,0,0,0,0,1,0,0,0,0,0,0,0,0,0,0,0,0,0,0],[2,0,0,1,0,0,0,0,0,0,0,0,0,0,0,0,0,0,0,0],[2,1,0,0,0,0,0,0,0,0,0,0,0,0,0,0,0,0,0,0]], 8],
    [[[0,0,0,0,0,0,0,0,0,0,0,0,0,0,1,0,1,0,0,-1]], [[1,0,0,0,0,0,0,0,0,0,0,0,0,0,-1,0,-1,1,0,0],[-2,0,0,0,0,0,0,0,0,0,0,0,0,0,-1,0,0,0,0,0],[-3,0,0,0,0,0,0,0,0,0,0,0,0,0,-1,1,-1,0,0,0],[0,0,0,0,0,0,0,0,0,0,0,0,0,1,-1,0,0,0,0,0],[0,0,0,0,0,1,0,0,0,0,0,0,0,0,-1,0,0,0,0,0],[0,0,0,1,0,0,0,0,0,0,0,0,0,0,-1,0,0,0,0,0],[2,0,1,0,0,0,0,0,0,0,0,0,0,0,0,0,0,0,0,0],[0,1,0,0,0,0,0,0,0,0,0,0,0,0,-1,0,0,0,0,0]], 9],
    [[[0,0,0,0,0,0,0,0,0,0,0,0,0,1,0,0,1,0,0,-1]], [[1,0,0,0,0,0,0,0,0,0,0,0,0,-1,0,0,-1,1,0,0],[-2,0,0,0,0,0,0,0,0,0,0,0,0,-1,0,0,0,0,0,0],[-3,0,0,0,0,0,0,0,0,0,0,0,0,-1,0,1,-1,0,0,0],[0,0,0,0,0,0,0,0,0,0,0,0,0,-1,1,0,0,0,0,0],[0,0,0,0,0,1,0,0,0,0,0,0,0,-1,0,0,0,0,0,0],[0,0,0,1,0,0,0,0,0,0,0,0,0,-1,0,0,0,0,0,0],[2,0,1,0,0,0,0,0,0,0,0,0,0,0,0,0,0,0,0,0],[0,1,0,0,0,0,0,0,0,0,0,0,0,-1,0,0,0,0,0,0]], 10],
    [[[0,0,0,0,0,1,0,0,0,0,0,0,0,0,0,0,1,0,0,-1]], [[1,0,0,0,0,-1,0,0,0,0,0,0,0,0,0,0,-1,1,0,0],[-2,0,0,0,0,-1,0,0,0,0,0,0,0,0,0,0,0,0,0,0],[-3,0,0,0,0,-1,0,0,0,0,0,0,0,0,0,1,-1,0,0,0],[0,0,0,0,0,-1,0,0,0,0,0,0,0,0,1,0,0,0,0,0],[0,0,0,0,0,-1,0,0,0,0,0,0,0,1,0,0,0,0,0,0],[0,0,0,1,0,-1,0,0,0,0,0,0,0,0,0,0,0,0,0,0],[2,0,1,0,0,0,0,0,0,0,0,0,0,0,0,0,0,0,0,0],[0,1,0,0,0,-1,0,0,0,0,0,0,0,0,0,0,0,0,0,0]], 11],
    [[[0,0,0,1,0,0,0,0,0,0,0,0,0,0,0,0,1,0,0,-1]], [[1,0,0,-1,0,0,0,0,0,0,0,0,0,0,0,0,-1,1,0,0],[-2,0,0,-1,0,0,0,0,0,0,0,0,0,0,0,0,0,0,0,0],[-3,0,0,-1,0,0,0,0,0,0,0,0,0,0,0,1,-1,0,0,0],[0,0,0,-1,0,0,0,0,0,0,0,0,0,0,1,0,0,0,0,0],[0,0,0,-1,0,0,0,0,0,0,0,0,0,1,0,0,0,0,0,0],[0,0,0,-1,0,1,0,0,0,0,0,0,0,0,0,0,0,0,0,0],[2,0,1,0,0,0,0,0,0,0,0,0,0,0,0,0,0,0,0,0],[0,1,0,-1,0,0,0,0,0,0,0,0,0,0,0,0,0,0,0,0]], 12],
    [[[0,1,0,0,0,0,0,0,0,0,0,0,0,0,0,0,1,0,0,-1]], [[1,-1,0,0,0,0,0,0,0,0,0,0,0,0,0,0,-1,1,0,0],[-2,-1,0,0,0,0,0,0,0,0,0,0,0,0,0,0,0,0,0,0],[-3,-1,0,0,0,0,0,0,0,0,0,0,0,0,0,1,-1,0,0,0],[0,-1,0,0,0,0,0,0,0,0,0,0,0,0,1,0,0,0,0,0],[0,-1,0,0,0,0,0,0,0,0,0,0,0,1,0,0,0,0,0,0],[0,-1,0,0,0,1,0,0,0,0,0,0,0,0,0,0,0,0,0,0],[0,-1,0,1,0,0,0,0,0,0,0,0,0,0,0,0,0,0,0,0],[2,0,1,0,0,0,0,0,0,0,0,0,0,0,0,0,0,0,0,0]], 13],
    [[[-1,0,0,0,0,0,0,0,0,0,0,0,0,0,1,0,1,-1,0,0]], [[0,0,0,0,0,0,0,0,0,0,0,0,0,0,-1,0,-1,0,0,1],[-2,0,0,0,0,0,0,0,0,0,0,0,0,0,-1,0,0,0,0,0],[-3,0,0,0,0,0,0,0,0,0,0,0,0,0,-1,1,-1,0,0,0],[0,1,0,0,0,0,0,0,0,0,0,0,0,0,-1,0,0,0,0,0],[0,0,0,0,0,0,0,0,0,0,0,0,0,1,-1,0,0,0,0,0],[0,0,0,0,0,1,0,0,0,0,0,0,0,0,-1,0,0,0,0,0],[0,0,0,1,0,0,0,0,0,0,0,0,0,0,-1,0,0,0,0,0],[2,0,1,0,0,0,0,0,0,0,0,0,0,0,-1,0,-1,0,0,1]], 14],
    [[[2,0,1,0,0,0,0,0,0,0,0,0,0,0,-1,0,-1,0,0,1]], [[-2,0,-1,0,0,0,0,0,0,0,0,0,0,0,0,0,0,0,0,0],[1,0,0,0,0,0,0,0,0,0,0,0,0,0,-1,0,-1,1,0,0],[-2,0,0,0,0,0,0,0,0,0,0,0,0,0,-1,0,0,0,0,0],[-3,0,0,0,0,0,0,0,0,0,0,0,0,0,-1,1,-1,0,0,0],[0,1,0,0,0,0,0,0,0,0,0,0,0,0,-1,0,0,0,0,0],[0,0,0,0,0,0,0,0,0,0,0,0,0,1,-1,0,0,0,0,0],[0,0,0,0,0,1,0,0,0,0,0,0,0,0,-1,0,0,0,0,0],[0,0,0,1,0,0,0,0,0,0,0,0,0,0,-1,0,0,0,0,0]], 15],
    [[[-1,0,0,0,0,0,0,0,0,0,0,0,0,1,0,0,1,-1,0,0]], [[0,0,0,0,0,0,0,0,0,0,0,0,0,-1,0,0,-1,0,0,1],[-2,0,0,0,0,0,0,0,0,0,0,0,0,-1,0,0,0,0,0,0],[-3,0,0,0,0,0,0,0,0,0,0,0,0,-1,0,1,-1,0,0,0],[0,1,0,0,0,0,0,0,0,0,0,0,0,-1,0,0,0,0,0,0],[0,0,0,0,0,0,0,0,0,0,0,0,0,-1,1,0,0,0,0,0],[0,0,0,0,0,1,0,0,0,0,0,0,0,-1,0,0,0,0,0,0],[0,0,0,1,0,0,0,0,0,0,0,0,0,-1,0,0,0,0,0,0],[2,0,1,0,0,0,0,0,0,0,0,0,0,-1,0,0,-1,0,0,1]], 16],
    [[[2,0,1,0,0,0,0,0,0,0,0,0,0,-1,0,0,-1,0,0,1]], [[-2,0,-1,0,0,0,0,0,0,0,0,0,0,0,0,0,0,0,0,0],[1,0,0,0,0,0,0,0,0,0,0,0,0,-1,0,0,-1,1,0,0],[-2,0,0,0,0,0,0,0,0,0,0,0,0,-1,0,0,0,0,0,0],[-3,0,0,0,0,0,0,0,0,0,0,0,0,-1,0,1,-1,0,0,0],[0,1,0,0,0,0,0,0,0,0,0,0,0,-1,0,0,0,0,0,0],[0,0,0,0,0,0,0,0,0,0,0,0,0,-1,1,0,0,0,0,0],[0,0,0,0,0,1,0,0,0,0,0,0,0,-1,0,0,0,0,0,0],[0,0,0,1,0,0,0,0,0,0,0,0,0,-1,0,0,0,0,0,0]], 17],
    [[[-1,0,0,0,0,1,0,0,0,0,0,0,0,0,0,0,1,-1,0,0]], [[0,0,0,0,0,-1,0,0,0,0,0,0,0,0,0,0,-1,0,0,1],[-2,0,0,0,0,-1,0,0,0,0,0,0,0,0,0,0,0,0,0,0],[-3,0,0,0,0,-1,0,0,0,0,0,0,0,0,0,1,-1,0,0,0],[0,1,0,0,0,-1,0,0,0,0,0,0,0,0,0,0,0,0,0,0],[0,0,0,0,0,-1,0,0,0,0,0,0,0,0,1,0,0,0,0,0],[0,0,0,0,0,-1,0,0,0,0,0,0,0,1,0,0,0,0,0,0],[0,0,0,1,0,-1,0,0,0,0,0,0,0,0,0,0,0,0,0,0],[2,0,1,0,0,-1,0,0,0,0,0,0,0,0,0,0,-1,0,0,1]], 18],
    [[[2,0,1,0,0,-1,0,0,0,0,0,0,0,0,0,0,-1,0,0,1]], [[-2,0,-1,0,0,0,0,0,0,0,0,0,0,0,0,0,0,0,0,0],[1,0,0,0,0,-1,0,0,0,0,0,0,0,0,0,0,-1,1,0,0],[-2,0,0,0,0,-1,0,0,0,0,0,0,0,0,0,0,0,0,0,0],[-3,0,0,0,0,-1,0,0,0,0,0,0,0,0,0,1,-1,0,0,0],[0,1,0,0,0,-1,0,0,0,0,0,0,0,0,0,0,0,0,0,0],[0,0,0,0,0,-1,0,0,0,0,0,0,0,0,1,0,0,0,0,0],[0,0,0,0,0,-1,0,0,0,0,0,0,0,1,0,0,0,0,0,0],[0,0,0,1,0,-1,0,0,0,0,0,0,0,0,0,0,0,0,0,0]], 19],
    [[[-1,0,0,1,0,0,0,0,0,0,0,0,0,0,0,0,1,-1,0,0]], [[0,0,0,-1,0,0,0,0,0,0,0,0,0,0,0,0,-1,0,0,1],[-2,0,0,-1,0,0,0,0,0,0,0,0,0,0,0,0,0,0,0,0],[-3,0,0,-1,0,0,0,0,0,0,0,0,0,0,0,1,-1,0,0,0],[0,1,0,-1,0,0,0,0,0,0,0,0,0,0,0,0,0,0,0,0],[0,0,0,-1,0,0,0,0,0,0,0,0,0,0,1,0,0,0,0,0],[0,0,0,-1,0,0,0,0,0,0,0,0,0,1,0,0,0,0,0,0],[0,0,0,-1,0,1,0,0,0,0,0,0,0,0,0,0,0,0,0,0],[2,0,1,-1,0,0,0,0,0,0,0,0,0,0,0,0,-1,0,0,1]], 20],
    [[[2,0,1,-1,0,0,0,0,0,0,0,0,0,0,0,0,-1,0,0,1]], [[-2,0,-1,0,0,0,0,0,0,0,0,0,0,0,0,0,0,0,0,0],[1,0,0,-1,0,0,0,0,0,0,0,0,0,0,0,0,-1,1,0,0],[-2,0,0,-1,0,0,0,0,0,0,0,0,0,0,0,0,0,0,0,0],[-3,0,0,-1,0,0,0,0,0,0,0,0,0,0,0,1,-1,0,0,0],[0,1,0,-1,0,0,0,0,0,0,0,0,0,0,0,0,0,0,0,0],[0,0,0,-1,0,0,0,0,0,0,0,0,0,0,1,0,0,0,0,0],[0,0,0,-1,0,0,0,0,0,0,0,0,0,1,0,0,0,0,0,0],[0,0,0,-1,0,1,0,0,0,0,0,0,0,0,0,0,0,0,0,0]], 21],
    [[[-1,1,0,0,0,0,0,0,0,0,0,0,0,0,0,0,1,-1,0,0]], [[0,-1,0,0,0,0,0,0,0,0,0,0,0,0,0,0,-1,0,0,1],[-2,-1,0,0,0,0,0,0,0,0,0,0,0,0,0,0,0,0,0,0],[-3,-1,0,0,0,0,0,0,0,0,0,0,0,0,0,1,-1,0,0,0],[0,-1,0,0,0,0,0,0,0,0,0,0,0,0,1,0,0,0,0,0],[0,-1,0,0,0,0,0,0,0,0,0,0,0,1,0,0,0,0,0,0],[0,-1,0,0,0,1,0,0,0,0,0,0,0,0,0,0,0,0,0,0],[0,-1,0,1,0,0,0,0,0,0,0,0,0,0,0,0,0,0,0,0],[2,-1,1,0,0,0,0,0,0,0,0,0,0,0,0,0,-1,0,0,1]], 22],
    [[[-2,1,-1,0,0,0,0,0,0,0,0,0,0,0,0,0,1,0,0,-1]], [[-2,0,-1,0,0,0,0,0,0,0,0,0,0,0,0,0,0,0,0,0],[1,-1,0,0,0,0,0,0,0,0,0,0,0,0,0,0,-1,1,0,0],[-2,-1,0,0,0,0,0,0,0,0,0,0,0,0,0,0,0,0,0,0],[-3,-1,0,0,0,0,0,0,0,0,0,0,0,0,0,1,-1,0,0,0],[0,-1,0,0,0,0,0,0,0,0,0,0,0,0,1,0,0,0,0,0],[0,-1,0,0,0,0,0,0,0,0,0,0,0,1,0,0,0,0,0,0],[0,-1,0,0,0,1,0,0,0,0,0,0,0,0,0,0,0,0,0,0],[0,-1,0,1,0,0,0,0,0,0,0,0,0,0,0,0,0,0,0,0]], 23]
  ]],
  ["#16",
    [[0,0,0,1],
     [0,0,1,0],
     [0,1,0,0],
     [1,0,0,0]], [
    [[[2,0,0,0,0,0,0,0,0,0,1,0,0,0,0,-1,0,1,0,0]], [[1,0,0,0,0,0,0,0,0,0,-1,0,0,0,0,0,0,0,0,0],[2,0,0,0,0,0,0,0,0,0,0,0,0,1,0,-1,1,0,0,0]], 0],
    [[[-3,0,0,0,0,0,0,0,0,0,0,0,0,0,0,1,0,-1,0,0]], [[2,0,0,0,0,0,0,0,0,0,0,0,0,1,0,-1,1,0,0,0],[-1,0,0,0,0,0,0,0,0,0,1,0,0,0,0,0,0,0,0,0]], 1],
    [[[0,0,0,0,0,0,0,0,0,0,1,0,0,-1,0,0,-1,1,0,0]], [[1,0,0,0,0,0,0,0,0,0,-1,0,0,0,0,0,0,0,0,0],[-2,0,0,0,0,0,0,0,0,0,0,0,0,-1,0,1,-1,0,0,0]], 2],
    [[[-1,0,0,0,0,0,0,0,0,0,0,0,0,1,0,0,1,-1,0,0]], [[-2,0,0,0,0,0,0,0,0,0,0,0,0,-1,0,1,-1,0,0,0],[-1,0,0,0,0,0,0,0,0,0,1,0,0,0,0,0,0,0,0,0]], 3]
  ]],
  ["#17",
    [[0,0],
     [0,0]], [
    [[[-1,0,0,0,0,0,0,0,0,0,0,0,0,0,0,1,0,0,-1,0]], [[0,0,0,0,0,0,0,0,0,0,0,0,0,0,1,-1,0,0,0,0]], 0],
    [[[-1,0,0,0,0,0,0,0,0,0,0,0,0,0,1,0,0,0,-1,0]], [[0,0,0,0,0,0,0,0,0,0,0,0,0,0,-1,1,0,0,0,0]], 1]
  ]],
  ["#18",
    [[0,0,0,0,1,1],
     [0,0,0,1,0,1],
     [0,0,0,1,1,0],
     [0,1,1,0,0,0],
     [1,0,1,0,0,0],
     [1,1,0,0,0,0]], [
    [[[0,0,0,0,0,1,0,0,0,0,0,0,0,0,0,0,1,0,0,-1]], [[0,0,0,1,0,-1,0,0,0,0,0,0,0,0,0,0,0,0,0,0],[2,0,1,0,0,0,0,0,0,0,0,0,0,0,0,0,0,0,0,0],[0,1,0,0,0,-1,0,0,0,0,0,0,0,0,0,0,0,0,0,0]], 0],
    [[[0,0,0,1,0,0,0,0,0,0,0,0,0,0,0,0,1,0,0,-1]], [[0,0,0,-1,0,1,0,0,0,0,0,0,0,0,0,0,0,0,0,0],[2,0,1,0,0,0,0,0,0,0,0,0,0,0,0,0,0,0,0,0],[0,1,0,-1,0,0,0,0,0,0,0,0,0,0,0,0,0,0,0,0]], 1],
    [[[0,1,0,0,0,0,0,0,0,0,0,0,0,0,0,0,1,0,0,-1]], [[0,-1,0,0,0,1,0,0,0,0,0,0,0,0,0,0,0,0,0,0],[0,-1,0,1,0,0,0,0,0,0,0,0,0,0,0,0,0,0,0,0],[2,0,1,0,0,0,0,0,0,0,0,0,0,0,0,0,0,0,0,0]], 2],
    [[[2,0,1,0,0,-1,0,0,0,0,0,0,0,0,0,0,-1,0,0,1]], [[-2,0,-1,0,0,0,0,0,0,0,0,0,0,0,0,0,0,0,0,0],[0,0,0,1,0,-1,0,0,0,0,0,0,0,0,0,0,0,0,0,0],[0,1,0,0,0,-1,0,0,0,0,0,0,0,0,0,0,0,0,0,0]], 3],
    [[[2,0,1,-1,0,0,0,0,0,0,0,0,0,0,0,0,-1,0,0,1]], [[-2,0,-1,0,0,0,0,0,0,0,0,0,0,0,0,0,0,0,0,0],[0,0,0,-1,0,1,0,0,0,0,0,0,0,0,0,0,0,0,0,0],[0,1,0,-1,0,0,0,0,0,0,0,0,0,0,0,0,0,0,0,0]], 4],
    [[[-2,1,-1,0,0,0,0,0,0,0,0,0,0,0,0,0,1,0,0,-1]], [[-2,0,-1,0,0,0,0,0,0,0,0,0,0,0,0,0,0,0,0,0],[0,-1,0,0,0,1,0,0,0,0,0,0,0,0,0,0,0,0,0,0],[0,-1,0,1,0,0,0,0,0,0,0,0,0,0,0,0,0,0,0,0]], 5]
  ]],
  ["#19",
    [[0,0,0,0,0],
     [0,0,0,0,0],
     [0,0,0,0,0],
     [0,0,0,0,0],
     [0,0,0,0,0]], [
    [[[2,0,0,0,0,0,0,0,0,0,0,0,0,0,0,0,0,0,1,0]], [[2,0,0,0,0,0,0,0,0,0,0,0,0,0,0,0,0,1,0,0],[2,0,0,0,0,0,0,0,0,0,0,0,0,0,0,1,0,0,0,0],[2,0,0,0,0,0,0,0,0,0,0,0,0,0,1,0,0,0,0,0],[2,0,0,0,0,0,0,0,0,0,0,0,0,1,0,0,0,0,0,0]], 0],
    [[[2,0,0,0,0,0,0,0,0,0,0,0,0,0,0,0,0,1,0,0]], [[2,0,0,0,0,0,0,0,0,0,0,0,0,0,0,0,0,0,1,0],[2,0,0,0,0,0,0,0,0,0,0,0,0,0,0,1,0,0,0,0],[2,0,0,0,0,0,0,0,0,0,0,0,0,0,1,0,0,0,0,0],[2,0,0,0,0,0,0,0,0,0,0,0,0,1,0,0,0,0,0,0]], 1],
    [[[2,0,0,0,0,0,0,0,0,0,0,0,0,0,0,1,0,0,0,0]], [[2,0,0,0,0,0,0,0,0,0,0,0,0,0,0,0,0,0,1,0],[2,0,0,0,0,0,0,0,0,0,0,0,0,0,0,0,0,1,0,0],[2,0,0,0,0,0,0,0,0,0,0,0,0,0,1,0,0,0,0,0],[2,0,0,0,0,0,0,0,0,0,0,0,0,1,0,0,0,0,0,0]], 2],
    [[[2,0,0,0,0,0,0,0,0,0,0,0,0,0,1,0,0,0,0,0]], [[2,0,0,0,0,0,0,0,0,0,0,0,0,0,0,0,0,0,1,0],[2,0,0,0,0,0,0,0,0,0,0,0,0,0,0,0,0,1,0,0],[2,0,0,0,0,0,0,0,0,0,0,0,0,0,0,1,0,0,0,0],[2,0,0,0,0,0,0,0,0,0,0,0,0,1,0,0,0,0,0,0]], 3],
    [[[2,0,0,0,0,0,0,0,0,0,0,0,0,1,0,0,0,0,0,0]], [[2,0,0,0,0,0,0,0,0,0,0,0,0,0,0,0,0,0,1,0],[2,0,0,0,0,0,0,0,0,0,0,0,0,0,0,0,0,1,0,0],[2,0,0,0,0,0,0,0,0,0,0,0,0,0,0,1,0,0,0,0],[2,0,0,0,0,0,0,0,0,0,0,0,0,0,1,0,0,0,0,0]], 4]
  ]],
  ["#20",
    [[0,0,0,0,0],
     [0,0,0,0,0],
     [0,0,0,0,0],
     [0,0,0,0,0],
     [0,0,0,0,0]], [
    [[[1,0,0,0,0,0,0,0,0,0,0,0,1,0,0,0,0,0,0,0]], [[1,0,0,0,0,0,0,0,0,0,0,1,0,0,0,0,0,0,0,0],[1,0,0,0,0,0,0,0,0,1,0,0,0,0,0,0,0,0,0,0],[1,0,0,0,0,0,0,0,1,0,0,0,0,0,0,0,0,0,0,0],[1,0,0,0,0,0,0,1,0,0,0,0,0,0,0,0,0,0,0,0]], 0],
    [[[1,0,0,0,0,0,0,0,0,0,0,1,0,0,0,0,0,0,0,0]], [[1,0,0,0,0,0,0,0,0,0,0,0,1,0,0,0,0,0,0,0],[1,0,0,0,0,0,0,0,0,1,0,0,0,0,0,0,0,0,0,0],[1,0,0,0,0,0,0,0,1,0,0,0,0,0,0,0,0,0,0,0],[1,0,0,0,0,0,0,1,0,0,0,0,0,0,0,0,0,0,0,0]], 1],
    [[[1,0,0,0,0,0,0,0,0,1,0,0,0,0,0,0,0,0,0,0]], [[1,0,0,0,0,0,0,0,0,0,0,0,1,0,0,0,0,0,0,0],[1,0,0,0,0,0,0,0,0,0,0,1,0,0,0,0,0,0,0,0],[1,0,0,0,0,0,0,0,1,0,0,0,0,0,0,0,0,0,0,0],[1,0,0,0,0,0,0,1,0,0,0,0,0,0,0,0,0,0,0,0]], 2],
    [[[1,0,0,0,0,0,0,0,1,0,0,0,0,0,0,0,0,0,0,0]], [[1,0,0,0,0,0,0,0,0,0,0,0,1,0,0,0,0,0,0,0],[1,0,0,0,0,0,0,0,0,0,0,1,0,0,0,0,0,0,0,0],[1,0,0,0,0,0,0,0,0,1,0,0,0,0,0,0,0,0,0,0],[1,0,0,0,0,0,0,1,0,0,0,0,0,0,0,0,0,0,0,0]], 3],
    [[[1,0,0,0,0,0,0,1,0,0,0,0,0,0,0,0,0,0,0,0]], [[1,0,0,0,0,0,0,0,0,0,0,0,1,0,0,0,0,0,0,0],[1,0,0,0,0,0,0,0,0,0,0,1,0,0,0,0,0,0,0,0],[1,0,0,0,0,0,0,0,0,1,0,0,0,0,0,0,0,0,0,0],[1,0,0,0,0,0,0,0,1,0,0,0,0,0,0,0,0,0,0,0]], 4]
  ]],
  ["#21",
    [[0,0,0,0,0,0],
     [0,0,0,0,0,0],
     [0,0,0,0,0,0],
     [0,0,0,0,0,0],
     [0,0,0,0,0,0],
     [0,0,0,0,0,0]], [
    [[[2,0,0,0,0,0,0,0,0,0,0,0,0,0,0,0,0,0,0,1]], [[2,0,0,0,0,0,1,0,0,0,0,0,0,0,0,0,0,0,0,0],[2,0,0,0,0,1,0,0,0,0,0,0,0,0,0,0,0,0,0,0],[2,0,0,0,1,0,0,0,0,0,0,0,0,0,0,0,0,0,0,0],[2,0,0,1,0,0,0,0,0,0,0,0,0,0,0,0,0,0,0,0],[2,1,0,0,0,0,0,0,0,0,0,0,0,0,0,0,0,0,0,0]], 0],
    [[[2,0,0,0,0,0,1,0,0,0,0,0,0,0,0,0,0,0,0,0]], [[2,0,0,0,0,0,0,0,0,0,0,0,0,0,0,0,0,0,0,1],[2,0,0,0,0,1,0,0,0,0,0,0,0,0,0,0,0,0,0,0],[2,0,0,0,1,0,0,0,0,0,0,0,0,0,0,0,0,0,0,0],[2,0,0,1,0,0,0,0,0,0,0,0,0,0,0,0,0,0,0,0],[2,1,0,0,0,0,0,0,0,0,0,0,0,0,0,0,0,0,0,0]], 1],
    [[[2,0,0,0,0,1,0,0,0,0,0,0,0,0,0,0,0,0,0,0]], [[2,0,0,0,0,0,0,0,0,0,0,0,0,0,0,0,0,0,0,1],[2,0,0,0,0,0,1,0,0,0,0,0,0,0,0,0,0,0,0,0],[2,0,0,0,1,0,0,0,0,0,0,0,0,0,0,0,0,0,0,0],[2,0,0,1,0,0,0,0,0,0,0,0,0,0,0,0,0,0,0,0],[2,1,0,0,0,0,0,0,0,0,0,0,0,0,0,0,0,0,0,0]], 2],
    [[[2,0,0,0,1,0,0,0,0,0,0,0,0,0,0,0,0,0,0,0]], [[2,0,0,0,0,0,0,0,0,0,0,0,0,0,0,0,0,0,0,1],[2,0,0,0,0,0,1,0,0,0,0,0,0,0,0,0,0,0,0,0],[2,0,0,0,0,1,0,0,0,0,0,0,0,0,0,0,0,0,0,0],[2,0,0,1,0,0,0,0,0,0,0,0,0,0,0,0,0,0,0,0],[2,1,0,0,0,0,0,0,0,0,0,0,0,0,0,0,0,0,0,0]], 3],
    [[[2,0,0,1,0,0,0,0,0,0,0,0,0,0,0,0,0,0,0,0]], [[2,0,0,0,0,0,0,0,0,0,0,0,0,0,0,0,0,0,0,1],[2,0,0,0,0,0,1,0,0,0,0,0,0,0,0,0,0,0,0,0],[2,0,0,0,0,1,0,0,0,0,0,0,0,0,0,0,0,0,0,0],[2,0,0,0,1,0,0,0,0,0,0,0,0,0,0,0,0,0,0,0],[2,1,0,0,0,0,0,0,0,0,0,0,0,0,0,0,0,0,0,0]], 4],
    [[[2,1,0,0,0,0,0,0,0,0,0,0,0,0,0,0,0,0,0,0]], [[2,0,0,0,0,0,0,0,0,0,0,0,0,0,0,0,0,0,0,1],[2,0,0,0,0,0,1,0,0,0,0,0,0,0,0,0,0,0,0,0],[2,0,0,0,0,1,0,0,0,0,0,0,0,0,0,0,0,0,0,0],[2,0,0,0,1,0,0,0,0,0,0,0,0,0,0,0,0,0,0,0],[2,0,0,1,0,0,0,0,0,0,0,0,0,0,0,0,0,0,0,0]], 5]
  ]]
]
