
\\\\\\\\\\\\\\\\\\\\\\\\\\\\\\\\\\\\\\\\ file 0

\ combo: 1-0-0-0-0-0-0-0-0-1-1-3
\ dimension 0; is compact
MAXIMIZE
Subject To
  eq0: +1 x9 = 1    \ x9 = 0.0909091
  eq1: +1 x8 = -1   \ x8 = 11.0
  eq2: +1 x7 = -1   \ x7 = 11.0
  eq3: +1 x6 = -1   \ x6 = 11.0
  eq4: +1 x5 = 3    \ x5 = 0.000751315
  eq5: +1 x4 = 0    \ x4 = 1.0
  eq6: +1 x3 = 0    \ x3 = 1.0
  eq7: +1 x2 = -1   \ x2 = 11.0
  eq8: +1 x1 = 0    \ x1 = 1.0
END

\\\\\\\\\\\\\\\\\\\\\\\\\\\\\\\\\\\\\\\\ end

