[
  ["#0",
    [[0,0,0,1],
     [0,0,1,1],
     [0,1,0,0],
     [1,1,0,0]], [
    [[[2,1,0,0,0,1,0,0,0,0,0,-1,0,0,0,0,0,0]], [[-1,-1,0,0,0,-1,0,0,0,0,0,0,0,0,0,0,0,0],[3,1,0,0,0,0,0,0,0,0,0,0,0,0,0,0,0,0]], 0],
    [[[3,1,0,0,0,0,0,0,0,0,0,0,0,0,0,0,0,0]], [[1,0,0,0,0,0,0,0,0,0,0,-1,0,0,0,0,0,0],[-1,0,0,0,0,1,0,0,0,0,0,-1,0,0,0,0,0,0]], 1],
    [[[1,1,0,0,0,1,0,0,0,0,0,0,0,0,0,0,0,0]], [[-1,0,0,0,0,0,0,0,0,0,0,1,0,0,0,0,0,0],[3,1,0,0,0,0,0,0,0,0,0,0,0,0,0,0,0,0]], 3],
    [[[3,1,0,0,0,0,0,0,0,0,0,0,0,0,0,0,0,0]], [[-1,0,0,0,0,0,0,0,0,0,0,1,0,0,0,0,0,0],[-2,0,0,0,0,1,0,0,0,0,0,0,0,0,0,0,0,0]], 5]
  ]],
  ["#1",
    [[0,0,0],
     [0,0,0],
     [0,0,0]], [
    [[[2,0,1,0,0,0,0,0,0,0,0,0,0,0,0,0,0,0]], [[0,0,0,0,0,0,0,0,0,0,0,0,0,1,0,0,0,0],[0,0,0,0,0,1,0,0,0,0,0,0,0,0,0,0,0,0]], 0],
    [[[2,0,1,0,0,0,0,0,0,0,0,0,0,1,0,0,0,0]], [[2,0,1,0,0,0,0,0,0,0,0,0,0,0,0,0,0,0],[2,0,1,0,0,1,0,0,0,0,0,0,0,0,0,0,0,0]], 1],
    [[[2,0,1,0,0,1,0,0,0,0,0,0,0,0,0,0,0,0]], [[2,0,1,0,0,0,0,0,0,0,0,0,0,0,0,0,0,0],[2,0,1,0,0,0,0,0,0,0,0,0,0,1,0,0,0,0]], 2]
  ]],
  ["#2",
    [[0,0],
     [0,0]], [
    [[[-1,1,0,-1,0,1,0,0,0,0,0,-1,0,0,0,0,0,0]], [[2,-1,0,1,0,-1,0,0,0,0,0,0,0,0,0,0,0,0]], 0],
    [[[-2,1,0,-1,0,1,0,0,0,0,0,0,0,0,0,0,0,0]], [[-1,0,0,0,0,0,0,0,0,0,0,1,0,0,0,0,0,0]], 1]
  ]],
  ["#3",
    [[0,0],
     [0,0]], [
    [[[0,0,1,0,-1,0,0,0,0,0,0,0,0,1,0,0,0,0]], [[0,0,1,0,-1,1,0,0,0,0,0,0,0,0,0,0,0,0]], 0],
    [[[0,0,1,0,-1,1,0,0,0,0,0,0,0,0,0,0,0,0]], [[0,0,1,0,-1,0,0,0,0,0,0,0,0,1,0,0,0,0]], 1]
  ]],
  ["#4",
    [[0,0,0,0,0,1,1,1],
     [0,0,0,0,1,0,1,1],
     [0,0,0,0,1,1,0,1],
     [0,0,0,0,1,1,1,0],
     [0,1,1,1,0,0,0,0],
     [1,0,1,1,0,0,0,0],
     [1,1,0,1,0,0,0,0],
     [1,1,1,0,0,0,0,0]], [
    [[[1,0,0,0,0,1,1,0,0,0,0,0,0,0,-1,0,0,1]], [[0,0,0,0,0,0,0,0,1,0,0,0,0,0,-1,0,0,0],[2,0,0,0,0,1,1,0,0,0,0,0,0,0,-1,0,0,0],[1,0,0,0,0,0,-1,0,0,0,0,0,0,0,0,0,0,0]], 0],
    [[[2,0,0,0,0,1,0,0,0,0,0,0,0,0,-1,0,0,1]], [[0,0,0,0,0,0,0,0,1,0,0,0,0,0,-1,0,0,0],[3,0,0,0,0,1,0,0,0,0,0,0,0,0,-1,0,0,0],[-1,0,0,0,0,0,1,0,0,0,0,0,0,0,0,0,0,0]], 1],
    [[[2,0,0,0,0,1,1,0,0,0,0,0,0,0,-1,0,0,0]], [[-2,0,0,0,0,-1,-1,0,1,0,0,0,0,0,0,0,0,0],[1,0,0,0,0,0,-1,0,0,0,0,0,0,0,0,0,0,0],[-1,0,0,0,0,0,0,0,0,0,0,0,0,0,0,0,0,1]], 2],
    [[[3,0,0,0,0,1,0,0,0,0,0,0,0,0,-1,0,0,0]], [[-3,0,0,0,0,-1,0,0,1,0,0,0,0,0,0,0,0,0],[-1,0,0,0,0,0,0,0,0,0,0,0,0,0,0,0,0,1],[-1,0,0,0,0,0,1,0,0,0,0,0,0,0,0,0,0,0]], 3],
    [[[1,0,0,0,0,1,1,0,-1,0,0,0,0,0,0,0,0,1]], [[0,0,0,0,0,0,0,0,-1,0,0,0,0,0,1,0,0,0],[2,0,0,0,0,1,1,0,-1,0,0,0,0,0,0,0,0,0],[1,0,0,0,0,0,-1,0,0,0,0,0,0,0,0,0,0,0]], 4],
    [[[2,0,0,0,0,1,0,0,-1,0,0,0,0,0,0,0,0,1]], [[0,0,0,0,0,0,0,0,-1,0,0,0,0,0,1,0,0,0],[3,0,0,0,0,1,0,0,-1,0,0,0,0,0,0,0,0,0],[-1,0,0,0,0,0,1,0,0,0,0,0,0,0,0,0,0,0]], 5],
    [[[2,0,0,0,0,1,1,0,-1,0,0,0,0,0,0,0,0,0]], [[-2,0,0,0,0,-1,-1,0,0,0,0,0,0,0,1,0,0,0],[1,0,0,0,0,0,-1,0,0,0,0,0,0,0,0,0,0,0],[-1,0,0,0,0,0,0,0,0,0,0,0,0,0,0,0,0,1]], 6],
    [[[3,0,0,0,0,1,0,0,-1,0,0,0,0,0,0,0,0,0]], [[-3,0,0,0,0,-1,0,0,0,0,0,0,0,0,1,0,0,0],[-1,0,0,0,0,0,0,0,0,0,0,0,0,0,0,0,0,1],[-1,0,0,0,0,0,1,0,0,0,0,0,0,0,0,0,0,0]], 7]
  ]],
  ["#5",
    [[0,0],
     [0,0]], [
    [[[-2,0,0,0,1,0,-1,0,0,0,0,0,0,0,0,0,0,0]], [[0,0,0,0,0,1,0,0,0,0,0,0,0,0,0,0,0,0]], 0],
    [[[-2,0,0,0,1,-1,-1,0,0,0,0,0,0,0,0,0,0,0]], [[0,0,0,0,0,-1,0,0,0,0,0,0,0,0,0,0,0,0]], 1]
  ]],
  ["#6",
    [[0]], [
    [[[0,0,1,0,0,0,0,-1,0,0,0,0,0,0,0,0,0,0]], [], 0]
  ]],
  ["#7",
    [[0,0],
     [0,0]], [
    [[[0,0,0,0,0,0,0,0,1,0,0,0,-1,0,0,0,0,0]], [[0,0,0,0,0,0,0,0,-1,0,1,0,0,0,0,0,0,0]], 0],
    [[[0,0,0,0,0,0,0,0,1,0,-1,0,0,0,0,0,0,0]], [[0,0,0,0,0,0,0,0,-1,0,0,0,1,0,0,0,0,0]], 1]
  ]],
  ["#8",
    [[0]], [
    [[[1,0,0,1,0,0,0,0,0,-1,0,0,0,0,0,0,0,0]], [], 0]
  ]],
  ["#9",
    [[0,0],
     [0,0]], [
    [[[0,0,0,0,0,0,0,0,0,0,1,0,0,0,0,0,0,0]], [[0,0,0,0,0,0,0,0,0,1,0,0,0,0,0,0,0,0]], 0],
    [[[0,0,0,0,0,0,0,0,0,1,1,0,0,0,0,0,0,0]], [[0,0,0,0,0,0,0,0,0,-1,0,0,0,0,0,0,0,0]], 1]
  ]],
  ["#10",
    [[0]], [
    [[[0,0,0,0,1,0,0,0,0,0,0,-1,0,0,0,0,0,0]], [], 0]
  ]],
  ["#11",
    [[0]], [
    [[[0,0,0,1,0,0,0,0,0,0,0,0,-1,0,0,0,0,0]], [], 0]
  ]],
  ["#12",
    [[0,0,0,1],
     [0,0,1,0],
     [0,1,0,0],
     [1,0,0,0]], [
    [[[-1,0,0,0,1,0,-1,0,0,0,0,0,0,-1,0,0,0,0]], [[1,0,0,0,0,0,-1,0,0,0,0,0,0,0,0,0,0,0],[0,0,0,1,-1,0,0,0,0,0,0,0,0,0,0,0,0,0]], 0],
    [[[-2,0,0,0,1,0,0,0,0,0,0,0,0,-1,0,0,0,0]], [[-1,0,0,0,0,0,1,0,0,0,0,0,0,0,0,0,0,0],[0,0,0,1,-1,0,0,0,0,0,0,0,0,0,0,0,0,0]], 1],
    [[[-1,0,0,1,0,0,-1,0,0,0,0,0,0,-1,0,0,0,0]], [[1,0,0,0,0,0,-1,0,0,0,0,0,0,0,0,0,0,0],[0,0,0,-1,1,0,0,0,0,0,0,0,0,0,0,0,0,0]], 2],
    [[[-2,0,0,1,0,0,0,0,0,0,0,0,0,-1,0,0,0,0]], [[-1,0,0,0,0,0,1,0,0,0,0,0,0,0,0,0,0,0],[0,0,0,-1,1,0,0,0,0,0,0,0,0,0,0,0,0,0]], 3]
  ]],
  ["#13",
    [[0]], [
    [[[1,0,0,1,0,0,0,0,0,0,0,0,0,0,-1,0,0,0]], [], 0]
  ]],
  ["#14",
    [[0]], [
    [[[0,0,0,0,0,0,0,0,0,0,0,1,0,0,0,-1,0,0]], [], 0]
  ]],
  ["#15",
    [[0]], [
    [[[0,0,0,1,0,0,0,0,0,0,0,0,0,0,0,0,-1,0]], [], 0]
  ]],
  ["#16",
    [[0,0],
     [0,0]], [
    [[[0,0,0,0,0,0,0,0,0,0,0,0,0,0,0,1,0,-1]], [[0,0,0,0,0,0,0,0,0,0,0,0,0,0,0,0,1,0]], 0],
    [[[0,0,0,0,0,0,0,0,0,0,0,0,0,0,0,1,-1,-1]], [[0,0,0,0,0,0,0,0,0,0,0,0,0,0,0,0,-1,0]], 1]
  ]]
]
