[
  ["x2","x3"],
  [
    [[[0,0,0],0]],
    [[[-18,1,0],-1],[[-17,0,1],1],[[-16,1,1],-1],[[-16,2,0],-1],[[-15,0,2],1],[[-15,1,1],0],[[-15,2,0],-1],[[-14,0,2],1],[[-14,1,0],-1],[[-14,1,1],1],[[-14,2,1],-1],[[-14,3,0],-1],[[-13,1,2],0],[[-13,2,1],0],[[-13,3,0],-1],[[-12,0,3],1],[[-12,1,1],-1],[[-12,1,2],0],[[-12,2,0],-1],[[-12,2,1],0],[[-12,3,0],-1],[[-11,1,1],-1],[[-11,2,0],-1],[[-11,2,2],-1],[[-11,3,1],-1],[[-11,4,0],-1],[[-10,1,3],1],[[-10,2,2],0],[[-10,3,1],0],[[-10,4,0],-1],[[-9,1,2],-1],[[-9,2,1],-1],[[-9,3,0],-1],[[-8,1,2],-1],[[-8,2,1],-1],[[-8,3,0],-1],[[-6,1,3],-1],[[-6,2,2],-1],[[-6,3,1],-1],[[-6,4,0],-1]],
    [[[-18,0,0],1],[[-17,0,1],1],[[-16,0,1],1],[[-16,1,0],1],[[-15,0,1],0],[[-15,0,2],1],[[-15,1,0],1],[[-15,1,1],1],[[-14,0,2],0],[[-14,1,1],1],[[-13,0,2],0],[[-13,1,1],0],[[-13,2,0],1],[[-12,0,2],0],[[-12,0,3],0],[[-12,1,1],0],[[-12,1,2],0],[[-12,2,1],1],[[-11,0,3],0],[[-11,1,2],0],[[-11,2,1],-1],[[-10,0,3],-1],[[-10,1,2],-1],[[-10,1,3],-1],[[-10,2,1],-1],[[-10,2,2],-1],[[-9,0,3],-1],[[-9,0,4],-1],[[-9,1,2],-1],[[-9,1,3],-1],[[-8,1,3],-1],[[-8,2,2],-1],[[-8,3,1],-1],[[-7,0,4],-1],[[-7,1,3],-1],[[-7,2,2],-1]]
  ]
]
