k1 = 275999/10000000
k2 = 109/10000
k3 = 37/50000
k4 = 11/10000
k5 = 2
k6 = 21/2
k7 = 32282330834551/50000000000000
k8 = 24318888007301/125000000000000
k9 = 295576387928997/500000000000000000
k10 = 207002229974501/500000000000000
k11 = 24911893061347/25000000000000
k12 = 195567313515379/200000000000000
k13 = 500
k14 = 2500
k15 = 1/10
k16 = 73602159336527/2000000000000000
k17 = 663776807395383/10000000000000
k18 = 829115813389061/1000000000000
k19 = 91011109910329/1000000000000000
k20 = 508205528375529/10000000000000000
k21 = 73602159336527/2000000000000000
k22 = 1/10
k23 = 663776807395383/10000000000000
k24 = 829115813389061/1000000000000
k25 = 11/10
k26 = 2000
k27 = 199162432258527/1000000000000000
k28 = 707/10000000
k29 = 723/10000000
k30 = 11/10
k31 = 2000
k32 = 707/10000000
k33 = 1/10000
k34 = 37/50000
k35 = 11/10000
k36 = 2
k37 = 500
k38 = 21/2
k39 = 2500
k40 = 121249784646643/125000000000000
k41 = 69020578737621/1000000000000000
k42 = 121249784646643/125000000000000
k43 = 69020578737621/1000000000000000
k44 = 306768602107923/5000000000000000
k45 = 196738240808431/200000000000000
k46 = 306708025214469/500000000000000
k47 = 245194389734471/250000000000000
k48 = 0
k49 = 306708025214469/500000000000000
k50 = 196738240808431/200000000000000
k51 = 306708025214469/500000000000000
k52 = 196738240808431/200000000000000
k53 = 37/50000
k54 = 11/10000
k55 = 2
k56 = 500
k57 = 21/2
k58 = 2500
k59 = 73602159336527/2000000000000000
k60 = 1/10
k61 = 663776807395383/10000000000000
k62 = 829115813389061/1000000000000
k63 = 11/10
k64 = 2000
k65 = 73602159336527/2000000000000000
k66 = 1/10
k67 = 37/50000
k68 = 11/10000
k69 = 711705760475931/10000000000000
k70 = 75924536875531/20000000000
k71 = 389625903487667/10000000000000
k72 = 119446128131573/20000000000
k73 = 91011109910329/1000000000000000
k74 = 508205528375529/10000000000000000
k75 = 73602159336527/2000000000000000
k76 = 1/10
k77 = 663776807395383/10000000000000
k78 = 829115813389061/1000000000000
k79 = 11/10
k80 = 2000
k81 = 171133/500000000
k82 = 492901/1000000
k83 = 470911/10000000
k84 = 0
k85 = 0
k86 = 1
k87 = 171133/500000000
k88 = 492901/1000000
k89 = 470911/10000000
k90 = 0
k91 = 0
k92 = 1/2000
k93 = 0
k94 = 0
k95 = 20
k96 = 0
k97 = 34/5
k98 = 4650
k99 = 2470
k100 = 310
k101 = 770
k102 = 81949/2500000
k103 = 2
