[
  ["x1","x2","x3","x4","x5","x6","x7","x8","x9"],
  [
    [[[-3,1,1,0,0,0,0,0,0,0],-1],[[-2,0,0,0,0,0,0,0,0,0],1],[[-2,0,4,0,0,0,0,0,0,0],1]],
    [[[-9,0,0,0,0,0,1,0,0,0],-1],[[-9,0,4,0,0,0,1,0,0,0],-1],[[-9,1,1,0,0,0,0,0,0,0],1],[[-8,0,0,0,0,0,1,0,0,0],-1],[[-8,0,0,0,0,1,1,0,0,0],1],[[-8,0,0,0,1,1,0,0,0,0],-1],[[-8,0,1,0,0,0,1,0,0,0],1],[[-8,0,4,0,0,0,1,0,0,0],-1],[[-8,0,4,0,0,1,1,0,0,0],1],[[-8,0,4,0,1,1,0,0,0,0],-1],[[-8,0,5,0,0,0,1,0,0,0],1],[[-8,1,1,0,0,0,0,0,0,0],1],[[-8,1,1,0,0,1,0,0,0,0],-1],[[-8,1,2,0,0,0,0,0,0,0],-1],[[-7,0,1,0,0,0,0,0,0,0],1],[[-7,0,1,0,0,0,1,0,0,0],1],[[-7,0,1,0,0,1,1,0,0,0],-1],[[-7,0,1,0,1,1,0,0,0,0],1],[[-7,0,2,0,0,0,1,0,0,0],-1],[[-7,0,5,0,0,0,0,0,0,0],1],[[-7,0,5,0,0,0,1,0,0,0],1],[[-7,0,5,0,0,1,1,0,0,0],-1],[[-7,0,5,0,1,1,0,0,0,0],1],[[-7,0,6,0,0,0,1,0,0,0],-1],[[-6,0,1,0,0,0,0,0,0,0],1],[[-6,0,1,0,0,0,1,0,0,0],1],[[-6,0,1,0,0,1,0,0,0,0],-1],[[-6,0,1,0,0,1,1,0,0,0],-1],[[-6,0,2,0,0,0,0,0,0,0],-1],[[-6,0,5,0,0,0,0,0,0,0],1],[[-6,0,5,0,0,0,1,0,0,0],1],[[-6,0,5,0,0,1,0,0,0,0],-1],[[-6,0,5,0,0,1,1,0,0,0],-1],[[-6,0,6,0,0,0,0,0,0,0],-1]],
    [[[-3,1,1,0,0,0,0,0,0,0],1],[[-1,0,0,1,0,0,0,0,0,0],-1],[[-1,0,4,1,0,0,0,0,0,0],-1]],
    [[[-8,0,0,0,1,0,0,0,0,0],-1],[[-8,0,0,0,1,1,0,0,0,0],0],[[-7,0,0,0,1,0,0,0,0,0],-1],[[-7,0,0,0,1,1,0,0,0,0],1],[[-7,0,0,0,1,2,0,0,0,0],-1],[[-7,0,0,1,0,0,0,0,0,0],1],[[-7,0,1,0,1,0,0,0,0,0],1],[[-7,0,1,0,1,1,0,0,0,0],0],[[-6,0,0,1,0,0,0,0,0,0],1],[[-6,0,0,1,0,1,0,0,0,0],-1],[[-6,0,1,0,0,0,1,0,0,0],1],[[-6,0,1,0,0,1,1,0,0,0],-1],[[-6,0,1,1,0,0,0,0,0,0],-1]],
    [[[-9,0,0,0,0,0,0,0,1,0],1],[[-9,0,0,0,0,1,0,0,1,0],-1],[[-8,0,0,0,0,0,0,0,1,0],1],[[-8,0,0,0,0,1,0,0,1,0],-1],[[-8,0,0,0,0,2,0,0,1,0],1],[[-8,0,0,0,1,0,0,0,0,0],1],[[-8,0,0,0,1,1,0,0,0,0],-1],[[-8,0,1,0,0,0,0,0,1,0],-1],[[-8,0,1,0,0,1,0,0,1,0],1],[[-7,0,0,0,1,0,0,0,0,0],1],[[-7,0,0,0,1,1,0,0,0,0],-1],[[-7,0,0,0,1,2,0,0,0,0],1],[[-7,0,1,0,1,0,0,0,0,0],-1],[[-7,0,1,0,1,1,0,0,0,0],1],[[-6,0,1,0,0,0,1,0,0,0],1],[[-6,0,1,0,0,1,1,0,0,0],-1]],
    [[[-9,0,0,0,0,0,1,0,0,0],-1],[[-8,0,0,0,0,0,1,0,0,0],-1],[[-8,0,0,0,0,1,1,0,0,0],1],[[-8,0,0,0,1,1,0,0,0,0],1],[[-8,0,1,0,0,0,1,0,0,0],1],[[-7,0,1,0,0,0,1,0,0,0],1],[[-7,0,1,0,0,1,1,0,0,0],-1],[[-7,0,1,0,1,1,0,0,0,0],-1],[[-7,0,2,0,0,0,1,0,0,0],-1],[[-6,0,1,0,0,0,1,0,0,0],-1],[[-6,0,1,0,0,1,1,0,0,0],1]],
    [[[-3,0,0,0,0,0,1,0,0,0],1],[[-2,0,1,0,0,0,1,0,0,0],-1],[[-1,0,0,0,0,0,0,1,0,0],-1]],
    [[[-3,0,0,0,0,0,0,0,1,0],-1],[[-3,0,0,0,0,1,0,0,1,0],1],[[-2,0,0,0,0,0,0,0,0,1],1],[[-2,0,0,0,0,0,0,0,1,0],-1],[[-1,0,0,0,0,0,0,1,0,0],1]],
    [[[-2,0,0,0,0,0,0,0,0,1],-1],[[-2,0,0,0,0,0,0,0,1,0],1]]
  ]
]
