k1 = 1
k2 = 143/500
k3 = 1/5
k4 = 1
k5 = 143/500
k6 = 1/5
k7 = 1
k8 = 197/1000
k9 = 7/100
k10 = 1/4
k11 = 10
k12 = 1/10
k13 = 10
k14 = 197/1000
k15 = 10
k16 = 1/4
k17 = 7/100
k18 = 1/10
k19 = 10
k20 = 41/250
k21 = 12
k22 = 1/10
k23 = 17/200
k24 = 2
k25 = 379/1000
k26 = 10
k27 = 7/100
k28 = 3/5
k29 = 3
k30 = 7/5
k31 = 9/5
k32 = 1/5
k33 = 3/10
k34 = 1/10
k35 = 2/5
k36 = 1/2
k37 = 1/10
k38 = 677/1000
k39 = 5
k40 = 4
k41 = 50
k42 = 3/10
k43 = 3/10
k44 = 3/10
k45 = 3/10
k46 = 4
k47 = 40
k48 = 93/250
k49 = 15
k50 = 10
k51 = 15
k52 = 1/10
k53 = 1/5
k54 = 1
k55 = 100
k56 = 0
k57 = 0
k58 = 51/10
k59 = 1/5
k60 = 1/5
k61 = 1
k62 = 5
k63 = 5
