[
  ["x1","x2","x3","x4","x5","x6","x7","x8","x10","x11","x12"],
  [
    [[[1,1,0,0,0,0,0,0,0,0,0,0],-1]],
    [[[1,0,1,0,0,0,0,0,0,0,0,0],-1],[[1,1,0,0,0,0,0,0,0,0,0,0],1]],
    [[[0,0,0,0,1,0,0,0,0,0,0,0],1],[[1,0,1,1,0,0,0,0,0,0,0,0],-1]],
    [[[0,0,0,0,1,0,0,0,0,0,0,0],-1],[[1,0,1,1,0,0,0,0,0,0,0,0],1]],
    [[[1,0,0,0,1,1,0,0,0,0,0,0],-1]],
    [[[0,0,0,0,0,0,1,1,0,0,0,0],-1],[[1,0,0,0,1,1,0,0,0,0,0,0],1]],
    [[[-1,0,0,0,0,0,0,0,0,0,0,0],1],[[0,0,0,0,0,0,0,0,1,0,0,0],-1],[[0,0,0,0,0,0,0,0,1,0,3,0],-1],[[0,0,0,0,0,0,1,1,0,0,0,0],1],[[0,0,0,0,0,0,1,1,0,0,3,0],1]],
    [[[0,0,0,0,0,0,0,0,0,0,0,0],0]],
    [[[-2,0,0,0,0,0,0,0,0,0,0,0],1],[[0,0,0,0,0,0,0,0,0,0,1,0],-1],[[0,0,0,0,0,0,0,0,3,0,1,0],-1]],
    [[[1,0,1,0,0,0,0,0,0,0,0,0],1]],
    [[[0,0,0,0,0,0,0,0,0,0,0,0],-1],[[0,0,0,0,0,0,0,0,0,1,0,0],1],[[0,0,0,0,0,0,0,1,0,0,0,0],1]],
    [[[-1,0,0,0,0,0,0,0,0,0,0,0],-1],[[0,0,0,0,1,0,0,0,0,0,0,0],1],[[0,0,0,1,0,0,0,0,0,0,0,0],1]],
    [[[-1,0,0,0,0,0,0,0,0,0,0,0],-1],[[0,0,0,0,0,0,0,0,0,0,0,1],1],[[0,0,1,0,0,0,0,0,0,0,0,0],1],[[0,1,0,0,0,0,0,0,0,0,0,0],1]]
  ]
]
