
\\\\\\\\\\\\\\\\\\\\\\\\\\\\\\\\\\\\\\\\ file 0

\ combo: 0-0-0-0
\ dimension 0; is compact
MAXIMIZE
Subject To
  eq0: +27 x4 = 10   \ x4 = 0.411433
  eq1: +9 x3 = 10    \ x3 = 0.0696461
  eq2: +27 x2 = 7    \ x2 = 0.537043
  eq3: +1 x1 = -1    \ x1 = 11.0
END

\\\\\\\\\\\\\\\\\\\\\\\\\\\\\\\\\\\\\\\\ end

