
\\\\\\\\\\\\\\\\\\\\\\\\\\\\\\\\\\\\\\\\ file 0

\ combo: 2-0-10-0-0
\ dimension 1; is compact
MAXIMIZE
Subject To
  ie0: -1 x3 >= -4        \ x3**-1 <= 14641.0
  ie1: +1 x3 >= 2         \ x3 <= 0.00826446
  eq0: +1 x3 -1 x6 = 2    \ x3 * x6**-1 = 0.00826446
  eq1: +1 x3 -1 x5 = -2   \ x3 * x5**-1 = 121.0
  eq2: +1 x4 = 0          \ x4 = 1.0
  eq3: +1 x2 = 0          \ x2 = 1.0
END

\\\\\\\\\\\\\\\\\\\\\\\\\\\\\\\\\\\\\\\\ file 1

\ combo: 3-0-6-0-0
\ dimension 2; is compact
MAXIMIZE
Subject To
  ie0: -1 x2 >= 0               \ x2**-1 <= 1.0
  ie1: -1 x2 +1 x3 >= 1         \ x2**-1 * x3 <= 0.0909091
  ie2: -1 x3 >= -2              \ x3**-1 <= 121.0
  ie3: +1 x2 >= -2              \ x2 <= 121.0
  eq0: +1 x2 -1 x6 = 0          \ x2 * x6**-1 = 1.0
  eq1: +1 x2 -1 x5 = -4         \ x2 * x5**-1 = 14641.0
  eq2: +1 x2 -1 x3 -1 x4 = -2   \ x2 * x3**-1 * x4**-1 = 121.0
END

\\\\\\\\\\\\\\\\\\\\\\\\\\\\\\\\\\\\\\\\ end

