k1 = 1
k2 = 1/500
k3 = 1/500
k4 = 1/100
k5 = 1/1000
k6 = 2
k7 = 1/5
k8 = 1/50
k9 = 1/5
k10 = 1/200
k11 = 1/400
k12 = 3/250
k13 = 1/50000
k14 = 1/5
k15 = 1/5
k16 = 3/400
k17 = 1/200
k18 = 1/500
k19 = 2
k20 = 1/5
k21 = 1/100
k22 = 3/400000
k23 = 3/100000
k24 = 3/400000
k25 = 3/100000
k26 = 1
k27 = 1/10
