k1 = 1084322005
k2 = 689984226081531/10000000000000000
k3 = 37223818208459/12500000000000
k4 = 54223790088353/50000000000000
k5 = 616356235352873/100000000000000
k6 = 159421218669513/10000000000000000
k7 = 1/1000000000
k8 = 1084322005
k9 = 100120946893407/500000000000000
k10 = 10445905520047/400000000000000
k11 = 1342204923/1000000000
k12 = 54725667600099/5000000000000000
k13 = 33764162837277/1250000000000000
k14 = 117643/5000000
k15 = 23533240736163/1000000000000000
k16 = 23723243437162600000
k17 = 4272147053419/2500000000000000
k18 = 28525191716983500
k19 = 39422659034639/2500000000000
k20 = 61902954378781/1000000000000000
k21 = 43998450250649/20000000000000000
k22 = 30297395345490000
k23 = 387/10000000
k24 = 387/125000
k25 = 51953/12500000
k26 = 1138634306327/31250000000000000
k27 = 470322824186031/10000000000000
k28 = 602214179000000000000000
k29 = 602214179000000000000000
k30 = 602214179000000000000000
k31 = 76923/2000000000
k32 = 79/100000
k33 = 673077/10000000000
k34 = 232381/200000000
k35 = 13/10000
k36 = 9847383/500000000
k37 = 107143/500000000
k38 = 115471/5000000000000
k39 = 2363/3125
k40 = 0
k41 = 10061999999999987/200000000000000000000000
