[
  ["#0",
    [[0,0,0,0,0,0,1,1,1,1,0,1,1,1,1,0,1,1,1,1,0,1,1,1,1],
     [0,0,0,0,0,1,0,1,1,1,1,0,1,1,1,1,0,1,1,1,1,0,1,1,1],
     [0,0,0,0,0,1,1,0,1,1,1,1,0,1,1,1,1,0,1,1,1,1,0,1,1],
     [0,0,0,0,0,1,1,1,0,1,1,1,1,0,1,1,1,1,0,1,1,1,1,0,1],
     [0,0,0,0,0,1,1,1,1,0,1,1,1,1,0,1,1,1,1,0,1,1,1,1,0],
     [0,1,1,1,1,0,0,0,0,0,0,1,1,1,1,0,1,1,1,1,0,1,1,1,1],
     [1,0,1,1,1,0,0,0,0,0,1,0,1,1,1,1,0,1,1,1,1,0,1,1,1],
     [1,1,0,1,1,0,0,0,0,0,1,1,0,1,1,1,1,0,1,1,1,1,0,1,1],
     [1,1,1,0,1,0,0,0,0,0,1,1,1,0,1,1,1,1,0,1,1,1,1,0,1],
     [1,1,1,1,0,0,0,0,0,0,1,1,1,1,0,1,1,1,1,0,1,1,1,1,0],
     [0,1,1,1,1,0,1,1,1,1,0,0,0,0,0,0,1,1,1,1,0,1,1,1,1],
     [1,0,1,1,1,1,0,1,1,1,0,0,0,0,0,1,0,1,1,1,1,0,1,1,1],
     [1,1,0,1,1,1,1,0,1,1,0,0,0,0,0,1,1,0,1,1,1,1,0,1,1],
     [1,1,1,0,1,1,1,1,0,1,0,0,0,0,0,1,1,1,0,1,1,1,1,0,1],
     [1,1,1,1,0,1,1,1,1,0,0,0,0,0,0,1,1,1,1,0,1,1,1,1,0],
     [0,1,1,1,1,0,1,1,1,1,0,1,1,1,1,0,0,0,0,0,0,1,1,1,1],
     [1,0,1,1,1,1,0,1,1,1,1,0,1,1,1,0,0,0,0,0,1,0,1,1,1],
     [1,1,0,1,1,1,1,0,1,1,1,1,0,1,1,0,0,0,0,0,1,1,0,1,1],
     [1,1,1,0,1,1,1,1,0,1,1,1,1,0,1,0,0,0,0,0,1,1,1,0,1],
     [1,1,1,1,0,1,1,1,1,0,1,1,1,1,0,0,0,0,0,0,1,1,1,1,0],
     [0,1,1,1,1,0,1,1,1,1,0,1,1,1,1,0,1,1,1,1,0,0,0,0,0],
     [1,0,1,1,1,1,0,1,1,1,1,0,1,1,1,1,0,1,1,1,0,0,0,0,0],
     [1,1,0,1,1,1,1,0,1,1,1,1,0,1,1,1,1,0,1,1,0,0,0,0,0],
     [1,1,1,0,1,1,1,1,0,1,1,1,1,0,1,1,1,1,0,1,0,0,0,0,0],
     [1,1,1,1,0,1,1,1,1,0,1,1,1,1,0,1,1,1,1,0,0,0,0,0,0]], [
    [[[2,1,0,0,0,0,0,0,0,0,0,0,0,-1]], [[-1,-1,0,0,0,0,0,0,0,0,0,0,0,0],[-2,-1,0,0,0,0,0,0,0,0,0,0,1,0],[-2,-1,0,0,0,0,1,0,0,0,0,0,0,0],[-2,-1,0,0,0,1,0,0,0,0,0,0,0,0],[0,0,0,0,0,0,0,0,0,0,0,1,0,0],[0,0,0,0,0,0,0,0,0,0,1,0,0,0],[0,0,0,1,0,0,0,0,0,0,0,0,0,0],[0,0,1,0,0,0,0,0,0,0,0,0,0,0]], 0],
    [[[2,1,0,0,0,0,0,0,0,0,0,1,0,-1]], [[-1,-1,0,0,0,0,0,0,0,0,0,-1,0,0],[-2,-1,0,0,0,0,0,0,0,0,0,-1,1,0],[-2,-1,0,0,0,0,1,0,0,0,0,-1,0,0],[-2,-1,0,0,0,1,0,0,0,0,0,-1,0,0],[0,0,0,0,0,0,0,0,0,0,0,-1,0,0],[0,0,0,0,0,0,0,0,0,0,1,-1,0,0],[0,0,0,1,0,0,0,0,0,0,0,-1,0,0],[0,0,1,0,0,0,0,0,0,0,0,-1,0,0]], 1],
    [[[2,1,0,0,0,0,0,0,0,0,1,0,0,-1]], [[-1,-1,0,0,0,0,0,0,0,0,-1,0,0,0],[-2,-1,0,0,0,0,0,0,0,0,-1,0,1,0],[-2,-1,0,0,0,0,1,0,0,0,-1,0,0,0],[-2,-1,0,0,0,1,0,0,0,0,-1,0,0,0],[0,0,0,0,0,0,0,0,0,0,-1,0,0,0],[0,0,0,0,0,0,0,0,0,0,-1,1,0,0],[0,0,0,1,0,0,0,0,0,0,-1,0,0,0],[0,0,1,0,0,0,0,0,0,0,-1,0,0,0]], 2],
    [[[2,1,0,1,0,0,0,0,0,0,0,0,0,-1]], [[-1,-1,0,-1,0,0,0,0,0,0,0,0,0,0],[-2,-1,0,-1,0,0,0,0,0,0,0,0,1,0],[-2,-1,0,-1,0,0,1,0,0,0,0,0,0,0],[-2,-1,0,-1,0,1,0,0,0,0,0,0,0,0],[0,0,0,-1,0,0,0,0,0,0,0,0,0,0],[0,0,0,-1,0,0,0,0,0,0,0,1,0,0],[0,0,0,-1,0,0,0,0,0,0,1,0,0,0],[0,0,1,-1,0,0,0,0,0,0,0,0,0,0]], 3],
    [[[2,1,1,0,0,0,0,0,0,0,0,0,0,-1]], [[-1,-1,-1,0,0,0,0,0,0,0,0,0,0,0],[-2,-1,-1,0,0,0,0,0,0,0,0,0,1,0],[-2,-1,-1,0,0,0,1,0,0,0,0,0,0,0],[-2,-1,-1,0,0,1,0,0,0,0,0,0,0,0],[0,0,-1,0,0,0,0,0,0,0,0,0,0,0],[0,0,-1,0,0,0,0,0,0,0,0,1,0,0],[0,0,-1,0,0,0,0,0,0,0,1,0,0,0],[0,0,-1,1,0,0,0,0,0,0,0,0,0,0]], 4],
    [[[2,1,0,0,0,0,0,0,0,0,0,0,-1,0]], [[-1,-1,0,0,0,0,0,0,0,0,0,0,0,0],[-2,-1,0,0,0,0,0,0,0,0,0,0,0,1],[-2,-1,0,0,0,0,1,0,0,0,0,0,0,0],[-2,-1,0,0,0,1,0,0,0,0,0,0,0,0],[0,0,0,0,0,0,0,0,0,0,0,1,0,0],[0,0,0,0,0,0,0,0,0,0,1,0,0,0],[0,0,0,1,0,0,0,0,0,0,0,0,0,0],[0,0,1,0,0,0,0,0,0,0,0,0,0,0]], 5],
    [[[2,1,0,0,0,0,0,0,0,0,0,1,-1,0]], [[-1,-1,0,0,0,0,0,0,0,0,0,-1,0,0],[-2,-1,0,0,0,0,0,0,0,0,0,-1,0,1],[-2,-1,0,0,0,0,1,0,0,0,0,-1,0,0],[-2,-1,0,0,0,1,0,0,0,0,0,-1,0,0],[0,0,0,0,0,0,0,0,0,0,0,-1,0,0],[0,0,0,0,0,0,0,0,0,0,1,-1,0,0],[0,0,0,1,0,0,0,0,0,0,0,-1,0,0],[0,0,1,0,0,0,0,0,0,0,0,-1,0,0]], 6],
    [[[2,1,0,0,0,0,0,0,0,0,1,0,-1,0]], [[-1,-1,0,0,0,0,0,0,0,0,-1,0,0,0],[-2,-1,0,0,0,0,0,0,0,0,-1,0,0,1],[-2,-1,0,0,0,0,1,0,0,0,-1,0,0,0],[-2,-1,0,0,0,1,0,0,0,0,-1,0,0,0],[0,0,0,0,0,0,0,0,0,0,-1,0,0,0],[0,0,0,0,0,0,0,0,0,0,-1,1,0,0],[0,0,0,1,0,0,0,0,0,0,-1,0,0,0],[0,0,1,0,0,0,0,0,0,0,-1,0,0,0]], 7],
    [[[2,1,0,1,0,0,0,0,0,0,0,0,-1,0]], [[-1,-1,0,-1,0,0,0,0,0,0,0,0,0,0],[-2,-1,0,-1,0,0,0,0,0,0,0,0,0,1],[-2,-1,0,-1,0,0,1,0,0,0,0,0,0,0],[-2,-1,0,-1,0,1,0,0,0,0,0,0,0,0],[0,0,0,-1,0,0,0,0,0,0,0,0,0,0],[0,0,0,-1,0,0,0,0,0,0,0,1,0,0],[0,0,0,-1,0,0,0,0,0,0,1,0,0,0],[0,0,1,-1,0,0,0,0,0,0,0,0,0,0]], 8],
    [[[2,1,1,0,0,0,0,0,0,0,0,0,-1,0]], [[-1,-1,-1,0,0,0,0,0,0,0,0,0,0,0],[-2,-1,-1,0,0,0,0,0,0,0,0,0,0,1],[-2,-1,-1,0,0,0,1,0,0,0,0,0,0,0],[-2,-1,-1,0,0,1,0,0,0,0,0,0,0,0],[0,0,-1,0,0,0,0,0,0,0,0,0,0,0],[0,0,-1,0,0,0,0,0,0,0,0,1,0,0],[0,0,-1,0,0,0,0,0,0,0,1,0,0,0],[0,0,-1,1,0,0,0,0,0,0,0,0,0,0]], 9],
    [[[2,1,0,0,0,0,-1,0,0,0,0,0,0,0]], [[-1,-1,0,0,0,0,0,0,0,0,0,0,0,0],[-2,-1,0,0,0,0,0,0,0,0,0,0,0,1],[-2,-1,0,0,0,0,0,0,0,0,0,0,1,0],[-2,-1,0,0,0,1,0,0,0,0,0,0,0,0],[0,0,0,0,0,0,0,0,0,0,0,1,0,0],[0,0,0,0,0,0,0,0,0,0,1,0,0,0],[0,0,0,1,0,0,0,0,0,0,0,0,0,0],[0,0,1,0,0,0,0,0,0,0,0,0,0,0]], 10],
    [[[2,1,0,0,0,0,-1,0,0,0,0,1,0,0]], [[1,0,0,0,0,0,-1,0,0,0,0,0,0,0],[0,0,0,0,0,0,-1,0,0,0,0,0,0,1],[0,0,0,0,0,0,-1,0,0,0,0,0,1,0],[0,0,0,0,0,1,-1,0,0,0,0,0,0,0],[2,1,0,0,0,0,-1,0,0,0,0,0,0,0],[2,1,0,0,0,0,-1,0,0,0,1,0,0,0],[2,1,0,1,0,0,-1,0,0,0,0,0,0,0],[2,1,1,0,0,0,-1,0,0,0,0,0,0,0]], 11],
    [[[2,1,0,0,0,0,-1,0,0,0,1,0,0,0]], [[1,0,0,0,0,0,-1,0,0,0,0,0,0,0],[0,0,0,0,0,0,-1,0,0,0,0,0,0,1],[0,0,0,0,0,0,-1,0,0,0,0,0,1,0],[0,0,0,0,0,1,-1,0,0,0,0,0,0,0],[2,1,0,0,0,0,-1,0,0,0,0,0,0,0],[2,1,0,0,0,0,-1,0,0,0,0,1,0,0],[2,1,0,1,0,0,-1,0,0,0,0,0,0,0],[2,1,1,0,0,0,-1,0,0,0,0,0,0,0]], 12],
    [[[2,1,0,1,0,0,-1,0,0,0,0,0,0,0]], [[-1,-1,0,-1,0,0,0,0,0,0,0,0,0,0],[-2,-1,0,-1,0,0,0,0,0,0,0,0,0,1],[-2,-1,0,-1,0,0,0,0,0,0,0,0,1,0],[-2,-1,0,-1,0,1,0,0,0,0,0,0,0,0],[0,0,0,-1,0,0,0,0,0,0,0,0,0,0],[0,0,0,-1,0,0,0,0,0,0,0,1,0,0],[0,0,0,-1,0,0,0,0,0,0,1,0,0,0],[0,0,1,-1,0,0,0,0,0,0,0,0,0,0]], 13],
    [[[2,1,1,0,0,0,-1,0,0,0,0,0,0,0]], [[-1,-1,-1,0,0,0,0,0,0,0,0,0,0,0],[-2,-1,-1,0,0,0,0,0,0,0,0,0,0,1],[-2,-1,-1,0,0,0,0,0,0,0,0,0,1,0],[-2,-1,-1,0,0,1,0,0,0,0,0,0,0,0],[0,0,-1,0,0,0,0,0,0,0,0,0,0,0],[0,0,-1,0,0,0,0,0,0,0,0,1,0,0],[0,0,-1,0,0,0,0,0,0,0,1,0,0,0],[0,0,-1,1,0,0,0,0,0,0,0,0,0,0]], 14],
    [[[2,1,0,0,0,-1,0,0,0,0,0,0,0,0]], [[-1,-1,0,0,0,0,0,0,0,0,0,0,0,0],[-2,-1,0,0,0,0,0,0,0,0,0,0,0,1],[-2,-1,0,0,0,0,0,0,0,0,0,0,1,0],[-2,-1,0,0,0,0,1,0,0,0,0,0,0,0],[0,0,0,0,0,0,0,0,0,0,0,1,0,0],[0,0,0,0,0,0,0,0,0,0,1,0,0,0],[0,0,0,1,0,0,0,0,0,0,0,0,0,0],[0,0,1,0,0,0,0,0,0,0,0,0,0,0]], 15],
    [[[2,1,0,0,0,-1,0,0,0,0,0,1,0,0]], [[1,0,0,0,0,-1,0,0,0,0,0,0,0,0],[0,0,0,0,0,-1,0,0,0,0,0,0,0,1],[0,0,0,0,0,-1,0,0,0,0,0,0,1,0],[0,0,0,0,0,-1,1,0,0,0,0,0,0,0],[2,1,0,0,0,-1,0,0,0,0,0,0,0,0],[2,1,0,0,0,-1,0,0,0,0,1,0,0,0],[2,1,0,1,0,-1,0,0,0,0,0,0,0,0],[2,1,1,0,0,-1,0,0,0,0,0,0,0,0]], 16],
    [[[2,1,0,0,0,-1,0,0,0,0,1,0,0,0]], [[1,0,0,0,0,-1,0,0,0,0,0,0,0,0],[0,0,0,0,0,-1,0,0,0,0,0,0,0,1],[0,0,0,0,0,-1,0,0,0,0,0,0,1,0],[0,0,0,0,0,-1,1,0,0,0,0,0,0,0],[2,1,0,0,0,-1,0,0,0,0,0,0,0,0],[2,1,0,0,0,-1,0,0,0,0,0,1,0,0],[2,1,0,1,0,-1,0,0,0,0,0,0,0,0],[2,1,1,0,0,-1,0,0,0,0,0,0,0,0]], 17],
    [[[2,1,0,1,0,-1,0,0,0,0,0,0,0,0]], [[-1,-1,0,-1,0,0,0,0,0,0,0,0,0,0],[-2,-1,0,-1,0,0,0,0,0,0,0,0,0,1],[-2,-1,0,-1,0,0,0,0,0,0,0,0,1,0],[-2,-1,0,-1,0,0,1,0,0,0,0,0,0,0],[0,0,0,-1,0,0,0,0,0,0,0,0,0,0],[0,0,0,-1,0,0,0,0,0,0,0,1,0,0],[0,0,0,-1,0,0,0,0,0,0,1,0,0,0],[0,0,1,-1,0,0,0,0,0,0,0,0,0,0]], 18],
    [[[2,1,1,0,0,-1,0,0,0,0,0,0,0,0]], [[-1,-1,-1,0,0,0,0,0,0,0,0,0,0,0],[-2,-1,-1,0,0,0,0,0,0,0,0,0,0,1],[-2,-1,-1,0,0,0,0,0,0,0,0,0,1,0],[-2,-1,-1,0,0,0,1,0,0,0,0,0,0,0],[0,0,-1,0,0,0,0,0,0,0,0,0,0,0],[0,0,-1,0,0,0,0,0,0,0,0,1,0,0],[0,0,-1,0,0,0,0,0,0,0,1,0,0,0],[0,0,-1,1,0,0,0,0,0,0,0,0,0,0]], 19],
    [[[1,1,0,0,0,0,0,0,0,0,0,0,0,0]], [[-1,0,0,0,0,0,0,0,0,0,0,0,0,1],[-1,0,0,0,0,0,0,0,0,0,0,0,1,0],[-1,0,0,0,0,0,1,0,0,0,0,0,0,0],[-1,0,0,0,0,1,0,0,0,0,0,0,0,0],[0,0,0,0,0,0,0,0,0,0,0,1,0,0],[0,0,0,0,0,0,0,0,0,0,1,0,0,0],[0,0,0,1,0,0,0,0,0,0,0,0,0,0],[0,0,1,0,0,0,0,0,0,0,0,0,0,0]], 20],
    [[[1,1,0,0,0,0,0,0,0,0,0,1,0,0]], [[-1,0,0,0,0,0,0,0,0,0,0,0,0,1],[-1,0,0,0,0,0,0,0,0,0,0,0,1,0],[-1,0,0,0,0,0,1,0,0,0,0,0,0,0],[-1,0,0,0,0,1,0,0,0,0,0,0,0,0],[1,1,0,0,0,0,0,0,0,0,0,0,0,0],[1,1,0,0,0,0,0,0,0,0,1,0,0,0],[1,1,0,1,0,0,0,0,0,0,0,0,0,0],[1,1,1,0,0,0,0,0,0,0,0,0,0,0]], 21],
    [[[1,1,0,0,0,0,0,0,0,0,1,0,0,0]], [[-1,0,0,0,0,0,0,0,0,0,0,0,0,1],[-1,0,0,0,0,0,0,0,0,0,0,0,1,0],[-1,0,0,0,0,0,1,0,0,0,0,0,0,0],[-1,0,0,0,0,1,0,0,0,0,0,0,0,0],[1,1,0,0,0,0,0,0,0,0,0,0,0,0],[1,1,0,0,0,0,0,0,0,0,0,1,0,0],[1,1,0,1,0,0,0,0,0,0,0,0,0,0],[1,1,1,0,0,0,0,0,0,0,0,0,0,0]], 22],
    [[[1,1,0,1,0,0,0,0,0,0,0,0,0,0]], [[-1,0,0,0,0,0,0,0,0,0,0,0,0,1],[-1,0,0,0,0,0,0,0,0,0,0,0,1,0],[-1,0,0,0,0,0,1,0,0,0,0,0,0,0],[-1,0,0,0,0,1,0,0,0,0,0,0,0,0],[1,1,0,0,0,0,0,0,0,0,0,0,0,0],[1,1,0,0,0,0,0,0,0,0,0,1,0,0],[1,1,0,0,0,0,0,0,0,0,1,0,0,0],[1,1,1,0,0,0,0,0,0,0,0,0,0,0]], 23],
    [[[1,1,1,0,0,0,0,0,0,0,0,0,0,0]], [[-1,0,0,0,0,0,0,0,0,0,0,0,0,1],[-1,0,0,0,0,0,0,0,0,0,0,0,1,0],[-1,0,0,0,0,0,1,0,0,0,0,0,0,0],[-1,0,0,0,0,1,0,0,0,0,0,0,0,0],[1,1,0,0,0,0,0,0,0,0,0,0,0,0],[1,1,0,0,0,0,0,0,0,0,0,1,0,0],[1,1,0,0,0,0,0,0,0,0,1,0,0,0],[1,1,0,1,0,0,0,0,0,0,0,0,0,0]], 24]
  ]],
  ["#1",
    [[0,0,0,0,0,1,1,1,0,1,1,1],
     [0,0,0,0,1,0,1,1,1,0,1,1],
     [0,0,0,0,1,1,0,1,1,1,0,1],
     [0,0,0,0,1,1,1,0,1,1,1,0],
     [0,1,1,1,0,0,0,0,0,1,1,1],
     [1,0,1,1,0,0,0,0,1,0,1,1],
     [1,1,0,1,0,0,0,0,1,1,0,1],
     [1,1,1,0,0,0,0,0,1,1,1,0],
     [0,1,1,1,0,1,1,1,0,0,0,0],
     [1,0,1,1,1,0,1,1,0,0,0,0],
     [1,1,0,1,1,1,0,1,0,0,0,0],
     [1,1,1,0,1,1,1,0,0,0,0,0]], [
    [[[2,0,1,0,0,0,-1,0,0,0,0,0,0,0]], [[-1,0,-1,0,0,0,0,0,0,0,0,0,0,0],[0,0,-1,1,0,0,0,0,0,0,0,0,0,0],[1,0,0,0,0,0,0,0,1,0,0,0,0,0],[0,0,0,0,1,0,0,0,0,0,0,0,0,0],[0,1,0,0,0,0,0,0,0,0,0,0,0,0]], 0],
    [[[2,0,1,0,1,0,-1,0,0,0,0,0,0,0]], [[-1,0,-1,0,-1,0,0,0,0,0,0,0,0,0],[0,0,-1,1,-1,0,0,0,0,0,0,0,0,0],[0,0,0,0,-1,0,0,0,0,0,0,0,0,0],[1,0,0,0,-1,0,0,0,1,0,0,0,0,0],[0,1,0,0,-1,0,0,0,0,0,0,0,0,0]], 1],
    [[[2,1,1,0,0,0,-1,0,0,0,0,0,0,0]], [[-1,-1,-1,0,0,0,0,0,0,0,0,0,0,0],[0,-1,-1,1,0,0,0,0,0,0,0,0,0,0],[0,-1,0,0,0,0,0,0,0,0,0,0,0,0],[1,-1,0,0,0,0,0,0,1,0,0,0,0,0],[0,-1,0,0,1,0,0,0,0,0,0,0,0,0]], 2],
    [[[3,0,1,0,0,0,-1,0,1,0,0,0,0,0]], [[1,0,0,0,0,0,-1,0,0,0,0,0,0,0],[2,0,0,1,0,0,-1,0,0,0,0,0,0,0],[2,0,1,0,0,0,-1,0,0,0,0,0,0,0],[2,0,1,0,1,0,-1,0,0,0,0,0,0,0],[2,1,1,0,0,0,-1,0,0,0,0,0,0,0]], 3],
    [[[1,0,1,0,0,0,0,0,0,0,0,0,0,0]], [[-1,0,0,0,0,0,1,0,0,0,0,0,0,0],[1,0,0,1,0,0,0,0,0,0,0,0,0,0],[1,0,0,0,0,0,0,0,1,0,0,0,0,0],[0,0,0,0,1,0,0,0,0,0,0,0,0,0],[0,1,0,0,0,0,0,0,0,0,0,0,0,0]], 4],
    [[[1,0,1,0,1,0,0,0,0,0,0,0,0,0]], [[-1,0,0,0,0,0,1,0,0,0,0,0,0,0],[1,0,0,1,0,0,0,0,0,0,0,0,0,0],[1,0,1,0,0,0,0,0,0,0,0,0,0,0],[2,0,1,0,0,0,0,0,1,0,0,0,0,0],[1,1,1,0,0,0,0,0,0,0,0,0,0,0]], 5],
    [[[1,1,1,0,0,0,0,0,0,0,0,0,0,0]], [[-1,0,0,0,0,0,1,0,0,0,0,0,0,0],[1,0,0,1,0,0,0,0,0,0,0,0,0,0],[0,-1,0,0,0,0,0,0,0,0,0,0,0,0],[1,-1,0,0,0,0,0,0,1,0,0,0,0,0],[0,-1,0,0,1,0,0,0,0,0,0,0,0,0]], 6],
    [[[2,0,1,0,0,0,0,0,1,0,0,0,0,0]], [[-1,0,0,0,0,0,1,0,0,0,0,0,0,0],[1,0,0,1,0,0,0,0,0,0,0,0,0,0],[1,0,1,0,0,0,0,0,0,0,0,0,0,0],[1,0,1,0,1,0,0,0,0,0,0,0,0,0],[1,1,1,0,0,0,0,0,0,0,0,0,0,0]], 7],
    [[[0,0,1,-1,0,0,0,0,0,0,0,0,0,0]], [[-1,0,-1,0,0,0,0,0,0,0,0,0,0,0],[-2,0,-1,0,0,0,1,0,0,0,0,0,0,0],[1,0,0,0,0,0,0,0,1,0,0,0,0,0],[0,0,0,0,1,0,0,0,0,0,0,0,0,0],[0,1,0,0,0,0,0,0,0,0,0,0,0,0]], 8],
    [[[0,0,1,-1,1,0,0,0,0,0,0,0,0,0]], [[-1,0,0,-1,0,0,0,0,0,0,0,0,0,0],[-2,0,0,-1,0,0,1,0,0,0,0,0,0,0],[0,0,1,-1,0,0,0,0,0,0,0,0,0,0],[1,0,1,-1,0,0,0,0,1,0,0,0,0,0],[0,1,1,-1,0,0,0,0,0,0,0,0,0,0]], 9],
    [[[0,1,1,-1,0,0,0,0,0,0,0,0,0,0]], [[-1,-1,-1,0,0,0,0,0,0,0,0,0,0,0],[-2,-1,-1,0,0,0,1,0,0,0,0,0,0,0],[0,-1,0,0,0,0,0,0,0,0,0,0,0,0],[1,-1,0,0,0,0,0,0,1,0,0,0,0,0],[0,-1,0,0,1,0,0,0,0,0,0,0,0,0]], 10],
    [[[1,0,1,-1,0,0,0,0,1,0,0,0,0,0]], [[-1,0,0,-1,0,0,0,0,0,0,0,0,0,0],[-2,0,0,-1,0,0,1,0,0,0,0,0,0,0],[0,0,1,-1,0,0,0,0,0,0,0,0,0,0],[0,0,1,-1,1,0,0,0,0,0,0,0,0,0],[0,1,1,-1,0,0,0,0,0,0,0,0,0,0]], 11]
  ]],
  ["#2",
    [[0,0,0,1],
     [0,0,1,0],
     [0,1,0,0],
     [1,0,0,0]], [
    [[[2,0,0,1,0,-1,0,0,0,0,0,0,0,0]], [[0,0,1,-1,1,0,0,0,0,0,0,0,0,0],[0,1,0,0,0,0,0,0,0,0,0,0,0,0]], 0],
    [[[2,1,0,1,0,-1,0,0,0,0,0,0,0,0]], [[0,-1,0,0,0,0,0,0,0,0,0,0,0,0],[0,-1,1,-1,1,0,0,0,0,0,0,0,0,0]], 1],
    [[[0,0,1,-1,1,0,0,0,0,0,0,0,0,0]], [[-2,0,0,-1,0,1,0,0,0,0,0,0,0,0],[0,1,0,0,0,0,0,0,0,0,0,0,0,0]], 2],
    [[[0,1,-1,1,-1,0,0,0,0,0,0,0,0,0]], [[-2,-1,0,-1,0,1,0,0,0,0,0,0,0,0],[0,-1,0,0,0,0,0,0,0,0,0,0,0,0]], 3]
  ]],
  ["#3",
    [[0,0,0,0,0,0,0,0,0,0,0,1,1,1,1,1,1,1,1,1,1,1,1,1,1,1,1,1,1,1,1,1,1,1,1,1],
     [0,0,0,0,0,0,1,1,1,1,1,0,1,1,1,1,0,1,1,1,1,0,1,1,1,1,0,1,1,1,1,0,1,1,1,1],
     [0,0,0,0,0,0,1,1,1,1,1,1,0,1,1,1,1,0,1,1,1,1,0,1,1,1,1,0,1,1,1,1,0,1,1,1],
     [0,0,0,0,0,0,1,1,1,1,1,1,1,0,1,1,1,1,0,1,1,1,1,0,1,1,1,1,0,1,1,1,1,0,1,1],
     [0,0,0,0,0,0,1,1,1,1,1,1,1,1,0,1,1,1,1,0,1,1,1,1,0,1,1,1,1,0,1,1,1,1,0,1],
     [0,0,0,0,0,0,1,1,1,1,1,1,1,1,1,0,1,1,1,1,0,1,1,1,1,0,1,1,1,1,0,1,1,1,1,0],
     [0,1,1,1,1,1,0,0,0,0,0,0,0,0,0,0,1,1,1,1,1,1,1,1,1,1,1,1,1,1,1,1,1,1,1,1],
     [0,1,1,1,1,1,0,0,0,0,0,1,1,1,1,1,0,0,0,0,0,1,1,1,1,1,1,1,1,1,1,1,1,1,1,1],
     [0,1,1,1,1,1,0,0,0,0,0,1,1,1,1,1,1,1,1,1,1,0,0,0,0,0,1,1,1,1,1,1,1,1,1,1],
     [0,1,1,1,1,1,0,0,0,0,0,1,1,1,1,1,1,1,1,1,1,1,1,1,1,1,0,0,0,0,0,1,1,1,1,1],
     [0,1,1,1,1,1,0,0,0,0,0,1,1,1,1,1,1,1,1,1,1,1,1,1,1,1,1,1,1,1,1,0,0,0,0,0],
     [1,0,1,1,1,1,0,1,1,1,1,0,0,0,0,0,0,1,1,1,1,0,1,1,1,1,0,1,1,1,1,0,1,1,1,1],
     [1,1,0,1,1,1,0,1,1,1,1,0,0,0,0,0,1,0,1,1,1,1,0,1,1,1,1,0,1,1,1,1,0,1,1,1],
     [1,1,1,0,1,1,0,1,1,1,1,0,0,0,0,0,1,1,0,1,1,1,1,0,1,1,1,1,0,1,1,1,1,0,1,1],
     [1,1,1,1,0,1,0,1,1,1,1,0,0,0,0,0,1,1,1,0,1,1,1,1,0,1,1,1,1,0,1,1,1,1,0,1],
     [1,1,1,1,1,0,0,1,1,1,1,0,0,0,0,0,1,1,1,1,0,1,1,1,1,0,1,1,1,1,0,1,1,1,1,0],
     [1,0,1,1,1,1,1,0,1,1,1,0,1,1,1,1,0,0,0,0,0,0,1,1,1,1,0,1,1,1,1,0,1,1,1,1],
     [1,1,0,1,1,1,1,0,1,1,1,1,0,1,1,1,0,0,0,0,0,1,0,1,1,1,1,0,1,1,1,1,0,1,1,1],
     [1,1,1,0,1,1,1,0,1,1,1,1,1,0,1,1,0,0,0,0,0,1,1,0,1,1,1,1,0,1,1,1,1,0,1,1],
     [1,1,1,1,0,1,1,0,1,1,1,1,1,1,0,1,0,0,0,0,0,1,1,1,0,1,1,1,1,0,1,1,1,1,0,1],
     [1,1,1,1,1,0,1,0,1,1,1,1,1,1,1,0,0,0,0,0,0,1,1,1,1,0,1,1,1,1,0,1,1,1,1,0],
     [1,0,1,1,1,1,1,1,0,1,1,0,1,1,1,1,0,1,1,1,1,0,0,0,0,0,0,1,1,1,1,0,1,1,1,1],
     [1,1,0,1,1,1,1,1,0,1,1,1,0,1,1,1,1,0,1,1,1,0,0,0,0,0,1,0,1,1,1,1,0,1,1,1],
     [1,1,1,0,1,1,1,1,0,1,1,1,1,0,1,1,1,1,0,1,1,0,0,0,0,0,1,1,0,1,1,1,1,0,1,1],
     [1,1,1,1,0,1,1,1,0,1,1,1,1,1,0,1,1,1,1,0,1,0,0,0,0,0,1,1,1,0,1,1,1,1,0,1],
     [1,1,1,1,1,0,1,1,0,1,1,1,1,1,1,0,1,1,1,1,0,0,0,0,0,0,1,1,1,1,0,1,1,1,1,0],
     [1,0,1,1,1,1,1,1,1,0,1,0,1,1,1,1,0,1,1,1,1,0,1,1,1,1,0,0,0,0,0,0,1,1,1,1],
     [1,1,0,1,1,1,1,1,1,0,1,1,0,1,1,1,1,0,1,1,1,1,0,1,1,1,0,0,0,0,0,1,0,1,1,1],
     [1,1,1,0,1,1,1,1,1,0,1,1,1,0,1,1,1,1,0,1,1,1,1,0,1,1,0,0,0,0,0,1,1,0,1,1],
     [1,1,1,1,0,1,1,1,1,0,1,1,1,1,0,1,1,1,1,0,1,1,1,1,0,1,0,0,0,0,0,1,1,1,0,1],
     [1,1,1,1,1,0,1,1,1,0,1,1,1,1,1,0,1,1,1,1,0,1,1,1,1,0,0,0,0,0,0,1,1,1,1,0],
     [1,0,1,1,1,1,1,1,1,1,0,0,1,1,1,1,0,1,1,1,1,0,1,1,1,1,0,1,1,1,1,0,0,0,0,0],
     [1,1,0,1,1,1,1,1,1,1,0,1,0,1,1,1,1,0,1,1,1,1,0,1,1,1,1,0,1,1,1,0,0,0,0,0],
     [1,1,1,0,1,1,1,1,1,1,0,1,1,0,1,1,1,1,0,1,1,1,1,0,1,1,1,1,0,1,1,0,0,0,0,0],
     [1,1,1,1,0,1,1,1,1,1,0,1,1,1,0,1,1,1,1,0,1,1,1,1,0,1,1,1,1,0,1,0,0,0,0,0],
     [1,1,1,1,1,0,1,1,1,1,0,1,1,1,1,0,1,1,1,1,0,1,1,1,1,0,1,1,1,1,0,0,0,0,0,0]], [
    [[[1,0,0,0,1,0,0,0,1,0,0,0,0,0]], [[2,0,0,0,0,0,0,0,0,0,0,0,0,1],[2,0,0,0,0,0,0,0,0,0,1,0,0,0],[2,0,0,0,0,0,0,0,0,1,0,0,0,0],[2,0,0,0,0,1,0,0,0,0,0,0,0,0],[2,0,0,0,1,0,0,0,0,0,0,0,0,0],[2,0,0,0,1,0,0,0,0,0,0,0,1,0],[2,0,0,0,1,0,0,0,0,0,0,1,0,0],[2,0,0,0,1,0,1,0,0,0,0,0,0,0],[2,0,0,1,0,0,0,0,0,0,0,0,0,0],[2,0,1,0,1,0,0,0,0,0,0,0,0,0]], 0],
    [[[2,0,0,0,1,0,0,0,0,0,0,0,0,0]], [[2,0,0,0,0,0,0,0,0,0,0,0,0,1],[2,0,0,0,0,0,0,0,0,0,1,0,0,0],[2,0,0,0,0,0,0,0,0,1,0,0,0,0],[2,0,0,0,0,1,0,0,0,0,0,0,0,0],[0,0,0,0,0,0,0,0,0,0,0,0,1,0],[0,0,0,0,0,0,0,0,0,0,0,1,0,0],[-1,0,0,0,0,0,0,0,1,0,0,0,0,0],[0,0,0,0,0,0,1,0,0,0,0,0,0,0],[2,0,0,1,0,0,0,0,0,0,0,0,0,0],[0,0,1,0,0,0,0,0,0,0,0,0,0,0]], 1],
    [[[2,0,0,0,1,0,0,0,0,0,0,0,1,0]], [[2,0,0,0,0,0,0,0,0,0,0,0,0,1],[2,0,0,0,0,0,0,0,0,0,1,0,0,0],[2,0,0,0,0,0,0,0,0,1,0,0,0,0],[2,0,0,0,0,1,0,0,0,0,0,0,0,0],[2,0,0,0,1,0,0,0,0,0,0,0,0,0],[2,0,0,0,1,0,0,0,0,0,0,1,0,0],[1,0,0,0,1,0,0,0,1,0,0,0,0,0],[2,0,0,0,1,0,1,0,0,0,0,0,0,0],[2,0,0,1,0,0,0,0,0,0,0,0,0,0],[2,0,1,0,1,0,0,0,0,0,0,0,0,0]], 2],
    [[[2,0,0,0,1,0,0,0,0,0,0,1,0,0]], [[2,0,0,0,0,0,0,0,0,0,0,0,0,1],[2,0,0,0,0,0,0,0,0,0,1,0,0,0],[2,0,0,0,0,0,0,0,0,1,0,0,0,0],[2,0,0,0,0,1,0,0,0,0,0,0,0,0],[2,0,0,0,1,0,0,0,0,0,0,0,0,0],[2,0,0,0,1,0,0,0,0,0,0,0,1,0],[1,0,0,0,1,0,0,0,1,0,0,0,0,0],[2,0,0,0,1,0,1,0,0,0,0,0,0,0],[2,0,0,1,0,0,0,0,0,0,0,0,0,0],[2,0,1,0,1,0,0,0,0,0,0,0,0,0]], 3],
    [[[2,0,0,0,1,0,1,0,0,0,0,0,0,0]], [[2,0,0,0,0,0,0,0,0,0,0,0,0,1],[2,0,0,0,0,0,0,0,0,0,1,0,0,0],[2,0,0,0,0,0,0,0,0,1,0,0,0,0],[2,0,0,0,0,1,0,0,0,0,0,0,0,0],[2,0,0,0,1,0,0,0,0,0,0,0,0,0],[2,0,0,0,1,0,0,0,0,0,0,0,1,0],[2,0,0,0,1,0,0,0,0,0,0,1,0,0],[1,0,0,0,1,0,0,0,1,0,0,0,0,0],[2,0,0,1,0,0,0,0,0,0,0,0,0,0],[2,0,1,0,1,0,0,0,0,0,0,0,0,0]], 4],
    [[[2,0,1,0,1,0,0,0,0,0,0,0,0,0]], [[2,0,0,0,0,0,0,0,0,0,0,0,0,1],[2,0,0,0,0,0,0,0,0,0,1,0,0,0],[2,0,0,0,0,0,0,0,0,1,0,0,0,0],[2,0,0,0,0,1,0,0,0,0,0,0,0,0],[0,0,-1,0,0,0,0,0,0,0,0,0,0,0],[0,0,-1,0,0,0,0,0,0,0,0,0,1,0],[0,0,-1,0,0,0,0,0,0,0,0,1,0,0],[-1,0,-1,0,0,0,0,0,1,0,0,0,0,0],[0,0,-1,0,0,0,1,0,0,0,0,0,0,0],[2,0,0,1,0,0,0,0,0,0,0,0,0,0]], 5],
    [[[-1,0,0,0,1,0,0,0,1,0,0,0,0,-1]], [[-1,0,0,0,-1,0,0,0,-1,0,0,0,0,0],[1,0,0,0,-1,0,0,0,-1,0,1,0,0,0],[1,0,0,0,-1,0,0,0,-1,1,0,0,0,0],[1,0,0,0,-1,1,0,0,-1,0,0,0,0,0],[1,0,0,0,0,0,0,0,-1,0,0,0,0,0],[1,0,0,0,0,0,0,0,-1,0,0,0,1,0],[1,0,0,0,0,0,0,0,-1,0,0,1,0,0],[1,0,0,0,0,0,1,0,-1,0,0,0,0,0],[1,0,0,1,-1,0,0,0,-1,0,0,0,0,0],[1,0,1,0,0,0,0,0,-1,0,0,0,0,0]], 6],
    [[[-1,0,0,0,1,0,0,0,1,0,-1,0,0,0]], [[-1,0,0,0,-1,0,0,0,-1,0,0,0,0,0],[1,0,0,0,-1,0,0,0,-1,0,0,0,0,1],[1,0,0,0,-1,0,0,0,-1,1,0,0,0,0],[1,0,0,0,-1,1,0,0,-1,0,0,0,0,0],[1,0,0,0,0,0,0,0,-1,0,0,0,0,0],[1,0,0,0,0,0,0,0,-1,0,0,0,1,0],[1,0,0,0,0,0,0,0,-1,0,0,1,0,0],[1,0,0,0,0,0,1,0,-1,0,0,0,0,0],[1,0,0,1,-1,0,0,0,-1,0,0,0,0,0],[1,0,1,0,0,0,0,0,-1,0,0,0,0,0]], 7],
    [[[-1,0,0,0,1,0,0,0,1,-1,0,0,0,0]], [[-1,0,0,0,-1,0,0,0,-1,0,0,0,0,0],[1,0,0,0,-1,0,0,0,-1,0,0,0,0,1],[1,0,0,0,-1,0,0,0,-1,0,1,0,0,0],[1,0,0,0,-1,1,0,0,-1,0,0,0,0,0],[1,0,0,0,0,0,0,0,-1,0,0,0,0,0],[1,0,0,0,0,0,0,0,-1,0,0,0,1,0],[1,0,0,0,0,0,0,0,-1,0,0,1,0,0],[1,0,0,0,0,0,1,0,-1,0,0,0,0,0],[1,0,0,1,-1,0,0,0,-1,0,0,0,0,0],[1,0,1,0,0,0,0,0,-1,0,0,0,0,0]], 8],
    [[[-1,0,0,0,1,-1,0,0,1,0,0,0,0,0]], [[-2,0,0,0,0,-1,0,0,0,0,0,0,0,0],[0,0,0,0,0,-1,0,0,0,0,0,0,0,1],[0,0,0,0,0,-1,0,0,0,0,1,0,0,0],[0,0,0,0,0,-1,0,0,0,1,0,0,0,0],[0,0,0,0,1,-1,0,0,0,0,0,0,0,0],[0,0,0,0,1,-1,0,0,0,0,0,0,1,0],[0,0,0,0,1,-1,0,0,0,0,0,1,0,0],[0,0,0,0,1,-1,1,0,0,0,0,0,0,0],[0,0,0,1,0,-1,0,0,0,0,0,0,0,0],[0,0,1,0,1,-1,0,0,0,0,0,0,0,0]], 9],
    [[[1,0,0,1,-1,0,0,0,-1,0,0,0,0,0]], [[-2,0,0,-1,0,0,0,0,0,0,0,0,0,0],[0,0,0,-1,0,0,0,0,0,0,0,0,0,1],[0,0,0,-1,0,0,0,0,0,0,1,0,0,0],[0,0,0,-1,0,0,0,0,0,1,0,0,0,0],[0,0,0,-1,0,1,0,0,0,0,0,0,0,0],[0,0,0,-1,1,0,0,0,0,0,0,0,0,0],[0,0,0,-1,1,0,0,0,0,0,0,0,1,0],[0,0,0,-1,1,0,0,0,0,0,0,1,0,0],[0,0,0,-1,1,0,1,0,0,0,0,0,0,0],[0,0,1,-1,1,0,0,0,0,0,0,0,0,0]], 10],
    [[[0,0,0,0,1,0,0,0,0,0,0,0,0,-1]], [[-2,0,0,0,-1,0,0,0,0,0,0,0,0,0],[0,0,0,0,-1,0,0,0,0,0,1,0,0,0],[0,0,0,0,-1,0,0,0,0,1,0,0,0,0],[0,0,0,0,-1,1,0,0,0,0,0,0,0,0],[0,0,0,0,0,0,0,0,0,0,0,0,1,0],[0,0,0,0,0,0,0,0,0,0,0,1,0,0],[-1,0,0,0,0,0,0,0,1,0,0,0,0,0],[0,0,0,0,0,0,1,0,0,0,0,0,0,0],[0,0,0,1,-1,0,0,0,0,0,0,0,0,0],[0,0,1,0,0,0,0,0,0,0,0,0,0,0]], 11],
    [[[0,0,0,0,1,0,0,0,0,0,0,0,1,-1]], [[-2,0,0,0,-1,0,0,0,0,0,0,0,-1,0],[0,0,0,0,-1,0,0,0,0,0,1,0,-1,0],[0,0,0,0,-1,0,0,0,0,1,0,0,-1,0],[0,0,0,0,-1,1,0,0,0,0,0,0,-1,0],[0,0,0,0,0,0,0,0,0,0,0,0,-1,0],[0,0,0,0,0,0,0,0,0,0,0,1,-1,0],[-1,0,0,0,0,0,0,0,1,0,0,0,-1,0],[0,0,0,0,0,0,1,0,0,0,0,0,-1,0],[0,0,0,1,-1,0,0,0,0,0,0,0,-1,0],[0,0,1,0,0,0,0,0,0,0,0,0,-1,0]], 12],
    [[[0,0,0,0,1,0,0,0,0,0,0,1,0,-1]], [[-2,0,0,0,-1,0,0,0,0,0,0,-1,0,0],[0,0,0,0,-1,0,0,0,0,0,1,-1,0,0],[0,0,0,0,-1,0,0,0,0,1,0,-1,0,0],[0,0,0,0,-1,1,0,0,0,0,0,-1,0,0],[0,0,0,0,0,0,0,0,0,0,0,-1,0,0],[0,0,0,0,0,0,0,0,0,0,0,-1,1,0],[-1,0,0,0,0,0,0,0,1,0,0,-1,0,0],[0,0,0,0,0,0,1,0,0,0,0,-1,0,0],[0,0,0,1,-1,0,0,0,0,0,0,-1,0,0],[0,0,1,0,0,0,0,0,0,0,0,-1,0,0]], 13],
    [[[0,0,0,0,1,0,1,0,0,0,0,0,0,-1]], [[-2,0,0,0,-1,0,-1,0,0,0,0,0,0,0],[0,0,0,0,-1,0,-1,0,0,0,1,0,0,0],[0,0,0,0,-1,0,-1,0,0,1,0,0,0,0],[0,0,0,0,-1,1,-1,0,0,0,0,0,0,0],[0,0,0,0,0,0,-1,0,0,0,0,0,0,0],[0,0,0,0,0,0,-1,0,0,0,0,0,1,0],[0,0,0,0,0,0,-1,0,0,0,0,1,0,0],[-1,0,0,0,0,0,-1,0,1,0,0,0,0,0],[0,0,0,1,-1,0,-1,0,0,0,0,0,0,0],[0,0,1,0,0,0,-1,0,0,0,0,0,0,0]], 14],
    [[[0,0,1,0,1,0,0,0,0,0,0,0,0,-1]], [[-2,0,-1,0,-1,0,0,0,0,0,0,0,0,0],[0,0,-1,0,-1,0,0,0,0,0,1,0,0,0],[0,0,-1,0,-1,0,0,0,0,1,0,0,0,0],[0,0,-1,0,-1,1,0,0,0,0,0,0,0,0],[0,0,-1,0,0,0,0,0,0,0,0,0,0,0],[0,0,-1,0,0,0,0,0,0,0,0,0,1,0],[0,0,-1,0,0,0,0,0,0,0,0,1,0,0],[-1,0,-1,0,0,0,0,0,1,0,0,0,0,0],[0,0,-1,0,0,0,1,0,0,0,0,0,0,0],[0,0,-1,1,-1,0,0,0,0,0,0,0,0,0]], 15],
    [[[0,0,0,0,1,0,0,0,0,0,-1,0,0,0]], [[-2,0,0,0,-1,0,0,0,0,0,0,0,0,0],[0,0,0,0,-1,0,0,0,0,0,0,0,0,1],[0,0,0,0,-1,0,0,0,0,1,0,0,0,0],[0,0,0,0,-1,1,0,0,0,0,0,0,0,0],[0,0,0,0,0,0,0,0,0,0,0,0,1,0],[0,0,0,0,0,0,0,0,0,0,0,1,0,0],[-1,0,0,0,0,0,0,0,1,0,0,0,0,0],[0,0,0,0,0,0,1,0,0,0,0,0,0,0],[0,0,0,1,-1,0,0,0,0,0,0,0,0,0],[0,0,1,0,0,0,0,0,0,0,0,0,0,0]], 16],
    [[[0,0,0,0,1,0,0,0,0,0,-1,0,1,0]], [[-2,0,0,0,0,0,0,0,0,0,-1,0,0,0],[0,0,0,0,0,0,0,0,0,0,-1,0,0,1],[0,0,0,0,0,0,0,0,0,1,-1,0,0,0],[0,0,0,0,0,1,0,0,0,0,-1,0,0,0],[0,0,0,0,1,0,0,0,0,0,-1,0,0,0],[0,0,0,0,1,0,0,0,0,0,-1,1,0,0],[-1,0,0,0,1,0,0,0,1,0,-1,0,0,0],[0,0,0,0,1,0,1,0,0,0,-1,0,0,0],[0,0,0,1,0,0,0,0,0,0,-1,0,0,0],[0,0,1,0,1,0,0,0,0,0,-1,0,0,0]], 17],
    [[[0,0,0,0,1,0,0,0,0,0,-1,1,0,0]], [[-2,0,0,0,0,0,0,0,0,0,-1,0,0,0],[0,0,0,0,0,0,0,0,0,0,-1,0,0,1],[0,0,0,0,0,0,0,0,0,1,-1,0,0,0],[0,0,0,0,0,1,0,0,0,0,-1,0,0,0],[0,0,0,0,1,0,0,0,0,0,-1,0,0,0],[0,0,0,0,1,0,0,0,0,0,-1,0,1,0],[-1,0,0,0,1,0,0,0,1,0,-1,0,0,0],[0,0,0,0,1,0,1,0,0,0,-1,0,0,0],[0,0,0,1,0,0,0,0,0,0,-1,0,0,0],[0,0,1,0,1,0,0,0,0,0,-1,0,0,0]], 18],
    [[[0,0,0,0,1,0,1,0,0,0,-1,0,0,0]], [[-2,0,0,0,-1,0,-1,0,0,0,0,0,0,0],[0,0,0,0,-1,0,-1,0,0,0,0,0,0,1],[0,0,0,0,-1,0,-1,0,0,1,0,0,0,0],[0,0,0,0,-1,1,-1,0,0,0,0,0,0,0],[0,0,0,0,0,0,-1,0,0,0,0,0,0,0],[0,0,0,0,0,0,-1,0,0,0,0,0,1,0],[0,0,0,0,0,0,-1,0,0,0,0,1,0,0],[-1,0,0,0,0,0,-1,0,1,0,0,0,0,0],[0,0,0,1,-1,0,-1,0,0,0,0,0,0,0],[0,0,1,0,0,0,-1,0,0,0,0,0,0,0]], 19],
    [[[0,0,1,0,1,0,0,0,0,0,-1,0,0,0]], [[-2,0,-1,0,-1,0,0,0,0,0,0,0,0,0],[0,0,-1,0,-1,0,0,0,0,0,0,0,0,1],[0,0,-1,0,-1,0,0,0,0,1,0,0,0,0],[0,0,-1,0,-1,1,0,0,0,0,0,0,0,0],[0,0,-1,0,0,0,0,0,0,0,0,0,0,0],[0,0,-1,0,0,0,0,0,0,0,0,0,1,0],[0,0,-1,0,0,0,0,0,0,0,0,1,0,0],[-1,0,-1,0,0,0,0,0,1,0,0,0,0,0],[0,0,-1,0,0,0,1,0,0,0,0,0,0,0],[0,0,-1,1,-1,0,0,0,0,0,0,0,0,0]], 20],
    [[[0,0,0,0,1,0,0,0,0,-1,0,0,0,0]], [[-2,0,0,0,-1,0,0,0,0,0,0,0,0,0],[0,0,0,0,-1,0,0,0,0,0,0,0,0,1],[0,0,0,0,-1,0,0,0,0,0,1,0,0,0],[0,0,0,0,-1,1,0,0,0,0,0,0,0,0],[0,0,0,0,0,0,0,0,0,0,0,0,1,0],[0,0,0,0,0,0,0,0,0,0,0,1,0,0],[-1,0,0,0,0,0,0,0,1,0,0,0,0,0],[0,0,0,0,0,0,1,0,0,0,0,0,0,0],[0,0,0,1,-1,0,0,0,0,0,0,0,0,0],[0,0,1,0,0,0,0,0,0,0,0,0,0,0]], 21],
    [[[0,0,0,0,1,0,0,0,0,-1,0,0,1,0]], [[-2,0,0,0,0,0,0,0,0,-1,0,0,0,0],[0,0,0,0,0,0,0,0,0,-1,0,0,0,1],[0,0,0,0,0,0,0,0,0,-1,1,0,0,0],[0,0,0,0,0,1,0,0,0,-1,0,0,0,0],[0,0,0,0,1,0,0,0,0,-1,0,0,0,0],[0,0,0,0,1,0,0,0,0,-1,0,1,0,0],[-1,0,0,0,1,0,0,0,1,-1,0,0,0,0],[0,0,0,0,1,0,1,0,0,-1,0,0,0,0],[0,0,0,1,0,0,0,0,0,-1,0,0,0,0],[0,0,1,0,1,0,0,0,0,-1,0,0,0,0]], 22],
    [[[0,0,0,0,1,0,0,0,0,-1,0,1,0,0]], [[-2,0,0,0,0,0,0,0,0,-1,0,0,0,0],[0,0,0,0,0,0,0,0,0,-1,0,0,0,1],[0,0,0,0,0,0,0,0,0,-1,1,0,0,0],[0,0,0,0,0,1,0,0,0,-1,0,0,0,0],[0,0,0,0,1,0,0,0,0,-1,0,0,0,0],[0,0,0,0,1,0,0,0,0,-1,0,0,1,0],[-1,0,0,0,1,0,0,0,1,-1,0,0,0,0],[0,0,0,0,1,0,1,0,0,-1,0,0,0,0],[0,0,0,1,0,0,0,0,0,-1,0,0,0,0],[0,0,1,0,1,0,0,0,0,-1,0,0,0,0]], 23],
    [[[0,0,0,0,1,0,1,0,0,-1,0,0,0,0]], [[-2,0,0,0,-1,0,-1,0,0,0,0,0,0,0],[0,0,0,0,-1,0,-1,0,0,0,0,0,0,1],[0,0,0,0,-1,0,-1,0,0,0,1,0,0,0],[0,0,0,0,-1,1,-1,0,0,0,0,0,0,0],[0,0,0,0,0,0,-1,0,0,0,0,0,0,0],[0,0,0,0,0,0,-1,0,0,0,0,0,1,0],[0,0,0,0,0,0,-1,0,0,0,0,1,0,0],[-1,0,0,0,0,0,-1,0,1,0,0,0,0,0],[0,0,0,1,-1,0,-1,0,0,0,0,0,0,0],[0,0,1,0,0,0,-1,0,0,0,0,0,0,0]], 24],
    [[[0,0,1,0,1,0,0,0,0,-1,0,0,0,0]], [[-2,0,-1,0,-1,0,0,0,0,0,0,0,0,0],[0,0,-1,0,-1,0,0,0,0,0,0,0,0,1],[0,0,-1,0,-1,0,0,0,0,0,1,0,0,0],[0,0,-1,0,-1,1,0,0,0,0,0,0,0,0],[0,0,-1,0,0,0,0,0,0,0,0,0,0,0],[0,0,-1,0,0,0,0,0,0,0,0,0,1,0],[0,0,-1,0,0,0,0,0,0,0,0,1,0,0],[-1,0,-1,0,0,0,0,0,1,0,0,0,0,0],[0,0,-1,0,0,0,1,0,0,0,0,0,0,0],[0,0,-1,1,-1,0,0,0,0,0,0,0,0,0]], 25],
    [[[0,0,0,0,1,-1,0,0,0,0,0,0,0,0]], [[-2,0,0,0,-1,0,0,0,0,0,0,0,0,0],[0,0,0,0,-1,0,0,0,0,0,0,0,0,1],[0,0,0,0,-1,0,0,0,0,0,1,0,0,0],[0,0,0,0,-1,0,0,0,0,1,0,0,0,0],[0,0,0,0,0,0,0,0,0,0,0,0,1,0],[0,0,0,0,0,0,0,0,0,0,0,1,0,0],[-1,0,0,0,0,0,0,0,1,0,0,0,0,0],[0,0,0,0,0,0,1,0,0,0,0,0,0,0],[0,0,0,1,-1,0,0,0,0,0,0,0,0,0],[0,0,1,0,0,0,0,0,0,0,0,0,0,0]], 26],
    [[[0,0,0,0,1,-1,0,0,0,0,0,0,1,0]], [[-2,0,0,0,0,-1,0,0,0,0,0,0,0,0],[0,0,0,0,0,-1,0,0,0,0,0,0,0,1],[0,0,0,0,0,-1,0,0,0,0,1,0,0,0],[0,0,0,0,0,-1,0,0,0,1,0,0,0,0],[0,0,0,0,1,-1,0,0,0,0,0,0,0,0],[0,0,0,0,1,-1,0,0,0,0,0,1,0,0],[-1,0,0,0,1,-1,0,0,1,0,0,0,0,0],[0,0,0,0,1,-1,1,0,0,0,0,0,0,0],[0,0,0,1,0,-1,0,0,0,0,0,0,0,0],[0,0,1,0,1,-1,0,0,0,0,0,0,0,0]], 27],
    [[[0,0,0,0,1,-1,0,0,0,0,0,1,0,0]], [[-2,0,0,0,0,-1,0,0,0,0,0,0,0,0],[0,0,0,0,0,-1,0,0,0,0,0,0,0,1],[0,0,0,0,0,-1,0,0,0,0,1,0,0,0],[0,0,0,0,0,-1,0,0,0,1,0,0,0,0],[0,0,0,0,1,-1,0,0,0,0,0,0,0,0],[0,0,0,0,1,-1,0,0,0,0,0,0,1,0],[-1,0,0,0,1,-1,0,0,1,0,0,0,0,0],[0,0,0,0,1,-1,1,0,0,0,0,0,0,0],[0,0,0,1,0,-1,0,0,0,0,0,0,0,0],[0,0,1,0,1,-1,0,0,0,0,0,0,0,0]], 28],
    [[[0,0,0,0,1,-1,1,0,0,0,0,0,0,0]], [[-2,0,0,0,0,-1,0,0,0,0,0,0,0,0],[0,0,0,0,0,-1,0,0,0,0,0,0,0,1],[0,0,0,0,0,-1,0,0,0,0,1,0,0,0],[0,0,0,0,0,-1,0,0,0,1,0,0,0,0],[0,0,0,0,1,-1,0,0,0,0,0,0,0,0],[0,0,0,0,1,-1,0,0,0,0,0,0,1,0],[0,0,0,0,1,-1,0,0,0,0,0,1,0,0],[-1,0,0,0,1,-1,0,0,1,0,0,0,0,0],[0,0,0,1,0,-1,0,0,0,0,0,0,0,0],[0,0,1,0,1,-1,0,0,0,0,0,0,0,0]], 29],
    [[[0,0,1,0,1,-1,0,0,0,0,0,0,0,0]], [[-2,0,-1,0,-1,0,0,0,0,0,0,0,0,0],[0,0,-1,0,-1,0,0,0,0,0,0,0,0,1],[0,0,-1,0,-1,0,0,0,0,0,1,0,0,0],[0,0,-1,0,-1,0,0,0,0,1,0,0,0,0],[0,0,-1,0,0,0,0,0,0,0,0,0,0,0],[0,0,-1,0,0,0,0,0,0,0,0,0,1,0],[0,0,-1,0,0,0,0,0,0,0,0,1,0,0],[-1,0,-1,0,0,0,0,0,1,0,0,0,0,0],[0,0,-1,0,0,0,1,0,0,0,0,0,0,0],[0,0,-1,1,-1,0,0,0,0,0,0,0,0,0]], 30],
    [[[0,0,0,1,-1,0,0,0,0,0,0,0,0,0]], [[-2,0,0,-1,0,0,0,0,0,0,0,0,0,0],[0,0,0,-1,0,0,0,0,0,0,0,0,0,1],[0,0,0,-1,0,0,0,0,0,0,1,0,0,0],[0,0,0,-1,0,0,0,0,0,1,0,0,0,0],[0,0,0,-1,0,1,0,0,0,0,0,0,0,0],[0,0,0,0,0,0,0,0,0,0,0,0,1,0],[0,0,0,0,0,0,0,0,0,0,0,1,0,0],[-1,0,0,0,0,0,0,0,1,0,0,0,0,0],[0,0,0,0,0,0,1,0,0,0,0,0,0,0],[0,0,1,0,0,0,0,0,0,0,0,0,0,0]], 31],
    [[[0,0,0,1,-1,0,0,0,0,0,0,0,-1,0]], [[-2,0,0,-1,0,0,0,0,0,0,0,0,0,0],[0,0,0,-1,0,0,0,0,0,0,0,0,0,1],[0,0,0,-1,0,0,0,0,0,0,1,0,0,0],[0,0,0,-1,0,0,0,0,0,1,0,0,0,0],[0,0,0,-1,0,1,0,0,0,0,0,0,0,0],[0,0,0,-1,1,0,0,0,0,0,0,0,0,0],[0,0,0,-1,1,0,0,0,0,0,0,1,0,0],[-1,0,0,-1,1,0,0,0,1,0,0,0,0,0],[0,0,0,-1,1,0,1,0,0,0,0,0,0,0],[0,0,1,-1,1,0,0,0,0,0,0,0,0,0]], 32],
    [[[0,0,0,1,-1,0,0,0,0,0,0,-1,0,0]], [[-2,0,0,-1,0,0,0,0,0,0,0,0,0,0],[0,0,0,-1,0,0,0,0,0,0,0,0,0,1],[0,0,0,-1,0,0,0,0,0,0,1,0,0,0],[0,0,0,-1,0,0,0,0,0,1,0,0,0,0],[0,0,0,-1,0,1,0,0,0,0,0,0,0,0],[0,0,0,-1,1,0,0,0,0,0,0,0,0,0],[0,0,0,-1,1,0,0,0,0,0,0,0,1,0],[-1,0,0,-1,1,0,0,0,1,0,0,0,0,0],[0,0,0,-1,1,0,1,0,0,0,0,0,0,0],[0,0,1,-1,1,0,0,0,0,0,0,0,0,0]], 33],
    [[[0,0,0,1,-1,0,-1,0,0,0,0,0,0,0]], [[-2,0,0,-1,0,0,0,0,0,0,0,0,0,0],[0,0,0,-1,0,0,0,0,0,0,0,0,0,1],[0,0,0,-1,0,0,0,0,0,0,1,0,0,0],[0,0,0,-1,0,0,0,0,0,1,0,0,0,0],[0,0,0,-1,0,1,0,0,0,0,0,0,0,0],[0,0,0,-1,1,0,0,0,0,0,0,0,0,0],[0,0,0,-1,1,0,0,0,0,0,0,0,1,0],[0,0,0,-1,1,0,0,0,0,0,0,1,0,0],[-1,0,0,-1,1,0,0,0,1,0,0,0,0,0],[0,0,1,-1,1,0,0,0,0,0,0,0,0,0]], 34],
    [[[0,0,1,-1,1,0,0,0,0,0,0,0,0,0]], [[-2,0,0,-1,0,0,0,0,0,0,0,0,0,0],[0,0,0,-1,0,0,0,0,0,0,0,0,0,1],[0,0,0,-1,0,0,0,0,0,0,1,0,0,0],[0,0,0,-1,0,0,0,0,0,1,0,0,0,0],[0,0,0,-1,0,1,0,0,0,0,0,0,0,0],[0,0,-1,0,0,0,0,0,0,0,0,0,0,0],[0,0,-1,0,0,0,0,0,0,0,0,0,1,0],[0,0,-1,0,0,0,0,0,0,0,0,1,0,0],[-1,0,-1,0,0,0,0,0,1,0,0,0,0,0],[0,0,-1,0,0,0,1,0,0,0,0,0,0,0]], 35]
  ]],
  ["#4",
    [[0,0],
     [0,0]], [
    [[[2,0,0,0,1,-1,1,0,0,0,0,0,0,0]], [[2,1,0,1,0,-1,0,0,0,0,0,0,0,0]], 0],
    [[[2,1,0,1,0,-1,0,0,0,0,0,0,0,0]], [[0,-1,0,-1,1,0,1,0,0,0,0,0,0,0]], 1]
  ]],
  ["#5",
    [[0,0,0,0,1,1],
     [0,0,1,1,0,0],
     [0,1,0,0,0,1],
     [0,1,0,0,1,0],
     [1,0,0,1,0,0],
     [1,0,1,0,0,0]], [
    [[[2,0,0,0,0,1,-1,0,0,0,0,0,0,0]], [[3,0,0,0,0,0,0,0,1,0,0,0,0,0],[2,0,0,0,1,0,0,0,0,0,0,0,0,0],[0,1,1,0,0,-1,0,0,0,0,0,0,0,0]], 0],
    [[[2,1,1,0,0,0,-1,0,0,0,0,0,0,0]], [[3,0,0,0,0,0,0,0,1,0,0,0,0,0],[0,-1,-1,0,0,1,0,0,0,0,0,0,0,0],[2,0,0,0,1,0,0,0,0,0,0,0,0,0]], 1],
    [[[0,0,0,0,1,-1,1,0,0,0,0,0,0,0]], [[-2,0,0,0,-1,0,0,0,0,0,0,0,0,0],[0,1,1,0,0,-1,0,0,0,0,0,0,0,0],[1,0,0,0,-1,0,0,0,1,0,0,0,0,0]], 2],
    [[[-1,0,0,0,0,1,-1,0,-1,0,0,0,0,0]], [[-2,0,0,0,0,-1,1,0,0,0,0,0,0,0],[0,1,1,0,0,-1,0,0,0,0,0,0,0,0],[0,0,0,0,1,-1,1,0,0,0,0,0,0,0]], 3],
    [[[0,1,1,0,-1,0,-1,0,0,0,0,0,0,0]], [[-2,0,0,0,-1,0,0,0,0,0,0,0,0,0],[1,0,0,0,-1,0,0,0,1,0,0,0,0,0],[0,-1,-1,0,0,1,0,0,0,0,0,0,0,0]], 4],
    [[[-1,1,1,0,0,0,-1,0,-1,0,0,0,0,0]], [[-2,-1,-1,0,0,0,1,0,0,0,0,0,0,0],[0,-1,-1,0,0,1,0,0,0,0,0,0,0,0],[0,-1,-1,0,1,0,1,0,0,0,0,0,0,0]], 5]
  ]],
  ["#6",
    [[0,0,0,0,0],
     [0,0,0,0,0],
     [0,0,0,0,0],
     [0,0,0,0,0],
     [0,0,0,0,0]], [
    [[[1,0,0,0,0,0,0,1,0,0,0,0,1,0]], [[2,0,0,0,0,0,0,1,0,0,0,0,0,0],[3,0,0,0,0,0,0,1,0,0,0,1,0,0],[2,0,0,0,0,0,1,1,0,0,0,0,0,0],[4,0,1,0,0,0,0,1,0,0,0,0,0,0]], 0],
    [[[2,0,0,0,0,0,0,1,0,0,0,0,0,0]], [[-1,0,0,0,0,0,0,0,0,0,0,0,1,0],[1,0,0,0,0,0,0,0,0,0,0,1,0,0],[0,0,0,0,0,0,1,0,0,0,0,0,0,0],[2,0,1,0,0,0,0,0,0,0,0,0,0,0]], 1],
    [[[2,0,0,0,0,0,1,1,0,0,0,0,0,0]], [[0,0,0,0,0,0,-1,0,0,0,0,0,0,0],[-1,0,0,0,0,0,-1,0,0,0,0,0,1,0],[1,0,0,0,0,0,-1,0,0,0,0,1,0,0],[2,0,1,0,0,0,-1,0,0,0,0,0,0,0]], 2],
    [[[3,0,0,0,0,0,0,1,0,0,0,1,0,0]], [[2,0,0,0,0,0,0,1,0,0,0,0,0,0],[1,0,0,0,0,0,0,1,0,0,0,0,1,0],[2,0,0,0,0,0,1,1,0,0,0,0,0,0],[4,0,1,0,0,0,0,1,0,0,0,0,0,0]], 3],
    [[[4,0,1,0,0,0,0,1,0,0,0,0,0,0]], [[-2,0,-1,0,0,0,0,0,0,0,0,0,0,0],[-3,0,-1,0,0,0,0,0,0,0,0,0,1,0],[-1,0,-1,0,0,0,0,0,0,0,0,1,0,0],[-2,0,-1,0,0,0,1,0,0,0,0,0,0,0]], 4]
  ]],
  ["#7",
    [[0,0,0,0,0,0,1,1,1,1],
     [0,0,1,1,1,1,0,0,0,0],
     [0,1,0,0,0,0,0,1,1,1],
     [0,1,0,0,0,0,1,0,1,1],
     [0,1,0,0,0,0,1,1,0,1],
     [0,1,0,0,0,0,1,1,1,0],
     [1,0,0,1,1,1,0,0,0,0],
     [1,0,1,0,1,1,0,0,0,0],
     [1,0,1,1,0,1,0,0,0,0],
     [1,0,1,1,1,0,0,0,0,0]], [
    [[[0,0,0,0,1,0,0,-1,1,0,0,0,-1,0]], [[1,0,0,0,-1,0,0,0,-1,1,0,0,0,0],[1,0,0,0,-1,0,0,0,0,0,0,0,0,0],[2,0,0,0,-1,0,0,1,-1,0,0,1,0,0],[1,0,0,0,-1,0,1,1,-1,0,0,0,0,0],[3,0,1,0,-1,0,0,1,-1,0,0,0,0,0]], 0],
    [[[-1,0,0,0,0,0,0,1,-1,0,0,0,1,0]], [[0,0,0,0,0,0,0,0,-1,1,0,0,0,0],[1,0,0,0,0,0,0,1,-1,0,0,1,0,0],[0,0,0,0,0,0,1,1,-1,0,0,0,0,0],[-1,0,0,0,1,0,0,0,0,0,0,0,0,0],[2,0,1,0,0,0,0,1,-1,0,0,0,0,0]], 1],
    [[[-1,0,0,0,1,0,0,0,1,-1,0,0,0,0]], [[1,0,0,0,-1,0,0,0,0,0,0,0,0,0],[0,0,0,0,-1,0,0,1,-1,0,0,0,1,0],[2,0,0,0,-1,0,0,1,-1,0,0,1,0,0],[1,0,0,0,-1,0,1,1,-1,0,0,0,0,0],[3,0,1,0,-1,0,0,1,-1,0,0,0,0,0]], 2],
    [[[-1,0,0,0,1,0,-1,-1,1,0,0,0,0,0]], [[0,0,0,0,0,0,-1,-1,0,1,0,0,0,0],[1,0,0,0,-1,0,0,0,0,0,0,0,0,0],[-1,0,0,0,0,0,-1,0,0,0,0,0,1,0],[1,0,0,0,0,0,-1,0,0,0,0,1,0,0],[2,0,1,0,0,0,-1,0,0,0,0,0,0,0]], 3],
    [[[-2,0,0,0,1,0,0,-1,1,0,0,-1,0,0]], [[1,0,0,0,-1,0,0,0,-1,1,0,0,0,0],[1,0,0,0,-1,0,0,0,0,0,0,0,0,0],[0,0,0,0,-1,0,0,1,-1,0,0,0,1,0],[1,0,0,0,-1,0,1,1,-1,0,0,0,0,0],[3,0,1,0,-1,0,0,1,-1,0,0,0,0,0]], 4],
    [[[3,0,1,0,-1,0,0,1,-1,0,0,0,0,0]], [[-2,0,-1,0,0,0,0,-1,0,1,0,0,0,0],[1,0,0,0,-1,0,0,0,0,0,0,0,0,0],[-3,0,-1,0,0,0,0,0,0,0,0,0,1,0],[-1,0,-1,0,0,0,0,0,0,0,0,1,0,0],[-2,0,-1,0,0,0,1,0,0,0,0,0,0,0]], 5],
    [[[0,0,0,0,0,0,0,0,1,-1,0,0,0,0]], [[-1,0,0,0,0,0,0,1,-1,0,0,0,1,0],[1,0,0,0,0,0,0,1,-1,0,0,1,0,0],[0,0,0,0,0,0,1,1,-1,0,0,0,0,0],[-1,0,0,0,1,0,0,0,0,0,0,0,0,0],[2,0,1,0,0,0,0,1,-1,0,0,0,0,0]], 6],
    [[[0,0,0,0,0,0,1,1,-1,0,0,0,0,0]], [[0,0,0,0,0,0,-1,-1,0,1,0,0,0,0],[-1,0,0,0,0,0,-1,0,0,0,0,0,1,0],[1,0,0,0,0,0,-1,0,0,0,0,1,0,0],[-1,0,0,0,1,0,0,0,0,0,0,0,0,0],[2,0,1,0,0,0,-1,0,0,0,0,0,0,0]], 7],
    [[[1,0,0,0,0,0,0,1,-1,0,0,1,0,0]], [[0,0,0,0,0,0,0,0,-1,1,0,0,0,0],[-1,0,0,0,0,0,0,1,-1,0,0,0,1,0],[0,0,0,0,0,0,1,1,-1,0,0,0,0,0],[-1,0,0,0,1,0,0,0,0,0,0,0,0,0],[2,0,1,0,0,0,0,1,-1,0,0,0,0,0]], 8],
    [[[2,0,1,0,0,0,0,1,-1,0,0,0,0,0]], [[-2,0,-1,0,0,0,0,-1,0,1,0,0,0,0],[-3,0,-1,0,0,0,0,0,0,0,0,0,1,0],[-1,0,-1,0,0,0,0,0,0,0,0,1,0,0],[-2,0,-1,0,0,0,1,0,0,0,0,0,0,0],[-1,0,0,0,1,0,0,0,0,0,0,0,0,0]], 9]
  ]],
  ["#8",
    [[0]], [
    [[[-1,0,0,0,1,0,0,0,1,-1,0,0,0,0]], [], 0]
  ]],
  ["#9",
    [[0,0,0,1],
     [0,0,1,0],
     [0,1,0,0],
     [1,0,0,0]], [
    [[[2,0,0,0,0,0,0,0,0,0,1,0,0,-1]], [[0,0,0,0,1,0,0,0,0,0,-1,1,0,0],[0,1,0,0,0,0,0,0,0,0,0,0,0,0]], 0],
    [[[2,1,0,0,0,0,0,0,0,0,1,0,0,-1]], [[0,-1,0,0,0,0,0,0,0,0,0,0,0,0],[0,-1,0,0,1,0,0,0,0,0,-1,1,0,0]], 1],
    [[[0,0,0,0,1,0,0,0,0,0,-1,1,0,0]], [[-2,0,0,0,0,0,0,0,0,0,-1,0,0,1],[0,1,0,0,0,0,0,0,0,0,0,0,0,0]], 2],
    [[[0,1,0,0,-1,0,0,0,0,0,1,-1,0,0]], [[-2,-1,0,0,0,0,0,0,0,0,-1,0,0,1],[0,-1,0,0,0,0,0,0,0,0,0,0,0,0]], 3]
  ]],
  ["#10",
    [[0,0,0,0,0,1,1,1,1],
     [0,0,0,1,1,0,1,0,1],
     [0,0,0,1,1,1,0,1,0],
     [0,1,1,0,0,0,0,1,1],
     [0,1,1,0,0,1,1,0,0],
     [1,0,1,0,1,0,0,0,1],
     [1,1,0,0,1,0,0,1,0],
     [1,0,1,1,0,0,1,0,0],
     [1,1,0,1,0,1,0,0,0]], [
    [[[2,0,0,0,0,0,0,0,0,0,0,1,-1,0]], [[0,0,0,0,0,0,0,0,0,0,1,-1,0,0],[0,0,0,0,1,0,0,0,0,0,0,0,0,0],[1,0,1,0,0,0,0,0,1,0,0,-1,0,0],[0,1,0,0,0,0,0,0,0,0,0,0,0,0]], 0],
    [[[2,0,0,0,1,0,0,0,0,0,0,1,-1,0]], [[0,0,0,0,-1,0,0,0,0,0,0,0,0,0],[0,0,0,0,-1,0,0,0,0,0,1,-1,0,0],[1,0,1,0,-1,0,0,0,1,0,0,-1,0,0],[0,1,0,0,-1,0,0,0,0,0,0,0,0,0]], 1],
    [[[2,1,0,0,0,0,0,0,0,0,0,1,-1,0]], [[0,-1,0,0,0,0,0,0,0,0,0,0,0,0],[0,-1,0,0,0,0,0,0,0,0,1,-1,0,0],[0,-1,0,0,1,0,0,0,0,0,0,0,0,0],[1,-1,1,0,0,0,0,0,1,0,0,-1,0,0]], 2],
    [[[0,0,0,0,0,0,0,0,0,0,1,-1,0,0]], [[-2,0,0,0,0,0,0,0,0,0,-1,0,1,0],[0,0,0,0,1,0,0,0,0,0,0,0,0,0],[1,0,1,0,0,0,0,0,1,0,-1,0,0,0],[0,1,0,0,0,0,0,0,0,0,0,0,0,0]], 3],
    [[[1,0,1,0,0,0,0,0,1,0,0,-1,0,0]], [[-3,0,-1,0,0,0,0,0,-1,0,0,0,1,0],[-1,0,-1,0,0,0,0,0,-1,0,1,0,0,0],[0,0,0,0,1,0,0,0,0,0,0,0,0,0],[0,1,0,0,0,0,0,0,0,0,0,0,0,0]], 4],
    [[[0,0,0,0,1,0,0,0,0,0,-1,1,0,0]], [[-2,0,0,0,0,0,0,0,0,0,-1,0,1,0],[0,0,0,0,-1,0,0,0,0,0,0,0,0,0],[1,0,1,0,0,0,0,0,1,0,-1,0,0,0],[0,1,0,0,-1,0,0,0,0,0,0,0,0,0]], 5],
    [[[0,1,0,0,0,0,0,0,0,0,-1,1,0,0]], [[-2,0,0,0,0,0,0,0,0,0,-1,0,1,0],[0,-1,0,0,0,0,0,0,0,0,0,0,0,0],[0,-1,0,0,1,0,0,0,0,0,0,0,0,0],[1,0,1,0,0,0,0,0,1,0,-1,0,0,0]], 6],
    [[[1,0,1,0,-1,0,0,0,1,0,0,-1,0,0]], [[-3,0,-1,0,0,0,0,0,-1,0,0,0,1,0],[0,0,0,0,-1,0,0,0,0,0,0,0,0,0],[-1,0,-1,0,0,0,0,0,-1,0,1,0,0,0],[0,1,0,0,-1,0,0,0,0,0,0,0,0,0]], 7],
    [[[-1,1,-1,0,0,0,0,0,-1,0,0,1,0,0]], [[-3,0,-1,0,0,0,0,0,-1,0,0,0,1,0],[0,-1,0,0,0,0,0,0,0,0,0,0,0,0],[-1,0,-1,0,0,0,0,0,-1,0,1,0,0,0],[0,-1,0,0,1,0,0,0,0,0,0,0,0,0]], 8]
  ]],
  ["#11",
    [[0,0,0,0,1,1],
     [0,0,0,1,0,1],
     [0,0,0,1,1,0],
     [0,1,1,0,0,0],
     [1,0,1,0,0,0],
     [1,1,0,0,0,0]], [
    [[[-2,0,0,0,0,0,0,0,0,0,0,0,1,-1]], [[3,0,0,0,0,0,1,0,1,0,0,0,-1,0],[2,0,0,0,1,0,0,0,0,0,0,0,0,0],[2,1,0,0,0,0,0,0,0,0,0,1,-1,0]], 0],
    [[[2,1,0,0,0,0,0,0,0,0,0,1,-1,0]], [[0,-1,0,0,0,0,0,0,0,0,0,-1,0,1],[1,-1,0,0,0,0,1,0,1,0,0,-1,0,0],[2,0,0,0,1,0,0,0,0,0,0,0,0,0]], 1],
    [[[3,0,0,0,0,0,1,0,1,0,0,0,-1,0]], [[-1,0,0,0,0,0,-1,0,-1,0,0,0,0,1],[2,0,0,0,1,0,0,0,0,0,0,0,0,0],[-1,1,0,0,0,0,-1,0,-1,0,0,1,0,0]], 2],
    [[[0,0,0,0,1,0,0,0,0,0,0,0,1,-1]], [[-2,0,0,0,-1,0,0,0,0,0,0,0,0,0],[1,0,0,0,-1,0,1,0,1,0,0,0,-1,0],[0,1,0,0,-1,0,0,0,0,0,0,1,-1,0]], 3],
    [[[0,1,0,0,-1,0,0,0,0,0,0,1,-1,0]], [[0,-1,0,0,0,0,0,0,0,0,0,-1,0,1],[-2,0,0,0,-1,0,0,0,0,0,0,0,0,0],[1,-1,0,0,0,0,1,0,1,0,0,-1,0,0]], 4],
    [[[-1,0,0,0,1,0,-1,0,-1,0,0,0,1,0]], [[-1,0,0,0,0,0,-1,0,-1,0,0,0,0,1],[-2,0,0,0,-1,0,0,0,0,0,0,0,0,0],[-1,1,0,0,0,0,-1,0,-1,0,0,1,0,0]], 5]
  ]],
  ["#12",
    [[0,0],
     [0,0]], [
    [[[2,0,0,0,1,0,0,0,0,0,0,0,1,-1]], [[0,1,0,0,-1,0,0,0,0,0,1,0,-1,0]], 0],
    [[[2,1,0,0,0,0,0,0,0,0,1,0,0,-1]], [[0,-1,0,0,1,0,0,0,0,0,-1,0,1,0]], 1]
  ]]
]
