[
  ["x1","x2","x3","x4"],
  [
    [[[-6,1,0,0,0],-1],[[-2,1,1,0,0],-1],[[-1,0,0,0,1],1],[[1,1,0,0,1],-1],[[5,1,1,0,1],-1]],
    [[[-2,1,0,0,0],1],[[1,0,1,0,0],-1],[[2,1,0,1,0],1]],
    [[[-3,1,0,0,0],1],[[1,0,0,1,0],-1]],
    [[[-10,0,0,1,0],1],[[-8,0,0,0,1],-1],[[-5,0,0,0,1],-1],[[-3,0,0,1,1],1],[[-1,0,0,0,2],-1]],
    [[[0,0,0,0,0],0]]
  ]
]
