
----------------------------------------------------------------------
This is SMTcut v4.6.0 by Christoph Lueders -- http://wrogn.com
Python 3.7.7 (default, Mar 23 2020, 23:19:08) [MSC v.1916 64 bit (AMD64)]
pysmt 0.8.0, gmpy2 2.1.0a5
Datetime: 2020-04-09T18:58:19+02:00
Command line: BIOMD0000000032 --z3


Model: BIOMD0000000032
Logfile: db\BIOMD0000000032\ep11-z3-smtlog.txt
Loading polyhedra...  done.
Possible combinations: 10^20.6 in 44 bags
Bag sizes: 2 1 1 2 24 2 4 4 7 7 2 7 16 2 5 1 1 1 1 2 4 4 1 1 1 1 1 4 18 1 1 1 2 2 5 3 2 8 12 11 11 11 11 3

Minimizing (11,0)... (11,0)


Running SMT solver (1)... 0.031 sec
Checking... Minimizing (35,82)... (30,17), 0.125 sec
Inserting... 0.000 sec
[1 ph, mem 47/40, smt 0.031, isect 0.125, ins 0.000, tot 0.219]

Running SMT solver (2)... 0.016 sec
Checking... Minimizing (36,83)... (31,14), 0.125 sec
Inserting... 0.000 sec
[2 ph, mem 48/41, smt 0.047, isect 0.250, ins 0.000, tot 0.359]

Running SMT solver (3)... 0.016 sec
Checking... Minimizing (35,83)... (30,15), 0.109 sec
Inserting... 0.000 sec
[2 ph, mem 48/41, smt 0.062, isect 0.359, ins 0.000, tot 0.500]

Running SMT solver (4)... 0.000 sec
Checking... Minimizing (35,83)... (30,15), 0.125 sec
Inserting... 0.000 sec
[3 ph, mem 48/41, smt 0.062, isect 0.484, ins 0.000, tot 0.641]

Running SMT solver (5)... 0.016 sec
Checking... Minimizing (36,82)... (30,16), 0.125 sec
Inserting... 0.000 sec
[4 ph, mem 48/41, smt 0.078, isect 0.609, ins 0.000, tot 0.781]

Running SMT solver (6)... 0.016 sec
Checking... Minimizing (35,82)... (29,17), 0.125 sec
Inserting... 0.000 sec
[3 ph, mem 49/41, smt 0.094, isect 0.734, ins 0.000, tot 0.922]

Running SMT solver (7)... 0.016 sec
Checking... Minimizing (34,83)... (29,19), 0.125 sec
Inserting... 0.000 sec
[4 ph, mem 49/42, smt 0.109, isect 0.859, ins 0.000, tot 1.062]

Running SMT solver (8)... 0.016 sec
Checking... Minimizing (35,82)... (30,19), 0.125 sec
Inserting... 0.000 sec
[5 ph, mem 49/42, smt 0.125, isect 0.984, ins 0.000, tot 1.203]

Running SMT solver (9)... 0.016 sec
Checking... Minimizing (34,82)... (29,16), 0.125 sec
Inserting... 0.000 sec
[6 ph, mem 49/42, smt 0.141, isect 1.109, ins 0.000, tot 1.344]

Running SMT solver (10)... 0.000 sec
Checking... Minimizing (34,82)... (29,16), 0.109 sec
Inserting... 0.000 sec
[7 ph, mem 49/42, smt 0.141, isect 1.219, ins 0.000, tot 1.469]

Running SMT solver (11)... 0.016 sec
Checking... Minimizing (34,83)... (29,19), 0.125 sec
Inserting... 0.000 sec
[7 ph, mem 49/42, smt 0.156, isect 1.344, ins 0.000, tot 1.609]

Running SMT solver (12)... 0.016 sec
Checking... Minimizing (35,82)... (29,17), 0.125 sec
Inserting... 0.000 sec
[8 ph, mem 50/42, smt 0.172, isect 1.469, ins 0.000, tot 1.750]

Running SMT solver (13)... 0.000 sec
Checking... Minimizing (35,81)... (29,20), 0.125 sec
Inserting... 0.000 sec
[9 ph, mem 50/42, smt 0.172, isect 1.594, ins 0.000, tot 1.891]

Running SMT solver (14)... 0.016 sec
Checking... Minimizing (35,81)... (29,20), 0.125 sec
Inserting... 0.016 sec
[10 ph, mem 50/42, smt 0.188, isect 1.719, ins 0.016, tot 2.047]

Running SMT solver (15)... 0.000 sec
Checking... Minimizing (35,82)... (30,19), 0.109 sec
Inserting... 0.000 sec
[11 ph, mem 50/42, smt 0.188, isect 1.828, ins 0.016, tot 2.188]

Running SMT solver (16)... 0.000 sec
Checking... Minimizing (34,82)... (29,22), 0.109 sec
Inserting... 0.031 sec
[11 ph, mem 50/43, smt 0.188, isect 1.938, ins 0.047, tot 2.344]

Running SMT solver (17)... 0.000 sec
Checking... Minimizing (34,82)... (29,22), 0.109 sec
Inserting... 0.016 sec
[11 ph, mem 50/43, smt 0.188, isect 2.047, ins 0.062, tot 2.500]

Running SMT solver (18)... 0.000 sec
Checking... Minimizing (33,77)... (29,19), 0.109 sec
Inserting... 0.000 sec
[12 ph, mem 50/43, smt 0.188, isect 2.156, ins 0.062, tot 2.625]

Running SMT solver (19)... 0.016 sec
Checking... Minimizing (34,82)... (29,21), 0.109 sec
Inserting... 0.016 sec
[13 ph, mem 50/43, smt 0.203, isect 2.266, ins 0.078, tot 2.781]

Running SMT solver (20)... 0.000 sec
Checking... Minimizing (35,81)... (29,19), 0.125 sec
Inserting... 0.016 sec
[14 ph, mem 50/43, smt 0.203, isect 2.391, ins 0.094, tot 2.938]

Running SMT solver (21)... 0.000 sec
Checking... Minimizing (34,76)... (29,17), 0.109 sec
Inserting... 0.000 sec
[15 ph, mem 50/43, smt 0.203, isect 2.500, ins 0.094, tot 3.062]

Running SMT solver (22)... 0.000 sec
Checking... Minimizing (35,81)... (29,19), 0.125 sec
Inserting... 0.016 sec
[16 ph, mem 50/43, smt 0.203, isect 2.625, ins 0.109, tot 3.219]

Running SMT solver (23)... 0.000 sec
Checking... Minimizing (34,76)... (29,17), 0.109 sec
Inserting... 0.000 sec
[17 ph, mem 50/43, smt 0.203, isect 2.734, ins 0.109, tot 3.359]

Running SMT solver (24)... 0.000 sec
Checking... Minimizing (34,82)... (29,21), 0.109 sec
Inserting... 0.031 sec
[18 ph, mem 51/43, smt 0.203, isect 2.844, ins 0.141, tot 3.516]

Running SMT solver (25)... 0.000 sec
Checking... Minimizing (35,82)... (29,15), 0.109 sec
Inserting... 0.016 sec
[19 ph, mem 51/43, smt 0.203, isect 2.953, ins 0.156, tot 3.656]

Running SMT solver (26)... 0.000 sec
Checking... Minimizing (34,77)... (29,13), 0.109 sec
Inserting... 0.000 sec
[20 ph, mem 51/43, smt 0.203, isect 3.062, ins 0.156, tot 3.781]

Running SMT solver (27)... 0.000 sec
Checking... Minimizing (34,77)... (29,13), 0.109 sec
Inserting... 0.000 sec
[21 ph, mem 51/44, smt 0.203, isect 3.172, ins 0.156, tot 3.906]

Running SMT solver (28)... 0.000 sec
Checking... Minimizing (35,82)... (29,15), 0.125 sec
Inserting... 0.000 sec
[22 ph, mem 51/44, smt 0.203, isect 3.297, ins 0.156, tot 4.047]

Running SMT solver (29)... 0.000 sec
Checking... Minimizing (33,78)... (29,15), 0.109 sec
Inserting... 0.000 sec
[23 ph, mem 52/44, smt 0.203, isect 3.406, ins 0.156, tot 4.172]

Running SMT solver (30)... 0.016 sec
Checking... Minimizing (34,83)... (29,17), 0.109 sec
Inserting... 0.016 sec
[24 ph, mem 52/44, smt 0.219, isect 3.516, ins 0.172, tot 4.328]

Running SMT solver (31)... 0.000 sec
Checking... Minimizing (33,78)... (29,15), 0.109 sec
Inserting... 0.000 sec
[25 ph, mem 52/44, smt 0.219, isect 3.625, ins 0.172, tot 4.453]

Running SMT solver (32)... 0.000 sec
Checking... Minimizing (34,83)... (29,17), 0.125 sec
Inserting... 0.000 sec
[26 ph, mem 52/44, smt 0.219, isect 3.750, ins 0.172, tot 4.594]

Running SMT solver (33)... 0.000 sec
Checking... Minimizing (33,77)... (29,19), 0.109 sec
Inserting... 0.016 sec
[27 ph, mem 52/44, smt 0.219, isect 3.859, ins 0.188, tot 4.734]

Running SMT solver (34)... 0.000 sec
Checking... Minimizing (33,77)... (29,13), 0.109 sec
Inserting... 0.000 sec
[28 ph, mem 52/44, smt 0.219, isect 3.969, ins 0.188, tot 4.859]

Running SMT solver (35)... 0.000 sec
Checking... Minimizing (34,82)... (29,15), 0.109 sec
Inserting... 0.000 sec
[29 ph, mem 52/44, smt 0.219, isect 4.078, ins 0.188, tot 5.016]

Running SMT solver (36)... 0.000 sec
Checking... Minimizing (33,77)... (29,13), 0.094 sec
Inserting... 0.016 sec
[30 ph, mem 52/44, smt 0.219, isect 4.172, ins 0.203, tot 5.141]

Running SMT solver (37)... 0.000 sec
Checking... Minimizing (34,82)... (29,15), 0.125 sec
Inserting... 0.000 sec
[31 ph, mem 52/44, smt 0.219, isect 4.297, ins 0.203, tot 5.281]

Running SMT solver (38)... 0.016 sec
Checking... Minimizing (33,77)... (29,16), 0.125 sec
Inserting... 0.000 sec
[32 ph, mem 52/44, smt 0.234, isect 4.422, ins 0.203, tot 5.422]

Running SMT solver (39)... 0.000 sec
Checking... Minimizing (33,77)... (29,15), 0.109 sec
Inserting... 0.000 sec
[32 ph, mem 52/45, smt 0.234, isect 4.531, ins 0.203, tot 5.562]

Running SMT solver (40)... 0.000 sec
Checking... Minimizing (33,77)... (29,16), 0.109 sec
Inserting... 0.000 sec
[33 ph, mem 52/45, smt 0.234, isect 4.641, ins 0.203, tot 5.688]

Running SMT solver (41)... 0.016 sec
Checking... Minimizing (33,77)... (29,15), 0.109 sec
Inserting... 0.016 sec
[33 ph, mem 52/45, smt 0.250, isect 4.750, ins 0.219, tot 5.828]

Running SMT solver (42)... 0.000 sec
Checking... Minimizing (34,77)... (29,15), 0.109 sec
Inserting... 0.000 sec
[34 ph, mem 52/45, smt 0.250, isect 4.859, ins 0.219, tot 5.953]

Running SMT solver (43)... 0.000 sec
Checking... Minimizing (33,78)... (29,17), 0.109 sec
Inserting... 0.016 sec
[35 ph, mem 52/45, smt 0.250, isect 4.969, ins 0.234, tot 6.094]

Running SMT solver (44)... 0.000 sec
Checking... Minimizing (34,77)... (29,15), 0.109 sec
Inserting... 0.000 sec
[36 ph, mem 52/45, smt 0.250, isect 5.078, ins 0.234, tot 6.219]

Running SMT solver (45)... 0.000 sec
Checking... Minimizing (33,78)... (29,17), 0.109 sec
Inserting... 0.016 sec
[37 ph, mem 52/45, smt 0.250, isect 5.188, ins 0.250, tot 6.359]

Running SMT solver (46)... 0.000 sec
Checking... Minimizing (34,76)... (29,19), 0.109 sec
Inserting... 0.000 sec
[38 ph, mem 52/45, smt 0.250, isect 5.297, ins 0.250, tot 6.516]

Running SMT solver (47)... 0.000 sec
Checking... Minimizing (33,77)... (29,21), 0.109 sec
Inserting... 0.000 sec
[39 ph, mem 52/45, smt 0.250, isect 5.406, ins 0.250, tot 6.641]

Running SMT solver (48)... 0.016 sec
Checking... Minimizing (34,76)... (29,19), 0.125 sec
Inserting... 0.000 sec
[40 ph, mem 52/45, smt 0.266, isect 5.531, ins 0.250, tot 6.781]

Running SMT solver (49)... 0.000 sec
Checking... Minimizing (33,77)... (29,21), 0.109 sec
Inserting... 0.016 sec
[41 ph, mem 52/45, smt 0.266, isect 5.641, ins 0.266, tot 6.922]

Running SMT solver (50)... 0.000 sec
Checking... Minimizing (35,82)... (31,9), 0.109 sec
Inserting... 0.016 sec
[42 ph, mem 52/45, smt 0.266, isect 5.750, ins 0.281, tot 7.062]

Running SMT solver (51)... 0.000 sec
Checking... Minimizing (35,82)... (30,12), 0.109 sec
Inserting... 0.000 sec
[42 ph, mem 52/45, smt 0.266, isect 5.859, ins 0.281, tot 7.188]

Running SMT solver (52)... 0.000 sec
Checking... Minimizing (35,82)... (30,12), 0.125 sec
Inserting... 0.000 sec
[43 ph, mem 52/45, smt 0.266, isect 5.984, ins 0.281, tot 7.312]

Running SMT solver (53)... 0.000 sec
Checking... Minimizing (34,82)... (29,19), 0.125 sec
Inserting... 0.000 sec
[44 ph, mem 52/45, smt 0.266, isect 6.109, ins 0.281, tot 7.453]

Running SMT solver (54)... 0.000 sec
Checking... Minimizing (35,81)... (29,17), 0.125 sec
Inserting... 0.000 sec
[45 ph, mem 52/45, smt 0.266, isect 6.234, ins 0.281, tot 7.594]

Running SMT solver (55)... 0.000 sec
Checking... Minimizing (33,77)... (29,20), 0.125 sec
Inserting... 0.000 sec
[46 ph, mem 52/45, smt 0.266, isect 6.359, ins 0.281, tot 7.734]

Running SMT solver (56)... 0.000 sec
Checking... Minimizing (33,77)... (29,19), 0.109 sec
Inserting... 0.000 sec
[46 ph, mem 52/45, smt 0.266, isect 6.469, ins 0.281, tot 7.859]

Running SMT solver (57)... 0.000 sec
Checking... Minimizing (34,76)... (29,17), 0.094 sec
Inserting... 0.016 sec
[47 ph, mem 52/45, smt 0.266, isect 6.562, ins 0.297, tot 8.000]

Running SMT solver (58)... 0.000 sec
Checking... Minimizing (34,76)... (29,15), 0.109 sec
Inserting... 0.000 sec
[48 ph, mem 52/45, smt 0.266, isect 6.672, ins 0.297, tot 8.125]

Running SMT solver (59)... 0.000 sec
Checking... Minimizing (33,77)... (29,17), 0.109 sec
Inserting... 0.000 sec
[49 ph, mem 52/45, smt 0.266, isect 6.781, ins 0.297, tot 8.266]

Running SMT solver (60)... 0.000 sec
Checking... Minimizing (35,81)... (29,17), 0.125 sec
Inserting... 0.000 sec
[50 ph, mem 52/45, smt 0.266, isect 6.906, ins 0.297, tot 8.406]

Running SMT solver (61)... 0.000 sec
Checking... Minimizing (34,82)... (29,19), 0.125 sec
Inserting... 0.000 sec
[51 ph, mem 52/45, smt 0.266, isect 7.031, ins 0.297, tot 8.547]

Running SMT solver (62)... 0.016 sec
Checking... Minimizing (34,76)... (29,16), 0.109 sec
Inserting... 0.016 sec
[52 ph, mem 52/45, smt 0.281, isect 7.141, ins 0.312, tot 8.688]

Running SMT solver (63)... 0.000 sec
Checking... Minimizing (34,76)... (29,15), 0.109 sec
Inserting... 0.000 sec
[52 ph, mem 52/45, smt 0.281, isect 7.250, ins 0.312, tot 8.812]

Running SMT solver (64)... 0.016 sec
Checking... Minimizing (33,77)... (29,17), 0.109 sec
Inserting... 0.016 sec
[53 ph, mem 52/45, smt 0.297, isect 7.359, ins 0.328, tot 8.953]

Running SMT solver (65)... 0.000 sec
Checking... Minimizing (34,76)... (29,17), 0.109 sec
Inserting... 0.000 sec
[54 ph, mem 53/45, smt 0.297, isect 7.469, ins 0.328, tot 9.078]

Running SMT solver (66)... 0.016 sec
Checking... Minimizing (33,77)... (29,19), 0.109 sec
Inserting... 0.000 sec
[55 ph, mem 53/45, smt 0.312, isect 7.578, ins 0.328, tot 9.219]

Running SMT solver (67)... 0.016 sec
Checking... Minimizing (35,77)... (30,12), 0.109 sec
Inserting... 0.000 sec
[56 ph, mem 53/45, smt 0.328, isect 7.688, ins 0.328, tot 9.359]

Running SMT solver (68)... 0.000 sec
Checking... Minimizing (35,77)... (30,12), 0.094 sec
Inserting... 0.016 sec
[57 ph, mem 53/45, smt 0.328, isect 7.781, ins 0.344, tot 9.484]

Running SMT solver (69)... 0.000 sec
Checking... Minimizing (34,87)... (30,11), 0.109 sec
Inserting... 0.016 sec
[58 ph, mem 53/45, smt 0.328, isect 7.891, ins 0.359, tot 9.625]

Running SMT solver (70)... 0.000 sec
Checking... Minimizing (33,87)... (29,18), 0.109 sec
Inserting... 0.016 sec
[58 ph, mem 54/47, smt 0.328, isect 8.000, ins 0.375, tot 9.766]

Running SMT solver (71)... 0.000 sec
Checking... Minimizing (33,87)... (29,18), 0.109 sec
Inserting... 0.016 sec
[59 ph, mem 54/47, smt 0.328, isect 8.109, ins 0.391, tot 9.922]

Running SMT solver (72)... 0.000 sec
Checking... Minimizing (33,88)... (29,21), 0.125 sec
Inserting... 0.000 sec
[60 ph, mem 54/47, smt 0.328, isect 8.234, ins 0.391, tot 10.062]

Running SMT solver (73)... 0.000 sec
Checking... Minimizing (34,87)... (29,17), 0.125 sec
Inserting... 0.000 sec
[61 ph, mem 54/47, smt 0.328, isect 8.359, ins 0.391, tot 10.203]

Running SMT solver (74)... 0.016 sec
Checking... Minimizing (34,87)... (29,17), 0.125 sec
Inserting... 0.016 sec
[62 ph, mem 54/47, smt 0.344, isect 8.484, ins 0.406, tot 10.359]

Running SMT solver (75)... 0.000 sec
Checking... Minimizing (33,88)... (29,21), 0.125 sec
Inserting... 0.000 sec
[63 ph, mem 54/47, smt 0.344, isect 8.609, ins 0.406, tot 10.500]

Running SMT solver (76)... 0.000 sec
Checking... Minimizing (34,82)... (29,18), 0.125 sec
Inserting... 0.000 sec
[64 ph, mem 54/47, smt 0.344, isect 8.734, ins 0.406, tot 10.641]

Running SMT solver (77)... 0.000 sec
Checking... Minimizing (34,83)... (29,21), 0.125 sec
Inserting... 0.000 sec
[65 ph, mem 54/47, smt 0.344, isect 8.859, ins 0.406, tot 10.781]

Running SMT solver (78)... 0.000 sec
Checking... Minimizing (35,82)... (29,17), 0.109 sec
Inserting... 0.016 sec
[66 ph, mem 54/47, smt 0.344, isect 8.969, ins 0.422, tot 10.922]

Running SMT solver (79)... 0.000 sec
Checking... Minimizing (35,82)... (29,17), 0.109 sec
Inserting... 0.016 sec
[67 ph, mem 54/47, smt 0.344, isect 9.078, ins 0.438, tot 11.062]

Running SMT solver (80)... 0.000 sec
Checking... Minimizing (34,83)... (29,21), 0.109 sec
Inserting... 0.016 sec
[68 ph, mem 55/47, smt 0.344, isect 9.188, ins 0.453, tot 11.203]

Running SMT solver (81)... 0.000 sec
Checking... Minimizing (34,82)... (29,18), 0.109 sec
Inserting... 0.016 sec
[69 ph, mem 55/47, smt 0.344, isect 9.297, ins 0.469, tot 11.344]

Running SMT solver (82)... 0.000 sec
Checking... Minimizing (34,87)... (30,12), 0.125 sec
Inserting... 0.000 sec
[70 ph, mem 55/47, smt 0.344, isect 9.422, ins 0.469, tot 11.484]

Running SMT solver (83)... 0.000 sec
Checking... Minimizing (33,87)... (29,21), 0.125 sec
Inserting... 0.000 sec
[71 ph, mem 55/47, smt 0.344, isect 9.547, ins 0.469, tot 11.641]

Running SMT solver (84)... 0.000 sec
Checking... Minimizing (33,87)... (29,22), 0.109 sec
Inserting... 0.016 sec
[72 ph, mem 55/47, smt 0.344, isect 9.656, ins 0.484, tot 11.781]

Running SMT solver (85)... 0.000 sec
Checking... Minimizing (34,82)... (29,20), 0.109 sec
Inserting... 0.016 sec
[73 ph, mem 55/47, smt 0.344, isect 9.766, ins 0.500, tot 11.922]

Running SMT solver (86)... 0.000 sec
Checking... Minimizing (34,82)... (29,20), 0.125 sec
Inserting... 0.000 sec
[73 ph, mem 55/48, smt 0.344, isect 9.891, ins 0.500, tot 12.062]

Running SMT solver (87)... 0.016 sec
Checking... Minimizing (35,81)... (29,18), 0.125 sec
Inserting... 0.016 sec
[74 ph, mem 55/48, smt 0.359, isect 10.016, ins 0.516, tot 12.219]

Running SMT solver (88)... 0.000 sec
Checking... Minimizing (34,86)... (29,19), 0.125 sec
Inserting... 0.000 sec
[75 ph, mem 55/48, smt 0.359, isect 10.141, ins 0.516, tot 12.359]

Running SMT solver (89)... 0.016 sec
Checking... Minimizing (34,86)... (29,18), 0.125 sec
Inserting... 0.000 sec
[76 ph, mem 55/48, smt 0.375, isect 10.266, ins 0.516, tot 12.500]

Running SMT solver (90)... 0.000 sec
Checking... Minimizing (35,81)... (29,19), 0.125 sec
Inserting... 0.000 sec
[77 ph, mem 55/48, smt 0.375, isect 10.391, ins 0.516, tot 12.656]

Running SMT solver (91)... 0.000 sec
Checking... Minimizing (35,81)... (29,20), 0.109 sec
Inserting... 0.016 sec
[78 ph, mem 55/48, smt 0.375, isect 10.500, ins 0.531, tot 12.797]

Running SMT solver (92)... 0.000 sec
Checking... Minimizing (34,86)... (29,20), 0.125 sec
Inserting... 0.000 sec
[79 ph, mem 55/48, smt 0.375, isect 10.625, ins 0.531, tot 12.938]

Running SMT solver (93)... 0.016 sec
Checking... Minimizing (34,86)... (29,20), 0.109 sec
Inserting... 0.016 sec
[80 ph, mem 55/48, smt 0.391, isect 10.734, ins 0.547, tot 13.094]

Running SMT solver (94)... 0.000 sec
Checking... Minimizing (35,81)... (29,20), 0.109 sec
Inserting... 0.016 sec
[81 ph, mem 55/48, smt 0.391, isect 10.844, ins 0.562, tot 13.234]

Running SMT solver (95)... 0.000 sec
Checking... Minimizing (34,82)... (29,23), 0.125 sec
Inserting... 0.000 sec
[82 ph, mem 55/48, smt 0.391, isect 10.969, ins 0.562, tot 13.375]

Running SMT solver (96)... 0.000 sec
Checking... Minimizing (34,82)... (29,22), 0.125 sec
Inserting... 0.000 sec
[83 ph, mem 55/48, smt 0.391, isect 11.094, ins 0.562, tot 13.516]

Running SMT solver (97)... 0.016 sec
Checking... Minimizing (33,87)... (29,24), 0.141 sec
Inserting... 0.000 sec
[84 ph, mem 55/48, smt 0.406, isect 11.234, ins 0.562, tot 13.672]

Running SMT solver (98)... 0.000 sec
Checking... Minimizing (33,87)... (29,23), 0.125 sec
Inserting... 0.016 sec
[85 ph, mem 55/48, smt 0.406, isect 11.359, ins 0.578, tot 13.828]

Running SMT solver (99)... 0.000 sec
Checking... Minimizing (34,87)... (30,12), 0.109 sec
Inserting... 0.016 sec
[86 ph, mem 55/48, smt 0.406, isect 11.469, ins 0.594, tot 13.969]

Running SMT solver (100)... 0.000 sec
Checking... Minimizing (34,82)... (29,20), 0.109 sec
Inserting... 0.016 sec
[87 ph, mem 55/48, smt 0.406, isect 11.578, ins 0.609, tot 14.109]

Running SMT solver (101)... 0.000 sec
Checking... Minimizing (35,81)... (29,18), 0.109 sec
Inserting... 0.016 sec
[88 ph, mem 55/48, smt 0.406, isect 11.688, ins 0.625, tot 14.250]

Running SMT solver (102)... 0.000 sec
Checking... Minimizing (34,82)... (29,20), 0.109 sec
Inserting... 0.016 sec
[89 ph, mem 56/48, smt 0.406, isect 11.797, ins 0.641, tot 14.391]

Running SMT solver (103)... 0.000 sec
Checking... Minimizing (35,81)... (29,19), 0.125 sec
Inserting... 0.000 sec
[90 ph, mem 56/48, smt 0.406, isect 11.922, ins 0.641, tot 14.531]

Running SMT solver (104)... 0.000 sec
Checking... Minimizing (33,87)... (29,22), 0.141 sec
Inserting... 0.016 sec
[91 ph, mem 56/48, smt 0.406, isect 12.062, ins 0.656, tot 14.719]

Running SMT solver (105)... 0.000 sec
Checking... Minimizing (33,87)... (29,21), 0.109 sec
Inserting... 0.016 sec
[92 ph, mem 56/48, smt 0.406, isect 12.172, ins 0.672, tot 14.859]

Running SMT solver (106)... 0.000 sec
Checking... Minimizing (34,86)... (29,19), 0.125 sec
Inserting... 0.000 sec
[93 ph, mem 56/48, smt 0.406, isect 12.297, ins 0.672, tot 15.000]

Running SMT solver (107)... 0.016 sec
Checking... Minimizing (34,86)... (29,18), 0.125 sec
Inserting... 0.016 sec
[94 ph, mem 56/48, smt 0.422, isect 12.422, ins 0.688, tot 15.156]

Running SMT solver (108)... 0.000 sec
Checking... Minimizing (34,82)... (29,23), 0.109 sec
Inserting... 0.016 sec
[95 ph, mem 56/48, smt 0.422, isect 12.531, ins 0.703, tot 15.297]

Running SMT solver (109)... 0.000 sec
Checking... Minimizing (34,82)... (29,22), 0.125 sec
Inserting... 0.000 sec
[96 ph, mem 56/48, smt 0.422, isect 12.656, ins 0.703, tot 15.453]

Running SMT solver (110)... 0.000 sec
Checking... Minimizing (35,81)... (29,20), 0.109 sec
Inserting... 0.016 sec
[97 ph, mem 56/48, smt 0.422, isect 12.766, ins 0.719, tot 15.594]

Running SMT solver (111)... 0.000 sec
Checking... Minimizing (35,81)... (29,20), 0.109 sec
Inserting... 0.016 sec
[98 ph, mem 56/48, smt 0.422, isect 12.875, ins 0.734, tot 15.734]

Running SMT solver (112)... 0.000 sec
Checking... Minimizing (33,87)... (29,24), 0.125 sec
Inserting... 0.016 sec
[99 ph, mem 56/48, smt 0.422, isect 13.000, ins 0.750, tot 15.891]

Running SMT solver (113)... 0.000 sec
Checking... Minimizing (33,87)... (29,23), 0.125 sec
Inserting... 0.000 sec
[100 ph, mem 56/48, smt 0.422, isect 13.125, ins 0.750, tot 16.031]

Running SMT solver (114)... 0.000 sec
Checking... Minimizing (34,86)... (29,20), 0.125 sec
Inserting... 0.016 sec
[101 ph, mem 56/48, smt 0.422, isect 13.250, ins 0.766, tot 16.188]

Running SMT solver (115)... 0.000 sec
Checking... Minimizing (34,86)... (29,20), 0.125 sec
Inserting... 0.000 sec
[102 ph, mem 56/48, smt 0.422, isect 13.375, ins 0.766, tot 16.344]

Running SMT solver (116)... 0.000 sec
Checking... Minimizing (32,76)... (28,19), 0.109 sec
Inserting... 0.000 sec
[103 ph, mem 56/48, smt 0.422, isect 13.484, ins 0.766, tot 16.469]

Running SMT solver (117)... 0.016 sec
Checking... Minimizing (32,76)... (28,19), 0.094 sec
Inserting... 0.016 sec
[104 ph, mem 56/48, smt 0.438, isect 13.578, ins 0.781, tot 16.609]

Running SMT solver (118)... 0.000 sec
Checking... Minimizing (33,76)... (28,21), 0.109 sec
Inserting... 0.016 sec
[105 ph, mem 56/48, smt 0.438, isect 13.688, ins 0.797, tot 16.750]

Running SMT solver (119)... 0.000 sec
Checking... Minimizing (32,77)... (28,23), 0.109 sec
Inserting... 0.000 sec
[106 ph, mem 56/48, smt 0.438, isect 13.797, ins 0.797, tot 16.875]

Running SMT solver (120)... 0.016 sec
Checking... Minimizing (33,76)... (28,21), 0.109 sec
Inserting... 0.000 sec
[107 ph, mem 56/48, smt 0.453, isect 13.906, ins 0.797, tot 17.016]

Running SMT solver (121)... 0.016 sec
Checking... Minimizing (32,77)... (28,23), 0.109 sec
Inserting... 0.016 sec
[108 ph, mem 56/48, smt 0.469, isect 14.016, ins 0.812, tot 17.156]

Running SMT solver (122)... 0.000 sec
Checking... Minimizing (33,75)... (28,21), 0.109 sec
Inserting... 0.016 sec
[109 ph, mem 56/48, smt 0.469, isect 14.125, ins 0.828, tot 17.297]

Running SMT solver (123)... 0.000 sec
Checking... Minimizing (32,76)... (28,22), 0.109 sec
Inserting... 0.000 sec
[110 ph, mem 56/48, smt 0.469, isect 14.234, ins 0.828, tot 17.422]

Running SMT solver (124)... 0.000 sec
Checking... Minimizing (33,75)... (28,22), 0.109 sec
Inserting... 0.016 sec
[111 ph, mem 56/48, smt 0.469, isect 14.344, ins 0.844, tot 17.562]

Running SMT solver (125)... 0.000 sec
Checking... Minimizing (33,75)... (28,22), 0.125 sec
Inserting... 0.000 sec
[112 ph, mem 56/48, smt 0.469, isect 14.469, ins 0.844, tot 17.703]

Running SMT solver (126)... 0.000 sec
Checking... Minimizing (33,75)... (28,22), 0.109 sec
Inserting... 0.016 sec
[113 ph, mem 56/48, smt 0.469, isect 14.578, ins 0.859, tot 17.844]

Running SMT solver (127)... 0.000 sec
Checking... Minimizing (33,75)... (28,24), 0.109 sec
Inserting... 0.016 sec
[114 ph, mem 55/48, smt 0.469, isect 14.688, ins 0.875, tot 17.984]

Running SMT solver (128)... 0.000 sec
Checking... Minimizing (33,75)... (28,22), 0.109 sec
Inserting... 0.016 sec
[115 ph, mem 56/49, smt 0.469, isect 14.797, ins 0.891, tot 18.125]

Running SMT solver (129)... 0.000 sec
Checking... Minimizing (33,75)... (28,24), 0.109 sec
Inserting... 0.016 sec
[116 ph, mem 55/48, smt 0.469, isect 14.906, ins 0.906, tot 18.266]

Running SMT solver (130)... 0.000 sec
Checking... Minimizing (33,77)... (28,22), 0.109 sec
Inserting... 0.016 sec
[117 ph, mem 55/48, smt 0.469, isect 15.016, ins 0.922, tot 18.406]

Running SMT solver (131)... 0.000 sec
Checking... Minimizing (33,77)... (28,21), 0.109 sec
Inserting... 0.016 sec
[118 ph, mem 55/48, smt 0.469, isect 15.125, ins 0.938, tot 18.547]

Running SMT solver (132)... 0.000 sec
Checking... Minimizing (33,77)... (28,22), 0.109 sec
Inserting... 0.016 sec
[119 ph, mem 55/48, smt 0.469, isect 15.234, ins 0.953, tot 18.688]

Running SMT solver (133)... 0.000 sec
Checking... Minimizing (33,77)... (28,21), 0.109 sec
Inserting... 0.016 sec
[120 ph, mem 55/48, smt 0.469, isect 15.344, ins 0.969, tot 18.828]

Running SMT solver (134)... 0.000 sec
Checking... Minimizing (33,76)... (28,24), 0.109 sec
Inserting... 0.016 sec
[121 ph, mem 56/48, smt 0.469, isect 15.453, ins 0.984, tot 18.969]

Running SMT solver (135)... 0.000 sec
Checking... Minimizing (33,76)... (28,24), 0.109 sec
Inserting... 0.016 sec
[122 ph, mem 56/49, smt 0.469, isect 15.562, ins 1.000, tot 19.109]

Running SMT solver (136)... 0.000 sec
Checking... Minimizing (33,76)... (28,24), 0.125 sec
Inserting... 0.000 sec
[123 ph, mem 56/48, smt 0.469, isect 15.688, ins 1.000, tot 19.250]

Running SMT solver (137)... 0.000 sec
Checking... Minimizing (33,76)... (28,24), 0.109 sec
Inserting... 0.000 sec
[124 ph, mem 56/49, smt 0.469, isect 15.797, ins 1.000, tot 19.391]

Running SMT solver (138)... 0.016 sec
Checking... Minimizing (33,76)... (28,23), 0.109 sec
Inserting... 0.000 sec
[125 ph, mem 56/48, smt 0.484, isect 15.906, ins 1.000, tot 19.531]

Running SMT solver (139)... 0.016 sec
Checking... Minimizing (33,76)... (28,23), 0.125 sec
Inserting... 0.000 sec
[126 ph, mem 56/48, smt 0.500, isect 16.031, ins 1.000, tot 19.672]

Running SMT solver (140)... 0.000 sec
Checking... Minimizing (32,76)... (28,27), 0.125 sec
Inserting... 0.000 sec
[127 ph, mem 56/49, smt 0.500, isect 16.156, ins 1.000, tot 19.812]

Running SMT solver (141)... 0.016 sec
Checking... Minimizing (32,76)... (28,27), 0.125 sec
Inserting... 0.016 sec
[128 ph, mem 56/49, smt 0.516, isect 16.281, ins 1.016, tot 19.969]

Running SMT solver (142)... 0.000 sec
Checking... Minimizing (32,76)... (28,27), 0.109 sec
Inserting... 0.016 sec
[129 ph, mem 56/49, smt 0.516, isect 16.391, ins 1.031, tot 20.109]

Running SMT solver (143)... 0.000 sec
Checking... Minimizing (32,76)... (28,27), 0.109 sec
Inserting... 0.016 sec
[130 ph, mem 56/49, smt 0.516, isect 16.500, ins 1.047, tot 20.250]

Running SMT solver (144)... 0.000 sec
Checking... Minimizing (32,77)... (28,25), 0.109 sec
Inserting... 0.016 sec
[131 ph, mem 56/49, smt 0.516, isect 16.609, ins 1.062, tot 20.391]

Running SMT solver (145)... 0.000 sec
Checking... Minimizing (32,77)... (28,25), 0.109 sec
Inserting... 0.016 sec
[132 ph, mem 57/50, smt 0.516, isect 16.719, ins 1.078, tot 20.531]

Running SMT solver (146)... 0.000 sec
Checking... Minimizing (32,77)... (28,25), 0.109 sec
Inserting... 0.016 sec
[133 ph, mem 57/50, smt 0.516, isect 16.828, ins 1.094, tot 20.672]

Running SMT solver (147)... 0.016 sec
Checking... Minimizing (32,77)... (28,25), 0.109 sec
Inserting... 0.016 sec
[134 ph, mem 58/50, smt 0.531, isect 16.938, ins 1.109, tot 20.828]

Running SMT solver (148)... 0.000 sec
Checking... Minimizing (32,78)... (28,19), 0.109 sec
Inserting... 0.000 sec
[135 ph, mem 58/50, smt 0.531, isect 17.047, ins 1.109, tot 20.969]

Running SMT solver (149)... 0.000 sec
Checking... Minimizing (32,78)... (28,24), 0.109 sec
Inserting... 0.000 sec
[136 ph, mem 58/50, smt 0.531, isect 17.156, ins 1.109, tot 21.109]

Running SMT solver (150)... 0.000 sec
Checking... Minimizing (32,77)... (28,21), 0.109 sec
Inserting... 0.016 sec
[137 ph, mem 58/50, smt 0.531, isect 17.266, ins 1.125, tot 21.250]

Running SMT solver (151)... 0.000 sec
Checking... Minimizing (32,77)... (28,24), 0.109 sec
Inserting... 0.016 sec
[138 ph, mem 58/51, smt 0.531, isect 17.375, ins 1.141, tot 21.391]

Running SMT solver (152)... 0.000 sec
Checking... Minimizing (32,77)... (28,23), 0.109 sec
Inserting... 0.016 sec
[139 ph, mem 58/51, smt 0.531, isect 17.484, ins 1.156, tot 21.547]

Running SMT solver (153)... 0.000 sec
Checking... Minimizing (32,77)... (28,24), 0.109 sec
Inserting... 0.000 sec
[140 ph, mem 58/51, smt 0.531, isect 17.594, ins 1.156, tot 21.688]

Running SMT solver (154)... 0.000 sec
Checking... Minimizing (32,78)... (28,22), 0.109 sec
Inserting... 0.000 sec
[141 ph, mem 58/51, smt 0.531, isect 17.703, ins 1.156, tot 21.828]

Running SMT solver (155)... 0.000 sec
Checking... Minimizing (32,77)... (28,25), 0.109 sec
Inserting... 0.016 sec
[142 ph, mem 58/51, smt 0.531, isect 17.812, ins 1.172, tot 21.969]

Running SMT solver (156)... 0.000 sec
Checking... Minimizing (32,77)... (28,26), 0.109 sec
Inserting... 0.016 sec
[143 ph, mem 58/51, smt 0.531, isect 17.922, ins 1.188, tot 22.109]

Running SMT solver (157)... 0.000 sec
Checking... Minimizing (32,78)... (28,22), 0.109 sec
Inserting... 0.016 sec
[144 ph, mem 58/51, smt 0.531, isect 18.031, ins 1.203, tot 22.250]

Running SMT solver (158)... 0.016 sec
Checking... Minimizing (32,78)... (28,19), 0.109 sec
Inserting... 0.016 sec
[145 ph, mem 59/51, smt 0.547, isect 18.141, ins 1.219, tot 22.391]

Running SMT solver (159)... 0.000 sec
Checking... Minimizing (32,77)... (28,21), 0.109 sec
Inserting... 0.016 sec
[146 ph, mem 59/51, smt 0.547, isect 18.250, ins 1.234, tot 22.531]

Running SMT solver (160)... 0.000 sec
Checking... Minimizing (32,77)... (28,24), 0.125 sec
Inserting... 0.000 sec
[147 ph, mem 59/51, smt 0.547, isect 18.375, ins 1.234, tot 22.672]

Running SMT solver (161)... 0.000 sec
Checking... Minimizing (32,78)... (28,24), 0.109 sec
Inserting... 0.016 sec
[148 ph, mem 59/52, smt 0.547, isect 18.484, ins 1.250, tot 22.812]

Running SMT solver (162)... 0.000 sec
Checking... Minimizing (32,77)... (28,23), 0.109 sec
Inserting... 0.016 sec
[149 ph, mem 60/52, smt 0.547, isect 18.594, ins 1.266, tot 22.953]

Running SMT solver (163)... 0.000 sec
Checking... Minimizing (32,77)... (28,24), 0.125 sec
Inserting... 0.000 sec
[150 ph, mem 60/53, smt 0.547, isect 18.719, ins 1.266, tot 23.094]

Running SMT solver (164)... 0.016 sec
Checking... Minimizing (32,77)... (28,25), 0.125 sec
Inserting... 0.000 sec
[151 ph, mem 60/52, smt 0.562, isect 18.844, ins 1.266, tot 23.266]

Running SMT solver (165)... 0.000 sec
Checking... Minimizing (32,77)... (28,26), 0.109 sec
Inserting... 0.000 sec
[152 ph, mem 60/53, smt 0.562, isect 18.953, ins 1.266, tot 23.422]

Running SMT solver (166)... 0.000 sec
Checking... Minimizing (32,77)... (28,21), 0.109 sec
Inserting... 0.016 sec
[153 ph, mem 60/53, smt 0.562, isect 19.062, ins 1.281, tot 23.562]

Running SMT solver (167)... 0.000 sec
Checking... Minimizing (32,77)... (28,21), 0.109 sec
Inserting... 0.016 sec
[154 ph, mem 60/53, smt 0.562, isect 19.172, ins 1.297, tot 23.703]

Running SMT solver (168)... 0.000 sec
Checking... Minimizing (32,77)... (28,23), 0.109 sec
Inserting... 0.016 sec
[155 ph, mem 60/53, smt 0.562, isect 19.281, ins 1.312, tot 23.844]

Running SMT solver (169)... 0.000 sec
Checking... Minimizing (32,77)... (28,23), 0.109 sec
Inserting... 0.016 sec
[156 ph, mem 60/53, smt 0.562, isect 19.391, ins 1.328, tot 23.984]

Running SMT solver (170)... 0.016 sec
Checking... Minimizing (34,75)... (29,17), 0.125 sec
Inserting... 0.000 sec
[157 ph, mem 60/53, smt 0.578, isect 19.516, ins 1.328, tot 24.125]

Running SMT solver (171)... 0.016 sec
Checking... Minimizing (33,75)... (28,24), 0.125 sec
Inserting... 0.016 sec
[157 ph, mem 60/53, smt 0.594, isect 19.641, ins 1.344, tot 24.281]

Running SMT solver (172)... 0.000 sec
Checking... Minimizing (33,75)... (28,25), 0.109 sec
Inserting... 0.016 sec
[158 ph, mem 60/53, smt 0.594, isect 19.750, ins 1.359, tot 24.422]

Running SMT solver (173)... 0.000 sec
Checking... Minimizing (33,75)... (28,25), 0.109 sec
Inserting... 0.016 sec
[159 ph, mem 60/53, smt 0.594, isect 19.859, ins 1.375, tot 24.562]

Running SMT solver (174)... 0.000 sec
Checking... Minimizing (32,76)... (28,24), 0.109 sec
Inserting... 0.000 sec
[160 ph, mem 60/53, smt 0.594, isect 19.969, ins 1.375, tot 24.703]

Running SMT solver (175)... 0.016 sec
Checking... Minimizing (32,76)... (28,25), 0.125 sec
Inserting... 0.000 sec
[161 ph, mem 60/53, smt 0.609, isect 20.094, ins 1.375, tot 24.844]

Running SMT solver (176)... 0.000 sec
Checking... Minimizing (32,76)... (28,25), 0.125 sec
Inserting... 0.000 sec
[162 ph, mem 60/53, smt 0.609, isect 20.219, ins 1.375, tot 24.984]

Running SMT solver (177)... 0.000 sec
Checking... Minimizing (33,76)... (28,21), 0.109 sec
Inserting... 0.016 sec
[163 ph, mem 60/53, smt 0.609, isect 20.328, ins 1.391, tot 25.141]

Running SMT solver (178)... 0.000 sec
Checking... Minimizing (33,76)... (28,21), 0.109 sec
Inserting... 0.016 sec
[164 ph, mem 60/53, smt 0.609, isect 20.438, ins 1.406, tot 25.281]

Running SMT solver (179)... 0.016 sec
Checking... Minimizing (32,77)... (28,21), 0.125 sec
Inserting... 0.016 sec
[165 ph, mem 60/53, smt 0.625, isect 20.562, ins 1.422, tot 25.438]

Running SMT solver (180)... 0.000 sec
Checking... Minimizing (32,77)... (28,21), 0.109 sec
Inserting... 0.016 sec
[166 ph, mem 60/53, smt 0.625, isect 20.672, ins 1.438, tot 25.578]

Running SMT solver (181)... 0.000 sec
Checking... Minimizing (32,76)... (28,23), 0.109 sec
Inserting... 0.016 sec
[167 ph, mem 60/53, smt 0.625, isect 20.781, ins 1.453, tot 25.719]

Running SMT solver (182)... 0.000 sec
Checking... Minimizing (32,76)... (28,23), 0.109 sec
Inserting... 0.016 sec
[168 ph, mem 60/53, smt 0.625, isect 20.891, ins 1.469, tot 25.859]

Running SMT solver (183)... 0.000 sec
Checking... Minimizing (33,76)... (28,21), 0.109 sec
Inserting... 0.016 sec
[169 ph, mem 60/53, smt 0.625, isect 21.000, ins 1.484, tot 26.000]

Running SMT solver (184)... 0.016 sec
Checking... Minimizing (33,76)... (28,21), 0.125 sec
Inserting... 0.016 sec
[170 ph, mem 60/53, smt 0.641, isect 21.125, ins 1.500, tot 26.156]

Running SMT solver (185)... 0.000 sec
Checking... Minimizing (32,77)... (28,22), 0.109 sec
Inserting... 0.016 sec
[171 ph, mem 60/53, smt 0.641, isect 21.234, ins 1.516, tot 26.297]

Running SMT solver (186)... 0.000 sec
Checking... Minimizing (32,77)... (28,22), 0.109 sec
Inserting... 0.016 sec
[172 ph, mem 60/53, smt 0.641, isect 21.344, ins 1.531, tot 26.438]

Running SMT solver (187)... 0.016 sec
Checking... Minimizing (32,77)... (28,24), 0.125 sec
Inserting... 0.016 sec
[173 ph, mem 60/53, smt 0.656, isect 21.469, ins 1.547, tot 26.594]

Running SMT solver (188)... 0.000 sec
Checking... Minimizing (32,77)... (28,24), 0.109 sec
Inserting... 0.016 sec
[174 ph, mem 60/53, smt 0.656, isect 21.578, ins 1.562, tot 26.734]

Running SMT solver (189)... 0.000 sec
Checking... Minimizing (33,76)... (28,23), 0.109 sec
Inserting... 0.016 sec
[175 ph, mem 60/53, smt 0.656, isect 21.688, ins 1.578, tot 26.875]

Running SMT solver (190)... 0.000 sec
Checking... Minimizing (33,76)... (28,23), 0.109 sec
Inserting... 0.016 sec
[176 ph, mem 60/53, smt 0.656, isect 21.797, ins 1.594, tot 27.031]

Running SMT solver (191)... 0.000 sec
Checking... Minimizing (32,77)... (28,22), 0.109 sec
Inserting... 0.016 sec
[177 ph, mem 60/53, smt 0.656, isect 21.906, ins 1.609, tot 27.172]

Running SMT solver (192)... 0.000 sec
Checking... Minimizing (33,77)... (29,16), 0.109 sec
Inserting... 0.016 sec
[178 ph, mem 60/53, smt 0.656, isect 22.016, ins 1.625, tot 27.312]

Running SMT solver (193)... 0.000 sec
Checking... Minimizing (32,77)... (28,20), 0.109 sec
Inserting... 0.016 sec
[178 ph, mem 60/53, smt 0.656, isect 22.125, ins 1.641, tot 27.453]

Running SMT solver (194)... 0.000 sec
Checking... Minimizing (32,77)... (28,20), 0.109 sec
Inserting... 0.016 sec
[179 ph, mem 60/53, smt 0.656, isect 22.234, ins 1.656, tot 27.594]

Running SMT solver (195)... 0.000 sec
Checking... Minimizing (32,77)... (28,22), 0.109 sec
Inserting... 0.016 sec
[180 ph, mem 61/53, smt 0.656, isect 22.344, ins 1.672, tot 27.734]

Running SMT solver (196)... 0.000 sec
Checking... Minimizing (32,77)... (28,23), 0.109 sec
Inserting... 0.016 sec
[181 ph, mem 61/53, smt 0.656, isect 22.453, ins 1.688, tot 27.875]

Running SMT solver (197)... 0.000 sec
Checking... Minimizing (33,76)... (28,21), 0.109 sec
Inserting... 0.016 sec
[182 ph, mem 61/53, smt 0.656, isect 22.562, ins 1.703, tot 28.016]

Running SMT solver (198)... 0.000 sec
Checking... Minimizing (33,76)... (28,21), 0.109 sec
Inserting... 0.016 sec
[183 ph, mem 61/53, smt 0.656, isect 22.672, ins 1.719, tot 28.156]

Running SMT solver (199)... 0.000 sec
Checking... Minimizing (32,77)... (28,23), 0.109 sec
Inserting... 0.016 sec
[184 ph, mem 61/53, smt 0.656, isect 22.781, ins 1.734, tot 28.297]

Running SMT solver (200)... 0.000 sec
Checking... Minimizing (32,77)... (28,24), 0.125 sec
Inserting... 0.016 sec
[185 ph, mem 61/53, smt 0.656, isect 22.906, ins 1.750, tot 28.453]

Running SMT solver (201)... 0.000 sec
Checking... Minimizing (32,77)... (28,26), 0.109 sec
Inserting... 0.016 sec
[186 ph, mem 61/53, smt 0.656, isect 23.016, ins 1.766, tot 28.594]

Running SMT solver (202)... 0.016 sec
Checking... Minimizing (32,77)... (28,24), 0.109 sec
Inserting... 0.016 sec
[187 ph, mem 61/53, smt 0.672, isect 23.125, ins 1.781, tot 28.734]

Running SMT solver (203)... 0.000 sec
Checking... Minimizing (32,77)... (28,27), 0.109 sec
Inserting... 0.016 sec
[188 ph, mem 61/54, smt 0.672, isect 23.234, ins 1.797, tot 28.891]

Running SMT solver (204)... 0.000 sec
Checking... Minimizing (33,76)... (28,23), 0.109 sec
Inserting... 0.016 sec
[189 ph, mem 61/54, smt 0.672, isect 23.344, ins 1.812, tot 29.031]

Running SMT solver (205)... 0.000 sec
Checking... Minimizing (33,76)... (28,22), 0.109 sec
Inserting... 0.016 sec
[190 ph, mem 61/54, smt 0.672, isect 23.453, ins 1.828, tot 29.172]

Running SMT solver (206)... 0.000 sec
Checking... Minimizing (33,76)... (28,24), 0.125 sec
Inserting... 0.016 sec
[191 ph, mem 61/54, smt 0.672, isect 23.578, ins 1.844, tot 29.328]

Running SMT solver (207)... 0.000 sec
Checking... Minimizing (33,76)... (28,23), 0.109 sec
Inserting... 0.016 sec
[192 ph, mem 61/54, smt 0.672, isect 23.688, ins 1.859, tot 29.469]

Running SMT solver (208)... 0.016 sec
Checking... Minimizing (33,76)... (28,22), 0.109 sec
Inserting... 0.016 sec
[193 ph, mem 61/54, smt 0.688, isect 23.797, ins 1.875, tot 29.609]

Running SMT solver (209)... 0.016 sec
Checking... Minimizing (32,77)... (28,24), 0.109 sec
Inserting... 0.016 sec
[194 ph, mem 61/54, smt 0.703, isect 23.906, ins 1.891, tot 29.781]

Running SMT solver (210)... 0.000 sec
Checking... Minimizing (33,76)... (28,24), 0.109 sec
Inserting... 0.016 sec
[195 ph, mem 61/54, smt 0.703, isect 24.016, ins 1.906, tot 29.922]

Running SMT solver (211)... 0.000 sec
Checking... Minimizing (32,77)... (28,27), 0.109 sec
Inserting... 0.016 sec
[196 ph, mem 61/54, smt 0.703, isect 24.125, ins 1.922, tot 30.062]

Running SMT solver (212)... 0.000 sec
Checking... Minimizing (32,77)... (28,26), 0.125 sec
Inserting... 0.016 sec
[197 ph, mem 62/54, smt 0.703, isect 24.250, ins 1.938, tot 30.219]

Running SMT solver (213)... 0.000 sec
Checking... Minimizing (32,77)... (28,24), 0.109 sec
Inserting... 0.016 sec
[198 ph, mem 62/54, smt 0.703, isect 24.359, ins 1.953, tot 30.359]

Running SMT solver (214)... 0.000 sec
Checking... Minimizing (32,78)... (28,22), 0.109 sec
Inserting... 0.016 sec
[199 ph, mem 62/54, smt 0.703, isect 24.469, ins 1.969, tot 30.516]

Running SMT solver (215)... 0.000 sec
Checking... Minimizing (33,77)... (28,20), 0.109 sec
Inserting... 0.016 sec
[200 ph, mem 62/54, smt 0.703, isect 24.578, ins 1.984, tot 30.656]

Running SMT solver (216)... 0.000 sec
Checking... Minimizing (32,78)... (28,22), 0.109 sec
Inserting... 0.016 sec
[201 ph, mem 62/54, smt 0.703, isect 24.688, ins 2.000, tot 30.797]

Running SMT solver (217)... 0.000 sec
Checking... Minimizing (32,77)... (28,20), 0.109 sec
Inserting... 0.016 sec
[202 ph, mem 62/54, smt 0.703, isect 24.797, ins 2.016, tot 30.938]

Running SMT solver (218)... 0.000 sec
Checking... Minimizing (32,78)... (28,18), 0.109 sec
Inserting... 0.016 sec
[203 ph, mem 62/55, smt 0.703, isect 24.906, ins 2.031, tot 31.078]

Running SMT solver (219)... 0.016 sec
Checking... Minimizing (32,77)... (28,22), 0.109 sec
Inserting... 0.016 sec
[204 ph, mem 62/55, smt 0.719, isect 25.016, ins 2.047, tot 31.219]

Running SMT solver (220)... 0.016 sec
Checking... Minimizing (32,78)... (28,25), 0.109 sec
Inserting... 0.016 sec
[205 ph, mem 62/55, smt 0.734, isect 25.125, ins 2.062, tot 31.375]

Running SMT solver (221)... 0.000 sec
Checking... Minimizing (33,77)... (28,22), 0.109 sec
Inserting... 0.016 sec
[206 ph, mem 62/55, smt 0.734, isect 25.234, ins 2.078, tot 31.516]

Running SMT solver (222)... 0.000 sec
Checking... Minimizing (32,77)... (28,20), 0.109 sec
Inserting... 0.016 sec
[207 ph, mem 62/55, smt 0.734, isect 25.344, ins 2.094, tot 31.656]

Running SMT solver (223)... 0.000 sec
Checking... Minimizing (32,78)... (28,18), 0.109 sec
Inserting... 0.016 sec
[208 ph, mem 62/55, smt 0.734, isect 25.453, ins 2.109, tot 31.797]

Running SMT solver (224)... 0.016 sec
Checking... Minimizing (33,77)... (28,22), 0.141 sec
Inserting... 0.016 sec
[209 ph, mem 62/55, smt 0.750, isect 25.594, ins 2.125, tot 31.984]

Running SMT solver (225)... 0.000 sec
Checking... Minimizing (32,78)... (28,25), 0.109 sec
Inserting... 0.016 sec
[210 ph, mem 62/55, smt 0.750, isect 25.703, ins 2.141, tot 32.125]

Running SMT solver (226)... 0.000 sec
Checking... Minimizing (32,77)... (28,22), 0.109 sec
Inserting... 0.016 sec
[211 ph, mem 62/55, smt 0.750, isect 25.812, ins 2.156, tot 32.266]

Running SMT solver (227)... 0.000 sec
Checking... Minimizing (33,77)... (28,20), 0.109 sec
Inserting... 0.016 sec
[212 ph, mem 62/55, smt 0.750, isect 25.922, ins 2.172, tot 32.406]

Running SMT solver (228)... 0.000 sec
Checking... Minimizing (33,77)... (29,15), 0.109 sec
Inserting... 0.016 sec
[213 ph, mem 62/55, smt 0.750, isect 26.031, ins 2.188, tot 32.547]

Running SMT solver (229)... 0.000 sec
Checking... Minimizing (33,77)... (29,15), 0.109 sec
Inserting... 0.031 sec
[214 ph, mem 62/55, smt 0.750, isect 26.141, ins 2.219, tot 32.703]

Running SMT solver (230)... 0.000 sec
Checking... Minimizing (33,77)... (29,17), 0.109 sec
Inserting... 0.016 sec
[215 ph, mem 62/55, smt 0.750, isect 26.250, ins 2.234, tot 32.844]

Running SMT solver (231)... 0.000 sec
Checking... Minimizing (33,77)... (29,17), 0.109 sec
Inserting... 0.016 sec
[216 ph, mem 62/55, smt 0.750, isect 26.359, ins 2.250, tot 32.984]

Running SMT solver (232)... 0.000 sec
Checking... Minimizing (34,76)... (29,17), 0.109 sec
Inserting... 0.016 sec
[217 ph, mem 62/55, smt 0.750, isect 26.469, ins 2.266, tot 33.125]

Running SMT solver (233)... 0.016 sec
Checking... Minimizing (34,76)... (29,16), 0.109 sec
Inserting... 0.016 sec
[218 ph, mem 62/55, smt 0.766, isect 26.578, ins 2.281, tot 33.281]

Running SMT solver (234)... 0.000 sec
Checking... Minimizing (34,77)... (29,14), 0.109 sec
Inserting... 0.016 sec
[219 ph, mem 62/55, smt 0.766, isect 26.688, ins 2.297, tot 33.422]

Running SMT solver (235)... 0.000 sec
Checking... Minimizing (34,76)... (29,17), 0.109 sec
Inserting... 0.016 sec
[220 ph, mem 62/55, smt 0.766, isect 26.797, ins 2.312, tot 33.562]

Running SMT solver (236)... 0.016 sec
Checking... Minimizing (34,76)... (29,16), 0.109 sec
Inserting... 0.016 sec
[221 ph, mem 62/55, smt 0.781, isect 26.906, ins 2.328, tot 33.703]

Running SMT solver (237)... 0.016 sec
Checking... Minimizing (34,77)... (29,14), 0.109 sec
Inserting... 0.016 sec
[222 ph, mem 62/55, smt 0.797, isect 27.016, ins 2.344, tot 33.859]

Running SMT solver (238)... 0.000 sec
Checking... Minimizing (33,78)... (29,16), 0.094 sec
Inserting... 0.031 sec
[223 ph, mem 62/55, smt 0.797, isect 27.109, ins 2.375, tot 34.000]

Running SMT solver (239)... 0.000 sec
Checking... Minimizing (33,77)... (29,20), 0.109 sec
Inserting... 0.016 sec
[224 ph, mem 62/55, smt 0.797, isect 27.219, ins 2.391, tot 34.141]

Running SMT solver (240)... 0.000 sec
Checking... Minimizing (33,77)... (29,18), 0.109 sec
Inserting... 0.031 sec
[225 ph, mem 62/55, smt 0.797, isect 27.328, ins 2.422, tot 34.297]

Running SMT solver (241)... 0.000 sec
Checking... Minimizing (33,78)... (29,14), 0.109 sec
Inserting... 0.016 sec
[226 ph, mem 62/55, smt 0.797, isect 27.438, ins 2.438, tot 34.438]

Running SMT solver (242)... 0.000 sec
Checking... Minimizing (33,78)... (29,19), 0.109 sec
Inserting... 0.016 sec
[227 ph, mem 62/55, smt 0.797, isect 27.547, ins 2.453, tot 34.578]

Running SMT solver (243)... 0.016 sec
Checking... Minimizing (34,77)... (29,15), 0.109 sec
Inserting... 0.031 sec
[228 ph, mem 62/55, smt 0.812, isect 27.656, ins 2.484, tot 34.734]

Running SMT solver (244)... 0.000 sec
Checking... Minimizing (33,77)... (29,18), 0.109 sec
Inserting... 0.016 sec
[229 ph, mem 62/55, smt 0.812, isect 27.766, ins 2.500, tot 34.875]

Running SMT solver (245)... 0.000 sec
Checking... Minimizing (34,76)... (29,18), 0.109 sec
Inserting... 0.016 sec
[230 ph, mem 62/55, smt 0.812, isect 27.875, ins 2.516, tot 35.016]

Running SMT solver (246)... 0.000 sec
Checking... Minimizing (33,77)... (29,21), 0.109 sec
Inserting... 0.016 sec
[231 ph, mem 62/55, smt 0.812, isect 27.984, ins 2.531, tot 35.156]

Running SMT solver (247)... 0.016 sec
Checking... Minimizing (33,78)... (29,16), 0.109 sec
Inserting... 0.031 sec
[232 ph, mem 62/55, smt 0.828, isect 28.094, ins 2.562, tot 35.312]

Running SMT solver (248)... 0.000 sec
Checking... Minimizing (33,77)... (29,20), 0.109 sec
Inserting... 0.016 sec
[233 ph, mem 62/55, smt 0.828, isect 28.203, ins 2.578, tot 35.453]

Running SMT solver (249)... 0.016 sec
Checking... Minimizing (33,77)... (29,18), 0.109 sec
Inserting... 0.031 sec
[234 ph, mem 62/55, smt 0.844, isect 28.312, ins 2.609, tot 35.609]

Running SMT solver (250)... 0.000 sec
Checking... Minimizing (33,78)... (29,14), 0.109 sec
Inserting... 0.016 sec
[235 ph, mem 62/55, smt 0.844, isect 28.422, ins 2.625, tot 35.750]

Running SMT solver (251)... 0.016 sec
Checking... Minimizing (33,78)... (29,19), 0.109 sec
Inserting... 0.031 sec
[236 ph, mem 63/55, smt 0.859, isect 28.531, ins 2.656, tot 35.906]

Running SMT solver (252)... 0.016 sec
Checking... Minimizing (34,77)... (29,15), 0.109 sec
Inserting... 0.031 sec
[237 ph, mem 63/55, smt 0.875, isect 28.641, ins 2.688, tot 36.062]

Running SMT solver (253)... 0.000 sec
Checking... Minimizing (33,77)... (29,18), 0.109 sec
Inserting... 0.016 sec
[238 ph, mem 63/55, smt 0.875, isect 28.750, ins 2.703, tot 36.219]

Running SMT solver (254)... 0.000 sec
Checking... Minimizing (33,77)... (29,21), 0.109 sec
Inserting... 0.016 sec
[239 ph, mem 63/55, smt 0.875, isect 28.859, ins 2.719, tot 36.359]

Running SMT solver (255)... 0.016 sec
Checking... Minimizing (34,76)... (29,18), 0.109 sec
Inserting... 0.031 sec
[240 ph, mem 63/55, smt 0.891, isect 28.969, ins 2.750, tot 36.516]

Running SMT solver (256)... 0.000 sec
Checking... Minimizing (33,77)... (29,17), 0.109 sec
Inserting... 0.031 sec
[241 ph, mem 63/56, smt 0.891, isect 29.078, ins 2.781, tot 36.672]

Running SMT solver (257)... 0.000 sec
Checking... Minimizing (33,77)... (29,17), 0.109 sec
Inserting... 0.016 sec
[242 ph, mem 63/56, smt 0.891, isect 29.188, ins 2.797, tot 36.812]

Running SMT solver (258)... 0.000 sec
Checking... Minimizing (34,76)... (29,15), 0.109 sec
Inserting... 0.031 sec
[243 ph, mem 63/56, smt 0.891, isect 29.297, ins 2.828, tot 36.969]

Running SMT solver (259)... 0.000 sec
Checking... Minimizing (34,76)... (29,15), 0.109 sec
Inserting... 0.016 sec
[244 ph, mem 63/56, smt 0.891, isect 29.406, ins 2.844, tot 37.109]

Running SMT solver (260)... 0.000 sec
No more solutions found

244 polyhedra, 260 rounds, smt 0.891 sec, isect 29.406 sec, insert 2.844 sec, total 37.109 sec
Preprocessing 0.047 sec, super total 37.156 sec
Comparing... 0.266 sec.  Solution matches input.
Total contains() calls: 30355, full: 67, ratio: 0.221%
