k1 = 1/10000000
k2 = 83/100000000
k3 = 1/1250000
k4 = 1/2500000
k5 = 1/100000000
k6 = 1/10000
k7 = 1/10000000
k8 = 1/10000
k9 = 1/1000
k10 = 1/1000
k11 = 1/200000
k12 = 1/1000
k13 = 1/10000000
k14 = 1/10000
k15 = 1/20000
k16 = 167/100
k17 = 167/1000000
k18 = 3/40000
k19 = 167/10000000
k20 = 1/20000
k21 = 1/10000
k22 = 1/2
k23 = 1/50000
k24 = 1/50000
k25 = 3/100000
k26 = 1/200000
k27 = 1/125000
k28 = 1/1000
k29 = 9/1000000
k30 = 1/20000
k31 = 1/1000000000
k32 = 3/250000000
k33 = 1/2500000
k34 = 167/1000000
k35 = 167/100000
k36 = 167/100000
k37 = 107/10000000
k38 = 1/100000000
k39 = 1/25000
k40 = 1/1000000
k41 = 1/200
k42 = 1/156250
k43 = 1/156250
k44 = 1/200
k45 = 1/200000
k46 = 1/100000
k47 = 1/1000
k48 = 3/62500
k49 = 1/10000
k50 = 289/50000
k51 = 1/100
k52 = 1/100
k53 = 1/2000
k54 = 3/5000
k55 = 3/500
k56 = 1/5000
k57 = 1/2000
k58 = 1/10000
k59 = 1/10000
k60 = 1/2500
k61 = 1/2000000000
k62 = 1/100000000
k63 = 3/10000
k64 = 3/10000
k65 = 1/2000
k66 = 1/10
k67 = 1/1000
k68 = 1/2000
k69 = 3/2000
k70 = 1/20
k71 = 7/1000000
k72 = 1/1000
k73 = 1/10000000
k74 = 1/10000
k75 = 1/50000
k76 = 1/25000
k77 = 1/1000000
k78 = 1/100
k79 = 167/100000
k80 = 167/100000
k81 = 1/2000
k82 = 167/10000
k83 = 167/10000
k84 = 167/10000
k85 = 1/1000
k86 = 1/1000000
k87 = 1/1000000
k88 = 1/1000000
k89 = 383/1000000
k90 = 1/10000
k91 = 0
k92 = 23/5000000
k93 = 1/2000
k94 = 1/1000000
k95 = 1/200000
k96 = 1/200000
k97 = 1/500
k98 = 1/10000000
k99 = 0
k100 = 1/1000000
k101 = 1/1000000
k102 = 1/1000
k103 = 1/200
k104 = 1/31250
k105 = 3/2000000
k106 = 1/200000
k107 = 0
k108 = 1/10000
k109 = 1/100000
k110 = 1/500
k111 = 3/6250
k112 = 1/100000
k113 = 1/200000
k114 = 1
k115 = 1
k116 = 1
k117 = 1
k118 = 1500
k119 = 0
k120 = 1
k121 = 200
k122 = 600
k123 = 600
k124 = 600
k125 = 100
k126 = 100
k127 = 400
k128 = 100
k129 = 100
k130 = 110
k131 = 100
