k57*x35 - k60
k57*x34 + k57*x36 - k61
k57*x33 + k57*x36 - k62
k58*x30 - k63
k57*x25 + k58*x26 + k57*x27 - k64
k57*x24 - k65
k58*x21 + k57*x22 + k58*x23 + k58*x26 + k57*x27 + k58*x31 - k66
k59*x18 - k67
k59*x17 + k59*x19 + k59*x20 - k68
k59*x12 + k59*x13 + k59*x14 + k59*x16 + k59*x32 - k69
k59*x11 + k59*x13 + k59*x16 + k59*x32 - k70
k59*x10 + k59*x12 + k59*x13 + k59*x16 + k59*x32 - k71
k58*x9 + k58*x29 - k72
k57*x8 - k73
k58*x6 - k74
k58*x4 + k59*x12 + k59*x13 + k59*x15 + k59*x16 + k59*x17 + k59*x20 + k58*x21 + k58*x23 + k58*x26 + k58*x28 + k58*x31 + k59*x32 - k75
k58*x4 + k58*x5 + k58*x21 + k58*x23 + k58*x26 + k58*x31 - k76
k57*x3 + k57*x7 + k57*x22 + k58*x31 - k77
k57*x3 + k58*x4 + k57*x7 + k59*x12 + k59*x13 + k59*x15 + k59*x16 + k59*x17 + k59*x20 + k57*x25 + k58*x26 + k58*x28 + k58*x31 + k59*x32 - k78
k57*x3 + k58*x4 + k58*x5 + k57*x7 + k57*x25 + k58*x26 + k58*x31 - k79
k57*x2 + k57*x22 + k58*x23 + k58*x26 + k57*x27 + k58*x31 - k80
k57*x2 + k58*x4 + k59*x12 + k59*x13 + k59*x15 + k59*x16 + k59*x17 + k59*x20 + k58*x23 + k58*x26 + k58*x28 + k58*x31 + k59*x32 - k81
k57*x2 + k58*x4 + k58*x5 + k58*x23 + k58*x26 + k58*x31 - k82
k57*x1 - k83
