
----------------------------------------------------------------------
This is ptcut v3.5.1
Python 3.7.4 (default, Aug  9 2019, 18:34:13) [MSC v.1915 64 bit (AMD64)]
numpy 1.16.5, sympy 1.4, gmpy2 2.1.0a5
It is now 2020-04-04T22:13:09+02:00
Command line: ..\trop\ptcut.py BIOMD0000000489 -e11 --rat --no-cache=n --maxruntime 10800 --maxmem 11513M --comment "concurrent=6, timeout=10800"

----------------------------------------------------------------------
Solving BIOMD0000000489 with ep=1/11, round=0, complex=False, sumup=False, keep_coeff=False, paramwise=True, complete=False, filter=0, fusion=False, algorithm 3, resort=False, bbox=False, common=9, qdisjoint=False, nonewton=False, mul_denom=True, convexhull=(False, 2, 4, 0.5, 2), likeness 14, backend PPL_C_Polyhedron
Comment: concurrent=6, timeout=10800
Random seed: 2X7VXA8E58NUO
Effective epsilon: 1/11.0

Loading tropical system... done.
Loading polyhedra... done.

Sorting ascending...
Dimension: 35
Formulas: 39
Order: 0 1 3 8 10 23 25 27 29 30 34 2 6 14 17 20 28 36 38 4 7 9 22 24 26 31 32 33 12 16 19 37 35 11 15 18 21 13 5
Possible combinations: 1 * 1 * 1 * 1 * 1 * 1 * 1 * 1 * 1 * 1 * 1 * 2 * 2 * 2 * 2 * 2 * 2 * 3 * 3 * 4 * 4 * 4 * 4 * 4 * 4 * 4 * 4 * 4 * 6 * 6 * 6 * 8 * 11 * 12 * 12 * 12 * 16 * 49 * 112 = 435,488,461,040,960,667,648 (10^21)
 Applying common planes (codim=11, hs=33)...
 [1/28 (#2)]: 2 => 1 (1 empty), dim=24.0, hs=33.0
  Removed: 2.1
 [2/28 (#6)]: 2 => 2 (-), dim=23.0, hs=33.5
 [3/28 (#14)]: 2 => 2 (-), dim=23.0, hs=33.5
 [4/28 (#17)]: 2 => 2 (-), dim=23.0, hs=33.5
 [5/28 (#20)]: 2 => 2 (-), dim=23.0, hs=33.5
 [6/28 (#28)]: 2 => 2 (-), dim=23.0, hs=34.5
 [7/28 (#36)]: 3 => 2 (1 incl), dim=23.0, hs=33.0
  Removed: 36.1
 [8/28 (#38)]: 3 => 1 (2 incl), dim=23.0, hs=33.0
  Removed: 38.1,38.2
 [9/28 (#4)]: 4 => 2 (2 incl), dim=23.0, hs=35.0
  Removed: 4.0,4.3
 [10/28 (#7)]: 4 => 2 (2 incl), dim=23.5, hs=33.5
  Removed: 7.1,7.2
 [11/28 (#9)]: 4 => 1 (1 empty, 2 incl), dim=24.0, hs=35.0
  Removed: 9.1,9.2,9.3
 [12/28 (#22)]: 4 => 2 (2 empty), dim=23.0, hs=34.5
  Removed: 22.0,22.2
 [13/28 (#24)]: 4 => 2 (2 empty), dim=23.0, hs=34.5
  Removed: 24.0,24.2
 [14/28 (#26)]: 4 => 2 (2 empty), dim=23.0, hs=34.5
  Removed: 26.0,26.2
 [15/28 (#31)]: 4 => 4 (-), dim=23.0, hs=35.0
 [16/28 (#32)]: 4 => 4 (-), dim=23.0, hs=34.8
 [17/28 (#33)]: 4 => 4 (-), dim=23.0, hs=34.8
 [18/28 (#12)]: 6 => 4 (2 incl), dim=23.0, hs=33.2
  Removed: 12.0,12.2
 [19/28 (#16)]: 6 => 6 (-), dim=23.0, hs=34.5
 [20/28 (#19)]: 6 => 6 (-), dim=23.0, hs=34.5
 [21/28 (#37)]: 8 => 8 (-), dim=23.0, hs=32.2
 [22/28 (#35)]: 11 => 11 (-), dim=23.0, hs=32.5
 [23/28 (#11)]: 12 => 8 (4 incl), dim=23.0, hs=37.0
  Removed: 11.8,11.4,11.6,11.7
 [24/28 (#15)]: 12 => 12 (-), dim=23.0, hs=36.8
 [25/28 (#18)]: 12 => 12 (-), dim=23.0, hs=36.5
 [26/28 (#21)]: 16 => 4 (12 empty), dim=23.0, hs=33.8
  Removed: 21.1,21.2,21.3,21.5,21.6,21.7,21.9,21.10,21.11,21.13,21.14,21.15
 [27/28 (#13)]: 49 => 28 (21 incl), dim=23.0, hs=37.7
  Removed: 13.0,13.1,13.2,13.3,13.4,13.5,13.6,13.7,13.8,13.9,13.10,13.11,13.12,13.13,13.14,13.15,13.16,13.17,13.18,13.19,13.20
 [28/28 (#5)]: 112 => 32 (48 empty, 32 incl), dim=23.0, hs=40.1
  Removed: 5.0,5.1,5.2,5.3,5.8,5.9,5.10,5.21,5.23,5.24,5.25,5.26,5.32,5.33,5.42,5.44,5.45,5.46,5.47,5.53,5.54,5.63,5.65,5.66,5.67,5.68,5.74,5.75,5.84,5.86,5.87,5.88,5.89,5.95,5.96,5.109,5.110,5.111,5.130,5.131,5.132,5.215,5.216,5.217,5.228,5.229,5.230,5.241,5.242,5.243,5.254,5.255,5.256,5.272,5.273,5.287,5.288,5.302,5.303,5.313,5.314,5.315,5.342,5.343,5.344,5.345,5.348,5.349,5.356,5.357,5.358,5.359,5.362,5.363,5.370,5.371,5.372,5.373,5.376,5.377
 Applying common planes (codim=12, hs=36)...
 [1/25 (#6)]: 2 => 2 (-), dim=22.0, hs=36.0
 [2/25 (#14)]: 2 => 2 (-), dim=22.0, hs=36.0
 [3/25 (#17)]: 2 => 2 (-), dim=22.0, hs=36.0
 [4/25 (#20)]: 2 => 2 (-), dim=22.0, hs=36.0
 [5/25 (#28)]: 2 => 2 (-), dim=22.0, hs=37.5
 [6/25 (#36)]: 2 => 2 (-), dim=22.0, hs=35.5
 [7/25 (#4)]: 2 => 2 (-), dim=22.0, hs=36.0
 [8/25 (#7)]: 2 => 2 (-), dim=22.5, hs=36.0
 [9/25 (#22)]: 2 => 2 (-), dim=22.0, hs=37.5
 [10/25 (#24)]: 2 => 2 (-), dim=22.0, hs=37.5
 [11/25 (#26)]: 2 => 2 (-), dim=22.0, hs=37.5
 [12/25 (#31)]: 4 => 2 (2 incl), dim=22.0, hs=37.5
  Removed: 31.0,31.1
 [13/25 (#32)]: 4 => 4 (-), dim=22.0, hs=37.2
 [14/25 (#33)]: 4 => 4 (-), dim=22.0, hs=37.2
 [15/25 (#12)]: 4 => 4 (-), dim=22.0, hs=36.2
 [16/25 (#16)]: 6 => 6 (-), dim=22.0, hs=37.5
 [17/25 (#19)]: 6 => 6 (-), dim=22.0, hs=37.5
 [18/25 (#37)]: 8 => 7 (1 empty), dim=22.0, hs=35.1
  Removed: 37.7
 [19/25 (#35)]: 11 => 10 (1 empty), dim=22.0, hs=35.4
  Removed: 35.9
 [20/25 (#11)]: 8 => 8 (-), dim=22.0, hs=39.5
 [21/25 (#15)]: 12 => 12 (-), dim=22.0, hs=39.2
 [22/25 (#18)]: 12 => 12 (-), dim=22.0, hs=38.9
 [23/25 (#21)]: 4 => 4 (-), dim=22.0, hs=35.8
 [24/25 (#13)]: 28 => 25 (3 incl), dim=22.0, hs=39.9
  Removed: 13.41,13.34,13.27
 [25/25 (#5)]: 32 => 29 (3 incl), dim=22.0, hs=41.4
  Removed: 5.320,5.321,5.319
 Savings: factor 197,326 (10^5), 14 formulas
[1/24 (#6, #14)]: 2 * 2 = 4 => 4 (-), dim=21.0, hs=36.0
[2/24 (w1, #17)]: 4 * 2 = 8 => 8 (-), dim=20.0, hs=36.0
[3/24 (w2, #20)]: 8 * 2 = 16 => 16 (-), dim=19.0, hs=36.0
[4/24 (w3, #28)]: 16 * 2 = 32 => 32 (-), dim=18.0, hs=37.5
[5/24 (w4, #36)]: 32 * 2 = 64 => 16 (16 empty, 32 incl), dim=18.0, hs=37.5
 Applying common planes (codim=2, hs=4)...
 [1/20 (w5)]: 16 => 16 (-), dim=18.0, hs=37.5
 [2/20 (#4)]: 2 => 2 (-), dim=21.0, hs=36.5
 [3/20 (#7)]: 2 => 1 (1 incl), dim=22.0, hs=36.0
  Removed: 7.5
 [4/20 (#22)]: 2 => 2 (-), dim=21.0, hs=37.5
 [5/20 (#24)]: 2 => 2 (-), dim=21.0, hs=37.5
 [6/20 (#26)]: 2 => 2 (-), dim=21.0, hs=37.5
 [7/20 (#31)]: 2 => 2 (-), dim=21.0, hs=37.5
 [8/20 (#32)]: 4 => 4 (-), dim=21.0, hs=37.2
 [9/20 (#33)]: 4 => 4 (-), dim=21.0, hs=37.2
 [10/20 (#12)]: 4 => 4 (-), dim=21.0, hs=36.2
 [11/20 (#16)]: 6 => 6 (-), dim=21.0, hs=37.5
 [12/20 (#19)]: 6 => 6 (-), dim=21.0, hs=37.5
 [13/20 (#37)]: 7 => 7 (-), dim=21.0, hs=35.1
 [14/20 (#35)]: 10 => 10 (-), dim=21.0, hs=35.4
 [15/20 (#11)]: 8 => 8 (-), dim=21.0, hs=39.5
 [16/20 (#15)]: 12 => 12 (-), dim=21.0, hs=39.2
 [17/20 (#18)]: 12 => 12 (-), dim=21.0, hs=38.9
 [18/20 (#21)]: 4 => 4 (-), dim=21.0, hs=35.8
 [19/20 (#13)]: 25 => 25 (-), dim=21.0, hs=39.9
 [20/20 (#5)]: 29 => 29 (-), dim=21.0, hs=41.6
 Savings: factor 2.0, 1 formulas
[6/23 (w5, #4)]: 16 * 2 = 32 => 32 (-), dim=17.0, hs=38.0
[7/23 (w6, #22)]: 32 * 2 = 64 => 48 (16 empty), dim=16.0, hs=39.2
[8/23 (w7, #24)]: 48 * 2 = 96 => 48 (16 empty, 32 incl), dim=15.0, hs=40.2
[9/23 (w8, #26)]: 48 * 2 = 96 => 48 (16 empty, 32 incl), dim=14.0, hs=41.2
[10/23 (w9, #31)]: 48 * 2 = 96 => 72 (24 empty), dim=13.0, hs=41.2
[11/23 (w10, #32)]: 72 * 4 = 288 => 216 (72 empty), dim=12.0, hs=41.7
[12/23 (w11, #33)]: 216 * 4 = 864 => 324 (216 empty, 324 incl), dim=11.0, hs=42.2
[13/23 (w12, #12)]: 324 * 4 = 1296 => 342 (432 empty, 522 incl), dim=10.6, hs=40.9
[14/23 (w13, #21)]: 342 * 4 = 1368 => 804 (300 empty, 264 incl), dim=9.6, hs=40.5
[15/23 (w14, #16)]: 804 * 6 = 4824 => 404 (3430 empty, 990 incl), dim=8.6, hs=39.8
[16/23 (w15, #19)]: 404 * 6 = 2424 => 138 (1710 empty, 576 incl), dim=7.7, hs=39.5
[17/23 (w16, #37)]: 138 * 7 = 966 => 138 (616 empty, 212 incl), dim=6.9, hs=39.1
[18/23 (w17, #11)]: 138 * 8 = 1104 => 64 (686 empty, 354 incl), dim=6.2, hs=38.9
[19/23 (w18, #35)]: 64 * 10 = 640 => 80 (448 empty, 112 incl), dim=5.2, hs=38.3
[20/23 (w19, #15)]: 80 * 12 = 960 => 64 (596 empty, 300 incl), dim=4.8, hs=38.5
[21/23 (w20, #18)]: 64 * 12 = 768 => 36 (390 empty, 342 incl), dim=5.1, hs=39.0
[22/23 (w21, #13)]: 36 * 25 = 900 => 30 (520 empty, 350 incl), dim=4.8, hs=38.6
 Applying common planes (codim=0, hs=2)...
 [1/2 (w22)]: 30 => 30 (-), dim=4.8, hs=38.6
 [2/2 (#5)]: 29 => 29 (-), dim=21.0, hs=43.6
 Savings: factor 1.0, 0 formulas
[23/23 (w22, #5)]: 30 * 29 = 870 => 42 (634 empty, 194 incl), dim=4.9, hs=38.7
Total time: 57.451 sec, total intersections: 18,467, total inclusion tests: 491,633
Common plane time: 3.924 sec
Solutions: 42, dim=4.9, hs=38.7, max=804, maxin=4824
f-vector: [0, 0, 2, 0, 0, 40]
Canonicalizing...
Saving solutions... 
Calculation done.
Peak memory: working set 0.378 GiB, pagefile 0.385 GiB
Memory: pmem(rss=85864448, vms=81412096, num_page_faults=141909, peak_wset=405938176, wset=85864448, peak_paged_pool=538552, paged_pool=538376, peak_nonpaged_pool=97840, nonpaged_pool=45168, pagefile=81412096, peak_pagefile=412958720, private=81412096)
