((-1) * (k23*x1*x6) + 1 * (k24*x17) + 1 * (k25*x17) + (-1) * (k29*x1*x7) + 1 * (k30*x18) + 1 * (k31*x18)) / k1
((-1) * (k11*x2*x9) + 1 * (k12*x19) + 1 * (k13*x19) + (-1) * (k17*x2*x10) + 1 * (k18*x20) + 1 * (k19*x20)) / k1
((-1) * (k2*x3*x11) + 1 * (k3*x21) + 1 * (k4*x21) + (-1) * (k254*x3*x24) + 1 * (k255*x71) + 1 * (k256*x71) + (-1) * (k257*x3*x27) + 1 * (k258*x72) + 1 * (k259*x72) + (-1) * (k260*x3*x30) + 1 * (k261*x73) + 1 * (k262*x73) + (-1) * (k263*x3*x33) + 1 * (k264*x74) + 1 * (k265*x74) + (-1) * (k266*x3*x36) + 1 * (k267*x75) + 1 * (k268*x75) + (-1) * (k269*x3*x39) + 1 * (k270*x76) + 1 * (k271*x76) + (-1) * (k272*x3*x42) + 1 * (k273*x77) + 1 * (k274*x77) + (-1) * (k275*x3*x45) + 1 * (k276*x78) + 1 * (k277*x78) + (-1) * (k278*x3*x48) + 1 * (k279*x79) + 1 * (k280*x79) + (-1) * (k281*x3*x51) + 1 * (k282*x80) + 1 * (k283*x80) + (-1) * (k284*x3*x54) + 1 * (k285*x81) + 1 * (k286*x81) + (-1) * (k287*x3*x57) + 1 * (k288*x82) + 1 * (k289*x82) + (-1) * (k290*x3*x60) + 1 * (k291*x83) + 1 * (k292*x83) + (-1) * (k293*x3*x63) + 1 * (k294*x84) + 1 * (k295*x84) + (-1) * (k296*x3*x66) + 1 * (k297*x85) + 1 * (k298*x85) + (-1) * (k299*x3*x69) + 1 * (k300*x86) + 1 * (k301*x86)) / k1
((-1) * (k5*x4*x12) + 1 * (k6*x22) + 1 * (k7*x22)) / k1
((-1) * (k20*x5*x10) + 1 * (k21*x13) + 1 * (k25*x17) + (-1) * (k32*x5*x23) + 1 * (k33*x35) + (-1) * (k34*x5*x24) + 1 * (k35*x36) + (-1) * (k36*x5*x25) + 1 * (k37*x37) + (-1) * (k38*x5*x26) + 1 * (k39*x38) + (-1) * (k40*x5*x27) + 1 * (k41*x39) + (-1) * (k42*x5*x28) + 1 * (k43*x40) + (-1) * (k44*x5*x29) + 1 * (k45*x41) + (-1) * (k46*x5*x30) + 1 * (k47*x42) + (-1) * (k48*x5*x31) + 1 * (k49*x43) + (-1) * (k50*x5*x32) + 1 * (k51*x44) + (-1) * (k52*x5*x33) + 1 * (k53*x45) + (-1) * (k54*x5*x34) + 1 * (k55*x46)) / k1
(1 * (k22*x13) + (-1) * (k23*x1*x6) + 1 * (k24*x17) + (-1) * (k26*x6*x10) + 1 * (k27*x14) + 1 * (k31*x18) + (-1) * (k56*x6*x23) + 1 * (k57*x47) + (-1) * (k58*x6*x24) + 1 * (k59*x48) + (-1) * (k60*x6*x25) + 1 * (k61*x49) + (-1) * (k62*x6*x26) + 1 * (k63*x50) + (-1) * (k64*x6*x27) + 1 * (k65*x51) + (-1) * (k66*x6*x28) + 1 * (k67*x52) + (-1) * (k68*x6*x29) + 1 * (k69*x53) + (-1) * (k70*x6*x30) + 1 * (k71*x54) + (-1) * (k72*x6*x31) + 1 * (k73*x55) + (-1) * (k74*x6*x32) + 1 * (k75*x56) + (-1) * (k76*x6*x33) + 1 * (k77*x57) + (-1) * (k78*x6*x34) + 1 * (k79*x58)) / k1
(1 * (k28*x14) + (-1) * (k29*x1*x7) + 1 * (k30*x18) + (-1) * (k80*x7*x23) + 1 * (k81*x59) + (-1) * (k82*x7*x24) + 1 * (k83*x60) + (-1) * (k84*x7*x25) + 1 * (k85*x61) + (-1) * (k86*x7*x26) + 1 * (k87*x62) + (-1) * (k88*x7*x27) + 1 * (k89*x63) + (-1) * (k90*x7*x28) + 1 * (k91*x64) + (-1) * (k92*x7*x29) + 1 * (k93*x65) + (-1) * (k94*x7*x30) + 1 * (k95*x66) + (-1) * (k96*x7*x31) + 1 * (k97*x67) + (-1) * (k98*x7*x32) + 1 * (k99*x68) + (-1) * (k100*x7*x33) + 1 * (k101*x69) + (-1) * (k102*x7*x34) + 1 * (k103*x70)) / k1
((-1) * (k8*x8*x12) + 1 * (k9*x15) + 1 * (k13*x19) + (-1) * (k104*x8*x23) + 1 * (k105*x26) + (-1) * (k106*x8*x24) + 1 * (k107*x27) + (-1) * (k108*x8*x25) + 1 * (k109*x28) + (-1) * (k122*x8*x35) + 1 * (k123*x38) + (-1) * (k124*x8*x36) + 1 * (k125*x39) + (-1) * (k126*x8*x37) + 1 * (k127*x40) + (-1) * (k140*x8*x47) + 1 * (k141*x50) + (-1) * (k142*x8*x48) + 1 * (k143*x51) + (-1) * (k144*x8*x49) + 1 * (k145*x52) + (-1) * (k158*x8*x59) + 1 * (k159*x62) + (-1) * (k160*x8*x60) + 1 * (k161*x63) + (-1) * (k162*x8*x61) + 1 * (k163*x64)) / k1
(1 * (k10*x15) + (-1) * (k11*x2*x9) + 1 * (k12*x19) + (-1) * (k14*x9*x12) + 1 * (k15*x16) + 1 * (k19*x20) + (-1) * (k110*x9*x23) + 1 * (k111*x29) + (-1) * (k112*x9*x24) + 1 * (k113*x30) + (-1) * (k114*x9*x25) + 1 * (k115*x31) + (-1) * (k128*x9*x35) + 1 * (k129*x41) + (-1) * (k130*x9*x36) + 1 * (k131*x42) + (-1) * (k132*x9*x37) + 1 * (k133*x43) + (-1) * (k146*x9*x47) + 1 * (k147*x53) + (-1) * (k148*x9*x48) + 1 * (k149*x54) + (-1) * (k150*x9*x49) + 1 * (k151*x55) + (-1) * (k164*x9*x59) + 1 * (k165*x65) + (-1) * (k166*x9*x60) + 1 * (k167*x66) + (-1) * (k168*x9*x61) + 1 * (k169*x67)) / k1
(1 * (k16*x16) + (-1) * (k17*x2*x10) + 1 * (k18*x20) + (-1) * (k20*x5*x10) + 1 * (k21*x13) + 1 * (k22*x13) + (-1) * (k26*x6*x10) + 1 * (k27*x14) + 1 * (k28*x14) + (-1) * (k116*x10*x23) + 1 * (k117*x32) + (-1) * (k118*x10*x24) + 1 * (k119*x33) + (-1) * (k120*x10*x25) + 1 * (k121*x34) + (-1) * (k134*x10*x35) + 1 * (k135*x44) + (-1) * (k136*x10*x36) + 1 * (k137*x45) + (-1) * (k138*x10*x37) + 1 * (k139*x46) + (-1) * (k152*x10*x47) + 1 * (k153*x56) + (-1) * (k154*x10*x48) + 1 * (k155*x57) + (-1) * (k156*x10*x49) + 1 * (k157*x58) + (-1) * (k170*x10*x59) + 1 * (k171*x68) + (-1) * (k172*x10*x60) + 1 * (k173*x69) + (-1) * (k174*x10*x61) + 1 * (k175*x70)) / k1
((-1) * (k2*x3*x11) + 1 * (k3*x21) + 1 * (k7*x22) + (-1) * (k176*x11*x23) + 1 * (k177*x24) + (-1) * (k180*x11*x26) + 1 * (k181*x27) + (-1) * (k184*x11*x29) + 1 * (k185*x30) + (-1) * (k188*x11*x32) + 1 * (k189*x33) + (-1) * (k192*x11*x35) + 1 * (k193*x36) + (-1) * (k196*x11*x38) + 1 * (k197*x39) + (-1) * (k200*x11*x41) + 1 * (k201*x42) + (-1) * (k204*x11*x44) + 1 * (k205*x45) + (-1) * (k208*x11*x47) + 1 * (k209*x48) + (-1) * (k212*x11*x50) + 1 * (k213*x51) + (-1) * (k216*x11*x53) + 1 * (k217*x54) + (-1) * (k220*x11*x56) + 1 * (k221*x57) + (-1) * (k224*x11*x59) + 1 * (k225*x60) + (-1) * (k228*x11*x62) + 1 * (k229*x63) + (-1) * (k232*x11*x65) + 1 * (k233*x66) + (-1) * (k236*x11*x68) + 1 * (k237*x69)) / k1
(1 * (k4*x21) + (-1) * (k5*x4*x12) + 1 * (k6*x22) + (-1) * (k8*x8*x12) + 1 * (k9*x15) + 1 * (k10*x15) + (-1) * (k14*x9*x12) + 1 * (k15*x16) + 1 * (k16*x16) + (-1) * (k178*x12*x23) + 1 * (k179*x25) + (-1) * (k182*x12*x26) + 1 * (k183*x28) + (-1) * (k186*x12*x29) + 1 * (k187*x31) + (-1) * (k190*x12*x32) + 1 * (k191*x34) + (-1) * (k194*x12*x35) + 1 * (k195*x37) + (-1) * (k198*x12*x38) + 1 * (k199*x40) + (-1) * (k202*x12*x41) + 1 * (k203*x43) + (-1) * (k206*x12*x44) + 1 * (k207*x46) + (-1) * (k210*x12*x47) + 1 * (k211*x49) + (-1) * (k214*x12*x50) + 1 * (k215*x52) + (-1) * (k218*x12*x53) + 1 * (k219*x55) + (-1) * (k222*x12*x56) + 1 * (k223*x58) + (-1) * (k226*x12*x59) + 1 * (k227*x61) + (-1) * (k230*x12*x62) + 1 * (k231*x64) + (-1) * (k234*x12*x65) + 1 * (k235*x67) + (-1) * (k238*x12*x68) + 1 * (k239*x70)) / k1
(1 * (k20*x5*x10) + (-1) * (k21*x13) + (-1) * (k22*x13)) / k1
(1 * (k26*x6*x10) + (-1) * (k27*x14) + (-1) * (k28*x14)) / k1
(1 * (k8*x8*x12) + (-1) * (k9*x15) + (-1) * (k10*x15)) / k1
(1 * (k14*x9*x12) + (-1) * (k15*x16) + (-1) * (k16*x16)) / k1
(1 * (k23*x1*x6) + (-1) * (k24*x17) + (-1) * (k25*x17)) / k1
(1 * (k29*x1*x7) + (-1) * (k30*x18) + (-1) * (k31*x18)) / k1
(1 * (k11*x2*x9) + (-1) * (k12*x19) + (-1) * (k13*x19)) / k1
(1 * (k17*x2*x10) + (-1) * (k18*x20) + (-1) * (k19*x20)) / k1
(1 * (k2*x3*x11) + (-1) * (k3*x21) + (-1) * (k4*x21)) / k1
(1 * (k5*x4*x12) + (-1) * (k6*x22) + (-1) * (k7*x22)) / k1
((-1) * (k32*x5*x23) + 1 * (k33*x35) + (-1) * (k56*x6*x23) + 1 * (k57*x47) + (-1) * (k80*x7*x23) + 1 * (k81*x59) + (-1) * (k104*x8*x23) + 1 * (k105*x26) + (-1) * (k110*x9*x23) + 1 * (k111*x29) + (-1) * (k116*x10*x23) + 1 * (k117*x32) + (-1) * (k176*x11*x23) + 1 * (k177*x24) + (-1) * (k178*x12*x23) + 1 * (k179*x25)) / k1
((-1) * (k34*x5*x24) + 1 * (k35*x36) + (-1) * (k58*x6*x24) + 1 * (k59*x48) + (-1) * (k82*x7*x24) + 1 * (k83*x60) + (-1) * (k106*x8*x24) + 1 * (k107*x27) + (-1) * (k112*x9*x24) + 1 * (k113*x30) + (-1) * (k118*x10*x24) + 1 * (k119*x33) + 1 * (k176*x11*x23) + (-1) * (k177*x24) + (-1) * (k254*x3*x24) + 1 * (k255*x71)) / k1
((-1) * (k36*x5*x25) + 1 * (k37*x37) + (-1) * (k60*x6*x25) + 1 * (k61*x49) + (-1) * (k84*x7*x25) + 1 * (k85*x61) + (-1) * (k108*x8*x25) + 1 * (k109*x28) + (-1) * (k114*x9*x25) + 1 * (k115*x31) + (-1) * (k120*x10*x25) + 1 * (k121*x34) + 1 * (k178*x12*x23) + (-1) * (k179*x25) + 1 * (k256*x71)) / k1
((-1) * (k38*x5*x26) + 1 * (k39*x38) + (-1) * (k62*x6*x26) + 1 * (k63*x50) + (-1) * (k86*x7*x26) + 1 * (k87*x62) + 1 * (k104*x8*x23) + (-1) * (k105*x26) + (-1) * (k180*x11*x26) + 1 * (k181*x27) + (-1) * (k182*x12*x26) + 1 * (k183*x28)) / k1
((-1) * (k40*x5*x27) + 1 * (k41*x39) + (-1) * (k64*x6*x27) + 1 * (k65*x51) + (-1) * (k88*x7*x27) + 1 * (k89*x63) + 1 * (k106*x8*x24) + (-1) * (k107*x27) + 1 * (k180*x11*x26) + (-1) * (k181*x27) + (-1) * (k257*x3*x27) + 1 * (k258*x72)) / k1
((-1) * (k42*x5*x28) + 1 * (k43*x40) + (-1) * (k66*x6*x28) + 1 * (k67*x52) + (-1) * (k90*x7*x28) + 1 * (k91*x64) + 1 * (k108*x8*x25) + (-1) * (k109*x28) + 1 * (k182*x12*x26) + (-1) * (k183*x28) + (-1) * (k246*x28) + 1 * (k259*x72)) / k1
((-1) * (k44*x5*x29) + 1 * (k45*x41) + (-1) * (k68*x6*x29) + 1 * (k69*x53) + (-1) * (k92*x7*x29) + 1 * (k93*x65) + 1 * (k110*x9*x23) + (-1) * (k111*x29) + (-1) * (k184*x11*x29) + 1 * (k185*x30) + (-1) * (k186*x12*x29) + 1 * (k187*x31)) / k1
((-1) * (k46*x5*x30) + 1 * (k47*x42) + (-1) * (k70*x6*x30) + 1 * (k71*x54) + (-1) * (k94*x7*x30) + 1 * (k95*x66) + 1 * (k112*x9*x24) + (-1) * (k113*x30) + 1 * (k184*x11*x29) + (-1) * (k185*x30) + (-1) * (k260*x3*x30) + 1 * (k261*x73)) / k1
((-1) * (k48*x5*x31) + 1 * (k49*x43) + (-1) * (k72*x6*x31) + 1 * (k73*x55) + (-1) * (k96*x7*x31) + 1 * (k97*x67) + 1 * (k114*x9*x25) + (-1) * (k115*x31) + 1 * (k186*x12*x29) + (-1) * (k187*x31) + 1 * (k246*x28) + (-1) * (k247*x31) + 1 * (k262*x73)) / k1
((-1) * (k50*x5*x32) + 1 * (k51*x44) + (-1) * (k74*x6*x32) + 1 * (k75*x56) + (-1) * (k98*x7*x32) + 1 * (k99*x68) + 1 * (k116*x10*x23) + (-1) * (k117*x32) + (-1) * (k188*x11*x32) + 1 * (k189*x33) + (-1) * (k190*x12*x32) + 1 * (k191*x34)) / k1
((-1) * (k52*x5*x33) + 1 * (k53*x45) + (-1) * (k76*x6*x33) + 1 * (k77*x57) + (-1) * (k100*x7*x33) + 1 * (k101*x69) + 1 * (k118*x10*x24) + (-1) * (k119*x33) + 1 * (k188*x11*x32) + (-1) * (k189*x33) + (-1) * (k263*x3*x33) + 1 * (k264*x74)) / k1
((-1) * (k54*x5*x34) + 1 * (k55*x46) + (-1) * (k78*x6*x34) + 1 * (k79*x58) + (-1) * (k102*x7*x34) + 1 * (k103*x70) + 1 * (k120*x10*x25) + (-1) * (k121*x34) + 1 * (k190*x12*x32) + (-1) * (k191*x34) + 1 * (k247*x31) + 1 * (k265*x74)) / k1
(1 * (k32*x5*x23) + (-1) * (k33*x35) + (-1) * (k122*x8*x35) + 1 * (k123*x38) + (-1) * (k128*x9*x35) + 1 * (k129*x41) + (-1) * (k134*x10*x35) + 1 * (k135*x44) + (-1) * (k192*x11*x35) + 1 * (k193*x36) + (-1) * (k194*x12*x35) + 1 * (k195*x37)) / k1
(1 * (k34*x5*x24) + (-1) * (k35*x36) + (-1) * (k124*x8*x36) + 1 * (k125*x39) + (-1) * (k130*x9*x36) + 1 * (k131*x42) + (-1) * (k136*x10*x36) + 1 * (k137*x45) + 1 * (k192*x11*x35) + (-1) * (k193*x36) + (-1) * (k266*x3*x36) + 1 * (k267*x75)) / k1
(1 * (k36*x5*x25) + (-1) * (k37*x37) + (-1) * (k126*x8*x37) + 1 * (k127*x40) + (-1) * (k132*x9*x37) + 1 * (k133*x43) + (-1) * (k138*x10*x37) + 1 * (k139*x46) + 1 * (k194*x12*x35) + (-1) * (k195*x37) + 1 * (k268*x75)) / k1
(1 * (k38*x5*x26) + (-1) * (k39*x38) + 1 * (k122*x8*x35) + (-1) * (k123*x38) + (-1) * (k196*x11*x38) + 1 * (k197*x39) + (-1) * (k198*x12*x38) + 1 * (k199*x40)) / k1
(1 * (k40*x5*x27) + (-1) * (k41*x39) + 1 * (k124*x8*x36) + (-1) * (k125*x39) + 1 * (k196*x11*x38) + (-1) * (k197*x39) + (-1) * (k269*x3*x39) + 1 * (k270*x76)) / k1
(1 * (k42*x5*x28) + (-1) * (k43*x40) + 1 * (k126*x8*x37) + (-1) * (k127*x40) + 1 * (k198*x12*x38) + (-1) * (k199*x40) + (-1) * (k248*x40) + 1 * (k271*x76)) / k1
(1 * (k44*x5*x29) + (-1) * (k45*x41) + 1 * (k128*x9*x35) + (-1) * (k129*x41) + (-1) * (k200*x11*x41) + 1 * (k201*x42) + (-1) * (k202*x12*x41) + 1 * (k203*x43)) / k1
(1 * (k46*x5*x30) + (-1) * (k47*x42) + 1 * (k130*x9*x36) + (-1) * (k131*x42) + 1 * (k200*x11*x41) + (-1) * (k201*x42) + (-1) * (k272*x3*x42) + 1 * (k273*x77)) / k1
(1 * (k48*x5*x31) + (-1) * (k49*x43) + 1 * (k132*x9*x37) + (-1) * (k133*x43) + 1 * (k202*x12*x41) + (-1) * (k203*x43) + 1 * (k248*x40) + (-1) * (k249*x43) + 1 * (k274*x77)) / k1
(1 * (k50*x5*x32) + (-1) * (k51*x44) + 1 * (k134*x10*x35) + (-1) * (k135*x44) + (-1) * (k204*x11*x44) + 1 * (k205*x45) + (-1) * (k206*x12*x44) + 1 * (k207*x46) + (-1) * (k240*x44)) / k1
(1 * (k52*x5*x33) + (-1) * (k53*x45) + 1 * (k136*x10*x36) + (-1) * (k137*x45) + 1 * (k204*x11*x44) + (-1) * (k205*x45) + (-1) * (k241*x45) + (-1) * (k275*x3*x45) + 1 * (k276*x78)) / k1
(1 * (k54*x5*x34) + (-1) * (k55*x46) + 1 * (k138*x10*x37) + (-1) * (k139*x46) + 1 * (k206*x12*x44) + (-1) * (k207*x46) + (-1) * (k242*x46) + 1 * (k249*x43) + 1 * (k277*x78)) / k1
(1 * (k56*x6*x23) + (-1) * (k57*x47) + (-1) * (k140*x8*x47) + 1 * (k141*x50) + (-1) * (k146*x9*x47) + 1 * (k147*x53) + (-1) * (k152*x10*x47) + 1 * (k153*x56) + (-1) * (k208*x11*x47) + 1 * (k209*x48) + (-1) * (k210*x12*x47) + 1 * (k211*x49)) / k1
(1 * (k58*x6*x24) + (-1) * (k59*x48) + (-1) * (k142*x8*x48) + 1 * (k143*x51) + (-1) * (k148*x9*x48) + 1 * (k149*x54) + (-1) * (k154*x10*x48) + 1 * (k155*x57) + 1 * (k208*x11*x47) + (-1) * (k209*x48) + (-1) * (k278*x3*x48) + 1 * (k279*x79)) / k1
(1 * (k60*x6*x25) + (-1) * (k61*x49) + (-1) * (k144*x8*x49) + 1 * (k145*x52) + (-1) * (k150*x9*x49) + 1 * (k151*x55) + (-1) * (k156*x10*x49) + 1 * (k157*x58) + 1 * (k210*x12*x47) + (-1) * (k211*x49) + 1 * (k280*x79)) / k1
(1 * (k62*x6*x26) + (-1) * (k63*x50) + 1 * (k140*x8*x47) + (-1) * (k141*x50) + (-1) * (k212*x11*x50) + 1 * (k213*x51) + (-1) * (k214*x12*x50) + 1 * (k215*x52)) / k1
(1 * (k64*x6*x27) + (-1) * (k65*x51) + 1 * (k142*x8*x48) + (-1) * (k143*x51) + 1 * (k212*x11*x50) + (-1) * (k213*x51) + (-1) * (k281*x3*x51) + 1 * (k282*x80)) / k1
(1 * (k66*x6*x28) + (-1) * (k67*x52) + 1 * (k144*x8*x49) + (-1) * (k145*x52) + 1 * (k214*x12*x50) + (-1) * (k215*x52) + (-1) * (k250*x52) + 1 * (k283*x80)) / k1
(1 * (k68*x6*x29) + (-1) * (k69*x53) + 1 * (k146*x9*x47) + (-1) * (k147*x53) + (-1) * (k216*x11*x53) + 1 * (k217*x54) + (-1) * (k218*x12*x53) + 1 * (k219*x55)) / k1
(1 * (k70*x6*x30) + (-1) * (k71*x54) + 1 * (k148*x9*x48) + (-1) * (k149*x54) + 1 * (k216*x11*x53) + (-1) * (k217*x54) + (-1) * (k284*x3*x54) + 1 * (k285*x81)) / k1
(1 * (k72*x6*x31) + (-1) * (k73*x55) + 1 * (k150*x9*x49) + (-1) * (k151*x55) + 1 * (k218*x12*x53) + (-1) * (k219*x55) + 1 * (k250*x52) + (-1) * (k251*x55) + 1 * (k286*x81)) / k1
(1 * (k74*x6*x32) + (-1) * (k75*x56) + 1 * (k152*x10*x47) + (-1) * (k153*x56) + (-1) * (k220*x11*x56) + 1 * (k221*x57) + (-1) * (k222*x12*x56) + 1 * (k223*x58) + 1 * (k240*x44) + (-1) * (k243*x56)) / k1
(1 * (k76*x6*x33) + (-1) * (k77*x57) + 1 * (k154*x10*x48) + (-1) * (k155*x57) + 1 * (k220*x11*x56) + (-1) * (k221*x57) + 1 * (k241*x45) + (-1) * (k244*x57) + (-1) * (k287*x3*x57) + 1 * (k288*x82)) / k1
(1 * (k78*x6*x34) + (-1) * (k79*x58) + 1 * (k156*x10*x49) + (-1) * (k157*x58) + 1 * (k222*x12*x56) + (-1) * (k223*x58) + 1 * (k242*x46) + (-1) * (k245*x58) + 1 * (k251*x55) + 1 * (k289*x82)) / k1
(1 * (k80*x7*x23) + (-1) * (k81*x59) + (-1) * (k158*x8*x59) + 1 * (k159*x62) + (-1) * (k164*x9*x59) + 1 * (k165*x65) + (-1) * (k170*x10*x59) + 1 * (k171*x68) + (-1) * (k224*x11*x59) + 1 * (k225*x60) + (-1) * (k226*x12*x59) + 1 * (k227*x61)) / k1
(1 * (k82*x7*x24) + (-1) * (k83*x60) + (-1) * (k160*x8*x60) + 1 * (k161*x63) + (-1) * (k166*x9*x60) + 1 * (k167*x66) + (-1) * (k172*x10*x60) + 1 * (k173*x69) + 1 * (k224*x11*x59) + (-1) * (k225*x60) + (-1) * (k290*x3*x60) + 1 * (k291*x83)) / k1
(1 * (k84*x7*x25) + (-1) * (k85*x61) + (-1) * (k162*x8*x61) + 1 * (k163*x64) + (-1) * (k168*x9*x61) + 1 * (k169*x67) + (-1) * (k174*x10*x61) + 1 * (k175*x70) + 1 * (k226*x12*x59) + (-1) * (k227*x61) + 1 * (k292*x83)) / k1
(1 * (k86*x7*x26) + (-1) * (k87*x62) + 1 * (k158*x8*x59) + (-1) * (k159*x62) + (-1) * (k228*x11*x62) + 1 * (k229*x63) + (-1) * (k230*x12*x62) + 1 * (k231*x64)) / k1
(1 * (k88*x7*x27) + (-1) * (k89*x63) + 1 * (k160*x8*x60) + (-1) * (k161*x63) + 1 * (k228*x11*x62) + (-1) * (k229*x63) + (-1) * (k293*x3*x63) + 1 * (k294*x84)) / k1
(1 * (k90*x7*x28) + (-1) * (k91*x64) + 1 * (k162*x8*x61) + (-1) * (k163*x64) + 1 * (k230*x12*x62) + (-1) * (k231*x64) + (-1) * (k252*x64) + 1 * (k295*x84)) / k1
(1 * (k92*x7*x29) + (-1) * (k93*x65) + 1 * (k164*x9*x59) + (-1) * (k165*x65) + (-1) * (k232*x11*x65) + 1 * (k233*x66) + (-1) * (k234*x12*x65) + 1 * (k235*x67)) / k1
(1 * (k94*x7*x30) + (-1) * (k95*x66) + 1 * (k166*x9*x60) + (-1) * (k167*x66) + 1 * (k232*x11*x65) + (-1) * (k233*x66) + (-1) * (k296*x3*x66) + 1 * (k297*x85)) / k1
(1 * (k96*x7*x31) + (-1) * (k97*x67) + 1 * (k168*x9*x61) + (-1) * (k169*x67) + 1 * (k234*x12*x65) + (-1) * (k235*x67) + 1 * (k252*x64) + (-1) * (k253*x67) + 1 * (k298*x85)) / k1
(1 * (k98*x7*x32) + (-1) * (k99*x68) + 1 * (k170*x10*x59) + (-1) * (k171*x68) + (-1) * (k236*x11*x68) + 1 * (k237*x69) + (-1) * (k238*x12*x68) + 1 * (k239*x70) + 1 * (k243*x56)) / k1
(1 * (k100*x7*x33) + (-1) * (k101*x69) + 1 * (k172*x10*x60) + (-1) * (k173*x69) + 1 * (k236*x11*x68) + (-1) * (k237*x69) + 1 * (k244*x57) + (-1) * (k299*x3*x69) + 1 * (k300*x86)) / k1
(1 * (k102*x7*x34) + (-1) * (k103*x70) + 1 * (k174*x10*x61) + (-1) * (k175*x70) + 1 * (k238*x12*x68) + (-1) * (k239*x70) + 1 * (k245*x58) + 1 * (k253*x67) + 1 * (k301*x86)) / k1
(1 * (k254*x3*x24) + (-1) * (k255*x71) + (-1) * (k256*x71)) / k1
(1 * (k257*x3*x27) + (-1) * (k258*x72) + (-1) * (k259*x72)) / k1
(1 * (k260*x3*x30) + (-1) * (k261*x73) + (-1) * (k262*x73)) / k1
(1 * (k263*x3*x33) + (-1) * (k264*x74) + (-1) * (k265*x74)) / k1
(1 * (k266*x3*x36) + (-1) * (k267*x75) + (-1) * (k268*x75)) / k1
(1 * (k269*x3*x39) + (-1) * (k270*x76) + (-1) * (k271*x76)) / k1
(1 * (k272*x3*x42) + (-1) * (k273*x77) + (-1) * (k274*x77)) / k1
(1 * (k275*x3*x45) + (-1) * (k276*x78) + (-1) * (k277*x78)) / k1
(1 * (k278*x3*x48) + (-1) * (k279*x79) + (-1) * (k280*x79)) / k1
(1 * (k281*x3*x51) + (-1) * (k282*x80) + (-1) * (k283*x80)) / k1
(1 * (k284*x3*x54) + (-1) * (k285*x81) + (-1) * (k286*x81)) / k1
(1 * (k287*x3*x57) + (-1) * (k288*x82) + (-1) * (k289*x82)) / k1
(1 * (k290*x3*x60) + (-1) * (k291*x83) + (-1) * (k292*x83)) / k1
(1 * (k293*x3*x63) + (-1) * (k294*x84) + (-1) * (k295*x84)) / k1
(1 * (k296*x3*x66) + (-1) * (k297*x85) + (-1) * (k298*x85)) / k1
(1 * (k299*x3*x69) + (-1) * (k300*x86) + (-1) * (k301*x86)) / k1
