k3*x22 - k50
k3*x20 + k3*x21 - k51
k3*x19 - k52
k3*x17 + k3*x18 - k53
k3*x8 + k3*x9 + k3*x10 + k3*x11 + k3*x12 + k3*x13 + k3*x14 + k3*x15 + k3*x16 - k54
k3*x3 + k3*x4 + k3*x5 + 2*k3*x6 + 2*k3*x7 + k3*x9 + 2*k3*x10 + k3*x11 + k3*x12 + 2*k3*x15 + 2*k3*x16 - k55
k3*x1 + k3*x2 + k3*x4 + k3*x5 + k3*x6 + k3*x7 + k3*x11 + k3*x12 + k3*x13 + k3*x14 + k3*x15 + k3*x16 - k56
