[
  ["#0",
    [[0,0,0],
     [0,0,0],
     [0,0,0]], [
    [[[-1,1,-1,0]], [[1,0,0,1],[-1,1,0,0]], 0],
    [[[-1,1,0,0]], [[0,0,-1,0],[1,0,-1,1]], 1],
    [[[0,1,-1,1]], [[-1,1,-1,0],[-1,1,0,0]], 2]
  ]],
  ["#1",
    [[0,0,0,1,1,1,1,1,1,1,1,1],
     [0,0,1,0,0,0,1,1,1,1,1,1],
     [0,1,0,1,1,1,0,1,1,0,1,1],
     [1,0,1,0,0,0,0,0,0,1,1,1],
     [1,0,1,0,0,0,1,1,1,1,1,1],
     [1,0,1,0,0,0,1,0,1,1,0,1],
     [1,1,0,0,1,1,0,0,0,0,1,1],
     [1,1,1,0,1,0,0,0,0,1,0,1],
     [1,1,1,0,1,1,0,0,0,1,0,0],
     [1,1,0,1,1,1,0,1,1,0,1,0],
     [1,1,1,1,1,0,1,0,0,1,0,0],
     [1,1,1,1,1,1,1,1,0,0,0,0]], [
    [[[0,0,1,-1]], [[1,1,0,0],[0,0,1,0]], 0],
    [[[0,0,1,0]], [[1,1,0,1],[1,0,0,1],[0,0,0,-1]], 1],
    [[[1,1,-1,1]], [[-1,-1,0,0],[2,1,0,0],[0,0,1,0]], 2],
    [[[0,0,1,-1]], [[0,0,-1,0],[1,1,0,0]], 3],
    [[[-1,0,1,-1]], [[0,0,-1,0],[0,1,0,0]], 4],
    [[[1,1,-1,1]], [[0,0,-1,0],[1,1,0,0],[0,-1,0,0]], 5],
    [[[1,1,-2,1]], [[2,1,-1,0],[-1,-1,2,0],[0,0,-1,0]], 6],
    [[[1,1,-2,2]], [[3,1,0,0],[1,1,-2,0],[-1,-1,0,0]], 7],
    [[[2,1,-1,1]], [[2,1,-1,0],[-3,-1,0,0]], 8],
    [[[1,0,1,-1]], [[1,0,1,0],[-2,-1,1,0],[-2,-1,0,0]], 9],
    [[[1,0,1,-1]], [[-1,0,-1,0],[-3,-1,0,0]], 10],
    [[[0,0,0,1]], [[-1,0,-1,0],[-2,-1,1,0]], 11]
  ]],
  ["#2",
    [[0,0,0,1,1,1,1,1,1,1,1,1],
     [0,0,1,0,0,0,1,1,1,1,1,1],
     [0,1,0,1,1,1,0,1,1,0,1,1],
     [1,0,1,0,0,0,0,0,0,1,1,1],
     [1,0,1,0,0,0,1,1,1,1,1,1],
     [1,0,1,0,0,0,1,0,1,1,0,1],
     [1,1,0,0,1,1,0,0,0,0,1,1],
     [1,1,1,0,1,0,0,0,0,1,0,1],
     [1,1,1,0,1,1,0,0,0,1,0,0],
     [1,1,0,1,1,1,0,1,1,0,1,0],
     [1,1,1,1,1,0,1,0,0,1,0,0],
     [1,1,1,1,1,1,1,1,0,0,0,0]], [
    [[[0,0,1,-1]], [[1,1,0,0],[0,0,1,0]], 0],
    [[[0,0,1,0]], [[1,1,0,1],[1,0,0,1],[0,0,0,-1]], 1],
    [[[1,1,-1,1]], [[-1,-1,0,0],[2,1,0,0],[0,0,1,0]], 2],
    [[[0,0,1,-1]], [[0,0,-1,0],[1,1,0,0]], 3],
    [[[-1,0,1,-1]], [[0,0,-1,0],[0,1,0,0]], 4],
    [[[1,1,-1,1]], [[0,0,-1,0],[1,1,0,0],[0,-1,0,0]], 5],
    [[[1,1,-2,1]], [[2,1,-1,0],[-1,-1,2,0],[0,0,-1,0]], 6],
    [[[1,1,-2,2]], [[3,1,0,0],[1,1,-2,0],[-1,-1,0,0]], 7],
    [[[2,1,-1,1]], [[2,1,-1,0],[-3,-1,0,0]], 8],
    [[[1,0,1,-1]], [[1,0,1,0],[-2,-1,1,0],[-2,-1,0,0]], 9],
    [[[1,0,1,-1]], [[-1,0,-1,0],[-3,-1,0,0]], 10],
    [[[0,0,0,1]], [[-1,0,-1,0],[-2,-1,1,0]], 11]
  ]],
  ["#3",
    [[0,0],
     [0,0]], [
    [[[1,0,0,1]], [[1,0,1,0]], 0],
    [[[1,0,1,0]], [[1,0,0,1]], 1]
  ]]
]
