[
  ["x1","x2"],
  [
    [[[-1,0,5],1],[[-1,1,4],-1],[[0,0,1],1],[[0,0,5],1],[[2,0,1],1],[[2,0,5],1],[[2,1,0],-1],[[2,1,4],-1]],
    [[[-1,0,5],-1],[[-1,1,4],1],[[0,0,0],1],[[0,0,1],-1],[[0,0,4],1],[[0,0,5],-1],[[2,0,1],-1],[[2,0,5],-1],[[2,1,0],1],[[2,1,4],1]]
  ]
]
