[
  ["#0",
    [[0,0,0,1,1,1,1,1,1,1,1,1,1,1],
     [0,0,1,0,1,1,1,1,1,1,1,1,1,1],
     [0,1,0,0,0,0,0,0,1,1,1,1,1,1],
     [1,0,0,0,0,0,0,0,1,1,1,1,1,1],
     [1,1,0,0,0,0,0,0,0,1,0,1,1,1],
     [1,1,0,0,0,0,0,0,1,1,1,0,1,1],
     [1,1,0,0,0,0,0,0,1,0,1,1,0,1],
     [1,1,0,0,0,0,0,0,1,1,1,1,1,0],
     [1,1,1,1,0,1,1,1,0,0,0,1,1,1],
     [1,1,1,1,1,1,0,1,0,0,1,1,0,1],
     [1,1,1,1,0,1,1,1,0,1,0,1,0,1],
     [1,1,1,1,1,0,1,1,1,1,1,0,1,0],
     [1,1,1,1,1,1,0,1,1,0,0,1,0,1],
     [1,1,1,1,1,1,1,0,1,1,1,0,1,0]], [
    [[[1,1,0,0,0,0]], [[3,0,0,0,1,0],[2,0,0,1,1,0],[1,0,1,0,0,0]], 0],
    [[[2,1,1,0,0,0]], [[3,0,0,0,1,0],[2,0,0,1,1,0],[1,1,0,0,0,0]], 1],
    [[[-1,1,0,-1,-1,0]], [[-1,-1,0,0,0,0],[1,0,1,0,0,0],[2,1,0,0,0,0],[2,1,0,-1,0,0]], 4],
    [[[0,1,1,-1,-1,0]], [[-2,-1,-1,0,0,0],[3,1,1,0,0,0],[3,1,1,-1,0,0],[-1,0,-1,0,0,0]], 6],
    [[[2,1,0,-1,0,0]], [[1,0,1,0,0,0],[2,1,0,0,0,0],[-1,-1,0,0,0,0],[-3,0,0,0,-1,0],[3,-1,0,0,1,0]], 7],
    [[[2,1,0,0,0,0]], [[1,0,1,0,0,0],[0,0,0,-1,0,0],[-3,0,0,-1,-1,0],[5,0,0,0,1,0]], 8],
    [[[3,1,1,-1,0,0]], [[3,1,1,0,0,0],[-3,0,0,0,-1,0],[-2,-1,-1,0,0,0],[-1,0,-1,0,0,0],[2,-1,-1,0,1,0]], 9],
    [[[3,1,1,0,0,0]], [[0,0,0,-1,0,0],[-3,0,0,-1,-1,0],[2,1,0,0,0,0],[5,0,0,0,1,0]], 10],
    [[[1,1,0,0,0,0]], [[-3,0,0,0,-1,0],[1,0,1,0,0,0],[-1,0,0,1,0,0],[4,0,0,0,1,0]], 12],
    [[[2,1,1,0,0,0]], [[-3,0,0,0,-1,0],[1,1,0,0,0,0],[-1,0,0,1,0,0],[4,0,0,0,1,0]], 13],
    [[[-3,1,0,0,-1,0]], [[1,0,1,0,0,0],[-1,-1,0,0,0,0],[0,0,0,1,0,0],[-2,-1,0,1,0,0]], 14],
    [[[-3,1,0,0,-1,0]], [[1,0,1,0,0,0],[-2,-1,0,0,0,0],[0,0,0,-1,0,0]], 17],
    [[[-2,1,1,0,-1,0]], [[-1,0,-1,0,0,0],[-2,-1,-1,0,0,0],[0,0,0,1,0,0],[-3,-1,-1,1,0,0]], 18],
    [[[-2,1,1,0,-1,0]], [[-1,0,-1,0,0,0],[-3,-1,-1,0,0,0],[0,0,0,-1,0,0]], 21]
  ]],
  ["#1",
    [[0,0,0,1,1,1,1,1,1,1,1,1,1,1],
     [0,0,1,0,1,1,1,1,1,1,1,1,1,1],
     [0,1,0,0,0,0,0,0,1,1,1,1,1,1],
     [1,0,0,0,0,0,0,0,1,1,1,1,1,1],
     [1,1,0,0,0,0,0,0,0,1,0,1,1,1],
     [1,1,0,0,0,0,0,0,1,1,1,0,1,1],
     [1,1,0,0,0,0,0,0,1,0,1,1,0,1],
     [1,1,0,0,0,0,0,0,1,1,1,1,1,0],
     [1,1,1,1,0,1,1,1,0,0,0,1,1,1],
     [1,1,1,1,1,1,0,1,0,0,1,1,0,1],
     [1,1,1,1,0,1,1,1,0,1,0,1,0,1],
     [1,1,1,1,1,0,1,1,1,1,1,0,1,0],
     [1,1,1,1,1,1,0,1,1,0,0,1,0,1],
     [1,1,1,1,1,1,1,0,1,1,1,0,1,0]], [
    [[[1,0,1,0,0,0]], [[3,0,0,0,1,0],[2,0,0,1,1,0],[1,1,0,0,0,0]], 0],
    [[[2,1,1,0,0,0]], [[3,0,0,0,1,0],[2,0,0,1,1,0],[-1,-1,0,0,0,0]], 1],
    [[[-1,0,1,-1,-1,0]], [[-1,0,-1,0,0,0],[1,1,0,0,0,0],[2,0,1,0,0,0],[2,0,1,-1,0,0]], 4],
    [[[0,1,1,-1,-1,0]], [[-2,-1,-1,0,0,0],[3,1,1,0,0,0],[3,1,1,-1,0,0],[-1,-1,0,0,0,0]], 6],
    [[[2,0,1,-1,0,0]], [[1,1,0,0,0,0],[2,0,1,0,0,0],[-1,0,-1,0,0,0],[-3,0,0,0,-1,0],[3,0,-1,0,1,0]], 7],
    [[[2,0,1,0,0,0]], [[1,1,0,0,0,0],[0,0,0,-1,0,0],[-3,0,0,-1,-1,0],[5,0,0,0,1,0]], 8],
    [[[3,1,1,-1,0,0]], [[3,1,1,0,0,0],[-3,0,0,0,-1,0],[-2,-1,-1,0,0,0],[-1,-1,0,0,0,0],[2,-1,-1,0,1,0]], 9],
    [[[3,1,1,0,0,0]], [[0,0,0,-1,0,0],[-3,0,0,-1,-1,0],[-1,-1,0,0,0,0],[5,0,0,0,1,0]], 10],
    [[[1,0,1,0,0,0]], [[-3,0,0,0,-1,0],[1,1,0,0,0,0],[-1,0,0,1,0,0],[4,0,0,0,1,0]], 12],
    [[[2,1,1,0,0,0]], [[-3,0,0,0,-1,0],[-1,-1,0,0,0,0],[-1,0,0,1,0,0],[4,0,0,0,1,0]], 13],
    [[[-3,0,1,0,-1,0]], [[1,1,0,0,0,0],[-1,0,-1,0,0,0],[0,0,0,1,0,0],[-2,0,-1,1,0,0]], 14],
    [[[-3,0,1,0,-1,0]], [[1,1,0,0,0,0],[-2,0,-1,0,0,0],[0,0,0,-1,0,0]], 17],
    [[[-2,1,1,0,-1,0]], [[-1,-1,0,0,0,0],[-2,-1,-1,0,0,0],[0,0,0,1,0,0],[-3,-1,-1,1,0,0]], 18],
    [[[-2,1,1,0,-1,0]], [[-1,-1,0,0,0,0],[-3,-1,-1,0,0,0],[0,0,0,-1,0,0]], 21]
  ]],
  ["#2",
    [[0,0,0,0],
     [0,0,0,1],
     [0,0,0,1],
     [0,1,1,0]], [
    [[[1,0,0,0,1,0]], [[2,0,0,1,0,0],[1,0,0,-1,0,0]], 0],
    [[[-2,0,0,1,-1,0]], [[4,0,0,-1,0,0],[-1,0,0,1,0,0]], 1],
    [[[-4,0,0,1,0,0]], [[-2,0,0,0,1,0]], 2],
    [[[2,0,0,1,0,0]], [[-1,0,0,0,-1,0]], 3]
  ]],
  ["#3",
    [[0]], [
    [[[2,1,1,0,-1,0]], [], 0]
  ]],
  ["#4",
    [[0,0,0,0,1],
     [0,0,0,1,0],
     [0,0,0,1,1],
     [0,1,1,0,0],
     [1,0,1,0,0]], [
    [[[-1,0,0,0,1,-1]], [[3,0,0,0,-1,0],[1,0,0,1,1,0],[3,0,0,0,1,0]], 0],
    [[[2,0,0,1,0,1]], [[3,0,0,0,-1,0],[-1,0,0,-1,-1,0],[2,0,0,-1,0,0]], 1],
    [[[4,0,0,0,0,1]], [[-2,0,0,1,0,0],[-3,0,0,0,-1,0]], 2],
    [[[-2,0,0,0,0,1]], [[-3,0,0,0,1,0],[1,0,0,1,1,0]], 3],
    [[[-1,0,0,1,1,1]], [[-1,0,0,-1,-1,0],[-3,0,0,0,1,0]], 4]
  ]]
]
