[
  ["x8","x9","x10","x11","x12"],
  [
    [[[0,0,0,0,0,0],0]],
    [[[0,0,0,0,0,0],0]],
    [[[0,0,0,0,0,0],0]],
    [[[0,0,0,0,0,0],0]],
    [[[0,0,0,0,0,0],0]],
    [[[0,0,0,0,0,0],0]],
    [[[0,0,0,0,0,0],0]],
    [[[-4,0,0,0,0,0],1],[[-3,1,0,0,0,0],-1],[[-2,0,0,1,1,0],1],[[-2,1,1,0,0,0],-1],[[-1,0,0,0,1,0],1],[[-1,1,0,0,0,0],-1],[[0,0,0,0,1,0],1],[[0,1,0,0,1,0],-1],[[0,1,0,1,1,0],-1],[[0,1,1,0,0,0],-1],[[1,0,0,0,0,0],1],[[1,1,1,0,1,0],-1],[[1,1,1,1,1,0],-1],[[2,0,0,0,1,0],1],[[3,0,0,0,2,0],1],[[3,0,0,1,2,0],1],[[4,1,0,0,0,0],-1],[[5,1,1,0,0,0],-1],[[7,0,0,0,1,0],1]],
    [[[-4,0,0,0,0,0],1],[[-3,0,1,0,0,0],-1],[[-2,0,0,1,1,0],1],[[-2,1,1,0,0,0],-1],[[-1,0,0,0,1,0],1],[[-1,0,1,0,0,0],-1],[[0,0,0,0,1,0],1],[[0,0,1,0,1,0],-1],[[0,0,1,1,1,0],-1],[[0,1,1,0,0,0],-1],[[1,0,0,0,0,0],1],[[1,1,1,0,1,0],-1],[[1,1,1,1,1,0],-1],[[2,0,0,0,1,0],1],[[3,0,0,0,2,0],1],[[3,0,0,1,2,0],1],[[4,0,1,0,0,0],-1],[[5,1,1,0,0,0],-1],[[7,0,0,0,1,0],1]],
    [[[-3,0,0,1,0,0],-1],[[-2,0,0,1,1,0],1],[[-1,0,0,0,1,0],1],[[0,0,0,1,1,0],-1],[[0,0,0,2,1,0],-1],[[1,0,0,0,0,0],1],[[4,0,0,1,0,0],-1]],
    [[[-1,0,0,0,1,0],-1],[[1,1,1,0,0,0],1],[[3,0,0,0,1,0],-1]],
    [[[-2,0,0,0,1,0],1],[[-1,0,0,0,0,1],-1],[[0,0,0,1,1,1],-1],[[1,0,0,0,0,0],1],[[2,0,0,0,1,1],-1],[[6,0,0,0,0,1],-1]]
  ]
]
