[
  ["x1","x2","x3","x4","x5","x6"],
  [
    [[[-1,0,0,0,0,0,0],1],[[-1,0,1,0,0,0,0],1],[[-1,1,0,0,0,0,0],1],[[0,0,1,0,0,0,0],1],[[0,0,3,0,0,0,0],1],[[0,1,0,0,0,0,0],-1],[[0,1,2,0,0,0,0],-1],[[0,2,0,0,0,0,0],-1]],
    [[[0,0,0,0,0,1,0],1],[[0,0,0,0,2,1,0],1],[[0,0,0,1,0,0,0],1],[[0,0,0,1,0,0,2],1],[[0,0,0,1,0,1,0],1],[[0,0,1,0,0,0,0],-1],[[0,0,1,0,0,0,2],-1],[[0,0,1,0,2,0,0],-1],[[0,0,1,0,2,0,2],-1],[[0,0,1,1,0,1,0],1],[[0,0,2,0,0,0,0],-1],[[0,0,2,0,0,0,2],-1],[[0,0,2,0,0,1,0],-1],[[0,0,2,0,2,0,0],-1],[[0,0,2,1,0,0,0],-1],[[0,0,3,0,0,0,0],-1],[[0,1,0,0,0,0,0],1],[[0,1,0,0,0,0,2],1],[[0,1,0,0,0,1,0],1],[[0,1,0,0,2,0,0],1],[[0,1,0,0,2,0,2],1],[[0,1,0,0,2,1,0],1],[[0,1,0,1,0,0,0],1],[[0,1,0,1,0,0,2],1],[[0,1,0,1,0,1,0],1],[[0,1,1,0,0,0,0],1],[[0,1,1,0,0,0,2],1],[[0,1,1,0,0,1,0],1],[[0,1,1,0,2,0,0],1],[[0,1,1,1,0,0,0],1]],
    [[[0,0,0,0,1,0,0],1],[[0,0,0,0,3,0,0],1],[[0,0,0,1,0,0,0],-1],[[0,0,0,1,2,0,0],-1],[[0,0,0,2,0,0,0],-1],[[0,0,1,0,0,0,0],1],[[0,0,1,0,1,0,0],1],[[0,0,1,1,0,0,0],-1]],
    [[[0,0,0,0,0,0,0],1],[[0,0,0,0,1,0,0],-1],[[0,0,0,0,2,0,0],-1],[[0,0,0,1,0,0,0],1],[[0,0,0,1,1,0,0],-1]],
    [[[0,0,0,0,0,0,1],1],[[0,0,0,0,0,0,3],1],[[0,0,0,0,0,1,0],-1],[[0,0,0,0,0,1,2],-1],[[0,0,0,0,0,2,0],-1],[[0,0,1,0,0,0,0],1],[[0,0,1,0,0,0,1],1],[[0,0,1,0,0,1,0],-1]],
    [[[0,0,0,0,0,0,0],1],[[0,0,0,0,0,0,1],-1],[[0,0,0,0,0,0,2],-1],[[0,0,0,0,0,1,0],1],[[0,0,0,0,0,1,1],-1]],
    [[[0,0,0,0,0,0,0],0]],
    [[[0,0,0,0,0,0,0],0]],
    [[[0,0,0,0,0,0,0],0]]
  ]
]
