k16*x18 - k17
k16*x6 + k16*x17 - k18
k16*x6 + k16*x16 - k19
k16*x5 + k16*x15 - k20
k16*x5 + k16*x14 - k21
k16*x4 + k16*x13 - k22
k16*x3 + k16*x8 + k16*x9 + k16*x10 + k16*x11 + k16*x12 - k23
k16*x2 + k16*x7 + k16*x8 + k16*x9 + k16*x10 - k24
k16*x1 - k25
