[
  ["x1","x2","x3","x4","x5","x6","x7","x8","x9","x10","x12"],
  [
    [[[0,1,0,0,2,0,0,0,0,0,0,0],-1],[[1,0,0,0,0,0,0,0,0,0,0,0],1],[[2,0,0,0,0,0,0,0,0,0,0,1],1],[[2,1,0,0,0,0,0,0,0,0,0,0],-1],[[2,1,0,0,0,0,2,0,0,0,0,0],-1]],
    [[[0,0,1,0,0,0,0,0,0,0,0,0],-1],[[0,1,0,0,0,0,0,0,0,0,0,0],1]],
    [[[2,0,2,1,0,0,0,0,2,0,0,0],-1],[[2,0,2,1,0,0,2,0,0,0,0,0],-1],[[3,0,2,0,0,0,0,0,0,0,0,1],1],[[4,0,0,1,0,0,0,0,2,0,0,0],-1],[[4,0,0,1,0,0,2,0,0,0,0,0],-1],[[4,0,2,0,0,0,0,0,0,0,0,0],1],[[4,0,2,1,0,0,0,0,0,0,0,0],-1],[[5,0,0,0,0,0,0,0,0,0,0,1],1],[[6,0,0,0,0,0,0,0,0,0,0,0],1],[[6,0,0,1,0,0,0,0,0,0,0,0],-1]],
    [[[0,0,0,1,0,0,0,0,0,0,0,0],1],[[1,0,0,0,1,0,0,0,0,0,0,0],-1]],
    [[[0,0,0,0,0,0,0,0,0,0,0,0],1],[[0,0,0,0,0,1,0,0,0,0,0,0],-1],[[0,0,0,0,0,1,2,0,0,0,0,0],-1],[[0,0,2,0,0,1,0,0,0,0,0,0],-1]],
    [[[0,0,0,0,0,0,1,0,0,0,0,0],-1],[[0,0,0,0,0,1,0,0,0,0,0,0],1]],
    [[[0,0,0,0,0,0,0,0,0,0,0,0],1],[[0,0,0,0,0,0,0,1,0,0,0,0],-1],[[0,0,0,0,0,0,0,1,2,0,0,0],-1],[[0,0,0,0,0,0,2,1,0,0,0,0],-1],[[0,0,2,0,0,0,0,1,0,0,0,0],-1]],
    [[[0,0,0,0,0,0,0,0,1,0,0,0],-1],[[0,0,0,0,0,0,0,1,0,0,0,0],1]],
    [[[1,0,0,0,0,0,0,0,2,1,0,0],-1],[[3,0,0,0,0,0,0,0,0,0,0,0],1],[[3,0,0,0,0,0,0,0,0,1,0,0],-1]],
    [[[-1,0,0,0,0,0,0,0,0,0,1,0],-1],[[0,0,0,0,0,0,0,0,0,1,0,0],1]],
    [[[1,0,0,0,0,0,0,0,0,0,2,0],1],[[2,0,0,0,0,0,0,0,0,0,0,0],1],[[2,0,0,0,0,0,0,0,0,0,2,0],1]],
    [[[0,0,0,0,0,0,0,0,0,0,0,1],-1]]
  ]
]
