k1 = 0
k2 = 0
k3 = 7/10
k4 = 2
k5 = 1
k6 = 1
k7 = 2
k8 = 8
k9 = 2
k10 = 8
k11 = 2
k12 = 1
k13 = 2
k14 = 1
k15 = 2
k16 = 8
k17 = 2
k18 = 8
k19 = 2
k20 = 1
k21 = 2
k22 = 1
k23 = 1/100
k24 = 1/100
k25 = 1/100
k26 = 1/100
k27 = 1/100
k28 = 2
k29 = 1/5
k30 = 1/100
k31 = 1/5
k32 = 6/5
k33 = 3/5
k34 = 3/5
k35 = 1/5
k36 = 1/100
k37 = 1/100
k38 = 1
k39 = 1
k40 = 4
k41 = 1
k42 = 1
k43 = 4
k44 = 9/10
k45 = 9/10
k46 = 1/100
k47 = 7/10
k48 = 1/5
k49 = 1/100
k50 = 1/5
