
\\\\\\\\\\\\\\\\\\\\\\\\\\\\\\\\\\\\\\\\ file 0

\ combo: 0-0-0-0-2
\ dimension 0; is compact
MAXIMIZE
Subject To
  eq0: +1 x4 = 3    \ x4 = 0.000751315
  eq1: +1 x3 = 2    \ x3 = 0.00826446
  eq2: +1 x2 = 0    \ x2 = 1.0
  eq3: +1 x1 = -1   \ x1 = 11.0
END

\\\\\\\\\\\\\\\\\\\\\\\\\\\\\\\\\\\\\\\\ end

