
----------------------------------------------------------------------
This is ptcut v3.5.1
Python 3.7.4 (default, Aug  9 2019, 18:34:13) [MSC v.1915 64 bit (AMD64)]
numpy 1.16.5, sympy 1.4, gmpy2 2.1.0a5
It is now 2020-04-04T21:47:33+02:00
Command line: ..\trop\ptcut.py BIOMD0000000433 -e11 --rat --no-cache=n --maxruntime 10800 --maxmem 11513M --comment "concurrent=6, timeout=10800"

----------------------------------------------------------------------
Solving BIOMD0000000433 with ep=1/11, round=0, complex=False, sumup=False, keep_coeff=False, paramwise=True, complete=False, filter=0, fusion=False, algorithm 3, resort=False, bbox=False, common=9, qdisjoint=False, nonewton=False, mul_denom=True, convexhull=(False, 2, 4, 0.5, 2), likeness 14, backend PPL_C_Polyhedron
Comment: concurrent=6, timeout=10800
Random seed: 1DGFFFMOM2IXB
Effective epsilon: 1/11.0

Reading db\BIOMD0000000433\vector_field_q.txt
Reading db\BIOMD0000000433\conservation_laws_q.txt
Computing tropical system... 
Multiplying equation 1 with: k1*k11*k2*k5*k6 + k1*k11*k2*k5*x4 + k1*k11*k2*k6*x5 + k1*k11*k5*k6*x2 + k1*k2*k5*k6*x1 + k1*k2*k5*k6*x3 + k11*k2*k5*k6*x1 + k11*k2*k5*x1*x4 + k11*k2*k6*x1*x5 + k11*k5*k6*x1*x2 + k2*k5*k6*x1**2 + k2*k5*k6*x1*x3

Multiplying equation 2 with: k1*k11*k2*k5*k6 + k1*k11*k2*k5*x4 + k1*k11*k2*k6*x5 + k1*k11*k5*k6*x2 + k1*k2*k5*k6*x1 + k1*k2*k5*k6*x3 + k11*k2*k5*k6*x1 + k11*k2*k5*x1*x4 + k11*k2*k6*x1*x5 + k11*k5*k6*x1*x2 + k2*k5*k6*x1**2 + k2*k5*k6*x1*x3

Multiplying equation 3 with: k10*k11*k12*k13*k14*k2*k3*k4*k5*k6*k9 + k10*k11*k12*k13*k14*k2*k3*k4*k5*k6*x8 + k10*k11*k12*k13*k14*k2*k3*k4*k5*k9*x4 + k10*k11*k12*k13*k14*k2*k3*k4*k5*x4*x8 + k10*k11*k12*k13*k14*k2*k3*k4*k6*k9*x5 + k10*k11*k12*k13*k14*k2*k3*k4*k6*x5*x8 + k10*k11*k12*k13*k14*k2*k3*k5*k6*k9*x4 + k10*k11*k12*k13*k14*k2*k3*k5*k6*x4*x8 + k10*k11*k12*k13*k14*k2*k3*k5*k9*x4**2 + k10*k11*k12*k13*k14*k2*k3*k5*x4**2*x8 + k10*k11*k12*k13*k14*k2*k3*k6*k9*x4*x5 + k10*k11*k12*k13*k14*k2*k3*k6*x4*x5*x8 + k10*k11*k12*k13*k14*k2*k4*k5*k6*k9*x3 + k10*k11*k12*k13*k14*k2*k4*k5*k6*x3*x8 + k10*k11*k12*k13*k14*k2*k4*k5*k9*x3*x4 + k10*k11*k12*k13*k14*k2*k4*k5*x3*x4*x8 + k10*k11*k12*k13*k14*k2*k4*k6*k9*x3*x5 + k10*k11*k12*k13*k14*k2*k4*k6*x3*x5*x8 + k10*k11*k12*k13*k14*k3*k4*k5*k6*k9*x2 + k10*k11*k12*k13*k14*k3*k4*k5*k6*x2*x8 + k10*k11*k12*k13*k14*k3*k5*k6*k9*x2*x4 + k10*k11*k12*k13*k14*k3*k5*k6*x2*x4*x8 + k10*k11*k12*k13*k14*k4*k5*k6*k9*x2*x3 + k10*k11*k12*k13*k14*k4*k5*k6*x2*x3*x8 + k10*k11*k12*k13*k2*k3*k4*k5*k6*k9*x4 + k10*k11*k12*k13*k2*k3*k4*k5*k9*x4**2 + k10*k11*k12*k13*k2*k3*k4*k6*k9*x4*x5 + k10*k11*k12*k13*k2*k3*k5*k6*k9*x4**2 + k10*k11*k12*k13*k2*k3*k5*k9*x4**3 + k10*k11*k12*k13*k2*k3*k6*k9*x4**2*x5 + k10*k11*k12*k13*k2*k4*k5*k6*k9*x3*x4 + k10*k11*k12*k13*k2*k4*k5*k9*x3*x4**2 + k10*k11*k12*k13*k2*k4*k6*k9*x3*x4*x5 + k10*k11*k12*k13*k3*k4*k5*k6*k9*x2*x4 + k10*k11*k12*k13*k3*k5*k6*k9*x2*x4**2 + k10*k11*k12*k13*k4*k5*k6*k9*x2*x3*x4 + k10*k11*k12*k14*k2*k3*k4*k5*k6*k9*x5 + k10*k11*k12*k14*k2*k3*k4*k5*k9*x4*x5 + k10*k11*k12*k14*k2*k3*k4*k6*k9*x5**2 + k10*k11*k12*k14*k2*k3*k5*k6*k9*x4*x5 + k10*k11*k12*k14*k2*k3*k5*k9*x4**2*x5 + k10*k11*k12*k14*k2*k3*k6*k9*x4*x5**2 + k10*k11*k12*k14*k2*k4*k5*k6*k9*x3*x5 + k10*k11*k12*k14*k2*k4*k5*k9*x3*x4*x5 + k10*k11*k12*k14*k2*k4*k6*k9*x3*x5**2 + k10*k11*k12*k14*k3*k4*k5*k6*k9*x2*x5 + k10*k11*k12*k14*k3*k5*k6*k9*x2*x4*x5 + k10*k11*k12*k14*k4*k5*k6*k9*x2*x3*x5 + k10*k11*k13*k14*k2*k3*k4*k5*k6*k9*x3 + k10*k11*k13*k14*k2*k3*k4*k5*k6*k9*x6 + k10*k11*k13*k14*k2*k3*k4*k5*k9*x3*x4 + k10*k11*k13*k14*k2*k3*k4*k5*k9*x4*x6 + k10*k11*k13*k14*k2*k3*k4*k6*k9*x3*x5 + k10*k11*k13*k14*k2*k3*k4*k6*k9*x5*x6 + k10*k11*k13*k14*k2*k3*k5*k6*k9*x3*x4 + k10*k11*k13*k14*k2*k3*k5*k6*k9*x4*x6 + k10*k11*k13*k14*k2*k3*k5*k9*x3*x4**2 + k10*k11*k13*k14*k2*k3*k5*k9*x4**2*x6 + k10*k11*k13*k14*k2*k3*k6*k9*x3*x4*x5 + k10*k11*k13*k14*k2*k3*k6*k9*x4*x5*x6 + k10*k11*k13*k14*k2*k4*k5*k6*k9*x3**2 + k10*k11*k13*k14*k2*k4*k5*k6*k9*x3*x6 + k10*k11*k13*k14*k2*k4*k5*k9*x3**2*x4 + k10*k11*k13*k14*k2*k4*k5*k9*x3*x4*x6 + k10*k11*k13*k14*k2*k4*k6*k9*x3**2*x5 + k10*k11*k13*k14*k2*k4*k6*k9*x3*x5*x6 + k10*k11*k13*k14*k3*k4*k5*k6*k9*x2*x3 + k10*k11*k13*k14*k3*k4*k5*k6*k9*x2*x6 + k10*k11*k13*k14*k3*k5*k6*k9*x2*x3*x4 + k10*k11*k13*k14*k3*k5*k6*k9*x2*x4*x6 + k10*k11*k13*k14*k4*k5*k6*k9*x2*x3**2 + k10*k11*k13*k14*k4*k5*k6*k9*x2*x3*x6 + k10*k12*k13*k14*k2*k3*k4*k5*k6*k9*x1 + k10*k12*k13*k14*k2*k3*k4*k5*k6*k9*x3 + k10*k12*k13*k14*k2*k3*k4*k5*k6*x1*x8 + k10*k12*k13*k14*k2*k3*k4*k5*k6*x3*x8 + k10*k12*k13*k14*k2*k3*k5*k6*k9*x1*x4 + k10*k12*k13*k14*k2*k3*k5*k6*k9*x3*x4 + k10*k12*k13*k14*k2*k3*k5*k6*x1*x4*x8 + k10*k12*k13*k14*k2*k3*k5*k6*x3*x4*x8 + k10*k12*k13*k14*k2*k4*k5*k6*k9*x1*x3 + k10*k12*k13*k14*k2*k4*k5*k6*k9*x3**2 + k10*k12*k13*k14*k2*k4*k5*k6*x1*x3*x8 + k10*k12*k13*k14*k2*k4*k5*k6*x3**2*x8 + k10*k12*k13*k2*k3*k4*k5*k6*k9*x1*x4 + k10*k12*k13*k2*k3*k4*k5*k6*k9*x3*x4 + k10*k12*k13*k2*k3*k5*k6*k9*x1*x4**2 + k10*k12*k13*k2*k3*k5*k6*k9*x3*x4**2 + k10*k12*k13*k2*k4*k5*k6*k9*x1*x3*x4 + k10*k12*k13*k2*k4*k5*k6*k9*x3**2*x4 + k10*k12*k14*k2*k3*k4*k5*k6*k9*x1*x5 + k10*k12*k14*k2*k3*k4*k5*k6*k9*x3*x5 + k10*k12*k14*k2*k3*k5*k6*k9*x1*x4*x5 + k10*k12*k14*k2*k3*k5*k6*k9*x3*x4*x5 + k10*k12*k14*k2*k4*k5*k6*k9*x1*x3*x5 + k10*k12*k14*k2*k4*k5*k6*k9*x3**2*x5 + k10*k13*k14*k2*k3*k4*k5*k6*k9*x1*x3 + k10*k13*k14*k2*k3*k4*k5*k6*k9*x1*x6 + k10*k13*k14*k2*k3*k4*k5*k6*k9*x3**2 + k10*k13*k14*k2*k3*k4*k5*k6*k9*x3*x6 + k10*k13*k14*k2*k3*k5*k6*k9*x1*x3*x4 + k10*k13*k14*k2*k3*k5*k6*k9*x1*x4*x6 + k10*k13*k14*k2*k3*k5*k6*k9*x3**2*x4 + k10*k13*k14*k2*k3*k5*k6*k9*x3*x4*x6 + k10*k13*k14*k2*k4*k5*k6*k9*x1*x3**2 + k10*k13*k14*k2*k4*k5*k6*k9*x1*x3*x6 + k10*k13*k14*k2*k4*k5*k6*k9*x3**3 + k10*k13*k14*k2*k4*k5*k6*k9*x3**2*x6 + k11*k12*k13*k14*k2*k3*k4*k5*k6*k9*x7 + k11*k12*k13*k14*k2*k3*k4*k5*k9*x4*x7 + k11*k12*k13*k14*k2*k3*k4*k6*k9*x5*x7 + k11*k12*k13*k14*k2*k3*k5*k6*k9*x4*x7 + k11*k12*k13*k14*k2*k3*k5*k9*x4**2*x7 + k11*k12*k13*k14*k2*k3*k6*k9*x4*x5*x7 + k11*k12*k13*k14*k2*k4*k5*k6*k9*x3*x7 + k11*k12*k13*k14*k2*k4*k5*k9*x3*x4*x7 + k11*k12*k13*k14*k2*k4*k6*k9*x3*x5*x7 + k11*k12*k13*k14*k3*k4*k5*k6*k9*x2*x7 + k11*k12*k13*k14*k3*k5*k6*k9*x2*x4*x7 + k11*k12*k13*k14*k4*k5*k6*k9*x2*x3*x7 + k12*k13*k14*k2*k3*k4*k5*k6*k9*x1*x7 + k12*k13*k14*k2*k3*k4*k5*k6*k9*x3*x7 + k12*k13*k14*k2*k3*k5*k6*k9*x1*x4*x7 + k12*k13*k14*k2*k3*k5*k6*k9*x3*x4*x7 + k12*k13*k14*k2*k4*k5*k6*k9*x1*x3*x7 + k12*k13*k14*k2*k4*k5*k6*k9*x3**2*x7

Multiplying equation 4 with: k10*k11*k12*k13*k14*k2*k3*k4*k5*k6*k9 + k10*k11*k12*k13*k14*k2*k3*k4*k5*k6*x8 + k10*k11*k12*k13*k14*k2*k3*k4*k5*k9*x4 + k10*k11*k12*k13*k14*k2*k3*k4*k5*x4*x8 + k10*k11*k12*k13*k14*k2*k3*k4*k6*k9*x5 + k10*k11*k12*k13*k14*k2*k3*k4*k6*x5*x8 + k10*k11*k12*k13*k14*k2*k3*k5*k6*k9*x4 + k10*k11*k12*k13*k14*k2*k3*k5*k6*x4*x8 + k10*k11*k12*k13*k14*k2*k3*k5*k9*x4**2 + k10*k11*k12*k13*k14*k2*k3*k5*x4**2*x8 + k10*k11*k12*k13*k14*k2*k3*k6*k9*x4*x5 + k10*k11*k12*k13*k14*k2*k3*k6*x4*x5*x8 + k10*k11*k12*k13*k14*k2*k4*k5*k6*k9*x3 + k10*k11*k12*k13*k14*k2*k4*k5*k6*x3*x8 + k10*k11*k12*k13*k14*k2*k4*k5*k9*x3*x4 + k10*k11*k12*k13*k14*k2*k4*k5*x3*x4*x8 + k10*k11*k12*k13*k14*k2*k4*k6*k9*x3*x5 + k10*k11*k12*k13*k14*k2*k4*k6*x3*x5*x8 + k10*k11*k12*k13*k14*k3*k4*k5*k6*k9*x2 + k10*k11*k12*k13*k14*k3*k4*k5*k6*x2*x8 + k10*k11*k12*k13*k14*k3*k5*k6*k9*x2*x4 + k10*k11*k12*k13*k14*k3*k5*k6*x2*x4*x8 + k10*k11*k12*k13*k14*k4*k5*k6*k9*x2*x3 + k10*k11*k12*k13*k14*k4*k5*k6*x2*x3*x8 + k10*k11*k12*k13*k2*k3*k4*k5*k6*k9*x4 + k10*k11*k12*k13*k2*k3*k4*k5*k9*x4**2 + k10*k11*k12*k13*k2*k3*k4*k6*k9*x4*x5 + k10*k11*k12*k13*k2*k3*k5*k6*k9*x4**2 + k10*k11*k12*k13*k2*k3*k5*k9*x4**3 + k10*k11*k12*k13*k2*k3*k6*k9*x4**2*x5 + k10*k11*k12*k13*k2*k4*k5*k6*k9*x3*x4 + k10*k11*k12*k13*k2*k4*k5*k9*x3*x4**2 + k10*k11*k12*k13*k2*k4*k6*k9*x3*x4*x5 + k10*k11*k12*k13*k3*k4*k5*k6*k9*x2*x4 + k10*k11*k12*k13*k3*k5*k6*k9*x2*x4**2 + k10*k11*k12*k13*k4*k5*k6*k9*x2*x3*x4 + k10*k11*k12*k14*k2*k3*k4*k5*k6*k9*x5 + k10*k11*k12*k14*k2*k3*k4*k5*k9*x4*x5 + k10*k11*k12*k14*k2*k3*k4*k6*k9*x5**2 + k10*k11*k12*k14*k2*k3*k5*k6*k9*x4*x5 + k10*k11*k12*k14*k2*k3*k5*k9*x4**2*x5 + k10*k11*k12*k14*k2*k3*k6*k9*x4*x5**2 + k10*k11*k12*k14*k2*k4*k5*k6*k9*x3*x5 + k10*k11*k12*k14*k2*k4*k5*k9*x3*x4*x5 + k10*k11*k12*k14*k2*k4*k6*k9*x3*x5**2 + k10*k11*k12*k14*k3*k4*k5*k6*k9*x2*x5 + k10*k11*k12*k14*k3*k5*k6*k9*x2*x4*x5 + k10*k11*k12*k14*k4*k5*k6*k9*x2*x3*x5 + k10*k11*k13*k14*k2*k3*k4*k5*k6*k9*x3 + k10*k11*k13*k14*k2*k3*k4*k5*k6*k9*x6 + k10*k11*k13*k14*k2*k3*k4*k5*k9*x3*x4 + k10*k11*k13*k14*k2*k3*k4*k5*k9*x4*x6 + k10*k11*k13*k14*k2*k3*k4*k6*k9*x3*x5 + k10*k11*k13*k14*k2*k3*k4*k6*k9*x5*x6 + k10*k11*k13*k14*k2*k3*k5*k6*k9*x3*x4 + k10*k11*k13*k14*k2*k3*k5*k6*k9*x4*x6 + k10*k11*k13*k14*k2*k3*k5*k9*x3*x4**2 + k10*k11*k13*k14*k2*k3*k5*k9*x4**2*x6 + k10*k11*k13*k14*k2*k3*k6*k9*x3*x4*x5 + k10*k11*k13*k14*k2*k3*k6*k9*x4*x5*x6 + k10*k11*k13*k14*k2*k4*k5*k6*k9*x3**2 + k10*k11*k13*k14*k2*k4*k5*k6*k9*x3*x6 + k10*k11*k13*k14*k2*k4*k5*k9*x3**2*x4 + k10*k11*k13*k14*k2*k4*k5*k9*x3*x4*x6 + k10*k11*k13*k14*k2*k4*k6*k9*x3**2*x5 + k10*k11*k13*k14*k2*k4*k6*k9*x3*x5*x6 + k10*k11*k13*k14*k3*k4*k5*k6*k9*x2*x3 + k10*k11*k13*k14*k3*k4*k5*k6*k9*x2*x6 + k10*k11*k13*k14*k3*k5*k6*k9*x2*x3*x4 + k10*k11*k13*k14*k3*k5*k6*k9*x2*x4*x6 + k10*k11*k13*k14*k4*k5*k6*k9*x2*x3**2 + k10*k11*k13*k14*k4*k5*k6*k9*x2*x3*x6 + k10*k12*k13*k14*k2*k3*k4*k5*k6*k9*x1 + k10*k12*k13*k14*k2*k3*k4*k5*k6*k9*x3 + k10*k12*k13*k14*k2*k3*k4*k5*k6*x1*x8 + k10*k12*k13*k14*k2*k3*k4*k5*k6*x3*x8 + k10*k12*k13*k14*k2*k3*k5*k6*k9*x1*x4 + k10*k12*k13*k14*k2*k3*k5*k6*k9*x3*x4 + k10*k12*k13*k14*k2*k3*k5*k6*x1*x4*x8 + k10*k12*k13*k14*k2*k3*k5*k6*x3*x4*x8 + k10*k12*k13*k14*k2*k4*k5*k6*k9*x1*x3 + k10*k12*k13*k14*k2*k4*k5*k6*k9*x3**2 + k10*k12*k13*k14*k2*k4*k5*k6*x1*x3*x8 + k10*k12*k13*k14*k2*k4*k5*k6*x3**2*x8 + k10*k12*k13*k2*k3*k4*k5*k6*k9*x1*x4 + k10*k12*k13*k2*k3*k4*k5*k6*k9*x3*x4 + k10*k12*k13*k2*k3*k5*k6*k9*x1*x4**2 + k10*k12*k13*k2*k3*k5*k6*k9*x3*x4**2 + k10*k12*k13*k2*k4*k5*k6*k9*x1*x3*x4 + k10*k12*k13*k2*k4*k5*k6*k9*x3**2*x4 + k10*k12*k14*k2*k3*k4*k5*k6*k9*x1*x5 + k10*k12*k14*k2*k3*k4*k5*k6*k9*x3*x5 + k10*k12*k14*k2*k3*k5*k6*k9*x1*x4*x5 + k10*k12*k14*k2*k3*k5*k6*k9*x3*x4*x5 + k10*k12*k14*k2*k4*k5*k6*k9*x1*x3*x5 + k10*k12*k14*k2*k4*k5*k6*k9*x3**2*x5 + k10*k13*k14*k2*k3*k4*k5*k6*k9*x1*x3 + k10*k13*k14*k2*k3*k4*k5*k6*k9*x1*x6 + k10*k13*k14*k2*k3*k4*k5*k6*k9*x3**2 + k10*k13*k14*k2*k3*k4*k5*k6*k9*x3*x6 + k10*k13*k14*k2*k3*k5*k6*k9*x1*x3*x4 + k10*k13*k14*k2*k3*k5*k6*k9*x1*x4*x6 + k10*k13*k14*k2*k3*k5*k6*k9*x3**2*x4 + k10*k13*k14*k2*k3*k5*k6*k9*x3*x4*x6 + k10*k13*k14*k2*k4*k5*k6*k9*x1*x3**2 + k10*k13*k14*k2*k4*k5*k6*k9*x1*x3*x6 + k10*k13*k14*k2*k4*k5*k6*k9*x3**3 + k10*k13*k14*k2*k4*k5*k6*k9*x3**2*x6 + k11*k12*k13*k14*k2*k3*k4*k5*k6*k9*x7 + k11*k12*k13*k14*k2*k3*k4*k5*k9*x4*x7 + k11*k12*k13*k14*k2*k3*k4*k6*k9*x5*x7 + k11*k12*k13*k14*k2*k3*k5*k6*k9*x4*x7 + k11*k12*k13*k14*k2*k3*k5*k9*x4**2*x7 + k11*k12*k13*k14*k2*k3*k6*k9*x4*x5*x7 + k11*k12*k13*k14*k2*k4*k5*k6*k9*x3*x7 + k11*k12*k13*k14*k2*k4*k5*k9*x3*x4*x7 + k11*k12*k13*k14*k2*k4*k6*k9*x3*x5*x7 + k11*k12*k13*k14*k3*k4*k5*k6*k9*x2*x7 + k11*k12*k13*k14*k3*k5*k6*k9*x2*x4*x7 + k11*k12*k13*k14*k4*k5*k6*k9*x2*x3*x7 + k12*k13*k14*k2*k3*k4*k5*k6*k9*x1*x7 + k12*k13*k14*k2*k3*k4*k5*k6*k9*x3*x7 + k12*k13*k14*k2*k3*k5*k6*k9*x1*x4*x7 + k12*k13*k14*k2*k3*k5*k6*k9*x3*x4*x7 + k12*k13*k14*k2*k4*k5*k6*k9*x1*x3*x7 + k12*k13*k14*k2*k4*k5*k6*k9*x3**2*x7

Multiplying equation 5 with: k10*k11*k12*k13*k14*k2*k3*k4*k5*k6*k9 + k10*k11*k12*k13*k14*k2*k3*k4*k5*k6*x8 + k10*k11*k12*k13*k14*k2*k3*k4*k5*k9*x4 + k10*k11*k12*k13*k14*k2*k3*k4*k5*x4*x8 + k10*k11*k12*k13*k14*k2*k3*k4*k6*k9*x5 + k10*k11*k12*k13*k14*k2*k3*k4*k6*x5*x8 + k10*k11*k12*k13*k14*k2*k3*k5*k6*k9*x4 + k10*k11*k12*k13*k14*k2*k3*k5*k6*x4*x8 + k10*k11*k12*k13*k14*k2*k3*k5*k9*x4**2 + k10*k11*k12*k13*k14*k2*k3*k5*x4**2*x8 + k10*k11*k12*k13*k14*k2*k3*k6*k9*x4*x5 + k10*k11*k12*k13*k14*k2*k3*k6*x4*x5*x8 + k10*k11*k12*k13*k14*k2*k4*k5*k6*k9*x3 + k10*k11*k12*k13*k14*k2*k4*k5*k6*x3*x8 + k10*k11*k12*k13*k14*k2*k4*k5*k9*x3*x4 + k10*k11*k12*k13*k14*k2*k4*k5*x3*x4*x8 + k10*k11*k12*k13*k14*k2*k4*k6*k9*x3*x5 + k10*k11*k12*k13*k14*k2*k4*k6*x3*x5*x8 + k10*k11*k12*k13*k14*k3*k4*k5*k6*k9*x2 + k10*k11*k12*k13*k14*k3*k4*k5*k6*x2*x8 + k10*k11*k12*k13*k14*k3*k5*k6*k9*x2*x4 + k10*k11*k12*k13*k14*k3*k5*k6*x2*x4*x8 + k10*k11*k12*k13*k14*k4*k5*k6*k9*x2*x3 + k10*k11*k12*k13*k14*k4*k5*k6*x2*x3*x8 + k10*k11*k12*k13*k2*k3*k4*k5*k6*k9*x4 + k10*k11*k12*k13*k2*k3*k4*k5*k9*x4**2 + k10*k11*k12*k13*k2*k3*k4*k6*k9*x4*x5 + k10*k11*k12*k13*k2*k3*k5*k6*k9*x4**2 + k10*k11*k12*k13*k2*k3*k5*k9*x4**3 + k10*k11*k12*k13*k2*k3*k6*k9*x4**2*x5 + k10*k11*k12*k13*k2*k4*k5*k6*k9*x3*x4 + k10*k11*k12*k13*k2*k4*k5*k9*x3*x4**2 + k10*k11*k12*k13*k2*k4*k6*k9*x3*x4*x5 + k10*k11*k12*k13*k3*k4*k5*k6*k9*x2*x4 + k10*k11*k12*k13*k3*k5*k6*k9*x2*x4**2 + k10*k11*k12*k13*k4*k5*k6*k9*x2*x3*x4 + k10*k11*k12*k14*k2*k3*k4*k5*k6*k9*x5 + k10*k11*k12*k14*k2*k3*k4*k5*k9*x4*x5 + k10*k11*k12*k14*k2*k3*k4*k6*k9*x5**2 + k10*k11*k12*k14*k2*k3*k5*k6*k9*x4*x5 + k10*k11*k12*k14*k2*k3*k5*k9*x4**2*x5 + k10*k11*k12*k14*k2*k3*k6*k9*x4*x5**2 + k10*k11*k12*k14*k2*k4*k5*k6*k9*x3*x5 + k10*k11*k12*k14*k2*k4*k5*k9*x3*x4*x5 + k10*k11*k12*k14*k2*k4*k6*k9*x3*x5**2 + k10*k11*k12*k14*k3*k4*k5*k6*k9*x2*x5 + k10*k11*k12*k14*k3*k5*k6*k9*x2*x4*x5 + k10*k11*k12*k14*k4*k5*k6*k9*x2*x3*x5 + k10*k11*k13*k14*k2*k3*k4*k5*k6*k9*x3 + k10*k11*k13*k14*k2*k3*k4*k5*k6*k9*x6 + k10*k11*k13*k14*k2*k3*k4*k5*k9*x3*x4 + k10*k11*k13*k14*k2*k3*k4*k5*k9*x4*x6 + k10*k11*k13*k14*k2*k3*k4*k6*k9*x3*x5 + k10*k11*k13*k14*k2*k3*k4*k6*k9*x5*x6 + k10*k11*k13*k14*k2*k3*k5*k6*k9*x3*x4 + k10*k11*k13*k14*k2*k3*k5*k6*k9*x4*x6 + k10*k11*k13*k14*k2*k3*k5*k9*x3*x4**2 + k10*k11*k13*k14*k2*k3*k5*k9*x4**2*x6 + k10*k11*k13*k14*k2*k3*k6*k9*x3*x4*x5 + k10*k11*k13*k14*k2*k3*k6*k9*x4*x5*x6 + k10*k11*k13*k14*k2*k4*k5*k6*k9*x3**2 + k10*k11*k13*k14*k2*k4*k5*k6*k9*x3*x6 + k10*k11*k13*k14*k2*k4*k5*k9*x3**2*x4 + k10*k11*k13*k14*k2*k4*k5*k9*x3*x4*x6 + k10*k11*k13*k14*k2*k4*k6*k9*x3**2*x5 + k10*k11*k13*k14*k2*k4*k6*k9*x3*x5*x6 + k10*k11*k13*k14*k3*k4*k5*k6*k9*x2*x3 + k10*k11*k13*k14*k3*k4*k5*k6*k9*x2*x6 + k10*k11*k13*k14*k3*k5*k6*k9*x2*x3*x4 + k10*k11*k13*k14*k3*k5*k6*k9*x2*x4*x6 + k10*k11*k13*k14*k4*k5*k6*k9*x2*x3**2 + k10*k11*k13*k14*k4*k5*k6*k9*x2*x3*x6 + k10*k12*k13*k14*k2*k3*k4*k5*k6*k9*x1 + k10*k12*k13*k14*k2*k3*k4*k5*k6*k9*x3 + k10*k12*k13*k14*k2*k3*k4*k5*k6*x1*x8 + k10*k12*k13*k14*k2*k3*k4*k5*k6*x3*x8 + k10*k12*k13*k14*k2*k3*k5*k6*k9*x1*x4 + k10*k12*k13*k14*k2*k3*k5*k6*k9*x3*x4 + k10*k12*k13*k14*k2*k3*k5*k6*x1*x4*x8 + k10*k12*k13*k14*k2*k3*k5*k6*x3*x4*x8 + k10*k12*k13*k14*k2*k4*k5*k6*k9*x1*x3 + k10*k12*k13*k14*k2*k4*k5*k6*k9*x3**2 + k10*k12*k13*k14*k2*k4*k5*k6*x1*x3*x8 + k10*k12*k13*k14*k2*k4*k5*k6*x3**2*x8 + k10*k12*k13*k2*k3*k4*k5*k6*k9*x1*x4 + k10*k12*k13*k2*k3*k4*k5*k6*k9*x3*x4 + k10*k12*k13*k2*k3*k5*k6*k9*x1*x4**2 + k10*k12*k13*k2*k3*k5*k6*k9*x3*x4**2 + k10*k12*k13*k2*k4*k5*k6*k9*x1*x3*x4 + k10*k12*k13*k2*k4*k5*k6*k9*x3**2*x4 + k10*k12*k14*k2*k3*k4*k5*k6*k9*x1*x5 + k10*k12*k14*k2*k3*k4*k5*k6*k9*x3*x5 + k10*k12*k14*k2*k3*k5*k6*k9*x1*x4*x5 + k10*k12*k14*k2*k3*k5*k6*k9*x3*x4*x5 + k10*k12*k14*k2*k4*k5*k6*k9*x1*x3*x5 + k10*k12*k14*k2*k4*k5*k6*k9*x3**2*x5 + k10*k13*k14*k2*k3*k4*k5*k6*k9*x1*x3 + k10*k13*k14*k2*k3*k4*k5*k6*k9*x1*x6 + k10*k13*k14*k2*k3*k4*k5*k6*k9*x3**2 + k10*k13*k14*k2*k3*k4*k5*k6*k9*x3*x6 + k10*k13*k14*k2*k3*k5*k6*k9*x1*x3*x4 + k10*k13*k14*k2*k3*k5*k6*k9*x1*x4*x6 + k10*k13*k14*k2*k3*k5*k6*k9*x3**2*x4 + k10*k13*k14*k2*k3*k5*k6*k9*x3*x4*x6 + k10*k13*k14*k2*k4*k5*k6*k9*x1*x3**2 + k10*k13*k14*k2*k4*k5*k6*k9*x1*x3*x6 + k10*k13*k14*k2*k4*k5*k6*k9*x3**3 + k10*k13*k14*k2*k4*k5*k6*k9*x3**2*x6 + k11*k12*k13*k14*k2*k3*k4*k5*k6*k9*x7 + k11*k12*k13*k14*k2*k3*k4*k5*k9*x4*x7 + k11*k12*k13*k14*k2*k3*k4*k6*k9*x5*x7 + k11*k12*k13*k14*k2*k3*k5*k6*k9*x4*x7 + k11*k12*k13*k14*k2*k3*k5*k9*x4**2*x7 + k11*k12*k13*k14*k2*k3*k6*k9*x4*x5*x7 + k11*k12*k13*k14*k2*k4*k5*k6*k9*x3*x7 + k11*k12*k13*k14*k2*k4*k5*k9*x3*x4*x7 + k11*k12*k13*k14*k2*k4*k6*k9*x3*x5*x7 + k11*k12*k13*k14*k3*k4*k5*k6*k9*x2*x7 + k11*k12*k13*k14*k3*k5*k6*k9*x2*x4*x7 + k11*k12*k13*k14*k4*k5*k6*k9*x2*x3*x7 + k12*k13*k14*k2*k3*k4*k5*k6*k9*x1*x7 + k12*k13*k14*k2*k3*k4*k5*k6*k9*x3*x7 + k12*k13*k14*k2*k3*k5*k6*k9*x1*x4*x7 + k12*k13*k14*k2*k3*k5*k6*k9*x3*x4*x7 + k12*k13*k14*k2*k4*k5*k6*k9*x1*x3*x7 + k12*k13*k14*k2*k4*k5*k6*k9*x3**2*x7

Multiplying equation 6 with: k10*k12*k13*k14*k7*k8*k9 + k10*k12*k13*k14*k7*k8*x8 + k10*k12*k13*k14*k7*k9*x7 + k10*k12*k13*k14*k7*x7*x8 + k10*k12*k13*k14*k8*k9*x6 + k10*k12*k13*k14*k8*x6*x8 + k10*k12*k13*k7*k8*k9*x4 + k10*k12*k13*k7*k9*x4*x7 + k10*k12*k13*k8*k9*x4*x6 + k10*k12*k14*k7*k8*k9*x5 + k10*k12*k14*k7*k9*x5*x7 + k10*k12*k14*k8*k9*x5*x6 + k10*k13*k14*k7*k8*k9*x3 + k10*k13*k14*k7*k8*k9*x6 + k10*k13*k14*k7*k9*x3*x7 + k10*k13*k14*k7*k9*x6*x7 + k10*k13*k14*k8*k9*x3*x6 + k10*k13*k14*k8*k9*x6**2 + k12*k13*k14*k7*k8*k9*x7 + k12*k13*k14*k7*k9*x7**2 + k12*k13*k14*k8*k9*x6*x7

Multiplying equation 7 with: k10**2*k12**2*k13**2*k14**2*k7*k8*k9**2 + 2*k10**2*k12**2*k13**2*k14**2*k7*k8*k9*x8 + k10**2*k12**2*k13**2*k14**2*k7*k8*x8**2 + k10**2*k12**2*k13**2*k14**2*k7*k9**2*x7 + 2*k10**2*k12**2*k13**2*k14**2*k7*k9*x7*x8 + k10**2*k12**2*k13**2*k14**2*k7*x7*x8**2 + k10**2*k12**2*k13**2*k14**2*k8*k9**2*x6 + 2*k10**2*k12**2*k13**2*k14**2*k8*k9*x6*x8 + k10**2*k12**2*k13**2*k14**2*k8*x6*x8**2 + 2*k10**2*k12**2*k13**2*k14*k7*k8*k9**2*x4 + 2*k10**2*k12**2*k13**2*k14*k7*k8*k9*x4*x8 + 2*k10**2*k12**2*k13**2*k14*k7*k9**2*x4*x7 + 2*k10**2*k12**2*k13**2*k14*k7*k9*x4*x7*x8 + 2*k10**2*k12**2*k13**2*k14*k8*k9**2*x4*x6 + 2*k10**2*k12**2*k13**2*k14*k8*k9*x4*x6*x8 + k10**2*k12**2*k13**2*k7*k8*k9**2*x4**2 + k10**2*k12**2*k13**2*k7*k9**2*x4**2*x7 + k10**2*k12**2*k13**2*k8*k9**2*x4**2*x6 + k10**2*k12**2*k13*k14**2*k7*k8*k9**2*x5 + k10**2*k12**2*k13*k14**2*k7*k8*k9**2*x9 + k10**2*k12**2*k13*k14**2*k7*k8*k9*x5*x8 + k10**2*k12**2*k13*k14**2*k7*k8*k9*x8*x9 + k10**2*k12**2*k13*k14**2*k7*k9**2*x5*x7 + k10**2*k12**2*k13*k14**2*k7*k9**2*x7*x9 + k10**2*k12**2*k13*k14**2*k7*k9*x5*x7*x8 + k10**2*k12**2*k13*k14**2*k7*k9*x7*x8*x9 + k10**2*k12**2*k13*k14**2*k8*k9**2*x5*x6 + k10**2*k12**2*k13*k14**2*k8*k9**2*x6*x9 + k10**2*k12**2*k13*k14**2*k8*k9*x5*x6*x8 + k10**2*k12**2*k13*k14**2*k8*k9*x6*x8*x9 + k10**2*k12**2*k13*k14*k7*k8*k9**2*x4*x5 + k10**2*k12**2*k13*k14*k7*k8*k9**2*x4*x9 + k10**2*k12**2*k13*k14*k7*k9**2*x4*x5*x7 + k10**2*k12**2*k13*k14*k7*k9**2*x4*x7*x9 + k10**2*k12**2*k13*k14*k8*k9**2*x4*x5*x6 + k10**2*k12**2*k13*k14*k8*k9**2*x4*x6*x9 + k10**2*k12**2*k14**2*k7*k8*k9**2*x5*x9 + k10**2*k12**2*k14**2*k7*k9**2*x5*x7*x9 + k10**2*k12**2*k14**2*k8*k9**2*x5*x6*x9 + 2*k10**2*k12*k13**2*k14**2*k7*k8*k9**2*x3 + 2*k10**2*k12*k13**2*k14**2*k7*k8*k9**2*x6 + 2*k10**2*k12*k13**2*k14**2*k7*k8*k9*x3*x8 + 2*k10**2*k12*k13**2*k14**2*k7*k8*k9*x6*x8 + 2*k10**2*k12*k13**2*k14**2*k7*k9**2*x3*x7 + 2*k10**2*k12*k13**2*k14**2*k7*k9**2*x6*x7 + 2*k10**2*k12*k13**2*k14**2*k7*k9*x3*x7*x8 + 2*k10**2*k12*k13**2*k14**2*k7*k9*x6*x7*x8 + 2*k10**2*k12*k13**2*k14**2*k8*k9**2*x3*x6 + 2*k10**2*k12*k13**2*k14**2*k8*k9**2*x6**2 + 2*k10**2*k12*k13**2*k14**2*k8*k9*x3*x6*x8 + 2*k10**2*k12*k13**2*k14**2*k8*k9*x6**2*x8 + 2*k10**2*k12*k13**2*k14*k7*k8*k9**2*x3*x4 + 2*k10**2*k12*k13**2*k14*k7*k8*k9**2*x4*x6 + 2*k10**2*k12*k13**2*k14*k7*k9**2*x3*x4*x7 + 2*k10**2*k12*k13**2*k14*k7*k9**2*x4*x6*x7 + 2*k10**2*k12*k13**2*k14*k8*k9**2*x3*x4*x6 + 2*k10**2*k12*k13**2*k14*k8*k9**2*x4*x6**2 + k10**2*k12*k13*k14**2*k7*k8*k9**2*x3*x5 + k10**2*k12*k13*k14**2*k7*k8*k9**2*x3*x9 + k10**2*k12*k13*k14**2*k7*k8*k9**2*x5*x6 + k10**2*k12*k13*k14**2*k7*k8*k9**2*x6*x9 + k10**2*k12*k13*k14**2*k7*k9**2*x3*x5*x7 + k10**2*k12*k13*k14**2*k7*k9**2*x3*x7*x9 + k10**2*k12*k13*k14**2*k7*k9**2*x5*x6*x7 + k10**2*k12*k13*k14**2*k7*k9**2*x6*x7*x9 + k10**2*k12*k13*k14**2*k8*k9**2*x3*x5*x6 + k10**2*k12*k13*k14**2*k8*k9**2*x3*x6*x9 + k10**2*k12*k13*k14**2*k8*k9**2*x5*x6**2 + k10**2*k12*k13*k14**2*k8*k9**2*x6**2*x9 + k10**2*k13**2*k14**2*k7*k8*k9**2*x3**2 + 2*k10**2*k13**2*k14**2*k7*k8*k9**2*x3*x6 + k10**2*k13**2*k14**2*k7*k8*k9**2*x6**2 + k10**2*k13**2*k14**2*k7*k9**2*x3**2*x7 + 2*k10**2*k13**2*k14**2*k7*k9**2*x3*x6*x7 + k10**2*k13**2*k14**2*k7*k9**2*x6**2*x7 + k10**2*k13**2*k14**2*k8*k9**2*x3**2*x6 + 2*k10**2*k13**2*k14**2*k8*k9**2*x3*x6**2 + k10**2*k13**2*k14**2*k8*k9**2*x6**3 + 2*k10*k12**2*k13**2*k14**2*k7*k8*k9**2*x7 + 2*k10*k12**2*k13**2*k14**2*k7*k8*k9*x7*x8 + 2*k10*k12**2*k13**2*k14**2*k7*k9**2*x7**2 + 2*k10*k12**2*k13**2*k14**2*k7*k9*x7**2*x8 + 2*k10*k12**2*k13**2*k14**2*k8*k9**2*x6*x7 + 2*k10*k12**2*k13**2*k14**2*k8*k9*x6*x7*x8 + 2*k10*k12**2*k13**2*k14*k7*k8*k9**2*x4*x7 + 2*k10*k12**2*k13**2*k14*k7*k9**2*x4*x7**2 + 2*k10*k12**2*k13**2*k14*k8*k9**2*x4*x6*x7 + k10*k12**2*k13*k14**2*k7*k8*k9**2*x5*x7 + k10*k12**2*k13*k14**2*k7*k8*k9**2*x7*x9 + k10*k12**2*k13*k14**2*k7*k9**2*x5*x7**2 + k10*k12**2*k13*k14**2*k7*k9**2*x7**2*x9 + k10*k12**2*k13*k14**2*k8*k9**2*x5*x6*x7 + k10*k12**2*k13*k14**2*k8*k9**2*x6*x7*x9 + 2*k10*k12*k13**2*k14**2*k7*k8*k9**2*x3*x7 + 2*k10*k12*k13**2*k14**2*k7*k8*k9**2*x6*x7 + 2*k10*k12*k13**2*k14**2*k7*k9**2*x3*x7**2 + 2*k10*k12*k13**2*k14**2*k7*k9**2*x6*x7**2 + 2*k10*k12*k13**2*k14**2*k8*k9**2*x3*x6*x7 + 2*k10*k12*k13**2*k14**2*k8*k9**2*x6**2*x7 + k12**2*k13**2*k14**2*k7*k8*k9**2*x7**2 + k12**2*k13**2*k14**2*k7*k9**2*x7**3 + k12**2*k13**2*k14**2*k8*k9**2*x6*x7**2

Multiplying equation 8 with: k10*k12*k13*k14*k7*k8*k9 + k10*k12*k13*k14*k7*k8*x8 + k10*k12*k13*k14*k7*k9*x7 + k10*k12*k13*k14*k7*x7*x8 + k10*k12*k13*k14*k8*k9*x6 + k10*k12*k13*k14*k8*x6*x8 + k10*k12*k13*k7*k8*k9*x4 + k10*k12*k13*k7*k9*x4*x7 + k10*k12*k13*k8*k9*x4*x6 + k10*k12*k14*k7*k8*k9*x9 + k10*k12*k14*k7*k9*x7*x9 + k10*k12*k14*k8*k9*x6*x9 + k10*k13*k14*k7*k8*k9*x3 + k10*k13*k14*k7*k8*k9*x6 + k10*k13*k14*k7*k9*x3*x7 + k10*k13*k14*k7*k9*x6*x7 + k10*k13*k14*k8*k9*x3*x6 + k10*k13*k14*k8*k9*x6**2 + k12*k13*k14*k7*k8*k9*x7 + k12*k13*k14*k7*k9*x7**2 + k12*k13*k14*k8*k9*x6*x7

System is rational in variable x1,x2,x3,x4,x5,x6,x7,x8,x9.
System is rational in parameter k1,k2,k3,k4,k5,k6,k7,k8,k9,k10,k11,k12,k13,k14.
Tropicalization time: 226.197 sec
Variables: x1-x11
Saving tropical system...
Creating polyhedra... 
Warning: formula defines no polyhedron!  Ignored.

Warning: formula defines no polyhedron!  Ignored.

Warning: formula defines no polyhedron!  Ignored.

Creation time: 144.599 sec
Saving polyhedra...

Sorting ascending...
Dimension: 11
Formulas: 14
Order: 8 9 10 13 11 12 0 1 5 7 6 2 4 3
Possible combinations: 1 * 1 * 1 * 2 * 3 * 3 * 11 * 11 * 18 * 18 * 125 * 144 * 144 * 231 = 422,522,521,344,000 (10^15)
 Applying common planes (codim=3, hs=11)...
 [1/11 (#13)]: 2 => 2 (-), dim=7.0, hs=11.0
 [2/11 (#11)]: 3 => 3 (-), dim=7.0, hs=11.0
 [3/11 (#12)]: 3 => 3 (-), dim=7.0, hs=11.0
 [4/11 (#0)]: 11 => 5 (6 empty), dim=7.0, hs=13.0
  Removed: 0.1,0.3,0.7,0.8,0.9,0.10
 [5/11 (#1)]: 11 => 5 (6 empty), dim=7.0, hs=13.0
  Removed: 1.1,1.3,1.7,1.8,1.9,1.10
 [6/11 (#5)]: 18 => 8 (6 empty, 4 incl), dim=7.0, hs=13.1
  Removed: 5.5,5.8,5.10,5.11,5.12,5.13,5.14,5.15,5.16,5.17
 [7/11 (#7)]: 18 => 6 (4 empty, 8 incl), dim=7.0, hs=13.3
  Removed: 7.2,7.5,7.6,7.9,7.10,7.11,7.12,7.13,7.14,7.15,7.16,7.17
 [8/11 (#6)]: 125 => 38 (60 empty, 27 incl), dim=7.0, hs=13.2
  Removed: 6.1537,6.1541,6.1543,6.519,6.524,6.13,6.1549,6.1551,6.1552,6.541,6.1058,6.1059,6.553,6.575,6.584,6.1103,6.1116,6.1122,6.1127,6.107,6.1146,6.1153,6.1155,6.1176,6.1183,6.1186,6.692,6.697,6.1214,6.1233,6.1238,6.740,6.1260,6.1265,6.1269,6.765,6.769,6.776,6.1294,6.1302,6.799,6.291,6.807,6.299,6.300,6.811,6.821,6.1335,6.825,6.826,6.1340,6.829,6.1346,6.1347,6.331,6.1361,6.339,6.851,6.1382,6.1387,6.367,6.1411,6.1413,6.1416,6.393,6.1419,6.399,6.924,6.1437,6.1438,6.1447,6.1450,6.1477,6.1488,6.1491,6.984,6.1502,6.1503,6.1507,6.1508,6.1509,6.1511,6.1517,6.1520,6.1521,6.1529,6.1531
 [9/11 (#2)]: 144 => 23 (80 empty, 41 incl), dim=7.0, hs=13.6
  Removed: 2.514,2.15,2.18,2.544,2.545,2.36,2.549,2.45,2.563,2.52,2.564,2.567,2.583,2.73,2.586,2.75,2.589,2.91,2.615,2.617,2.621,2.115,2.121,2.122,2.634,2.638,2.639,2.650,2.146,2.662,2.152,2.153,2.664,2.665,2.668,2.684,2.187,2.705,2.207,2.210,2.724,2.725,2.214,2.218,2.732,2.736,2.737,2.740,2.741,2.747,2.238,2.239,2.245,2.757,2.247,2.759,2.260,2.779,2.269,2.783,2.278,2.792,2.796,2.797,2.798,2.294,2.295,2.816,2.818,2.314,2.827,2.829,2.832,2.835,2.836,2.837,2.842,2.845,2.847,2.848,2.857,2.858,2.866,2.868,2.874,2.366,2.368,2.375,2.887,2.892,2.895,2.897,2.901,2.390,2.902,2.903,2.394,2.905,2.915,2.919,2.408,2.920,2.922,2.924,2.925,2.929,2.931,2.420,2.934,2.935,2.427,2.432,2.438,2.448,2.452,2.469,2.485,2.491,2.494,2.507,2.511
 [10/11 (#4)]: 144 => 28 (42 empty, 74 incl), dim=7.0, hs=14.6
  Removed: 4.1,4.520,4.10,4.524,4.16,4.17,4.544,4.35,4.551,4.44,4.557,4.50,4.51,4.566,4.578,4.75,4.78,4.82,4.595,4.597,4.86,4.606,4.101,4.614,4.110,4.111,4.624,4.626,4.117,4.119,4.649,4.652,4.146,4.661,4.665,4.672,4.673,4.169,4.682,4.686,4.687,4.176,4.701,4.708,4.710,4.716,4.721,4.211,4.727,4.229,4.741,4.749,4.753,4.768,4.770,4.279,4.293,4.808,4.812,4.813,4.302,4.816,4.817,4.819,4.820,4.822,4.823,4.316,4.833,4.834,4.836,4.837,4.335,4.854,4.857,4.863,4.353,4.866,4.355,4.868,4.870,4.362,4.874,4.878,4.368,4.371,4.888,4.892,4.383,4.896,4.899,4.901,4.390,4.905,4.394,4.397,4.918,4.919,4.920,4.924,4.925,4.927,4.928,4.931,4.934,4.935,4.439,4.447,4.448,4.451,4.462,4.466,4.474,4.477,4.480,4.504
 [11/11 (#3)]: 231 => 63 (75 empty, 93 incl), dim=7.0, hs=15.0
  Removed: 3.1,3.2562,3.1025,3.2061,3.14,3.2574,3.2581,3.23,3.24,3.1055,3.2595,3.2094,3.2607,3.565,3.2613,3.2615,3.2622,3.62,3.2117,3.2121,3.2633,3.75,3.2636,3.1614,3.2642,3.84,3.85,3.2645,3.2649,3.2139,3.1122,3.2659,3.612,3.1636,3.2152,3.1642,3.1135,3.624,3.2160,3.1138,3.2164,3.2165,3.2679,3.2170,3.1147,3.2684,3.2685,3.2686,3.133,3.645,3.138,3.653,3.143,3.1168,3.1684,3.1174,3.151,3.1687,3.670,3.2208,3.2209,3.1187,3.1189,3.1701,3.1192,3.2217,3.2218,3.1709,3.2223,3.1201,3.1716,3.182,3.1728,3.1729,3.2242,3.195,3.2243,3.198,3.712,3.1225,3.2251,3.2252,3.205,3.1232,3.1744,3.2257,3.211,3.1751,3.728,3.1758,3.1763,3.1253,3.1258,3.1770,3.750,3.2286,3.755,3.2306,3.260,3.773,3.775,3.1799,3.2324,3.1301,3.1814,3.1820,3.801,3.2339,3.2344,3.1333,3.2357,3.311,3.1344,3.321,3.2383,3.855,3.857,3.1882,3.1374,3.1377,3.867,3.872,3.2412,3.879,3.1391,3.2415,3.371,3.2422,3.888,3.1404,3.2428,3.1920,3.387,3.1414,3.1419,3.912,3.1425,3.2450,3.2451,3.1430,3.922,3.2459,3.1439,3.2464,3.2465,3.1443,3.932,3.2473,3.2475,3.941,3.430,3.2481,3.2485,3.1469,3.2513,3.2518,3.1498,3.2010,3.2523,3.1503,3.2530,3.2532,3.2540,3.2543,3.2550,3.2553,3.2042,3.2558
 Savings: factor 12,687 (10^4), 3 formulas
[1/10 (#11, #13)]: 3 * 2 = 6 => 6 (-), dim=6.0, hs=11.0
 Applying common planes (codim=3, hs=4)...
 [1/10 (w1)]: 6 => 6 (-), dim=6.0, hs=11.5
 [2/10 (#12)]: 3 => 3 (-), dim=7.0, hs=11.7
 [3/10 (#0)]: 5 => 5 (-), dim=7.0, hs=13.6
 [4/10 (#1)]: 5 => 5 (-), dim=7.0, hs=13.6
 [5/10 (#5)]: 8 => 8 (-), dim=7.0, hs=14.0
 [6/10 (#7)]: 6 => 6 (-), dim=7.0, hs=14.3
 [7/10 (#6)]: 38 => 38 (-), dim=7.0, hs=14.1
 [8/10 (#2)]: 23 => 23 (-), dim=7.0, hs=13.9
 [9/10 (#4)]: 28 => 28 (-), dim=7.0, hs=14.6
 [10/10 (#3)]: 63 => 63 (-), dim=7.0, hs=15.0
 Savings: factor 1.0, 0 formulas
[2/10 (w1, #12)]: 6 * 3 = 18 => 15 (3 empty), dim=5.0, hs=11.4
[3/10 (w2, #0)]: 15 * 5 = 75 => 9 (66 empty), dim=4.0, hs=11.3
 Applying common planes (codim=1, hs=4)...
 [1/8 (w3)]: 9 => 9 (-), dim=4.0, hs=11.3
 [2/8 (#1)]: 5 => 2 (3 empty), dim=5.5, hs=11.5
  Removed: 1.2,1.4,1.6
 [3/8 (#5)]: 8 => 7 (1 empty), dim=6.0, hs=13.7
  Removed: 5.6
 [4/8 (#7)]: 6 => 6 (-), dim=6.0, hs=14.3
 [5/8 (#6)]: 38 => 34 (4 empty), dim=6.0, hs=14.3
  Removed: 6.1064,6.1451,6.1046,6.1295
 [6/8 (#2)]: 23 => 21 (2 empty), dim=6.0, hs=13.9
  Removed: 2.145,2.114
 [7/8 (#4)]: 28 => 23 (5 empty), dim=6.0, hs=13.7
  Removed: 4.739,4.263,4.143,4.754,4.502
 [8/8 (#3)]: 63 => 34 (27 empty, 2 incl), dim=6.0, hs=14.5
  Removed: 3.1024,3.1411,3.511,3.13,3.1054,3.1447,3.684,3.686,3.1070,3.1071,3.1330,3.307,3.694,3.1081,3.2367,3.2370,3.1475,3.1092,3.2375,3.74,3.1098,3.1866,3.729,3.610,3.1900,3.1902,3.1904,3.243,3.1279
 Savings: factor 7.889273356401384, 0 formulas
[4/10 (w3, #1)]: 9 * 2 = 18 => 9 (3 empty, 6 incl), dim=4.0, hs=11.3
[5/10 (w4, #7)]: 9 * 6 = 54 => 14 (34 empty, 6 incl), dim=3.0, hs=12.0
[6/10 (w5, #5)]: 14 * 7 = 98 => 5 (85 empty, 8 incl), dim=2.0, hs=11.6
[7/10 (#2, w6)]: 21 * 5 = 105 => 1 (103 empty, 1 incl), dim=1.0, hs=11.0
 Applying common planes (codim=10, hs=11)...
 [1/3 (#6)]: 34 => 1 (32 empty, 1 incl), dim=1.0, hs=11.0
  Removed: 6.0,6.3,6.134,6.7,6.136,6.401,6.787,6.1044,6.151,6.1048,6.538,6.1051,6.674,6.688,6.817,6.818,6.307,6.326,6.585,6.977,6.723,6.89,6.1241,6.219,6.218,6.93,6.98,6.739,6.483,6.741,6.230,6.501,6.510
 [2/3 (#4)]: 23 => 1 (21 empty, 1 incl), dim=0.0, hs=11.0
  Removed: 4.0,4.66,4.132,4.69,4.262,4.136,4.9,4.729,4.734,4.287,4.34,4.610,4.102,4.487,4.43,4.433,4.497,4.694,4.248,4.379,4.253,4.254
 [3/3 (#3)]: 34 => 1 (32 empty, 1 incl), dim=0.0, hs=11.0
  Removed: 3.0,3.1536,3.513,3.512,3.128,3.1286,3.6,3.523,3.908,3.2193,3.1810,3.927,3.439,3.183,3.61,3.830,3.189,3.575,3.67,3.1860,3.1610,3.1873,3.1114,3.247,3.603,3.1629,3.240,3.1136,3.1270,3.503,3.120,3.123,3.1788
 Applying common planes (codim=11, hs=11)...
 Savings: factor 26,588 (10^4), 3 formulas
Total time: 0.778 sec, total intersections: 1,540, total inclusion tests: 19,695
Common plane time: 0.639 sec
Solutions: 1, dim=0.0, hs=11.0, max=15, maxin=105
f-vector: [1]
Canonicalizing...
Saving solutions... 
Calculation done.
Peak memory: working set 0.106 GiB, pagefile 0.101 GiB
Memory: pmem(rss=87695360, vms=81711104, num_page_faults=35460, peak_wset=113741824, wset=87695360, peak_paged_pool=538552, paged_pool=538376, peak_nonpaged_pool=42800, nonpaged_pool=42736, pagefile=81711104, peak_pagefile=108441600, private=81711104)
