[
  ["#0",
    [[0,0,0,0,1,1,1,1,1],
     [0,0,0,0,0,0,0,1,1],
     [0,0,0,0,1,1,1,1,1],
     [0,0,0,0,1,1,0,1,1],
     [1,0,1,1,0,0,0,1,1],
     [1,0,1,1,0,0,0,1,1],
     [1,0,1,0,0,0,0,1,1],
     [1,1,1,1,1,1,1,0,1],
     [1,1,1,1,1,1,1,1,0]], [
    [[[0,0,0,1,0,0,0,0,0,0,0]], [[1,-1,0,0,0,0,0,0,0,0,0],[0,1,0,0,0,0,0,0,0,0,0],[0,0,1,0,0,0,0,0,0,0,0]], 0],
    [[[0,0,1,0,0,0,0,0,0,0,0]], [[0,1,0,0,0,0,0,0,0,0,0],[1,-1,0,0,0,0,0,0,0,0,0],[0,0,0,1,0,0,0,0,0,0,0]], 1],
    [[[-1,1,0,-1,0,0,0,0,0,0,0]], [[1,-1,1,0,0,0,0,0,0,0,0],[-1,1,0,0,0,0,0,0,0,0,0]], 6],
    [[[-1,1,-1,0,0,0,0,0,0,0,0]], [[1,-1,0,1,0,0,0,0,0,0,0],[-1,1,0,0,0,0,0,0,0,0,0]], 7],
    [[[0,0,0,1,0,0,0,0,0,0,0]], [[0,1,0,0,0,0,0,0,0,0,0],[1,-1,0,0,0,0,0,0,0,0,0],[0,0,-1,0,0,0,0,0,0,0,0]], 14],
    [[[0,1,0,0,0,0,0,0,0,0,0]], [[0,0,0,1,0,0,0,0,0,0,0],[0,0,-1,0,0,0,0,0,0,0,0]], 17],
    [[[-1,1,0,0,0,0,0,0,0,0,0]], [[0,0,0,1,0,0,0,0,0,0,0],[0,0,-1,0,0,0,0,0,0,0,0]], 22],
    [[[0,1,0,-1,0,0,0,0,0,0,0]], [[0,0,1,0,0,0,0,0,0,0,0],[0,-1,0,0,0,0,0,0,0,0,0]], 32],
    [[[0,1,0,-1,0,0,0,0,0,0,0]], [[0,0,-1,0,0,0,0,0,0,0,0],[0,-1,0,0,0,0,0,0,0,0,0]], 38]
  ]],
  ["#1",
    [[0,0,0,1,1],
     [0,0,0,0,1],
     [0,0,0,0,1],
     [1,0,0,0,1],
     [1,1,1,1,0]], [
    [[[0,1,-1,0,0,0,0,0,0,0,0]], [[1,-1,0,0,0,0,0,0,0,0,0],[0,1,0,0,0,0,0,0,0,0,0]], 0],
    [[[0,1,0,0,0,0,0,0,0,0,0]], [[0,0,-1,0,0,0,0,0,0,0,0],[2,0,1,0,0,0,0,0,0,0,0]], 1],
    [[[0,0,1,0,0,0,0,0,0,0,0]], [[0,-1,0,0,0,0,0,0,0,0,0]], 3],
    [[[2,0,1,0,0,0,0,0,0,0,0]], [[0,-1,0,0,0,0,0,0,0,0,0]], 6],
    [[[0,1,-1,0,0,0,0,0,0,0,0]], [[-1,1,0,0,0,0,0,0,0,0,0]], 7]
  ]],
  ["#2",
    [[0,0,0,0,0,1],
     [0,0,0,0,1,0],
     [0,0,0,0,1,1],
     [0,0,0,0,1,1],
     [0,1,1,1,0,0],
     [1,0,1,1,0,0]], [
    [[[0,0,0,0,1,0,0,0,0,0,0]], [[1,0,0,-1,0,0,0,0,0,0,0],[0,1,0,0,0,0,0,0,0,0,0],[0,0,0,1,0,0,0,0,0,0,0]], 0],
    [[[0,1,0,0,0,0,0,0,0,0,0]], [[1,0,0,-1,0,0,0,0,0,0,0],[0,0,0,1,0,0,0,0,0,0,0],[0,0,0,0,1,0,0,0,0,0,0]], 1],
    [[[-1,0,0,1,-1,0,0,0,0,0,0]], [[-1,0,0,1,0,0,0,0,0,0,0],[1,1,0,-1,0,0,0,0,0,0,0]], 2],
    [[[1,1,0,-1,0,0,0,0,0,0,0]], [[0,-1,0,0,1,0,0,0,0,0,0],[0,1,0,0,0,0,0,0,0,0,0]], 3],
    [[[0,0,0,1,-1,0,0,0,0,0,0]], [[0,1,0,-1,0,0,0,0,0,0,0],[0,0,0,-1,0,0,0,0,0,0,0]], 4],
    [[[0,1,0,-1,0,0,0,0,0,0,0]], [[0,-1,0,0,0,0,0,0,0,0,0],[0,-1,0,0,1,0,0,0,0,0,0]], 5]
  ]],
  ["#3",
    [[0,0,0,0,0,0,0,1,1],
     [0,0,0,0,0,1,1,0,0],
     [0,0,0,0,1,1,1,0,1],
     [0,0,0,0,1,1,1,1,1],
     [0,0,1,1,0,0,0,0,0],
     [0,1,1,1,0,0,0,1,0],
     [0,1,1,1,0,0,0,1,1],
     [1,0,0,1,0,1,1,0,0],
     [1,0,1,1,0,0,1,0,0]], [
    [[[0,0,0,0,0,0,0,0,1,0,0]], [[1,0,0,0,-1,0,0,0,0,0,0],[0,0,1,0,0,0,0,0,0,0,0],[2,0,0,0,1,0,0,0,0,0,0]], 0],
    [[[0,0,1,0,0,0,0,0,0,0,0]], [[1,0,0,0,-1,0,0,0,0,0,0],[2,0,0,0,1,0,0,0,0,0,0],[0,0,0,0,0,0,0,0,1,0,0]], 1],
    [[[-1,0,0,0,1,0,0,0,0,0,0]], [[0,0,0,0,0,0,0,0,1,0,0],[0,0,1,0,0,0,0,0,0,0,0]], 2],
    [[[2,0,0,0,1,0,0,0,0,0,0]], [[0,0,1,0,0,0,0,0,0,0,0],[0,0,0,0,0,0,0,0,1,0,0]], 4],
    [[[0,0,4,0,0,0,0,0,-1,0,0]], [[2,0,0,0,1,0,0,0,0,0,0],[1,0,0,0,-1,0,0,0,0,0,0],[0,0,-1,0,0,0,0,0,0,0,0]], 7],
    [[[-1,0,0,0,1,0,0,0,0,0,0]], [[0,0,0,0,0,0,0,0,-1,0,0],[0,0,4,0,0,0,0,0,-1,0,0]], 9],
    [[[2,0,0,0,1,0,0,0,0,0,0]], [[0,0,4,0,0,0,0,0,-1,0,0],[0,0,0,0,0,0,0,0,-1,0,0]], 11],
    [[[-1,0,4,0,1,0,0,0,0,0,0]], [[0,0,0,0,0,0,0,0,1,0,0],[0,0,-1,0,0,0,0,0,0,0,0]], 13],
    [[[-1,0,4,0,1,0,0,0,-1,0,0]], [[1,0,-4,0,-1,0,0,0,0,0,0],[-1,0,0,0,1,0,0,0,0,0,0]], 14]
  ]],
  ["#4",
    [[0,0,0,0,0,0,1,1,1,1],
     [0,0,0,0,1,1,0,0,1,1],
     [0,0,0,0,1,1,1,1,0,1],
     [0,0,0,0,1,1,1,1,1,0],
     [0,1,1,1,0,0,0,1,1,1],
     [0,1,1,1,0,0,1,0,1,1],
     [1,0,1,1,0,1,0,0,1,1],
     [1,0,1,1,1,0,0,0,1,1],
     [1,1,0,1,1,1,1,1,0,0],
     [1,1,1,0,1,1,1,1,0,0]], [
    [[[0,0,0,0,0,0,0,1,0,0,0]], [[1,0,0,0,0,-1,0,0,0,0,0],[0,0,0,0,0,1,0,0,0,1,0],[2,0,0,0,0,1,0,0,0,0,0],[0,0,0,0,0,0,1,0,0,0,0]], 0],
    [[[0,0,0,0,0,0,1,0,0,0,0]], [[0,0,0,0,0,1,0,0,0,1,0],[1,0,0,0,0,-1,0,0,0,0,0],[2,0,0,0,0,1,0,0,0,0,0],[0,0,0,0,0,0,0,1,0,0,0]], 1],
    [[[-1,0,0,0,0,1,0,-1,0,0,0]], [[1,0,0,0,0,-1,1,0,0,0,0],[1,0,0,0,0,0,0,0,0,1,0],[-1,0,0,0,0,1,0,0,0,0,0]], 2],
    [[[-1,0,0,0,0,1,-1,0,0,0,0]], [[1,0,0,0,0,-1,0,1,0,0,0],[1,0,0,0,0,0,0,0,0,1,0],[-1,0,0,0,0,1,0,0,0,0,0]], 3],
    [[[0,0,0,0,0,1,0,-1,0,1,0]], [[1,0,0,0,0,-1,0,0,0,0,0],[2,0,0,0,0,1,0,-1,0,0,0],[0,0,0,0,0,0,0,-1,0,0,0],[0,0,0,0,0,0,1,-1,0,0,0]], 4],
    [[[2,0,0,0,0,1,0,-1,0,0,0]], [[-2,0,0,0,0,0,0,0,0,1,0],[-2,0,0,0,0,-1,1,0,0,0,0],[-2,0,0,0,0,-1,0,0,0,0,0]], 6],
    [[[0,0,0,0,0,1,-1,0,0,1,0]], [[2,0,0,0,0,1,-1,0,0,0,0],[1,0,0,0,0,-1,0,0,0,0,0],[0,0,0,0,0,0,-1,0,0,0,0],[0,0,0,0,0,0,-1,1,0,0,0]], 7],
    [[[2,0,0,0,0,1,-1,0,0,0,0]], [[-2,0,0,0,0,0,0,0,0,1,0],[-2,0,0,0,0,-1,0,0,0,0,0],[-2,0,0,0,0,-1,0,1,0,0,0]], 9],
    [[[0,0,0,0,0,1,0,-1,0,1,0]], [[0,0,0,0,0,0,1,-1,0,0,0],[-1,0,0,0,0,1,0,-1,0,0,0],[-1,0,0,0,0,1,0,0,0,0,0]], 12],
    [[[0,0,0,0,0,1,-1,0,0,1,0]], [[0,0,0,0,0,0,-1,1,0,0,0],[-1,0,0,0,0,1,-1,0,0,0,0],[-1,0,0,0,0,1,0,0,0,0,0]], 13]
  ]],
  ["#5",
    [[0,0,0,1,0,0],
     [0,0,1,0,0,1],
     [0,1,0,0,0,0],
     [1,0,0,0,0,1],
     [0,0,0,0,0,0],
     [0,1,0,1,0,0]], [
    [[[0,0,1,0,0,0,0,0,0,0,0]], [[1,0,0,0,0,0,-1,0,0,0,0],[0,0,0,0,0,0,0,0,1,0,0],[2,0,0,0,0,0,1,0,0,0,0]], 0],
    [[[1,0,1,0,0,0,-1,0,0,0,0]], [[0,0,0,0,0,0,0,0,1,0,0],[0,0,1,0,0,0,0,0,0,0,0]], 1],
    [[[0,0,1,0,0,0,0,0,-4,0,0]], [[1,0,0,0,0,0,-1,0,0,0,0],[0,0,-1,0,0,0,0,0,0,0,0],[2,0,0,0,0,0,1,0,0,0,0]], 2],
    [[[1,0,1,0,0,0,-1,0,-4,0,0]], [[-1,0,0,0,0,0,1,0,0,0,0],[-1,0,-1,0,0,0,1,0,0,0,0]], 3],
    [[[-1,0,0,0,0,0,1,0,0,0,0]], [[0,0,-1,0,0,0,0,0,0,0,0],[0,0,-1,0,0,0,0,0,4,0,0]], 4],
    [[[2,0,0,0,0,0,1,0,0,0,0]], [[0,0,-1,0,0,0,0,0,0,0,0],[0,0,-1,0,0,0,0,0,4,0,0]], 7]
  ]],
  ["#6",
    [[0,0,0,0,0,0,0,1,1],
     [0,0,0,0,1,1,1,1,1],
     [0,0,0,0,1,1,0,1,1],
     [0,0,0,0,1,1,1,1,1],
     [0,1,1,1,0,0,0,1,1],
     [0,1,1,1,0,0,0,1,1],
     [0,1,0,1,0,0,0,1,1],
     [1,1,1,1,1,1,1,0,1],
     [1,1,1,1,1,1,1,1,0]], [
    [[[0,0,0,0,0,0,0,0,1,0,0]], [[1,0,0,0,0,0,0,-1,0,0,0],[0,0,0,0,0,1,0,0,0,1,0],[0,0,0,0,0,0,0,1,0,0,0]], 0],
    [[[0,0,0,0,0,1,0,0,0,1,0]], [[1,0,0,0,0,0,0,-1,0,0,0],[0,0,0,0,0,0,0,1,0,0,0],[0,0,0,0,0,0,0,0,1,0,0]], 2],
    [[[-1,0,0,0,0,0,0,1,-1,0,0]], [[-1,0,0,0,0,0,0,1,0,0,0],[1,0,0,0,0,1,0,-1,0,1,0]], 6],
    [[[1,0,0,0,0,1,0,-1,0,1,0]], [[1,0,0,0,0,0,0,-1,1,0,0],[-1,0,0,0,0,0,0,1,0,0,0]], 7],
    [[[0,0,0,0,0,0,0,1,0,0,0]], [[0,0,0,0,0,0,0,0,-1,0,0],[0,0,0,0,0,1,0,0,0,1,0]], 10],
    [[[0,0,0,0,0,1,0,0,0,1,0]], [[1,0,0,0,0,0,0,-1,0,0,0],[0,0,0,0,0,0,0,0,-1,0,0],[0,0,0,0,0,0,0,1,0,0,0]], 14],
    [[[-1,0,0,0,0,0,0,1,0,0,0]], [[0,0,0,0,0,0,0,0,-1,0,0],[0,0,0,0,0,1,0,0,0,1,0]], 17],
    [[[0,0,0,0,0,1,0,-1,0,1,0]], [[0,0,0,0,0,0,0,0,1,0,0],[0,0,0,0,0,0,0,-1,0,0,0]], 33],
    [[[0,0,0,0,0,1,0,-1,0,1,0]], [[0,0,0,0,0,0,0,0,-1,0,0],[0,0,0,0,0,0,0,-1,0,0,0]], 38]
  ]],
  ["#7",
    [[0,0,0,1,1],
     [0,0,0,0,1],
     [0,0,0,0,1],
     [1,0,0,0,1],
     [1,1,1,1,0]], [
    [[[0,0,0,0,0,0,0,1,-1,0,0]], [[1,0,0,0,0,0,0,-1,0,0,0],[0,0,0,0,0,0,0,1,0,0,0]], 0],
    [[[0,0,0,0,0,0,0,1,0,0,0]], [[0,0,0,0,0,0,0,0,-1,0,0],[2,0,0,0,0,0,0,0,1,0,0]], 1],
    [[[0,0,0,0,0,0,0,0,1,0,0]], [[0,0,0,0,0,0,0,-1,0,0,0]], 3],
    [[[2,0,0,0,0,0,0,0,1,0,0]], [[0,0,0,0,0,0,0,-1,0,0,0]], 6],
    [[[0,0,0,0,0,0,0,1,-1,0,0]], [[-1,0,0,0,0,0,0,1,0,0,0]], 7]
  ]],
  ["#8",
    [[0,0,0,0,0,0,1,1,1,1],
     [0,0,0,0,1,1,0,0,1,1],
     [0,0,0,0,1,1,1,1,0,1],
     [0,0,0,0,1,1,1,1,1,0],
     [0,1,1,1,0,0,0,1,1,1],
     [0,1,1,1,0,0,1,0,1,1],
     [1,0,1,1,0,1,0,0,1,1],
     [1,0,1,1,1,0,0,0,1,1],
     [1,1,0,1,1,1,1,1,0,0],
     [1,1,1,0,1,1,1,1,0,0]], [
    [[[0,0,0,0,0,0,0,0,0,0,1]], [[1,0,0,0,0,0,0,0,0,-1,0],[0,0,0,0,0,1,0,0,0,1,0],[2,0,0,0,0,0,0,0,0,1,0],[0,0,0,0,0,0,0,1,0,0,0]], 0],
    [[[0,0,0,0,0,0,0,1,0,0,0]], [[0,0,0,0,0,1,0,0,0,1,0],[1,0,0,0,0,0,0,0,0,-1,0],[0,0,0,0,0,0,0,0,0,0,1],[2,0,0,0,0,0,0,0,0,1,0]], 1],
    [[[-1,0,0,0,0,0,0,0,0,1,-1]], [[-1,0,0,0,0,0,0,0,0,1,0],[1,0,0,0,0,0,0,1,0,-1,0],[1,0,0,0,0,1,0,0,0,0,0]], 2],
    [[[1,0,0,0,0,0,0,1,0,-1,0]], [[0,0,0,0,0,0,0,-1,0,0,1],[1,0,0,0,0,1,0,0,0,0,0],[0,0,0,0,0,0,0,1,0,0,0]], 3],
    [[[0,0,0,0,0,1,0,0,0,1,-1]], [[1,0,0,0,0,0,0,0,0,-1,0],[0,0,0,0,0,-1,0,0,0,-1,0],[0,0,0,0,0,-1,0,1,0,-1,0],[2,0,0,0,0,-1,0,0,0,0,0]], 4],
    [[[2,0,0,0,0,0,0,0,0,1,-1]], [[-2,0,0,0,0,1,0,0,0,0,0],[-2,0,0,0,0,0,0,0,0,-1,0],[-2,0,0,0,0,0,0,1,0,-1,0]], 6],
    [[[0,0,0,0,0,1,0,-1,0,1,0]], [[0,0,0,0,0,0,0,-1,0,0,0],[1,0,0,0,0,1,0,-1,0,0,0],[0,0,0,0,0,0,0,-1,0,0,1],[2,0,0,0,0,-1,0,0,0,0,0]], 7],
    [[[-2,0,0,0,0,0,0,1,0,-1,0]], [[-2,0,0,0,0,1,0,0,0,0,0],[0,0,0,0,0,0,0,-1,0,0,0],[0,0,0,0,0,0,0,-1,0,0,1]], 9],
    [[[0,0,0,0,0,1,0,0,0,1,-1]], [[-1,0,0,0,0,-1,0,0,0,0,0],[-1,0,0,0,0,0,0,0,0,1,0],[0,0,0,0,0,-1,0,1,0,-1,0]], 12],
    [[[0,0,0,0,0,1,0,-1,0,1,0]], [[0,0,0,0,0,0,0,-1,0,0,1],[-1,0,0,0,0,-1,0,0,0,0,0],[-1,0,0,0,0,-1,0,1,0,0,0]], 13]
  ]],
  ["#9",
    [[0,0,0,1,0,0],
     [0,0,1,0,0,1],
     [0,1,0,0,0,0],
     [1,0,0,0,0,1],
     [0,0,0,0,0,0],
     [0,1,0,1,0,0]], [
    [[[0,0,1,0,0,0,0,0,0,0,0]], [[1,0,0,0,0,0,0,0,0,0,-1],[2,0,0,0,0,0,0,0,0,0,1],[0,0,0,0,0,0,0,0,1,0,0]], 0],
    [[[1,0,1,0,0,0,0,0,0,0,-1]], [[0,0,1,0,0,0,0,0,0,0,0],[0,0,0,0,0,0,0,0,1,0,0]], 1],
    [[[0,0,1,0,0,0,0,0,-4,0,0]], [[1,0,0,0,0,0,0,0,0,0,-1],[2,0,0,0,0,0,0,0,0,0,1],[0,0,-1,0,0,0,0,0,0,0,0]], 2],
    [[[1,0,1,0,0,0,0,0,-4,0,-1]], [[0,0,1,0,0,0,0,0,-4,0,0],[0,0,0,0,0,0,0,0,-1,0,0]], 3],
    [[[-1,0,0,0,0,0,0,0,0,0,1]], [[0,0,-1,0,0,0,0,0,0,0,0],[0,0,-1,0,0,0,0,0,4,0,0]], 4],
    [[[2,0,0,0,0,0,0,0,0,0,1]], [[0,0,-1,0,0,0,0,0,0,0,0],[0,0,-1,0,0,0,0,0,4,0,0]], 7]
  ]]
]
