[
  ["#0",
    [[0,0,0,1,0,1],
     [0,0,0,0,1,1],
     [0,0,0,1,1,0],
     [1,0,1,0,1,1],
     [0,1,1,1,0,0],
     [1,1,0,1,0,0]], [
    [[[7,1,0,0]], [[5,0,0,1],[5,0,1,0]], 0],
    [[[12,0,1,1]], [[5,-1,2,0],[0,1,-1,0]], 1],
    [[[12,1,0,1]], [[7,1,0,0],[5,0,1,0],[0,-1,1,0]], 2],
    [[[7,1,-1,1]], [[-5,1,-2,0],[0,1,-1,0]], 3],
    [[[2,1,-1,0]], [[-7,-1,0,0],[5,0,0,1]], 4],
    [[[7,1,-1,1]], [[0,-1,1,0],[-5,0,-1,0],[2,1,-1,0]], 5]
  ]],
  ["#1",
    [[0,0,0,1],
     [0,0,1,0],
     [0,1,0,1],
     [1,0,1,0]], [
    [[[4,0,1,0]], [[4,1,0,0],[11,1,0,1]], 0],
    [[[4,1,0,0]], [[4,0,1,0],[3,0,-1,1]], 1],
    [[[7,1,-1,1]], [[-4,0,-1,0],[0,1,-1,0]], 2],
    [[[7,1,-1,1]], [[-4,-1,0,0],[0,-1,1,0]], 3]
  ]],
  ["#2",
    [[0,0],
     [0,0]], [
    [[[-1,0,1,-1]], [[9,1,0,0]], 0],
    [[[10,1,-1,1]], [[-9,-1,0,0]], 1]
  ]]
]
