k1 = 3/20
k2 = 12
k3 = 500
k4 = 25
k5 = 1/10
k6 = 1
k7 = 6000
k8 = 16
k9 = 50
k10 = 14000
k11 = 20
k12 = 2000
k13 = 43
k14 = 3
k15 = 45000
k16 = 100
k17 = 59/10
k18 = 16200
k19 = 520
k20 = 49/10
k21 = 50
k22 = 63/10
k23 = 14
k24 = 50
k25 = 4
k26 = 1/2
k27 = 800000
k28 = 250
k29 = 20000
k30 = 100
k31 = 40000
k32 = 600
k33 = 50
k34 = 25000
k35 = 200000
k36 = 2
k37 = 594000
k38 = 10
k39 = 1
k40 = 468
k41 = 1850
k42 = 20
k43 = 10
k44 = 21/10
k45 = 900
k46 = 50
k47 = 1
k48 = 20
