[
  ["#0",
    [[0,0],
     [0,0]], [
    [[[-1,1,0,0,0,0,0,0,0,0]], [[1,0,0,0,0,0,0,0,1,0]], 0],
    [[[0,1,0,0,0,0,0,0,1,0]], [[-1,1,0,0,0,0,0,0,0,0]], 1]
  ]],
  ["#1",
    [[0,0,0,0],
     [0,0,0,0],
     [0,0,0,0],
     [0,0,0,0]], [
    [[[1,1,-1,0,0,0,0,0,0,0]], [[0,0,0,0,0,0,0,0,1,0],[0,1,0,0,0,0,0,0,0,0]], 0],
    [[[1,1,-1,0,0,0,0,0,-1,0]], [[-1,-1,1,0,0,0,0,0,0,0],[0,1,0,0,0,0,0,0,0,0]], 1],
    [[[-1,0,1,0,0,0,0,0,0,0]], [[0,-1,0,0,0,0,0,0,0,0],[0,0,0,0,0,0,0,0,1,0]], 2],
    [[[-1,0,1,0,0,0,0,0,1,0]], [[-1,0,1,0,0,0,0,0,0,0],[0,-1,0,0,0,0,0,0,0,0]], 3]
  ]],
  ["#2",
    [[0,0],
     [0,0]], [
    [[[3,0,1,-1,0,0,0,0,0,0]], [[0,0,1,0,0,0,0,0,0,0]], 0],
    [[[-3,0,0,1,0,0,0,0,0,0]], [[0,0,-1,0,0,0,0,0,0,0]], 1]
  ]],
  ["#3",
    [[0,0],
     [0,0]], [
    [[[-3,0,0,0,1,0,0,0,0,0]], [[2,0,0,-1,0,0,0,0,0,0]], 0],
    [[[1,0,0,1,-1,0,0,0,0,0]], [[-2,0,0,1,0,0,0,0,0,0]], 1]
  ]],
  ["#4",
    [[0,0,1,1],
     [0,0,0,0],
     [1,0,0,0],
     [1,0,0,0]], [
    [[[-5,0,0,0,1,-1,0,0,0,0]], [[-4,0,0,0,1,0,0,0,0,0]], 0],
    [[[-4,0,0,0,1,0,0,0,0,0]], [[-1,0,0,0,0,-1,0,0,0,0],[2,0,0,0,0,1,0,0,0,0]], 1],
    [[[5,0,0,0,0,1,0,0,0,0]], [[1,0,0,0,-1,0,0,0,0,0]], 2],
    [[[-6,0,0,0,1,-1,0,0,0,0]], [[4,0,0,0,-1,0,0,0,0,0],[-1,0,0,0,1,0,0,0,0,0]], 3]
  ]],
  ["#5",
    [[0,0,0,0],
     [0,0,0,1],
     [0,0,0,0],
     [0,1,0,0]], [
    [[[1,0,0,0,0,1,0,0,0,0]], [[2,0,0,0,0,0,-1,0,0,0],[2,0,0,0,0,0,1,0,0,0]], 0],
    [[[3,0,0,0,0,1,-1,0,0,0]], [[1,0,0,0,0,1,0,0,0,0]], 1],
    [[[-2,0,0,0,0,0,1,0,0,0]], [[-1,0,0,0,0,-1,0,0,0,0]], 3],
    [[[2,0,0,0,0,0,1,0,0,0]], [[-1,0,0,0,0,-1,0,0,0,0]], 4]
  ]],
  ["#6",
    [[0,0,0,0],
     [0,0,0,0],
     [0,0,0,1],
     [0,0,1,0]], [
    [[[-1,0,0,0,0,0,0,1,0,0]], [[2,0,0,0,0,0,-1,0,0,0]], 0],
    [[[-2,0,0,0,0,0,1,0,0,0]], [[1,0,0,0,0,0,0,-1,0,0],[2,0,0,0,0,0,0,1,0,0]], 1],
    [[[2,0,0,0,0,0,0,1,0,0]], [[2,0,0,0,0,0,-1,0,0,0]], 2],
    [[[-1,0,0,0,0,0,1,-1,0,0]], [[-2,0,0,0,0,0,1,0,0,0]], 4]
  ]],
  ["#7",
    [[0,0,1,1,0],
     [0,0,1,1,1],
     [1,1,0,0,1],
     [1,1,0,0,1],
     [0,1,1,1,0]], [
    [[[-3,0,0,0,0,0,0,1,0,0]], [[2,0,0,0,0,0,0,0,-1,0],[0,0,0,0,0,0,0,0,1,0]], 0],
    [[[-3,0,0,0,0,0,0,1,-1,0]], [[3,0,0,0,0,0,0,-1,0,0],[-2,0,0,0,0,0,0,1,0,0]], 1],
    [[[2,0,0,0,0,0,0,0,1,0]], [[1,0,0,0,0,0,0,-1,0,0]], 4],
    [[[-3,0,0,0,0,0,0,1,-1,0]], [[-1,0,0,0,0,0,0,1,0,0],[2,0,0,0,0,0,0,-1,0,0]], 5],
    [[[-1,0,0,0,0,0,0,1,-1,0]], [[-3,0,0,0,0,0,0,1,0,0]], 6]
  ]],
  ["#8",
    [[0,0],
     [0,0]], [
    [[[0,0,0,0,0,0,0,0,0,1]], [[2,0,0,0,0,0,0,0,-1,0]], 0],
    [[[-2,0,0,0,0,0,0,0,1,-1]], [[-2,0,0,0,0,0,0,0,1,0]], 1]
  ]]
]
