
\\\\\\\\\\\\\\\\\\\\\\\\\\\\\\\\\\\\\\\\ file 0

\ combo: 0-0-0-1-0-1-4-0-0
\ dimension 1; is compact
MAXIMIZE
Subject To
  ie0: -1 x8 >= -2   \ x8**-1 <= 121.0
  ie1: +1 x8 >= 0    \ x8 <= 1.0
  eq0: +1 x9 = 0     \ x9 = 1.0
  eq1: +1 x7 = 3     \ x7 = 0.000751315
  eq2: +1 x6 = 4     \ x6 = 6.83013e-05
  eq3: +1 x5 = 1     \ x5 = 0.0909091
  eq4: +1 x4 = 6     \ x4 = 5.64474e-07
  eq5: +1 x3 = 5     \ x3 = 6.20921e-06
  eq6: +1 x2 = 2     \ x2 = 0.00826446
  eq7: +1 x1 = 1     \ x1 = 0.0909091
END

\\\\\\\\\\\\\\\\\\\\\\\\\\\\\\\\\\\\\\\\ end

