k13*x18 - k14
k13*x6 + k13*x17 - k15
k13*x6 + k13*x16 - k16
k13*x5 + k13*x15 - k17
k13*x5 + k13*x14 - k18
k13*x4 + k13*x13 - k19
k13*x3 + k13*x8 + k13*x9 + k13*x10 + k13*x11 + k13*x12 - k20
k13*x2 + k13*x7 + k13*x8 + k13*x9 + k13*x10 - k21
k13*x1 - k22
