k1 = 1/1000
k2 = 1/50
k3 = 1/80
k4 = 1/40
k5 = 1
k6 = 1/50
k7 = 1/80
k8 = 3/100
k9 = 10
k10 = 10
k11 = 1/10
k12 = 1/1000
k13 = 1/20
k14 = 1/80
k15 = 1/1000
k16 = 1/20
k17 = 1/80
k18 = 1/20
k19 = 1/10
k20 = 1/1000
k21 = 1/10
k22 = 1/10
k23 = 1/1000
k24 = 1/10
k25 = 1/10
k26 = 10
k27 = 1/10
k28 = 1/1000
k29 = 2
k30 = 2
k31 = 5
k32 = 1/10
k33 = 1/1000
k34 = 1/10
k35 = 1/10
k36 = 1/10
k37 = 1/10
k38 = 1/10
k39 = 1/10
k40 = 1
k41 = 1/4000
k42 = 1
k43 = 1/4000
k44 = 15
k45 = 1/100
k46 = 1/100
k47 = 1
k48 = 0
k49 = 0
k50 = 0
k51 = 0
k52 = 0
k53 = 0
k54 = 1/100
k55 = 0
k56 = 0
k57 = 10
k58 = 0
k59 = 1/10
