[
  ["x1","x2","x3","x4","x5","x6","x7","x8","x9","x10","x11"],
  [
    [[[-54,1,0,0,0,0,0,0,0,0,0,1],-1],[[-53,0,1,0,0,0,0,0,0,1,0,0],1],[[-53,1,0,0,0,1,0,0,0,0,0,1],-1],[[-52,1,0,0,1,0,0,0,0,0,0,1],-1],[[-52,1,1,0,0,0,0,0,0,0,0,1],-1],[[-51,1,1,0,0,0,0,0,0,1,0,0],1],[[-5,1,0,1,0,0,0,0,0,0,0,1],-1],[[-5,2,0,0,0,0,0,0,0,0,0,1],-1]],
    [[[-54,1,0,0,0,0,0,0,0,0,0,1],1],[[-53,0,1,0,0,0,0,0,0,1,0,0],-1],[[-53,1,0,0,0,1,0,0,0,0,0,1],1],[[-52,1,0,0,1,0,0,0,0,0,0,1],1],[[-52,1,1,0,0,0,0,0,0,0,0,1],1],[[-51,1,1,0,0,0,0,0,0,1,0,0],-1],[[-5,1,0,1,0,0,0,0,0,0,0,1],1],[[-5,2,0,0,0,0,0,0,0,0,0,1],1]],
    [[[-111,0,0,0,1,0,0,0,0,0,1,0],1],[[-111,0,0,0,1,0,0,0,0,1,0,0],1],[[-110,0,0,0,1,0,0,0,1,1,0,0],1],[[-110,0,0,0,1,1,0,0,0,0,1,0],1],[[-110,0,0,0,1,1,0,0,0,1,0,0],1],[[-110,0,1,1,0,0,0,0,0,0,0,0],-1],[[-109,0,0,0,1,0,0,1,0,1,0,0],1],[[-109,0,0,0,2,0,0,0,0,0,1,0],1],[[-109,0,0,0,2,0,0,0,0,1,0,0],1],[[-109,0,0,1,1,0,0,0,0,0,1,0],1],[[-109,0,0,1,1,0,0,0,0,1,0,0],1],[[-109,0,1,0,1,0,0,0,0,0,1,0],1],[[-109,0,1,1,0,0,0,0,1,0,0,0],-1],[[-109,0,1,1,0,1,0,0,0,0,0,0],-1],[[-108,0,0,0,2,0,0,0,0,0,1,0],1],[[-108,0,0,0,2,0,0,0,0,1,0,0],1],[[-108,0,0,1,1,0,0,0,1,1,0,0],1],[[-108,0,0,1,1,1,0,0,0,0,1,0],1],[[-108,0,0,1,1,1,0,0,0,1,0,0],1],[[-108,0,1,1,0,0,0,1,0,0,0,0],-1],[[-108,0,1,1,0,1,0,0,1,0,0,0],-1],[[-108,0,1,1,0,2,0,0,0,0,0,0],-1],[[-108,0,1,1,1,0,0,0,0,0,0,0],-1],[[-108,0,2,1,0,0,0,0,0,0,0,0],-1],[[-107,0,0,0,2,0,0,0,1,1,0,0],1],[[-107,0,0,0,2,1,0,0,0,0,1,0],1],[[-107,0,0,0,2,1,0,0,0,1,0,0],1],[[-107,0,0,1,1,0,0,1,0,1,0,0],1],[[-107,0,0,1,2,0,0,0,0,0,1,0],1],[[-107,0,0,1,2,0,0,0,0,1,0,0],1],[[-107,0,1,1,0,1,0,1,0,0,0,0],-1],[[-107,0,1,1,1,0,0,0,0,0,1,0],1],[[-107,0,1,1,1,0,0,0,1,0,0,0],-1],[[-107,0,1,1,1,1,0,0,0,0,0,0],-1],[[-107,0,2,1,0,0,0,0,1,0,0,0],-1],[[-107,0,2,1,0,1,0,0,0,0,0,0],-1],[[-106,0,0,0,2,0,0,1,0,1,0,0],1],[[-106,0,0,0,3,0,0,0,0,0,1,0],1],[[-106,0,0,0,3,0,0,0,0,1,0,0],1],[[-106,0,1,0,2,0,0,0,0,0,1,0],1],[[-106,0,1,1,1,0,0,1,0,0,0,0],-1],[[-106,0,1,1,2,0,0,0,0,0,0,0],-1],[[-106,0,2,1,0,0,0,1,0,0,0,0],-1],[[-106,0,2,1,1,0,0,0,0,0,0,0],-1],[[-62,0,0,0,1,0,1,0,0,1,0,0],1],[[-62,0,0,1,1,0,0,0,0,0,1,0],1],[[-62,0,0,1,1,0,0,0,0,1,0,0],1],[[-62,1,0,0,1,0,0,0,0,0,1,0],1],[[-61,0,1,1,0,0,1,0,0,0,0,0],-1],[[-61,0,1,2,0,0,0,0,0,0,0,0],-1],[[-61,1,1,1,0,0,0,0,0,0,0,0],-1],[[-60,0,0,1,1,0,1,0,0,1,0,0],1],[[-60,0,0,2,1,0,0,0,0,0,1,0],1],[[-60,0,0,2,1,0,0,0,0,1,0,0],1],[[-60,0,1,1,0,1,1,0,0,0,0,0],-1],[[-60,0,1,2,0,0,0,0,1,0,0,0],-1],[[-60,0,1,2,0,1,0,0,0,0,0,0],-1],[[-60,1,0,1,1,0,0,0,0,0,1,0],1],[[-60,1,1,1,0,0,0,0,1,0,0,0],-1],[[-60,1,1,1,0,1,0,0,0,0,0,0],-1],[[-59,0,0,0,2,0,1,0,0,1,0,0],1],[[-59,0,0,1,2,0,0,0,0,0,1,0],1],[[-59,0,0,1,2,0,0,0,0,1,0,0],1],[[-59,0,1,1,1,0,1,0,0,0,0,0],-1],[[-59,0,1,2,0,0,0,1,0,0,0,0],-1],[[-59,0,1,2,1,0,0,0,0,0,0,0],-1],[[-59,0,2,1,0,0,1,0,0,0,0,0],-1],[[-59,0,2,2,0,0,0,0,0,0,0,0],-1],[[-59,1,0,0,2,0,0,0,0,0,1,0],1],[[-59,1,1,1,0,0,0,1,0,0,0,0],-1],[[-59,1,1,1,1,0,0,0,0,0,0,0],-1],[[-12,0,1,2,0,0,1,0,0,0,0,0],-1],[[-12,0,1,3,0,0,0,0,0,0,0,0],-1],[[-12,1,1,1,0,0,1,0,0,0,0,0],-1],[[-12,1,1,2,0,0,0,0,0,0,0,0],-1]],
    [[[-112,0,0,0,0,1,0,0,0,0,1,0],1],[[-112,0,0,0,0,1,0,0,0,1,0,0],1],[[-112,0,1,0,1,0,0,0,0,0,0,0],-1],[[-111,0,0,0,0,1,0,0,1,1,0,0],1],[[-111,0,0,0,0,2,0,0,0,0,1,0],1],[[-111,0,0,0,0,2,0,0,0,1,0,0],1],[[-111,0,0,0,1,0,0,0,0,0,1,0],-1],[[-111,0,0,0,1,0,0,0,0,1,0,0],-1],[[-111,0,1,0,1,0,0,0,1,0,0,0],-1],[[-111,0,1,0,1,1,0,0,0,0,0,0],-1],[[-110,0,0,0,0,1,0,1,0,1,0,0],1],[[-110,0,0,0,1,0,0,0,1,1,0,0],-1],[[-110,0,0,0,1,1,0,0,0,0,1,0],0],[[-110,0,0,0,1,1,0,0,0,1,0,0],0],[[-110,0,0,1,0,1,0,0,0,0,1,0],1],[[-110,0,0,1,0,1,0,0,0,1,0,0],1],[[-110,0,1,0,0,1,0,0,0,0,1,0],1],[[-110,0,1,0,1,0,0,1,0,0,0,0],-1],[[-110,0,1,0,1,1,0,0,1,0,0,0],-1],[[-110,0,1,0,1,2,0,0,0,0,0,0],-1],[[-110,0,1,0,2,0,0,0,0,0,0,0],-1],[[-110,0,1,1,0,0,0,0,0,0,0,0],1],[[-110,0,2,0,1,0,0,0,0,0,0,0],-1],[[-109,0,0,0,1,0,0,1,0,1,0,0],-1],[[-109,0,0,0,1,1,0,0,0,0,1,0],1],[[-109,0,0,0,1,1,0,0,0,1,0,0],1],[[-109,0,0,0,2,0,0,0,0,0,1,0],-1],[[-109,0,0,0,2,0,0,0,0,1,0,0],-1],[[-109,0,0,1,0,1,0,0,1,1,0,0],1],[[-109,0,0,1,0,2,0,0,0,0,1,0],1],[[-109,0,0,1,0,2,0,0,0,1,0,0],1],[[-109,0,0,1,1,0,0,0,0,0,1,0],-1],[[-109,0,0,1,1,0,0,0,0,1,0,0],-1],[[-109,0,1,0,1,0,0,0,0,0,1,0],-1],[[-109,0,1,0,1,1,0,1,0,0,0,0],-1],[[-109,0,1,0,2,0,0,0,1,0,0,0],-1],[[-109,0,1,0,2,1,0,0,0,0,0,0],-1],[[-109,0,1,1,0,0,0,0,1,0,0,0],1],[[-109,0,1,1,0,1,0,0,0,0,0,0],1],[[-109,0,2,0,1,0,0,0,1,0,0,0],-1],[[-109,0,2,0,1,1,0,0,0,0,0,0],-1],[[-108,0,0,0,1,1,0,0,1,1,0,0],1],[[-108,0,0,0,1,2,0,0,0,0,1,0],1],[[-108,0,0,0,1,2,0,0,0,1,0,0],1],[[-108,0,0,0,2,0,0,0,0,0,1,0],-1],[[-108,0,0,0,2,0,0,0,0,1,0,0],-1],[[-108,0,0,1,0,1,0,1,0,1,0,0],1],[[-108,0,0,1,1,0,0,0,1,1,0,0],-1],[[-108,0,0,1,1,1,0,0,0,0,1,0],0],[[-108,0,0,1,1,1,0,0,0,1,0,0],0],[[-108,0,1,0,2,0,0,1,0,0,0,0],-1],[[-108,0,1,0,3,0,0,0,0,0,0,0],-1],[[-108,0,1,1,0,0,0,1,0,0,0,0],1],[[-108,0,1,1,0,1,0,0,0,0,1,0],1],[[-108,0,1,1,0,1,0,0,1,0,0,0],1],[[-108,0,1,1,0,2,0,0,0,0,0,0],1],[[-108,0,1,1,1,0,0,0,0,0,0,0],1],[[-108,0,2,0,1,0,0,1,0,0,0,0],-1],[[-108,0,2,0,2,0,0,0,0,0,0,0],-1],[[-108,0,2,1,0,0,0,0,0,0,0,0],1],[[-107,0,0,0,1,1,0,1,0,1,0,0],1],[[-107,0,0,0,2,0,0,0,1,1,0,0],-1],[[-107,0,0,0,2,1,0,0,0,0,1,0],0],[[-107,0,0,0,2,1,0,0,0,1,0,0],0],[[-107,0,0,1,1,0,0,1,0,1,0,0],-1],[[-107,0,0,1,2,0,0,0,0,0,1,0],-1],[[-107,0,0,1,2,0,0,0,0,1,0,0],-1],[[-107,0,1,0,1,1,0,0,0,0,1,0],1],[[-107,0,1,1,0,1,0,1,0,0,0,0],1],[[-107,0,1,1,1,0,0,0,0,0,1,0],-1],[[-107,0,1,1,1,0,0,0,1,0,0,0],1],[[-107,0,1,1,1,1,0,0,0,0,0,0],1],[[-107,0,2,1,0,0,0,0,1,0,0,0],1],[[-107,0,2,1,0,1,0,0,0,0,0,0],1],[[-106,0,0,0,2,0,0,1,0,1,0,0],-1],[[-106,0,0,0,3,0,0,0,0,0,1,0],-1],[[-106,0,0,0,3,0,0,0,0,1,0,0],-1],[[-106,0,1,0,2,0,0,0,0,0,1,0],-1],[[-106,0,1,1,1,0,0,1,0,0,0,0],1],[[-106,0,1,1,2,0,0,0,0,0,0,0],1],[[-106,0,2,1,0,0,0,1,0,0,0,0],1],[[-106,0,2,1,1,0,0,0,0,0,0,0],1],[[-63,0,0,0,0,1,1,0,0,1,0,0],1],[[-63,0,0,1,0,1,0,0,0,0,1,0],1],[[-63,0,0,1,0,1,0,0,0,1,0,0],1],[[-63,0,1,0,1,0,1,0,0,0,0,0],-1],[[-63,0,1,1,1,0,0,0,0,0,0,0],-1],[[-63,1,0,0,0,1,0,0,0,0,1,0],1],[[-63,1,1,0,1,0,0,0,0,0,0,0],-1],[[-62,0,0,0,1,0,1,0,0,1,0,0],-1],[[-62,0,0,1,1,0,0,0,0,0,1,0],-1],[[-62,0,0,1,1,0,0,0,0,1,0,0],-1],[[-62,0,1,0,1,1,1,0,0,0,0,0],-1],[[-62,0,1,1,1,0,0,0,1,0,0,0],-1],[[-62,0,1,1,1,1,0,0,0,0,0,0],-1],[[-62,1,0,0,1,0,0,0,0,0,1,0],-1],[[-62,1,1,0,1,0,0,0,1,0,0,0],-1],[[-62,1,1,0,1,1,0,0,0,0,0,0],-1],[[-61,0,0,1,0,1,1,0,0,1,0,0],1],[[-61,0,0,2,0,1,0,0,0,0,1,0],1],[[-61,0,0,2,0,1,0,0,0,1,0,0],1],[[-61,0,1,0,2,0,1,0,0,0,0,0],-1],[[-61,0,1,1,0,0,1,0,0,0,0,0],1],[[-61,0,1,1,1,0,0,1,0,0,0,0],-1],[[-61,0,1,1,2,0,0,0,0,0,0,0],-1],[[-61,0,1,2,0,0,0,0,0,0,0,0],1],[[-61,0,2,0,1,0,1,0,0,0,0,0],-1],[[-61,0,2,1,1,0,0,0,0,0,0,0],-1],[[-61,1,0,1,0,1,0,0,0,0,1,0],1],[[-61,1,1,0,1,0,0,1,0,0,0,0],-1],[[-61,1,1,0,2,0,0,0,0,0,0,0],-1],[[-61,1,1,1,0,0,0,0,0,0,0,0],1],[[-60,0,0,0,1,1,1,0,0,1,0,0],1],[[-60,0,0,1,1,0,1,0,0,1,0,0],-1],[[-60,0,0,1,1,1,0,0,0,0,1,0],1],[[-60,0,0,1,1,1,0,0,0,1,0,0],1],[[-60,0,0,2,1,0,0,0,0,0,1,0],-1],[[-60,0,0,2,1,0,0,0,0,1,0,0],-1],[[-60,0,1,1,0,1,1,0,0,0,0,0],1],[[-60,0,1,2,0,0,0,0,1,0,0,0],1],[[-60,0,1,2,0,1,0,0,0,0,0,0],1],[[-60,1,0,0,1,1,0,0,0,0,1,0],1],[[-60,1,0,1,1,0,0,0,0,0,1,0],-1],[[-60,1,1,1,0,0,0,0,1,0,0,0],1],[[-60,1,1,1,0,1,0,0,0,0,0,0],1],[[-59,0,0,0,2,0,1,0,0,1,0,0],-1],[[-59,0,0,1,2,0,0,0,0,0,1,0],-1],[[-59,0,0,1,2,0,0,0,0,1,0,0],-1],[[-59,0,1,1,1,0,1,0,0,0,0,0],1],[[-59,0,1,2,0,0,0,1,0,0,0,0],1],[[-59,0,1,2,1,0,0,0,0,0,0,0],1],[[-59,0,2,1,0,0,1,0,0,0,0,0],1],[[-59,0,2,2,0,0,0,0,0,0,0,0],1],[[-59,1,0,0,2,0,0,0,0,0,1,0],-1],[[-59,1,1,1,0,0,0,1,0,0,0,0],1],[[-59,1,1,1,1,0,0,0,0,0,0,0],1],[[-14,0,1,1,1,0,1,0,0,0,0,0],-1],[[-14,0,1,2,1,0,0,0,0,0,0,0],-1],[[-14,1,1,0,1,0,1,0,0,0,0,0],-1],[[-14,1,1,1,1,0,0,0,0,0,0,0],-1],[[-12,0,1,2,0,0,1,0,0,0,0,0],1],[[-12,0,1,3,0,0,0,0,0,0,0,0],1],[[-12,1,1,1,0,0,1,0,0,0,0,0],1],[[-12,1,1,2,0,0,0,0,0,0,0,0],1]],
    [[[-112,0,0,0,0,1,0,0,0,0,1,0],-1],[[-112,0,0,0,0,1,0,0,0,1,0,0],-1],[[-112,0,1,0,1,0,0,0,0,0,0,0],1],[[-111,0,0,0,0,1,0,0,1,1,0,0],-1],[[-111,0,0,0,0,2,0,0,0,0,1,0],-1],[[-111,0,0,0,0,2,0,0,0,1,0,0],-1],[[-111,0,1,0,1,0,0,0,1,0,0,0],1],[[-111,0,1,0,1,1,0,0,0,0,0,0],1],[[-110,0,0,0,0,1,0,1,0,1,0,0],-1],[[-110,0,0,0,1,1,0,0,0,0,1,0],-1],[[-110,0,0,0,1,1,0,0,0,1,0,0],-1],[[-110,0,0,1,0,1,0,0,0,0,1,0],-1],[[-110,0,0,1,0,1,0,0,0,1,0,0],-1],[[-110,0,1,0,0,1,0,0,0,0,1,0],-1],[[-110,0,1,0,1,0,0,1,0,0,0,0],1],[[-110,0,1,0,1,1,0,0,1,0,0,0],1],[[-110,0,1,0,1,2,0,0,0,0,0,0],1],[[-110,0,1,0,2,0,0,0,0,0,0,0],1],[[-110,0,2,0,1,0,0,0,0,0,0,0],1],[[-109,0,0,0,1,1,0,0,0,0,1,0],-1],[[-109,0,0,0,1,1,0,0,0,1,0,0],-1],[[-109,0,0,1,0,1,0,0,1,1,0,0],-1],[[-109,0,0,1,0,2,0,0,0,0,1,0],-1],[[-109,0,0,1,0,2,0,0,0,1,0,0],-1],[[-109,0,1,0,1,1,0,1,0,0,0,0],1],[[-109,0,1,0,2,0,0,0,1,0,0,0],1],[[-109,0,1,0,2,1,0,0,0,0,0,0],1],[[-109,0,2,0,1,0,0,0,1,0,0,0],1],[[-109,0,2,0,1,1,0,0,0,0,0,0],1],[[-108,0,0,0,1,1,0,0,1,1,0,0],-1],[[-108,0,0,0,1,2,0,0,0,0,1,0],-1],[[-108,0,0,0,1,2,0,0,0,1,0,0],-1],[[-108,0,0,1,0,1,0,1,0,1,0,0],-1],[[-108,0,0,1,1,1,0,0,0,0,1,0],-1],[[-108,0,0,1,1,1,0,0,0,1,0,0],-1],[[-108,0,1,0,2,0,0,1,0,0,0,0],1],[[-108,0,1,0,3,0,0,0,0,0,0,0],1],[[-108,0,1,1,0,1,0,0,0,0,1,0],-1],[[-108,0,2,0,1,0,0,1,0,0,0,0],1],[[-108,0,2,0,2,0,0,0,0,0,0,0],1],[[-107,0,0,0,1,1,0,1,0,1,0,0],-1],[[-107,0,0,0,2,1,0,0,0,0,1,0],-1],[[-107,0,0,0,2,1,0,0,0,1,0,0],-1],[[-107,0,1,0,1,1,0,0,0,0,1,0],-1],[[-63,0,0,0,0,1,1,0,0,1,0,0],-1],[[-63,0,0,1,0,1,0,0,0,0,1,0],-1],[[-63,0,0,1,0,1,0,0,0,1,0,0],-1],[[-63,0,1,0,1,0,1,0,0,0,0,0],1],[[-63,0,1,1,1,0,0,0,0,0,0,0],1],[[-63,1,0,0,0,1,0,0,0,0,1,0],-1],[[-63,1,1,0,1,0,0,0,0,0,0,0],1],[[-62,0,1,0,1,1,1,0,0,0,0,0],1],[[-62,0,1,1,1,0,0,0,1,0,0,0],1],[[-62,0,1,1,1,1,0,0,0,0,0,0],1],[[-62,1,1,0,1,0,0,0,1,0,0,0],1],[[-62,1,1,0,1,1,0,0,0,0,0,0],1],[[-61,0,0,1,0,1,1,0,0,1,0,0],-1],[[-61,0,0,2,0,1,0,0,0,0,1,0],-1],[[-61,0,0,2,0,1,0,0,0,1,0,0],-1],[[-61,0,1,0,2,0,1,0,0,0,0,0],1],[[-61,0,1,1,1,0,0,1,0,0,0,0],1],[[-61,0,1,1,2,0,0,0,0,0,0,0],1],[[-61,0,2,0,1,0,1,0,0,0,0,0],1],[[-61,0,2,1,1,0,0,0,0,0,0,0],1],[[-61,1,0,1,0,1,0,0,0,0,1,0],-1],[[-61,1,1,0,1,0,0,1,0,0,0,0],1],[[-61,1,1,0,2,0,0,0,0,0,0,0],1],[[-60,0,0,0,1,1,1,0,0,1,0,0],-1],[[-60,0,0,1,1,1,0,0,0,0,1,0],-1],[[-60,0,0,1,1,1,0,0,0,1,0,0],-1],[[-60,1,0,0,1,1,0,0,0,0,1,0],-1],[[-14,0,1,1,1,0,1,0,0,0,0,0],1],[[-14,0,1,2,1,0,0,0,0,0,0,0],1],[[-14,1,1,0,1,0,1,0,0,0,0,0],1],[[-14,1,1,1,1,0,0,0,0,0,0,0],1]],
    [[[-57,0,0,0,0,0,0,1,0,0,1,0],1],[[-56,0,0,0,0,1,1,0,0,0,0,0],-1],[[-55,0,0,0,0,0,1,1,0,0,1,0],1],[[-55,0,0,0,0,1,1,0,1,0,0,0],-1],[[-55,0,0,0,0,2,1,0,0,0,0,0],-1],[[-54,0,0,0,0,0,0,2,0,0,1,0],1],[[-54,0,0,0,0,1,1,1,0,0,0,0],-1],[[-54,0,0,0,1,1,1,0,0,0,0,0],-1],[[-7,0,0,0,0,1,2,0,0,0,0,0],-1],[[-7,0,0,1,0,1,1,0,0,0,0,0],-1]],
    [[[-113,0,0,0,0,0,0,0,1,0,1,0],1],[[-113,0,0,0,0,1,0,1,0,0,0,0],-1],[[-112,0,0,0,0,0,0,0,2,0,1,0],1],[[-112,0,0,0,0,0,0,1,0,0,1,0],-1],[[-112,0,0,0,0,1,0,0,1,0,1,0],1],[[-112,0,0,0,0,1,0,1,0,1,0,0],-1],[[-112,0,0,0,0,1,0,1,1,0,0,0],-1],[[-112,0,0,0,0,2,0,1,0,0,0,0],-1],[[-111,0,0,0,0,0,0,1,0,1,1,0],-1],[[-111,0,0,0,0,0,0,1,1,0,1,0],0],[[-111,0,0,0,0,0,1,0,1,0,1,0],1],[[-111,0,0,0,0,1,0,1,1,1,0,0],-1],[[-111,0,0,0,0,1,0,1,2,0,0,0],-1],[[-111,0,0,0,0,1,0,2,0,0,0,0],-1],[[-111,0,0,0,0,1,1,0,0,0,0,0],1],[[-111,0,0,0,0,2,0,1,0,1,0,0],-1],[[-111,0,0,0,0,2,0,1,1,0,0,0],-1],[[-111,0,0,0,1,0,0,0,1,0,1,0],1],[[-111,0,0,0,1,1,0,1,0,0,0,0],-1],[[-110,0,0,0,0,0,0,1,1,0,1,0],1],[[-110,0,0,0,0,0,0,2,0,0,1,0],-1],[[-110,0,0,0,0,0,1,0,2,0,1,0],1],[[-110,0,0,0,0,0,1,1,0,0,1,0],-1],[[-110,0,0,0,0,1,0,2,0,1,0,0],-1],[[-110,0,0,0,0,1,0,2,1,0,0,0],-1],[[-110,0,0,0,0,1,1,0,0,1,0,0],1],[[-110,0,0,0,0,1,1,0,1,0,0,0],1],[[-110,0,0,0,0,1,1,0,1,0,1,0],1],[[-110,0,0,0,0,2,0,2,0,0,0,0],-1],[[-110,0,0,0,0,2,1,0,0,0,0,0],1],[[-110,0,0,0,1,0,0,1,0,0,1,0],-1],[[-110,0,0,0,1,1,0,1,0,1,0,0],-1],[[-110,0,0,0,1,1,0,1,1,0,0,0],-1],[[-110,0,0,0,1,2,0,1,0,0,0,0],-1],[[-109,0,0,0,0,0,0,1,2,0,1,0],1],[[-109,0,0,0,0,0,0,2,0,0,1,0],-1],[[-109,0,0,0,0,0,1,1,0,1,1,0],-1],[[-109,0,0,0,0,0,1,1,1,0,1,0],0],[[-109,0,0,0,0,1,0,1,1,0,1,0],1],[[-109,0,0,0,0,1,0,3,0,0,0,0],-1],[[-109,0,0,0,0,1,1,0,1,1,0,0],1],[[-109,0,0,0,0,1,1,0,2,0,0,0],1],[[-109,0,0,0,0,1,1,1,0,0,0,0],1],[[-109,0,0,0,0,2,1,0,0,1,0,0],1],[[-109,0,0,0,0,2,1,0,1,0,0,0],1],[[-109,0,0,0,1,0,1,0,1,0,1,0],1],[[-109,0,0,0,1,1,0,2,0,0,0,0],-1],[[-109,0,0,0,1,1,1,0,0,0,0,0],1],[[-109,0,0,0,2,1,0,1,0,0,0,0],-1],[[-108,0,0,0,0,0,0,2,0,1,1,0],-1],[[-108,0,0,0,0,0,0,2,1,0,1,0],0],[[-108,0,0,0,0,0,1,2,0,0,1,0],-1],[[-108,0,0,0,0,1,1,1,0,1,0,0],1],[[-108,0,0,0,0,1,1,1,1,0,0,0],1],[[-108,0,0,0,0,2,1,1,0,0,0,0],1],[[-108,0,0,0,1,0,0,1,1,0,1,0],1],[[-108,0,0,0,1,0,1,1,0,0,1,0],-1],[[-108,0,0,0,1,1,1,0,0,1,0,0],1],[[-108,0,0,0,1,1,1,0,1,0,0,0],1],[[-108,0,0,0,1,2,1,0,0,0,0,0],1],[[-107,0,0,0,0,0,0,3,0,0,1,0],-1],[[-107,0,0,0,0,1,1,2,0,0,0,0],1],[[-107,0,0,0,1,0,0,2,0,0,1,0],-1],[[-107,0,0,0,1,1,1,1,0,0,0,0],1],[[-107,0,0,0,2,1,1,0,0,0,0,0],1],[[-64,0,0,0,0,0,1,0,1,0,1,0],1],[[-64,0,0,0,0,1,1,1,0,0,0,0],-1],[[-64,0,0,1,0,0,0,0,1,0,1,0],1],[[-64,0,0,1,0,1,0,1,0,0,0,0],-1],[[-63,0,0,0,0,0,1,1,0,0,1,0],-1],[[-63,0,0,0,0,1,1,1,0,1,0,0],-1],[[-63,0,0,0,0,1,1,1,1,0,0,0],-1],[[-63,0,0,0,0,2,1,1,0,0,0,0],-1],[[-63,0,0,1,0,0,0,1,0,0,1,0],-1],[[-63,0,0,1,0,1,0,1,0,1,0,0],-1],[[-63,0,0,1,0,1,0,1,1,0,0,0],-1],[[-63,0,0,1,0,2,0,1,0,0,0,0],-1],[[-62,0,0,0,0,0,2,0,1,0,1,0],1],[[-62,0,0,0,0,1,1,2,0,0,0,0],-1],[[-62,0,0,0,0,1,2,0,0,0,0,0],1],[[-62,0,0,0,1,1,1,1,0,0,0,0],-1],[[-62,0,0,1,0,0,1,0,1,0,1,0],1],[[-62,0,0,1,0,1,0,2,0,0,0,0],-1],[[-62,0,0,1,0,1,1,0,0,0,0,0],1],[[-62,0,0,1,1,1,0,1,0,0,0,0],-1],[[-61,0,0,0,0,0,1,1,1,0,1,0],1],[[-61,0,0,0,0,0,2,1,0,0,1,0],-1],[[-61,0,0,0,0,1,2,0,0,1,0,0],1],[[-61,0,0,0,0,1,2,0,1,0,0,0],1],[[-61,0,0,0,0,2,2,0,0,0,0,0],1],[[-61,0,0,1,0,0,0,1,1,0,1,0],1],[[-61,0,0,1,0,0,1,1,0,0,1,0],-1],[[-61,0,0,1,0,1,1,0,0,1,0,0],1],[[-61,0,0,1,0,1,1,0,1,0,0,0],1],[[-61,0,0,1,0,2,1,0,0,0,0,0],1],[[-60,0,0,0,0,0,1,2,0,0,1,0],-1],[[-60,0,0,0,0,1,2,1,0,0,0,0],1],[[-60,0,0,0,1,1,2,0,0,0,0,0],1],[[-60,0,0,1,0,0,0,2,0,0,1,0],-1],[[-60,0,0,1,0,1,1,1,0,0,0,0],1],[[-60,0,0,1,1,1,1,0,0,0,0,0],1],[[-15,0,0,0,0,1,2,1,0,0,0,0],-1],[[-15,0,0,1,0,1,1,1,0,0,0,0],-1],[[-15,0,0,2,0,1,0,1,0,0,0,0],-1],[[-13,0,0,0,0,1,3,0,0,0,0,0],1],[[-13,0,0,1,0,1,2,0,0,0,0,0],1],[[-13,0,0,2,0,1,1,0,0,0,0,0],1]],
    [[[-58,0,0,0,0,0,0,0,1,0,1,0],-1],[[-58,0,0,0,0,1,0,1,0,0,0,0],1],[[-57,0,0,0,0,1,0,1,0,1,0,0],1],[[-57,0,0,0,0,1,0,1,1,0,0,0],1],[[-56,0,0,0,0,0,1,0,1,0,1,0],-1],[[-56,0,0,0,0,1,0,2,0,0,0,0],1],[[-56,0,0,0,1,1,0,1,0,0,0,0],1],[[-55,0,0,0,0,0,0,1,1,0,1,0],-1],[[-9,0,0,0,0,1,1,1,0,0,0,0],1],[[-9,0,0,1,0,1,0,1,0,0,0,0],1]],
    [[[0,0,0,0,0,0,0,0,0,0,0,0],0]],
    [[[0,0,0,0,0,0,0,0,0,0,0,0],0]],
    [[[0,0,0,0,0,0,0,0,0,0,0,0],0]],
    [[[-1,0,0,0,0,0,0,0,0,0,0,0],-1],[[0,0,0,0,0,0,0,0,0,0,0,1],1]],
    [[[-2,0,0,0,0,0,0,0,0,0,0,0],-1],[[0,0,0,0,0,0,0,0,0,0,1,0],1]],
    [[[-2,0,0,0,0,0,0,0,0,0,0,0],-1],[[0,0,0,0,0,0,0,0,0,1,0,0],1]],
    [[[-3,0,0,0,0,0,0,0,0,0,0,0],-1],[[0,0,0,0,0,0,0,0,1,0,0,0],1],[[0,0,0,0,0,0,0,1,0,0,0,0],1],[[0,0,0,0,0,0,1,0,0,0,0,0],1]],
    [[[-3,0,0,0,0,0,0,0,0,0,0,0],-1],[[0,0,0,0,0,1,0,0,0,0,0,0],1],[[0,0,0,0,1,0,0,0,0,0,0,0],1],[[0,0,0,1,0,0,0,0,0,0,0,0],1]],
    [[[-2,0,0,0,0,0,0,0,0,0,0,0],-1],[[0,0,1,0,0,0,0,0,0,0,0,0],1],[[0,1,0,0,0,0,0,0,0,0,0,0],1]]
  ]
]
