[
  ["#0",
    [[0,0,0,0,0,0,0,0,1,1,1,1,1,1,1,1,1,1,1],
     [0,0,0,0,0,0,0,1,1,1,1,1,1,1,1,1,1,1,1],
     [0,0,0,0,0,0,0,1,0,1,1,1,1,1,1,1,1,1,1],
     [0,0,0,0,0,0,0,1,1,0,1,1,1,1,1,1,1,1,1],
     [0,0,0,0,0,0,0,1,1,1,0,1,1,1,1,1,1,1,1],
     [0,0,0,0,0,0,0,1,1,1,1,0,1,1,1,1,1,1,1],
     [0,0,0,0,0,0,0,1,1,1,1,1,1,0,1,1,1,1,1],
     [0,1,1,1,1,1,1,0,1,1,0,1,1,1,1,1,1,1,1],
     [1,1,0,1,1,1,1,1,0,1,1,0,1,1,1,1,1,1,1],
     [1,1,1,0,1,1,1,1,1,0,1,1,1,0,1,1,1,1,1],
     [1,1,1,1,0,1,1,0,1,1,0,1,1,1,1,1,1,1,1],
     [1,1,1,1,1,0,1,1,0,1,1,0,1,1,1,1,1,1,1],
     [1,1,1,1,1,1,1,1,1,1,1,1,0,1,1,1,1,1,1],
     [1,1,1,1,1,1,0,1,1,0,1,1,1,0,1,1,1,1,1],
     [1,1,1,1,1,1,1,1,1,1,1,1,1,1,0,1,1,1,1],
     [1,1,1,1,1,1,1,1,1,1,1,1,1,1,1,0,1,0,1],
     [1,1,1,1,1,1,1,1,1,1,1,1,1,1,1,1,0,1,0],
     [1,1,1,1,1,1,1,1,1,1,1,1,1,1,1,0,1,0,1],
     [1,1,1,1,1,1,1,1,1,1,1,1,1,1,1,1,0,1,0]], [
    [[[0,1,0,-1,0,1,0,0,0,0]], [[1,0,1,-1,0,0,0,0,0,0],[0,1,0,0,0,0,0,0,0,0],[2,1,0,-1,0,0,0,0,0,0],[0,0,0,1,0,0,0,0,0,0]], 0],
    [[[0,1,0,0,0,1,0,0,0,0]], [[0,1,0,0,0,0,0,0,0,0],[1,0,1,0,0,0,0,0,0,0],[0,0,0,-1,0,0,0,0,0,0]], 1],
    [[[0,2,0,-1,0,1,0,0,0,0]], [[0,0,0,1,0,0,0,0,0,0],[2,2,0,-1,0,0,0,0,0,0],[1,1,1,-1,0,0,0,0,0,0],[0,-1,0,0,0,0,0,0,0,0]], 2],
    [[[0,2,0,0,0,1,0,0,0,0]], [[0,0,0,-1,0,0,0,0,0,0],[1,1,1,0,0,0,0,0,0,0],[0,-1,0,0,0,0,0,0,0,0],[1,1,0,0,0,0,0,0,0,0]], 3],
    [[[2,1,0,-1,0,0,0,0,0,0]], [[-1,-1,1,0,0,0,0,0,0,0],[0,1,0,0,0,0,0,0,0,0],[-2,0,0,0,0,1,0,0,0,0]], 8],
    [[[2,2,0,-1,0,0,0,0,0,0]], [[-2,0,0,0,0,1,0,0,0,0],[-1,-1,1,0,0,0,0,0,0,0],[1,1,0,0,0,0,0,0,0,0],[0,-1,0,0,0,0,0,0,0,0]], 9],
    [[[1,1,0,0,0,0,0,0,0,0]], [[-2,0,0,0,0,1,0,0,0,0],[0,0,0,-1,0,0,0,0,0,0],[0,0,1,0,0,0,0,0,0,0]], 10],
    [[[-1,1,-1,0,0,1,0,0,0,0]], [[-1,0,-1,1,0,0,0,0,0,0],[0,1,0,0,0,0,0,0,0,0],[1,0,1,0,0,0,0,0,0,0],[1,1,-1,0,0,0,0,0,0,0]], 11],
    [[[-1,1,-1,0,0,1,0,0,0,0]], [[-1,-1,-1,1,0,0,0,0,0,0],[0,-1,0,0,0,0,0,0,0,0],[1,1,-1,0,0,0,0,0,0,0],[1,0,1,0,0,0,0,0,0,0],[0,0,0,1,0,0,0,0,0,0]], 29],
    [[[-1,1,-1,0,0,1,0,0,0,0]], [[-1,-1,-1,0,0,0,0,0,0,0],[1,1,-1,0,0,0,0,0,0,0],[1,0,1,0,0,0,0,0,0,0],[0,0,0,-1,0,0,0,0,0,0]], 38],
    [[[1,1,-1,0,0,0,0,0,0,0]], [[-2,-1,0,1,0,0,0,0,0,0],[0,1,0,0,0,0,0,0,0,0],[-2,0,0,0,0,1,0,0,0,0]], 47],
    [[[1,1,-1,0,0,0,0,0,0,0]], [[-2,-2,0,1,0,0,0,0,0,0],[0,-1,0,0,0,0,0,0,0,0],[-2,0,0,0,0,1,0,0,0,0],[2,1,0,0,0,0,0,0,0,0],[0,0,0,1,0,0,0,0,0,0]], 58],
    [[[-1,1,-1,0,0,1,0,0,0,0]], [[0,1,0,0,0,0,0,0,0,0],[-1,0,-1,0,0,0,0,0,0,0],[0,0,0,1,0,0,0,0,0,0]], 63],
    [[[1,1,-1,0,0,0,0,0,0,0]], [[-1,-1,0,0,0,0,0,0,0,0],[-2,0,0,0,0,1,0,0,0,0],[2,1,0,0,0,0,0,0,0,0],[0,0,0,-1,0,0,0,0,0,0]], 71],
    [[[-1,1,-1,0,0,1,0,0,0,0]], [[-1,0,-1,0,0,0,0,0,0,0],[0,1,0,0,0,0,0,0,0,0],[0,0,0,-1,0,0,0,0,0,0]], 75],
    [[[-1,1,-1,0,0,1,0,0,0,0]], [[1,1,-1,0,0,0,0,0,0,0],[0,0,0,1,0,0,0,0,0,0],[0,-1,0,0,0,0,0,0,0,0],[-1,0,-1,0,0,0,0,0,0,0]], 80],
    [[[-1,1,-1,0,0,1,0,0,0,0]], [[1,1,-1,0,0,0,0,0,0,0],[0,0,0,-1,0,0,0,0,0,0],[-1,0,-1,0,0,0,0,0,0,0],[0,-1,0,0,0,0,0,0,0,0]], 85],
    [[[1,1,-1,0,0,0,0,0,0,0]], [[-2,0,0,0,0,1,0,0,0,0],[0,0,0,1,0,0,0,0,0,0],[-2,-1,0,0,0,0,0,0,0,0]], 88],
    [[[1,1,-1,0,0,0,0,0,0,0]], [[-2,0,0,0,0,1,0,0,0,0],[0,0,0,-1,0,0,0,0,0,0],[-2,-1,0,0,0,0,0,0,0,0]], 93]
  ]],
  ["#1",
    [[0,0,0,1],
     [0,0,1,0],
     [0,1,0,0],
     [1,0,0,0]], [
    [[[0,1,-1,0,0,1,0,0,0,-1]], [[1,-1,0,0,0,-1,0,1,0,0],[1,-1,1,0,0,-1,0,0,0,0]], 0],
    [[[-1,0,1,0,0,0,0,-1,0,1]], [[0,0,1,0,0,0,0,-1,0,0],[-1,1,0,0,0,1,0,-1,0,0]], 1],
    [[[-1,1,-1,0,0,1,0,0,0,0]], [[0,0,-1,0,0,0,0,1,0,0],[-1,0,0,0,0,0,0,0,0,1]], 2],
    [[[0,0,1,0,0,0,0,-1,0,0]], [[-1,0,0,0,0,0,0,0,0,1],[-1,1,-1,0,0,1,0,0,0,0]], 3]
  ]],
  ["#2",
    [[0,0,1,1,1],
     [0,0,1,1,1],
     [1,1,0,1,1],
     [1,1,1,0,1],
     [1,1,1,1,0]], [
    [[[0,0,0,1,0,0,0,0,0,0]], [[1,0,1,0,0,0,0,0,0,0],[1,1,0,0,0,0,0,0,0,0]], 0],
    [[[1,0,0,1,0,0,0,0,0,0]], [[1,1,0,0,0,0,0,0,0,0],[1,0,1,0,0,0,0,0,0,0]], 4],
    [[[0,0,0,1,0,0,0,0,0,0]], [[-1,0,-1,0,0,0,0,0,0,0],[1,1,0,0,0,0,0,0,0,0]], 15],
    [[[0,0,0,1,0,0,0,0,0,0]], [[-1,-1,0,0,0,0,0,0,0,0],[1,0,1,0,0,0,0,0,0,0]], 20],
    [[[0,0,0,1,0,0,0,0,0,0]], [[-1,0,-1,0,0,0,0,0,0,0],[-1,-1,0,0,0,0,0,0,0,0]], 23]
  ]],
  ["#3",
    [[0,0,0,0,0,0,1,1,1,1,1,1,1,1,1,1,1,1,1,1,1,1,1,1,1,1,1,1,1,1,1,1,1,1,1,1],
     [0,0,0,0,0,0,1,1,1,1,1,1,0,1,1,1,1,1,1,1,1,1,1,1,1,1,1,1,1,1,1,1,1,1,1,1],
     [0,0,0,0,0,0,1,1,1,1,1,1,1,1,1,1,1,1,1,1,1,1,1,1,1,1,1,1,1,1,1,1,1,1,1,1],
     [0,0,0,0,0,0,1,1,1,1,1,1,1,1,0,1,1,1,1,1,1,1,1,1,1,1,1,1,1,1,1,1,1,1,1,1],
     [0,0,0,0,0,0,1,1,1,1,0,1,1,1,1,1,1,1,1,0,1,1,1,1,0,1,1,1,1,1,1,1,1,1,1,1],
     [0,0,0,0,0,0,1,1,1,1,1,0,1,1,1,0,1,0,1,1,1,1,0,1,1,1,0,1,1,1,1,0,0,1,1,1],
     [1,1,1,1,1,1,0,0,0,0,0,0,1,1,1,1,1,1,1,1,1,1,1,1,1,1,1,1,1,1,1,1,1,1,1,1],
     [1,1,1,1,1,1,0,0,0,0,0,0,1,0,1,1,1,1,1,1,1,1,1,1,1,1,1,1,1,1,1,1,1,1,1,1],
     [1,1,1,1,1,1,0,0,0,0,0,0,1,1,1,1,1,1,1,1,1,1,1,1,1,1,1,1,1,1,1,1,1,1,1,1],
     [1,1,1,1,1,1,0,0,0,0,0,0,1,1,1,1,0,1,1,1,1,1,1,1,1,1,1,1,1,1,1,1,1,1,1,1],
     [1,1,1,1,0,1,0,0,0,0,0,0,1,1,1,1,1,1,1,0,1,1,1,1,0,1,1,1,1,1,1,1,1,1,1,1],
     [1,1,1,1,1,0,0,0,0,0,0,0,1,1,1,0,1,0,1,1,1,1,0,1,1,1,0,1,1,1,1,0,0,1,1,1],
     [1,0,1,1,1,1,1,1,1,1,1,1,0,1,0,0,1,1,1,1,1,1,1,1,1,1,1,1,1,1,1,1,1,1,1,1],
     [1,1,1,1,1,1,1,0,1,1,1,1,1,0,1,1,0,0,1,1,1,1,1,1,1,1,1,1,1,1,1,1,1,1,1,1],
     [1,1,1,0,1,1,1,1,1,1,1,1,0,1,0,0,1,1,1,1,1,1,1,1,1,1,1,1,1,1,1,1,1,1,1,1],
     [1,1,1,1,1,0,1,1,1,1,1,0,0,1,0,0,1,0,1,1,1,1,0,1,1,1,0,1,1,1,1,0,0,1,1,1],
     [1,1,1,1,1,1,1,1,1,0,1,1,1,0,1,1,0,0,1,1,1,1,1,1,1,1,1,1,1,1,1,1,1,1,1,1],
     [1,1,1,1,1,0,1,1,1,1,1,0,1,0,1,0,0,0,1,1,1,1,0,1,1,1,0,1,1,1,1,0,0,1,1,1],
     [1,1,1,1,1,1,1,1,1,1,1,1,1,1,1,1,1,1,0,0,0,0,0,0,1,1,1,1,1,1,1,1,1,1,1,1],
     [1,1,1,1,0,1,1,1,1,1,0,1,1,1,1,1,1,1,0,0,0,0,0,0,0,1,1,1,1,1,1,1,1,1,1,1],
     [1,1,1,1,1,1,1,1,1,1,1,1,1,1,1,1,1,1,0,0,0,0,0,0,1,1,1,1,1,1,0,1,1,1,1,1],
     [1,1,1,1,1,1,1,1,1,1,1,1,1,1,1,1,1,1,0,0,0,0,0,0,1,1,1,1,1,1,1,1,1,1,1,1],
     [1,1,1,1,1,0,1,1,1,1,1,0,1,1,1,0,1,0,0,0,0,0,0,0,1,1,0,1,1,1,1,0,0,1,1,1],
     [1,1,1,1,1,1,1,1,1,1,1,1,1,1,1,1,1,1,0,0,0,0,0,0,1,1,1,1,1,1,1,1,1,1,0,1],
     [1,1,1,1,0,1,1,1,1,1,0,1,1,1,1,1,1,1,1,0,1,1,1,1,0,0,0,0,0,0,1,1,1,1,1,1],
     [1,1,1,1,1,1,1,1,1,1,1,1,1,1,1,1,1,1,1,1,1,1,1,1,0,0,0,0,0,0,1,1,1,1,1,1],
     [1,1,1,1,1,0,1,1,1,1,1,0,1,1,1,0,1,0,1,1,1,1,0,1,0,0,0,0,0,0,1,0,0,1,1,1],
     [1,1,1,1,1,1,1,1,1,1,1,1,1,1,1,1,1,1,1,1,1,1,1,1,0,0,0,0,0,0,1,1,1,0,1,1],
     [1,1,1,1,1,1,1,1,1,1,1,1,1,1,1,1,1,1,1,1,1,1,1,1,0,0,0,0,0,0,1,1,1,1,1,1],
     [1,1,1,1,1,1,1,1,1,1,1,1,1,1,1,1,1,1,1,1,1,1,1,1,0,0,0,0,0,0,1,1,1,1,1,0],
     [1,1,1,1,1,1,1,1,1,1,1,1,1,1,1,1,1,1,1,1,0,1,1,1,1,1,1,1,1,1,0,0,1,1,0,1],
     [1,1,1,1,1,0,1,1,1,1,1,0,1,1,1,0,1,0,1,1,1,1,0,1,1,1,0,1,1,1,0,0,0,1,0,1],
     [1,1,1,1,1,0,1,1,1,1,1,0,1,1,1,0,1,0,1,1,1,1,0,1,1,1,0,1,1,1,1,0,0,0,1,0],
     [1,1,1,1,1,1,1,1,1,1,1,1,1,1,1,1,1,1,1,1,1,1,1,1,1,1,1,0,1,1,1,1,0,0,1,0],
     [1,1,1,1,1,1,1,1,1,1,1,1,1,1,1,1,1,1,1,1,1,1,1,0,1,1,1,1,1,1,0,0,1,1,0,1],
     [1,1,1,1,1,1,1,1,1,1,1,1,1,1,1,1,1,1,1,1,1,1,1,1,1,1,1,1,1,0,1,1,0,0,1,0]], [
    [[[0,0,0,0,1,0,-1,0,0,0]], [[0,0,1,0,0,0,0,0,0,0],[1,0,0,0,-1,1,0,0,0,0],[3,-1,0,0,0,0,0,0,0,0],[1,0,0,0,0,-1,0,0,0,0],[3,-1,0,1,-1,0,0,0,0,0]], 0],
    [[[-1,0,0,0,1,1,-1,0,0,0]], [[3,-1,0,0,0,0,0,0,0,0],[0,0,1,0,0,0,0,0,0,0],[2,0,0,0,0,-1,0,0,0,0],[-1,0,0,0,0,1,0,0,0,0],[2,0,0,0,-1,0,0,0,0,0],[4,-1,0,1,-1,-1,0,0,0,0]], 5],
    [[[-1,0,0,0,1,-1,0,0,0,0]], [[0,0,1,0,0,0,0,0,0,0],[0,0,0,0,-1,0,1,0,0,0],[3,-1,0,0,0,0,0,0,0,0],[2,0,0,0,-1,0,0,0,0,0],[3,-1,0,1,-1,0,0,0,0,0]], 6],
    [[[-2,0,0,0,1,0,0,0,0,0]], [[0,0,1,0,0,0,0,0,0,0],[3,-1,0,0,0,0,0,0,0,0],[2,0,0,0,0,-1,0,0,0,0],[-1,0,0,0,0,1,0,0,0,0],[-1,0,0,0,0,-1,1,0,0,0],[2,-1,0,1,0,-1,0,0,0,0]], 9],
    [[[-3,1,0,-1,1,0,0,0,0,0]], [[0,0,1,0,0,0,0,0,0,0],[-2,1,0,-1,0,1,0,0,0,0],[-3,1,0,-1,0,0,1,0,0,0],[1,0,0,0,0,-1,0,0,0,0],[3,-1,0,0,0,0,0,0,0,0]], 12],
    [[[-4,1,0,-1,1,1,0,0,0,0]], [[0,0,1,0,0,0,0,0,0,0],[-2,1,0,-1,1,0,0,0,0,0],[2,0,0,0,-1,0,0,0,0,0],[-3,1,0,-1,0,0,1,0,0,0],[3,-1,0,1,-1,0,0,0,0,0],[3,-1,0,0,0,0,0,0,0,0]], 16],
    [[[0,0,0,0,1,0,-1,0,0,0]], [[1,0,0,0,-1,1,0,0,0,0],[1,0,0,0,0,-1,0,0,0,0],[0,0,-1,0,0,0,0,0,0,0],[3,-1,0,0,0,0,0,0,0,0],[3,-1,-1,1,-1,0,0,0,0,0]], 21],
    [[[-1,0,0,0,1,1,-1,0,0,0]], [[2,0,0,0,0,-1,0,0,0,0],[-1,0,0,0,0,1,0,0,0,0],[2,0,0,0,-1,0,0,0,0,0],[0,0,-1,0,0,0,0,0,0,0],[3,-1,0,0,0,0,0,0,0,0],[4,-1,-1,1,-1,-1,0,0,0,0]], 26],
    [[[-1,0,0,0,1,-1,0,0,0,0]], [[0,0,0,0,-1,0,1,0,0,0],[2,0,0,0,-1,0,0,0,0,0],[0,0,-1,0,0,0,0,0,0,0],[3,-1,0,0,0,0,0,0,0,0],[3,-1,-1,1,-1,0,0,0,0,0]], 27],
    [[[-2,0,0,0,1,0,0,0,0,0]], [[2,0,0,0,0,-1,0,0,0,0],[-1,0,0,0,0,1,0,0,0,0],[-1,0,0,0,0,-1,1,0,0,0],[0,0,-1,0,0,0,0,0,0,0],[3,-1,0,0,0,0,0,0,0,0],[2,-1,-1,1,0,-1,0,0,0,0]], 29],
    [[[-3,1,1,-1,1,0,0,0,0,0]], [[-2,1,1,-1,0,1,0,0,0,0],[-3,1,1,-1,0,0,1,0,0,0],[0,0,-1,0,0,0,0,0,0,0],[3,-1,0,0,0,0,0,0,0,0],[1,0,0,0,0,-1,0,0,0,0]], 31],
    [[[-4,1,1,-1,1,1,0,0,0,0]], [[-2,1,1,-1,1,0,0,0,0,0],[2,0,0,0,-1,0,0,0,0,0],[-3,1,1,-1,0,0,1,0,0,0],[0,0,-1,0,0,0,0,0,0,0],[3,-1,0,0,0,0,0,0,0,0],[3,-1,-1,1,-1,0,0,0,0,0]], 35],
    [[[1,0,0,0,1,0,-1,0,0,0]], [[3,-1,0,0,0,0,0,0,0,0],[0,0,1,0,0,0,0,0,0,0],[-2,0,0,0,0,1,0,0,0,0],[0,0,0,0,-1,1,0,0,0,0],[2,-1,0,1,-1,0,0,0,0,0]], 40],
    [[[1,0,0,0,1,0,-1,0,0,0]], [[-2,0,0,0,0,1,0,0,0,0],[0,0,0,0,-1,1,0,0,0,0],[0,0,-1,0,0,0,0,0,0,0],[3,-1,0,0,0,0,0,0,0,0],[2,-1,-1,1,-1,0,0,0,0,0]], 49],
    [[[0,0,0,0,1,-1,0,0,0,0]], [[0,0,1,0,0,0,0,0,0,0],[3,-1,0,0,0,0,0,0,0,0],[-2,0,0,0,1,0,0,0,0,0],[-1,0,0,0,-1,0,1,0,0,0],[2,-1,0,1,-1,0,0,0,0,0]], 56],
    [[[-2,1,0,-1,1,0,0,0,0,0]], [[0,0,1,0,0,0,0,0,0,0],[-2,0,0,0,0,1,0,0,0,0],[-2,1,0,-1,0,1,0,0,0,0],[3,-1,0,0,0,0,0,0,0,0],[-3,1,0,-1,0,0,1,0,0,0]], 64],
    [[[0,0,0,0,1,-1,0,0,0,0]], [[-2,0,0,0,1,0,0,0,0,0],[-1,0,0,0,-1,0,1,0,0,0],[0,0,-1,0,0,0,0,0,0,0],[3,-1,0,0,0,0,0,0,0,0],[2,-1,-1,1,-1,0,0,0,0,0]], 68],
    [[[-2,1,1,-1,1,0,0,0,0,0]], [[-2,0,0,0,0,1,0,0,0,0],[-2,1,1,-1,0,1,0,0,0,0],[-3,1,1,-1,0,0,1,0,0,0],[0,0,-1,0,0,0,0,0,0,0],[3,-1,0,0,0,0,0,0,0,0]], 74],
    [[[0,0,0,0,1,0,-1,0,0,0]], [[1,0,0,0,0,-1,0,0,0,0],[-3,1,0,0,0,0,0,0,0,0],[1,0,0,0,-1,1,0,0,0,0],[0,0,1,0,0,0,0,0,0,0],[0,0,0,1,-1,0,0,0,0,0]], 78],
    [[[0,0,0,1,-1,0,0,0,0,0]], [[-3,1,0,0,0,0,0,0,0,0],[0,0,1,0,0,0,0,0,0,0],[0,0,0,-1,0,0,1,0,0,0],[1,0,0,-1,0,1,0,0,0,0],[1,0,0,0,0,-1,0,0,0,0]], 80],
    [[[-1,0,0,0,1,1,-1,0,0,0]], [[2,0,0,0,-1,0,0,0,0,0],[-1,0,0,0,0,1,0,0,0,0],[2,0,0,0,0,-1,0,0,0,0],[1,0,0,1,-1,-1,0,0,0,0],[0,0,1,0,0,0,0,0,0,0],[-3,1,0,0,0,0,0,0,0,0]], 82],
    [[[-1,0,0,0,1,-1,0,0,0,0]], [[-3,1,0,0,0,0,0,0,0,0],[2,0,0,0,-1,0,0,0,0,0],[0,0,0,0,-1,0,1,0,0,0],[0,0,1,0,0,0,0,0,0,0],[0,0,0,1,-1,0,0,0,0,0]], 83],
    [[[1,0,0,1,-1,-1,0,0,0,0]], [[0,0,0,-1,0,0,1,0,0,0],[2,0,0,0,-1,0,0,0,0,0],[-3,1,0,0,0,0,0,0,0,0],[0,0,1,0,0,0,0,0,0,0],[1,0,0,-1,1,0,0,0,0,0],[0,0,0,1,-1,0,0,0,0,0]], 84],
    [[[-2,0,0,0,1,0,0,0,0,0]], [[-1,0,0,0,0,-1,1,0,0,0],[-3,1,0,0,0,0,0,0,0,0],[-1,0,0,0,0,1,0,0,0,0],[2,0,0,0,0,-1,0,0,0,0],[-1,0,0,1,0,-1,0,0,0,0],[0,0,1,0,0,0,0,0,0,0]], 87],
    [[[0,0,1,-1,1,0,0,0,0,0]], [[-3,1,0,0,0,0,0,0,0,0],[1,0,1,-1,0,1,0,0,0,0],[0,0,1,-1,0,0,1,0,0,0],[1,0,0,0,0,-1,0,0,0,0],[0,0,-1,0,0,0,0,0,0,0]], 89],
    [[[0,0,0,0,1,0,-1,0,0,0]], [[-3,1,0,0,0,0,0,0,0,0],[1,0,0,0,-1,1,0,0,0,0],[0,0,-1,0,0,0,0,0,0,0],[1,0,0,0,0,-1,0,0,0,0],[0,0,-1,1,-1,0,0,0,0,0]], 90],
    [[[-1,0,1,-1,1,1,0,0,0,0]], [[-3,1,0,0,0,0,0,0,0,0],[1,0,1,-1,1,0,0,0,0,0],[2,0,0,0,-1,0,0,0,0,0],[0,0,1,-1,0,0,1,0,0,0],[0,0,-1,1,-1,0,0,0,0,0],[0,0,-1,0,0,0,0,0,0,0]], 93],
    [[[-1,0,0,0,1,1,-1,0,0,0]], [[0,0,-1,0,0,0,0,0,0,0],[-3,1,0,0,0,0,0,0,0,0],[2,0,0,0,0,-1,0,0,0,0],[-1,0,0,0,0,1,0,0,0,0],[2,0,0,0,-1,0,0,0,0,0],[1,0,-1,1,-1,-1,0,0,0,0]], 94],
    [[[-1,0,0,0,1,-1,0,0,0,0]], [[-3,1,0,0,0,0,0,0,0,0],[0,0,0,0,-1,0,1,0,0,0],[0,0,-1,0,0,0,0,0,0,0],[2,0,0,0,-1,0,0,0,0,0],[0,0,-1,1,-1,0,0,0,0,0]], 95],
    [[[-2,0,0,0,1,0,0,0,0,0]], [[-3,1,0,0,0,0,0,0,0,0],[0,0,-1,0,0,0,0,0,0,0],[2,0,0,0,0,-1,0,0,0,0],[-1,0,0,0,0,1,0,0,0,0],[-1,0,0,0,0,-1,1,0,0,0],[-1,0,-1,1,0,-1,0,0,0,0]], 97],
    [[[1,0,0,0,1,0,-1,0,0,0]], [[0,0,0,0,-1,1,0,0,0,0],[-3,1,0,0,0,0,0,0,0,0],[-2,0,0,0,0,1,0,0,0,0],[-1,0,0,1,-1,0,0,0,0,0],[0,0,1,0,0,0,0,0,0,0]], 98],
    [[[-1,0,0,1,-1,0,0,0,0,0]], [[0,0,0,-1,0,0,1,0,0,0],[1,0,0,-1,0,1,0,0,0,0],[-3,1,0,0,0,0,0,0,0,0],[0,0,1,0,0,0,0,0,0,0],[-2,0,0,0,0,1,0,0,0,0]], 100],
    [[[1,0,1,-1,1,0,0,0,0,0]], [[-3,1,0,0,0,0,0,0,0,0],[-2,0,0,0,0,1,0,0,0,0],[1,0,1,-1,0,1,0,0,0,0],[0,0,1,-1,0,0,1,0,0,0],[0,0,-1,0,0,0,0,0,0,0]], 101],
    [[[1,0,0,0,1,0,-1,0,0,0]], [[0,0,-1,0,0,0,0,0,0,0],[-3,1,0,0,0,0,0,0,0,0],[-2,0,0,0,0,1,0,0,0,0],[0,0,0,0,-1,1,0,0,0,0],[-1,0,-1,1,-1,0,0,0,0,0]], 103],
    [[[0,0,0,0,1,-1,0,0,0,0]], [[-1,0,0,0,-1,0,1,0,0,0],[-3,1,0,0,0,0,0,0,0,0],[0,0,1,0,0,0,0,0,0,0],[-2,0,0,0,1,0,0,0,0,0],[-1,0,0,1,-1,0,0,0,0,0]], 104],
    [[[0,0,0,0,1,-1,0,0,0,0]], [[-3,1,0,0,0,0,0,0,0,0],[0,0,-1,0,0,0,0,0,0,0],[-2,0,0,0,1,0,0,0,0,0],[-1,0,0,0,-1,0,1,0,0,0],[-1,0,-1,1,-1,0,0,0,0,0]], 107]
  ]],
  ["#4",
    [[0,0],
     [0,0]], [
    [[[0,0,0,0,1,-1,0,0,0,0]], [[1,0,0,0,-1,0,0,0,0,0]], 0],
    [[[-1,0,0,0,1,0,0,0,0,0]], [[-1,0,0,0,0,1,0,0,0,0]], 1]
  ]],
  ["#5",
    [[0,0,1,1,1,1,1,1],
     [0,0,0,0,0,1,1,1],
     [1,0,0,0,0,0,1,1],
     [1,0,0,0,0,1,0,1],
     [1,0,0,0,0,1,1,0],
     [1,1,0,1,1,0,1,1],
     [1,1,1,0,1,1,0,1],
     [1,1,1,1,0,1,1,0]], [
    [[[0,0,0,0,0,0,1,0,0,0]], [[3,-1,0,0,0,0,0,0,0,0],[1,-1,0,1,0,0,0,0,0,0],[1,0,1,0,0,0,0,0,0,0]], 0],
    [[[-1,1,0,-1,0,0,1,0,0,0]], [[1,0,1,0,0,0,0,0,0,0],[3,-1,0,0,0,0,0,0,0,0],[-1,1,0,-1,0,0,0,0,0,0]], 4],
    [[[0,1,1,-1,0,0,1,0,0,0]], [[0,1,1,-1,0,0,0,0,0,0],[-1,0,-1,0,0,0,0,0,0,0],[3,-1,0,0,0,0,0,0,0,0]], 8],
    [[[-2,0,0,1,0,0,-1,0,0,0]], [[2,0,0,-1,0,0,0,0,0,0],[-3,1,0,0,0,0,0,0,0,0],[1,0,1,0,0,0,0,0,0,0]], 9],
    [[[3,0,1,-1,0,0,1,0,0,0]], [[-3,1,0,0,0,0,0,0,0,0],[-1,0,-1,0,0,0,0,0,0,0],[3,0,1,-1,0,0,0,0,0,0]], 10],
    [[[0,0,0,0,0,0,1,0,0,0]], [[0,-1,-1,1,0,0,0,0,0,0],[3,-1,0,0,0,0,0,0,0,0],[-1,0,-1,0,0,0,0,0,0,0]], 11],
    [[[0,0,0,0,0,0,1,0,0,0]], [[-2,0,0,1,0,0,0,0,0,0],[1,0,1,0,0,0,0,0,0,0],[-3,1,0,0,0,0,0,0,0,0]], 16],
    [[[0,0,0,0,0,0,1,0,0,0]], [[-1,0,-1,0,0,0,0,0,0,0],[-3,0,-1,1,0,0,0,0,0,0],[-3,1,0,0,0,0,0,0,0,0]], 19]
  ]],
  ["#6",
    [[0]], [
    [[[-1,0,1,0,0,0,0,-1,0,1]], [], 0]
  ]],
  ["#7",
    [[0,0,0,0,0,1,1,1,1,1,1,1,1,1,1,1],
     [0,0,1,1,1,1,1,1,1,1,1,1,1,1,1,1],
     [0,1,0,0,0,0,1,1,1,1,1,1,1,1,1,1],
     [0,1,0,0,0,1,0,1,1,1,1,1,1,1,1,1],
     [0,1,0,0,0,1,1,0,1,1,1,1,1,1,1,1],
     [1,1,0,1,1,0,1,1,1,1,1,1,1,1,1,1],
     [1,1,1,0,1,1,0,1,1,1,1,1,1,1,1,1],
     [1,1,1,1,0,1,1,0,1,1,1,1,1,1,1,1],
     [1,1,1,1,1,1,1,1,0,0,0,0,0,1,1,1],
     [1,1,1,1,1,1,1,1,0,0,1,1,1,1,1,1],
     [1,1,1,1,1,1,1,1,0,1,0,0,0,0,1,1],
     [1,1,1,1,1,1,1,1,0,1,0,0,0,1,0,1],
     [1,1,1,1,1,1,1,1,0,1,0,0,0,1,1,0],
     [1,1,1,1,1,1,1,1,1,1,0,1,1,0,1,1],
     [1,1,1,1,1,1,1,1,1,1,1,0,1,1,0,1],
     [1,1,1,1,1,1,1,1,1,1,1,1,0,1,1,0]], [
    [[[0,0,0,1,0,0,0,0,-1,0]], [[0,1,0,0,0,0,0,0,0,0],[1,0,0,-1,0,0,0,0,0,1],[2,0,0,0,0,0,0,0,0,-1],[1,0,1,0,0,0,0,0,0,0]], 0],
    [[[-1,0,0,0,0,0,0,0,1,-1]], [[3,0,0,0,0,0,0,0,-1,0],[0,1,0,0,0,0,0,0,0,0],[0,0,0,1,0,0,0,0,-1,0],[1,0,1,0,0,0,0,0,0,0]], 1],
    [[[0,1,0,-1,0,0,0,0,1,0]], [[1,0,1,0,0,0,0,0,0,0],[1,1,0,-1,0,0,0,0,0,1],[0,-1,0,0,0,0,0,0,0,0],[2,0,0,0,0,0,0,0,0,-1]], 10],
    [[[1,0,1,-1,0,0,0,0,1,0]], [[0,1,0,0,0,0,0,0,0,0],[2,0,1,-1,0,0,0,0,0,1],[-1,0,-1,0,0,0,0,0,0,0],[2,0,0,0,0,0,0,0,0,-1]], 11],
    [[[1,1,1,-1,0,0,0,0,1,0]], [[2,1,1,-1,0,0,0,0,0,1],[-1,0,-1,0,0,0,0,0,0,0],[0,-1,0,0,0,0,0,0,0,0],[2,0,0,0,0,0,0,0,0,-1]], 12],
    [[[-1,0,0,0,0,0,0,0,1,-1]], [[1,0,1,0,0,0,0,0,0,0],[0,-1,0,0,0,0,0,0,0,0],[0,-1,0,1,0,0,0,0,-1,0],[3,0,0,0,0,0,0,0,-1,0]], 18],
    [[[-1,0,0,0,0,0,0,0,1,-1]], [[0,1,0,0,0,0,0,0,0,0],[-1,0,-1,0,0,0,0,0,0,0],[-1,0,-1,1,0,0,0,0,-1,0],[3,0,0,0,0,0,0,0,-1,0]], 34],
    [[[-1,0,0,0,0,0,0,0,1,-1]], [[3,0,0,0,0,0,0,0,-1,0],[-1,0,-1,0,0,0,0,0,0,0],[-1,-1,-1,1,0,0,0,0,-1,0],[0,-1,0,0,0,0,0,0,0,0]], 47],
    [[[0,0,0,1,0,0,0,0,-1,0]], [[1,0,0,-1,0,0,0,0,0,1],[0,1,0,0,0,0,0,0,0,0],[-2,0,0,0,0,0,0,0,0,1],[1,0,1,0,0,0,0,0,0,0]], 52],
    [[[-1,0,0,0,0,0,0,0,1,-1]], [[-3,0,0,0,0,0,0,0,1,0],[0,0,0,1,0,0,0,0,-1,0],[1,0,1,0,0,0,0,0,0,0],[0,1,0,0,0,0,0,0,0,0]], 55],
    [[[0,1,0,-1,0,0,0,0,1,0]], [[1,0,1,0,0,0,0,0,0,0],[1,1,0,-1,0,0,0,0,0,1],[0,-1,0,0,0,0,0,0,0,0],[-2,0,0,0,0,0,0,0,0,1]], 59],
    [[[1,0,1,-1,0,0,0,0,1,0]], [[0,1,0,0,0,0,0,0,0,0],[2,0,1,-1,0,0,0,0,0,1],[-1,0,-1,0,0,0,0,0,0,0],[-2,0,0,0,0,0,0,0,0,1]], 60],
    [[[1,1,1,-1,0,0,0,0,1,0]], [[2,1,1,-1,0,0,0,0,0,1],[-1,0,-1,0,0,0,0,0,0,0],[0,-1,0,0,0,0,0,0,0,0],[-2,0,0,0,0,0,0,0,0,1]], 61],
    [[[-1,0,0,0,0,0,0,0,1,-1]], [[0,-1,0,0,0,0,0,0,0,0],[1,0,1,0,0,0,0,0,0,0],[0,-1,0,1,0,0,0,0,-1,0],[-3,0,0,0,0,0,0,0,1,0]], 67],
    [[[-1,0,0,0,0,0,0,0,1,-1]], [[-1,0,-1,0,0,0,0,0,0,0],[0,1,0,0,0,0,0,0,0,0],[-1,0,-1,1,0,0,0,0,-1,0],[-3,0,0,0,0,0,0,0,1,0]], 75],
    [[[-1,0,0,0,0,0,0,0,1,-1]], [[-3,0,0,0,0,0,0,0,1,0],[-1,-1,-1,1,0,0,0,0,-1,0],[-1,0,-1,0,0,0,0,0,0,0],[0,-1,0,0,0,0,0,0,0,0]], 79]
  ]],
  ["#8",
    [[0,0],
     [0,0]], [
    [[[0,0,0,0,0,0,0,0,1,-1]], [[2,0,0,0,0,0,0,0,-1,0]], 0],
    [[[-2,0,0,0,0,0,0,0,1,0]], [[-2,0,0,0,0,0,0,0,0,1]], 1]
  ]]
]
