
\\\\\\\\\\\\\\\\\\\\\\\\\\\\\\\\\\\\\\\\ file 0

\ combo: 0-0-2-2-4-16-0-0-0-0-0-0-0-0-0-0-0-0-6-4-12
\ dimension 1; is compact
MAXIMIZE
Subject To
  ie0: -1 x1 >= -2        \ x1**-1 <= 121.0
  ie1: +1 x1 >= -1        \ x1 <= 11.0
  eq0: +1 x18 = 1         \ x18 = 0.0909091
  eq1: +1 x17 = 1         \ x17 = 0.0909091
  eq2: +1 x16 = 2         \ x16 = 0.00826446
  eq3: +1 x15 = -1        \ x15 = 11.0
  eq4: +1 x14 = -1        \ x14 = 11.0
  eq5: +1 x13 = 2         \ x13 = 0.00826446
  eq6: +1 x12 = -2        \ x12 = 121.0
  eq7: +1 x11 = -2        \ x11 = 121.0
  eq8: +1 x1 -1 x10 = 0   \ x1 * x10**-1 = 1.0
  eq9: +1 x1 -1 x9 = 0    \ x1 * x9**-1 = 1.0
  eq10: +1 x8 = 0         \ x8 = 1.0
  eq11: +1 x7 = 0         \ x7 = 1.0
  eq12: +1 x6 = 0         \ x6 = 1.0
  eq13: +1 x5 = -2        \ x5 = 121.0
  eq14: +1 x4 = -3        \ x4 = 1331.0
  eq15: +1 x3 = 0         \ x3 = 1.0
  eq16: +1 x2 = 0         \ x2 = 1.0
END

\\\\\\\\\\\\\\\\\\\\\\\\\\\\\\\\\\\\\\\\ file 1

\ combo: 0-0-2-2-8-16-0-0-0-0-0-0-0-0-0-0-1-1-6-4-12
\ dimension 1; is compact
MAXIMIZE
Subject To
  ie0: -1 x1 >= 1          \ x1**-1 <= 0.0909091
  ie1: +1 x1 >= -2         \ x1 <= 121.0
  eq0: +1 x1 -1 x18 = -2   \ x1 * x18**-1 = 121.0
  eq1: +1 x1 -1 x17 = -2   \ x1 * x17**-1 = 121.0
  eq2: +1 x16 = 2          \ x16 = 0.00826446
  eq3: +1 x15 = -1         \ x15 = 11.0
  eq4: +1 x14 = -1         \ x14 = 11.0
  eq5: +1 x13 = 2          \ x13 = 0.00826446
  eq6: +1 x12 = -2         \ x12 = 121.0
  eq7: +1 x11 = -2         \ x11 = 121.0
  eq8: +1 x1 -1 x10 = 0    \ x1 * x10**-1 = 1.0
  eq9: +1 x1 -1 x9 = 0     \ x1 * x9**-1 = 1.0
  eq10: +1 x8 = 0          \ x8 = 1.0
  eq11: +1 x7 = 0          \ x7 = 1.0
  eq12: +1 x6 = 0          \ x6 = 1.0
  eq13: +1 x5 = -2         \ x5 = 121.0
  eq14: +1 x4 = -3         \ x4 = 1331.0
  eq15: +1 x3 = 0          \ x3 = 1.0
  eq16: +1 x2 = 0          \ x2 = 1.0
END

\\\\\\\\\\\\\\\\\\\\\\\\\\\\\\\\\\\\\\\\ file 2

\ combo: 0-6-6-2-8-27-0-0-0-0-0-0-0-0-0-0-1-1-0-0-15
\ dimension 1; is compact
MAXIMIZE
Subject To
  ie0: -1 x4 >= 0          \ x4**-1 <= 1.0
  ie1: +1 x4 >= -1         \ x4 <= 11.0
  eq0: +1 x18 = -2         \ x18 = 121.0
  eq1: +1 x17 = -2         \ x17 = 121.0
  eq2: +1 x16 = 1          \ x16 = 0.0909091
  eq3: +1 x4 -1 x15 = -1   \ x4 * x15**-1 = 11.0
  eq4: +1 x4 -1 x14 = -1   \ x4 * x14**-1 = 11.0
  eq5: +1 x13 = 1          \ x13 = 0.0909091
  eq6: +1 x4 -1 x12 = 0    \ x4 * x12**-1 = 1.0
  eq7: +1 x4 -1 x11 = 0    \ x4 * x11**-1 = 1.0
  eq8: +1 x10 = -2         \ x10 = 121.0
  eq9: +1 x9 = -2          \ x9 = 121.0
  eq10: +1 x8 = 1          \ x8 = 0.0909091
  eq11: +1 x7 = 1          \ x7 = 0.0909091
  eq12: +1 x6 = -1         \ x6 = 11.0
  eq13: +1 x5 = -1         \ x5 = 11.0
  eq14: +1 x3 = 0          \ x3 = 1.0
  eq15: +1 x2 = 0          \ x2 = 1.0
  eq16: +1 x1 = -3         \ x1 = 1331.0
END

\\\\\\\\\\\\\\\\\\\\\\\\\\\\\\\\\\\\\\\\ file 3

\ combo: 0-0-2-2-8-16-0-0-0-0-0-0-0-0-0-0-1-1-0-0-15
\ dimension 1; is compact
MAXIMIZE
Subject To
  ie0: -1 x2 >= 0          \ x2**-1 <= 1.0
  ie1: +1 x2 >= -1         \ x2 <= 11.0
  eq0: +1 x18 = -2         \ x18 = 121.0
  eq1: +1 x17 = -2         \ x17 = 121.0
  eq2: +1 x2 -1 x16 = -1   \ x2 * x16**-1 = 11.0
  eq3: +1 x2 -1 x15 = 0    \ x2 * x15**-1 = 1.0
  eq4: +1 x2 -1 x14 = 0    \ x2 * x14**-1 = 1.0
  eq5: +1 x2 -1 x13 = -1   \ x2 * x13**-1 = 11.0
  eq6: +1 x2 -1 x12 = 1    \ x2 * x12**-1 = 0.0909091
  eq7: +1 x2 -1 x11 = 1    \ x2 * x11**-1 = 0.0909091
  eq8: +1 x10 = -2         \ x10 = 121.0
  eq9: +1 x9 = -2          \ x9 = 121.0
  eq10: +1 x2 -1 x8 = -1   \ x2 * x8**-1 = 11.0
  eq11: +1 x2 -1 x7 = -1   \ x2 * x7**-1 = 11.0
  eq12: +1 x6 = -1         \ x6 = 11.0
  eq13: +1 x5 = -1         \ x5 = 11.0
  eq14: +1 x2 -1 x4 = 1    \ x2 * x4**-1 = 0.0909091
  eq15: +1 x2 -1 x3 = 0    \ x2 * x3**-1 = 1.0
  eq16: +1 x1 = -3         \ x1 = 1331.0
END

\\\\\\\\\\\\\\\\\\\\\\\\\\\\\\\\\\\\\\\\ file 4

\ combo: 0-0-2-2-8-16-0-0-0-0-0-0-0-0-0-0-1-1-6-0-12
\ dimension 1; is compact
MAXIMIZE
Subject To
  ie0: -1 x1 >= 2          \ x1**-1 <= 0.00826446
  ie1: +1 x1 >= -3         \ x1 <= 1331.0
  eq0: +1 x1 -1 x18 = -2   \ x1 * x18**-1 = 121.0
  eq1: +1 x1 -1 x17 = -2   \ x1 * x17**-1 = 121.0
  eq2: +1 x1 -1 x16 = -4   \ x1 * x16**-1 = 14641.0
  eq3: +1 x15 = -1         \ x15 = 11.0
  eq4: +1 x14 = -1         \ x14 = 11.0
  eq5: +1 x1 -1 x13 = -4   \ x1 * x13**-1 = 14641.0
  eq6: +1 x12 = -2         \ x12 = 121.0
  eq7: +1 x11 = -2         \ x11 = 121.0
  eq8: +1 x10 = -2         \ x10 = 121.0
  eq9: +1 x9 = -2          \ x9 = 121.0
  eq10: +1 x8 = 0          \ x8 = 1.0
  eq11: +1 x7 = 0          \ x7 = 1.0
  eq12: +1 x6 = 0          \ x6 = 1.0
  eq13: +1 x1 +1 x5 = -4   \ x1 * x5 = 14641.0
  eq14: +1 x4 = -3         \ x4 = 1331.0
  eq15: +1 x1 -1 x3 = -2   \ x1 * x3**-1 = 121.0
  eq16: +1 x1 -1 x2 = -2   \ x1 * x2**-1 = 121.0
END

\\\\\\\\\\\\\\\\\\\\\\\\\\\\\\\\\\\\\\\\ file 5

\ combo: 0-0-2-2-8-16-0-0-0-0-0-0-0-0-0-0-1-1-6-0-15
\ dimension 1; is compact
MAXIMIZE
Subject To
  ie0: -1 x4 >= 2          \ x4**-1 <= 0.00826446
  ie1: +1 x4 >= -3         \ x4 <= 1331.0
  eq0: +1 x4 +1 x18 = -4   \ x4 * x18 = 14641.0
  eq1: +1 x4 +1 x17 = -4   \ x4 * x17 = 14641.0
  eq2: +1 x4 +1 x16 = -2   \ x4 * x16 = 121.0
  eq3: +1 x15 = -1         \ x15 = 11.0
  eq4: +1 x14 = -1         \ x14 = 11.0
  eq5: +1 x4 +1 x13 = -2   \ x4 * x13 = 121.0
  eq6: +1 x12 = -2         \ x12 = 121.0
  eq7: +1 x11 = -2         \ x11 = 121.0
  eq8: +1 x10 = -2         \ x10 = 121.0
  eq9: +1 x9 = -2          \ x9 = 121.0
  eq10: +1 x8 = 0          \ x8 = 1.0
  eq11: +1 x7 = 0          \ x7 = 1.0
  eq12: +1 x4 +1 x6 = -3   \ x4 * x6 = 1331.0
  eq13: +1 x5 = -1         \ x5 = 11.0
  eq14: +1 x3 = -1         \ x3 = 11.0
  eq15: +1 x2 = -1         \ x2 = 11.0
  eq16: +1 x1 = -3         \ x1 = 1331.0
END

\\\\\\\\\\\\\\\\\\\\\\\\\\\\\\\\\\\\\\\\ end

