
----------------------------------------------------------------------
This is ptcut v3.5.1
Python 3.7.4 (default, Aug  9 2019, 18:34:13) [MSC v.1915 64 bit (AMD64)]
numpy 1.16.5, sympy 1.4, gmpy2 2.1.0a5
It is now 2020-04-04T18:12:52+02:00
Command line: ..\trop\ptcut.py BIOMD0000000093 -e11 --rat --no-cache=n --maxruntime 10800 --maxmem 11513M --comment "concurrent=6, timeout=10800"

----------------------------------------------------------------------
Solving BIOMD0000000093 with ep=1/11, round=0, complex=False, sumup=False, keep_coeff=False, paramwise=True, complete=False, filter=0, fusion=False, algorithm 3, resort=False, bbox=False, common=9, qdisjoint=False, nonewton=False, mul_denom=True, convexhull=(False, 2, 4, 0.5, 2), likeness 14, backend PPL_C_Polyhedron
Comment: concurrent=6, timeout=10800
Random seed: 2OGQCLPI75QEP
Effective epsilon: 1/11.0

Loading tropical system... done.
Loading polyhedra... done.

Sorting ascending...
Dimension: 33
Formulas: 39
Order: 9 14 19 23 27 28 2 15 21 22 26 33 34 0 1 10 12 13 18 20 30 32 4 35 3 16 29 31 7 17 25 37 38 11 36 5 8 24 6
Possible combinations: 1 * 1 * 1 * 1 * 1 * 1 * 2 * 2 * 2 * 2 * 3 * 3 * 3 * 4 * 4 * 4 * 4 * 4 * 4 * 4 * 4 * 4 * 5 * 5 * 6 * 6 * 6 * 6 * 9 * 9 * 9 * 13 * 14 * 16 * 17 * 20 * 20 * 25 * 28 = 37,076,141,473,599,062,016,000,000 (10^26)
 Applying common planes (codim=6, hs=42)...
 [1/33 (#2)]: 2 => 2 (-), dim=26.0, hs=42.5
 [2/33 (#15)]: 2 => 2 (-), dim=26.0, hs=41.5
 [3/33 (#21)]: 2 => 2 (-), dim=26.0, hs=41.5
 [4/33 (#22)]: 2 => 2 (-), dim=26.0, hs=42.5
 [5/33 (#26)]: 3 => 3 (-), dim=26.0, hs=41.7
 [6/33 (#33)]: 3 => 3 (-), dim=26.0, hs=40.7
 [7/33 (#34)]: 3 => 3 (-), dim=26.0, hs=40.0
 [8/33 (#0)]: 4 => 3 (1 incl), dim=26.0, hs=42.0
  Removed: 0.3
 [9/33 (#1)]: 4 => 3 (1 incl), dim=26.0, hs=42.7
  Removed: 1.1
 [10/33 (#10)]: 4 => 2 (2 incl), dim=26.0, hs=39.5
  Removed: 10.1,10.3
 [11/33 (#12)]: 4 => 4 (-), dim=26.0, hs=43.5
 [12/33 (#13)]: 4 => 2 (2 incl), dim=27.0, hs=41.0
  Removed: 13.1,13.2
 [13/33 (#18)]: 4 => 2 (2 incl), dim=27.0, hs=41.0
  Removed: 18.0,18.3
 [14/33 (#20)]: 4 => 2 (2 empty), dim=26.0, hs=42.0
  Removed: 20.1,20.3
 [15/33 (#30)]: 4 => 4 (-), dim=26.0, hs=43.0
 [16/33 (#32)]: 4 => 4 (-), dim=26.0, hs=43.5
 [17/33 (#4)]: 5 => 5 (-), dim=26.0, hs=42.6
 [18/33 (#35)]: 5 => 1 (4 empty), dim=26.0, hs=42.0
  Removed: 35.0,35.1,35.2,35.3
 [19/33 (#3)]: 6 => 4 (2 incl), dim=26.0, hs=43.0
  Removed: 3.4,3.5
 [20/33 (#16)]: 6 => 3 (3 incl), dim=26.0, hs=40.7
  Removed: 16.1,16.4,16.5
 [21/33 (#29)]: 6 => 3 (3 empty), dim=26.0, hs=44.3
  Removed: 29.3,29.4,29.5
 [22/33 (#31)]: 6 => 4 (2 incl), dim=26.0, hs=42.8
  Removed: 31.4,31.5
 [23/33 (#7)]: 9 => 6 (3 empty), dim=26.0, hs=44.2
  Removed: 7.8,7.4,7.6
 [24/33 (#17)]: 9 => 4 (5 incl), dim=26.2, hs=40.8
  Removed: 17.1,17.3,17.5,17.7,17.8
 [25/33 (#25)]: 9 => 6 (3 incl), dim=26.0, hs=44.0
  Removed: 25.8,25.2,25.5
 [26/33 (#37)]: 13 => 12 (1 empty), dim=26.0, hs=41.5
  Removed: 37.10
 [27/33 (#38)]: 14 => 13 (1 empty), dim=26.0, hs=41.5
  Removed: 38.11
 [28/33 (#11)]: 16 => 16 (-), dim=26.0, hs=41.5
 [29/33 (#36)]: 17 => 8 (9 empty), dim=26.0, hs=40.5
  Removed: 36.0,36.1,36.2,36.3,36.4,36.7,36.11,36.13,36.15
 [30/33 (#5)]: 20 => 13 (7 incl), dim=26.1, hs=44.7
  Removed: 5.0,5.2,5.3,5.5,5.9,5.13,5.17
 [31/33 (#8)]: 20 => 6 (14 incl), dim=26.3, hs=40.5
  Removed: 8.0,8.2,8.3,8.5,8.6,8.7,8.9,8.10,8.12,8.13,8.15,8.17,8.18,8.19
 [32/33 (#24)]: 25 => 25 (-), dim=26.0, hs=44.4
 [33/33 (#6)]: 28 => 16 (12 incl), dim=26.0, hs=43.6
  Removed: 6.0,6.3,6.7,6.8,6.11,6.12,6.15,6.16,6.20,6.23,6.24,6.27
 Applying common planes (codim=7, hs=42)...
 [1/32 (#2)]: 2 => 2 (-), dim=25.0, hs=42.5
 [2/32 (#15)]: 2 => 2 (-), dim=25.0, hs=41.5
 [3/32 (#21)]: 2 => 2 (-), dim=25.0, hs=41.5
 [4/32 (#22)]: 2 => 2 (-), dim=25.0, hs=41.5
 [5/32 (#26)]: 3 => 3 (-), dim=25.0, hs=41.7
 [6/32 (#33)]: 3 => 3 (-), dim=25.0, hs=40.0
 [7/32 (#34)]: 3 => 2 (1 empty), dim=25.0, hs=41.5
  Removed: 34.1
 [8/32 (#0)]: 3 => 3 (-), dim=25.0, hs=42.0
 [9/32 (#1)]: 3 => 3 (-), dim=25.0, hs=42.7
 [10/32 (#10)]: 2 => 2 (-), dim=25.0, hs=41.5
 [11/32 (#12)]: 4 => 4 (-), dim=25.0, hs=43.0
 [12/32 (#13)]: 2 => 2 (-), dim=26.0, hs=42.0
 [13/32 (#18)]: 2 => 2 (-), dim=26.0, hs=41.0
 [14/32 (#20)]: 2 => 2 (-), dim=25.0, hs=41.0
 [15/32 (#30)]: 4 => 4 (-), dim=25.0, hs=42.5
 [16/32 (#32)]: 4 => 4 (-), dim=25.0, hs=43.5
 [17/32 (#4)]: 5 => 5 (-), dim=25.0, hs=42.6
 [18/32 (#3)]: 4 => 4 (-), dim=25.0, hs=43.0
 [19/32 (#16)]: 3 => 3 (-), dim=25.0, hs=39.7
 [20/32 (#29)]: 3 => 3 (-), dim=25.0, hs=44.3
 [21/32 (#31)]: 4 => 4 (-), dim=25.0, hs=41.8
 [22/32 (#7)]: 6 => 6 (-), dim=25.0, hs=44.2
 [23/32 (#17)]: 4 => 4 (-), dim=25.2, hs=39.5
 [24/32 (#25)]: 6 => 6 (-), dim=25.0, hs=44.0
 [25/32 (#37)]: 12 => 11 (1 incl), dim=25.0, hs=41.7
  Removed: 37.6
 [26/32 (#38)]: 13 => 12 (1 incl), dim=25.0, hs=41.8
  Removed: 38.7
 [27/32 (#11)]: 16 => 16 (-), dim=25.0, hs=41.5
 [28/32 (#36)]: 8 => 7 (1 empty), dim=25.0, hs=40.4
  Removed: 36.14
 [29/32 (#5)]: 13 => 13 (-), dim=25.1, hs=46.0
 [30/32 (#8)]: 6 => 4 (2 incl), dim=25.5, hs=41.8
  Removed: 8.8,8.4
 [31/32 (#24)]: 25 => 25 (-), dim=25.0, hs=44.5
 [32/32 (#6)]: 16 => 16 (-), dim=25.0, hs=43.4
 Savings: factor 438,136 (10^6), 7 formulas
[1/31 (#2, #15)]: 2 * 2 = 4 => 4 (-), dim=24.0, hs=42.0
[2/31 (w1, #21)]: 4 * 2 = 8 => 8 (-), dim=23.0, hs=41.5
[3/31 (w2, #22)]: 8 * 2 = 16 => 16 (-), dim=22.0, hs=41.0
[4/31 (w3, #34)]: 16 * 2 = 32 => 24 (8 empty), dim=21.0, hs=40.3
[5/31 (w4, #10)]: 24 * 2 = 48 => 24 (24 incl), dim=20.7, hs=40.3
[6/31 (w5, #13)]: 24 * 2 = 48 => 32 (16 empty), dim=20.8, hs=40.5
[7/31 (w6, #18)]: 32 * 2 = 64 => 64 (-), dim=20.8, hs=39.9
[8/31 (w7, #20)]: 64 * 2 = 128 => 38 (56 empty, 34 incl), dim=19.8, hs=38.8
[9/31 (w8, #26)]: 38 * 3 = 114 => 114 (-), dim=18.8, hs=38.5
[10/31 (w9, #33)]: 114 * 3 = 342 => 156 (18 empty, 168 incl), dim=17.8, hs=38.1
[11/31 (w10, #0)]: 156 * 3 = 468 => 312 (156 incl), dim=17.1, hs=37.9
[12/31 (w11, #1)]: 312 * 3 = 936 => 234 (468 empty, 234 incl), dim=16.8, hs=38.3
 Applying common planes (codim=1, hs=2)...
 [1/20 (w12)]: 234 => 234 (-), dim=16.8, hs=38.3
 [2/20 (#12)]: 4 => 4 (-), dim=24.0, hs=44.0
 [3/20 (#30)]: 4 => 4 (-), dim=24.0, hs=43.5
 [4/20 (#32)]: 4 => 3 (1 incl), dim=24.0, hs=43.3
  Removed: 32.1
 [5/20 (#4)]: 5 => 5 (-), dim=24.0, hs=43.6
 [6/20 (#3)]: 4 => 4 (-), dim=24.0, hs=43.5
 [7/20 (#16)]: 3 => 3 (-), dim=24.0, hs=40.7
 [8/20 (#29)]: 3 => 3 (-), dim=24.0, hs=45.3
 [9/20 (#31)]: 4 => 4 (-), dim=24.0, hs=42.8
 [10/20 (#7)]: 6 => 6 (-), dim=24.0, hs=45.2
 [11/20 (#17)]: 4 => 4 (-), dim=24.2, hs=40.5
 [12/20 (#25)]: 6 => 6 (-), dim=24.0, hs=45.0
 [13/20 (#37)]: 11 => 11 (-), dim=24.0, hs=42.6
 [14/20 (#38)]: 12 => 12 (-), dim=24.0, hs=42.7
 [15/20 (#11)]: 16 => 16 (-), dim=24.0, hs=42.5
 [16/20 (#36)]: 7 => 7 (-), dim=24.0, hs=41.4
 [17/20 (#5)]: 13 => 13 (-), dim=24.1, hs=47.0
 [18/20 (#8)]: 4 => 4 (-), dim=24.5, hs=42.8
 [19/20 (#24)]: 25 => 25 (-), dim=24.0, hs=45.5
 [20/20 (#6)]: 16 => 16 (-), dim=24.0, hs=44.4
 Savings: factor 1.3333333333333333, 0 formulas
[13/31 (w12, #32)]: 234 * 3 = 702 => 390 (156 empty, 156 incl), dim=16.4, hs=38.4
 Applying common planes (codim=0, hs=1)...
 [1/19 (w13)]: 390 => 390 (-), dim=16.4, hs=38.4
 [2/19 (#12)]: 4 => 4 (-), dim=24.0, hs=44.0
 [3/19 (#30)]: 4 => 4 (-), dim=24.0, hs=43.5
 [4/19 (#4)]: 5 => 5 (-), dim=24.0, hs=43.6
 [5/19 (#3)]: 4 => 4 (-), dim=24.0, hs=43.5
 [6/19 (#16)]: 3 => 3 (-), dim=24.0, hs=40.7
 [7/19 (#29)]: 3 => 3 (-), dim=24.0, hs=45.3
 [8/19 (#31)]: 4 => 4 (-), dim=24.0, hs=42.8
 [9/19 (#7)]: 6 => 6 (-), dim=24.0, hs=45.2
 [10/19 (#17)]: 4 => 4 (-), dim=24.2, hs=40.5
 [11/19 (#25)]: 6 => 6 (-), dim=24.0, hs=45.0
 [12/19 (#37)]: 11 => 11 (-), dim=24.0, hs=42.6
 [13/19 (#38)]: 12 => 12 (-), dim=24.0, hs=42.7
 [14/19 (#11)]: 16 => 16 (-), dim=24.0, hs=42.5
 [15/19 (#36)]: 7 => 7 (-), dim=24.0, hs=41.4
 [16/19 (#5)]: 13 => 13 (-), dim=24.1, hs=47.0
 [17/19 (#8)]: 4 => 4 (-), dim=24.5, hs=42.8
 [18/19 (#24)]: 25 => 25 (-), dim=24.0, hs=45.5
 [19/19 (#6)]: 16 => 16 (-), dim=24.0, hs=44.4
 Savings: factor 1.0, 0 formulas
[14/31 (w13, #16)]: 390 * 3 = 1170 => 165 (675 empty, 330 incl), dim=16.1, hs=38.3
 Applying common planes (codim=0, hs=1)...
 [1/18 (w14)]: 165 => 165 (-), dim=16.1, hs=38.3
 [2/18 (#12)]: 4 => 4 (-), dim=24.0, hs=43.0
 [3/18 (#30)]: 4 => 4 (-), dim=24.0, hs=42.5
 [4/18 (#4)]: 5 => 5 (-), dim=24.0, hs=42.6
 [5/18 (#3)]: 4 => 4 (-), dim=24.0, hs=42.5
 [6/18 (#29)]: 3 => 3 (-), dim=24.0, hs=44.3
 [7/18 (#31)]: 4 => 4 (-), dim=24.0, hs=41.8
 [8/18 (#7)]: 6 => 6 (-), dim=24.0, hs=44.2
 [9/18 (#17)]: 4 => 3 (1 incl), dim=24.3, hs=39.7
  Removed: 17.0
 [10/18 (#25)]: 6 => 6 (-), dim=24.0, hs=44.0
 [11/18 (#37)]: 11 => 11 (-), dim=24.0, hs=41.6
 [12/18 (#38)]: 12 => 12 (-), dim=24.0, hs=41.7
 [13/18 (#11)]: 16 => 16 (-), dim=24.0, hs=41.5
 [14/18 (#36)]: 7 => 6 (1 empty), dim=24.0, hs=40.7
  Removed: 36.8
 [15/18 (#5)]: 13 => 13 (-), dim=24.1, hs=46.0
 [16/18 (#8)]: 4 => 4 (-), dim=24.5, hs=41.8
 [17/18 (#24)]: 25 => 25 (-), dim=24.0, hs=44.5
 [18/18 (#6)]: 16 => 16 (-), dim=24.0, hs=43.8
 Savings: factor 1.5555555555555556, 0 formulas
[15/31 (w14, #29)]: 165 * 3 = 495 => 440 (55 empty), dim=15.1, hs=40.1
[16/31 (w15, #17)]: 440 * 3 = 1320 => 440 (600 empty, 280 incl), dim=14.7, hs=39.8
[17/31 (w16, #12)]: 440 * 4 = 1760 => 1760 (-), dim=13.7, hs=40.3
[18/31 (w17, #30)]: 1760 * 4 = 7040 => 2200 (2420 empty, 2420 incl), dim=12.7, hs=39.3
[19/31 (w18, #3)]: 2200 * 4 = 8800 => 3080 (880 empty, 4840 incl), dim=12.1, hs=39.3
[20/31 (w19, #31)]: 3080 * 4 = 12320 => 3234 (2310 empty, 6776 incl), dim=11.8, hs=39.2
[21/31 (w20, #8)]: 3234 * 4 = 12936 => 3234 (5775 empty, 3927 incl), dim=11.5, hs=39.4
[22/31 (w21, #4)]: 3234 * 5 = 16170 => 5709 (4022 empty, 6439 incl), dim=11.0, hs=39.5
[23/31 (w22, #7)]: 5709 * 6 = 34254 => 5467 (23496 empty, 5291 incl), dim=10.2, hs=39.2
[24/31 (w23, #25)]: 5467 * 6 = 32802 => 2442 (14465 empty, 15895 incl), dim=10.0, hs=40.1
[25/31 (w24, #36)]: 2442 * 6 = 14652 => 2463 (11967 empty, 222 incl), dim=9.0, hs=39.2
[26/31 (w25, #37)]: 2463 * 11 = 27093 => 3981 (16802 empty, 6310 incl), dim=8.1, hs=38.5
[27/31 (w26, #38)]: 3981 * 12 = 47772 => 3012 (26085 empty, 18675 incl), dim=8.0, hs=38.3
[28/31 (w27, #5)]: 3012 * 13 = 39156 => 2440 (27974 empty, 8742 incl), dim=7.4, hs=38.4
[29/31 (w28, #11)]: 2440 * 16 = 39040 => 1160 (24310 empty, 13570 incl), dim=6.7, hs=37.8
[30/31 (w29, #6)]: 1160 * 16 = 18560 => 860 (9952 empty, 7748 incl), dim=6.8, hs=37.9
[31/31 (w30, #24)]: 860 * 25 = 21500 => 596 (10604 empty, 10300 incl), dim=6.7, hs=37.9
Total time: 6113.411 sec, total intersections: 341,435, total inclusion tests: 79,826,542
Common plane time: 74.391 sec
Solutions: 596, dim=6.7, hs=37.9, max=5709, maxin=47772
f-vector: [0, 0, 0, 0, 0, 30, 191, 317, 46, 12]
Canonicalizing...
Saving solutions... 
Calculation done.
Peak memory: working set 5.611 GiB, pagefile 5.796 GiB
Memory: pmem(rss=485113856, vms=491880448, num_page_faults=3782940, peak_wset=6024708096, wset=485113856, peak_paged_pool=538552, paged_pool=538376, peak_nonpaged_pool=879792, nonpaged_pool=255856, pagefile=491880448, peak_pagefile=6223650816, private=491880448)
