k1 = 170468245369483/50000000000000000000
k2 = 362894258752347/1000000000000000000
k3 = 130568052867489/100000000000000000000
k4 = 796722533770371/1000000000000000000
k5 = 2620389955953/1000000000000000000
k6 = 47918249021077/2000000000000000000
k7 = 431041507647021/50000000000000000000
k8 = 21721698573539/200000000000000000
k9 = 10780611108133/10000000000000000000
k10 = 122223738254533/1000000000000000000
k11 = 56129630420643/25000000000000000000
k12 = 203868171233541/1000000000000000000
k13 = 280676326135853/50000000000000000000
k14 = 227368268903121/1000000000000000000
k15 = 16511536161841/40000000000000000000
k16 = 310498877738431/10000000000000000000
k17 = 141678261342411/100000000000000000
k18 = 40140679099997/125000000000000
k19 = 697333029651601/1000000000000000000000
k20 = 376085190209901/100000000000000000000
k21 = 179810941931977/2000000000000000000
k22 = 42780743513489/250000000000000
k23 = 3132566639579/2000000000000000000
k24 = 241308392167819/10000000000000000000
k25 = 153754224136353/100000000000000000000
k26 = 40755412655453/200000000000000000
k27 = 38687635214791/50000000000000000
k28 = 77582293199063/500000000000000
k29 = 116216370567273/500000000000000000000
k30 = 4093074491289/40000000000000000
k31 = 555658410000431/1000000000000000000000
k32 = 152036322558811/5000000000000000000
k33 = 1/2000
k34 = 132810241970949/1000000000000000000
k35 = 1
k36 = 1/10000
k37 = 1/20000
k38 = 0
