
\\\\\\\\\\\\\\\\\\\\\\\\\\\\\\\\\\\\\\\\ file 0

\ combo: 462-0-1-14-7-0
\ dimension 1; is compact
MAXIMIZE
Subject To
  ie0: -2 x1 >= -3       \ x1**-1 <= 36.4829
  ie1: +1 x1 >= 1        \ x1 <= 0.0909091
  eq0: +2 x1 -1 x6 = 2   \ x1**2 * x6**-1 = 0.00826446
  eq1: +2 x1 +1 x5 = 3   \ x1**2 * x5 = 0.000751315
  eq2: +1 x4 = -3        \ x4 = 1331.0
  eq3: +4 x1 -1 x3 = 3   \ x1**4 * x3**-1 = 0.000751315
  eq4: +1 x1 -1 x2 = 0   \ x1 * x2**-1 = 1.0
END

\\\\\\\\\\\\\\\\\\\\\\\\\\\\\\\\\\\\\\\\ file 1

\ combo: 49-0-1-1-12-0
\ dimension 2; is not compact
MAXIMIZE
Subject To
  ie0: -1 x1 >= -1       \ x1**-1 <= 11.0
  ie1: -1 x6 >= 0        \ x6**-1 <= 1.0
  ie2: +4 x1 >= 3        \ x1 <= 0.16556
  eq0: +1 x5 = 1         \ x5 = 0.0909091
  eq1: +1 x4 = -3        \ x4 = 1331.0
  eq2: +4 x1 -1 x3 = 3   \ x1**4 * x3**-1 = 0.000751315
  eq3: +1 x1 -1 x2 = 0   \ x1 * x2**-1 = 1.0
END

\\\\\\\\\\\\\\\\\\\\\\\\\\\\\\\\\\\\\\\\ file 2

\ combo: 259-0-0-0-59-0
\ dimension 3; is not compact
MAXIMIZE
Subject To
  ie0: -1 x1 >= 0        \ x1**-1 <= 1.0
  ie1: -1 x5 >= 0        \ x5**-1 <= 1.0
  ie2: -1 x6 >= 0        \ x6**-1 <= 1.0
  eq0: +1 x4 = -3        \ x4 = 1331.0
  eq1: +1 x3 = 0         \ x3 = 1.0
  eq2: +1 x1 -1 x2 = 0   \ x1 * x2**-1 = 1.0
END

\\\\\\\\\\\\\\\\\\\\\\\\\\\\\\\\\\\\\\\\ file 3

\ combo: 246-0-0-0-56-0
\ dimension 3; is not compact
MAXIMIZE
Subject To
  ie0: -1 x1 >= 0        \ x1**-1 <= 1.0
  ie1: -1 x5 >= 0        \ x5**-1 <= 1.0
  ie2: +1 x6 >= 0        \ x6 <= 1.0
  eq0: +1 x4 = -3        \ x4 = 1331.0
  eq1: +1 x3 = 0         \ x3 = 1.0
  eq2: +1 x1 -1 x2 = 0   \ x1 * x2**-1 = 1.0
END

\\\\\\\\\\\\\\\\\\\\\\\\\\\\\\\\\\\\\\\\ file 4

\ combo: 115-0-0-0-9-0
\ dimension 3; is not compact
MAXIMIZE
Subject To
  ie0: -4 x1 >= -3       \ x1**-1 <= 6.04011
  ie1: -1 x5 >= 0        \ x5**-1 <= 1.0
  ie2: -1 x6 >= 0        \ x6**-1 <= 1.0
  ie3: +1 x1 >= 0        \ x1 <= 1.0
  eq0: +1 x4 = -3        \ x4 = 1331.0
  eq1: +1 x3 = 0         \ x3 = 1.0
  eq2: +1 x1 -1 x2 = 0   \ x1 * x2**-1 = 1.0
END

\\\\\\\\\\\\\\\\\\\\\\\\\\\\\\\\\\\\\\\\ file 5

\ combo: 82-0-0-0-0-0
\ dimension 3; is not compact
MAXIMIZE
Subject To
  ie0: -4 x1 >= -3       \ x1**-1 <= 6.04011
  ie1: -1 x5 >= 0        \ x5**-1 <= 1.0
  ie2: +1 x1 >= 0        \ x1 <= 1.0
  ie3: +1 x6 >= 0        \ x6 <= 1.0
  eq0: +1 x4 = -3        \ x4 = 1331.0
  eq1: +1 x3 = 0         \ x3 = 1.0
  eq2: +1 x1 -1 x2 = 0   \ x1 * x2**-1 = 1.0
END

\\\\\\\\\\\\\\\\\\\\\\\\\\\\\\\\\\\\\\\\ file 6

\ combo: 41-0-0-0-9-0
\ dimension 3; is not compact
MAXIMIZE
Subject To
  ie0: -4 x1 >= -3        \ x1**-1 <= 6.04011
  ie1: -1 x5 >= -1        \ x5**-1 <= 11.0
  ie2: -1 x6 >= 0         \ x6**-1 <= 1.0
  ie3: +4 x1 -1 x5 >= 0   \ x1**4 * x5**-1 <= 1.0
  ie4: +1 x5 >= 0         \ x5 <= 1.0
  eq0: +1 x4 = -3         \ x4 = 1331.0
  eq1: +1 x3 = 0          \ x3 = 1.0
  eq2: +1 x1 -1 x2 = 0    \ x1 * x2**-1 = 1.0
END

\\\\\\\\\\\\\\\\\\\\\\\\\\\\\\\\\\\\\\\\ file 7

\ combo: 0-0-0-0-0-0
\ dimension 3; is not compact
MAXIMIZE
Subject To
  ie0: -4 x1 >= -3        \ x1**-1 <= 6.04011
  ie1: -1 x5 >= -1        \ x5**-1 <= 11.0
  ie2: +4 x1 -1 x5 >= 0   \ x1**4 * x5**-1 <= 1.0
  ie3: +1 x6 >= 0         \ x6 <= 1.0
  ie4: +1 x5 >= 0         \ x5 <= 1.0
  eq0: +1 x4 = -3         \ x4 = 1331.0
  eq1: +1 x3 = 0          \ x3 = 1.0
  eq2: +1 x1 -1 x2 = 0    \ x1 * x2**-1 = 1.0
END

\\\\\\\\\\\\\\\\\\\\\\\\\\\\\\\\\\\\\\\\ end

