[
  ["x1","x2","x3","x4","x5","x6","x7","x9","x10","x11","x13","x14","x15","x17","x18","x19"],
  [
    [[[-2,0,0,1,0,0,0,0,0,0,0,0,0,0,0,0,0],1],[[-2,1,1,0,0,0,0,0,0,0,0,0,0,0,0,0,0],-1],[[-1,0,0,0,0,0,0,0,0,0,0,1,0,0,0,0,0],1],[[-1,0,0,0,0,0,0,2,0,0,0,0,0,0,0,0,0],1],[[-1,1,0,0,0,0,0,0,0,0,0,0,0,0,0,0,0],-1]],
    [[[-2,0,0,1,0,0,0,0,0,0,0,0,0,0,0,0,0],1],[[-2,1,1,0,0,0,0,0,0,0,0,0,0,0,0,0,0],-1],[[-1,0,1,0,0,0,0,1,0,0,0,0,0,0,0,0,0],-1],[[2,0,0,0,1,1,0,0,0,0,0,0,0,0,0,0,0],1]],
    [[[-2,0,0,1,0,0,0,0,0,0,0,0,0,0,0,0,0],-1],[[-2,1,1,0,0,0,0,0,0,0,0,0,0,0,0,0,0],1],[[-1,0,0,1,1,0,0,0,0,0,0,0,0,0,0,0,0],-1],[[1,0,0,0,0,0,0,1,0,0,0,0,0,0,0,0,1],1]],
    [[[-1,0,0,0,0,0,0,0,0,0,0,0,0,0,0,1,0],1],[[-1,0,0,0,1,0,0,0,0,0,0,0,0,0,0,0,0],-1],[[-1,0,0,1,1,0,0,0,0,0,0,0,0,0,0,0,0],-1],[[2,0,0,0,1,1,0,0,0,0,0,0,0,0,0,0,0],-1]],
    [[[-1,0,0,1,1,0,0,0,0,0,0,0,0,0,0,0,0],1],[[2,0,0,0,1,1,0,0,0,0,0,0,0,0,0,0,0],-1]],
    [[[-1,0,0,0,0,0,0,0,0,0,0,0,0,0,1,0,0],1],[[-1,0,0,0,0,0,1,0,0,0,0,0,0,0,0,0,0],-1],[[-1,0,0,1,1,0,0,0,0,0,0,0,0,0,0,0,0],1],[[2,0,0,0,1,1,0,0,0,0,0,0,0,0,0,0,0],1]],
    [[[-8,0,0,0,0,0,0,2,0,0,0,0,0,0,0,0,0],-1],[[-8,0,0,0,0,0,0,2,1,0,0,0,0,0,0,0,0],-1],[[-8,0,1,0,0,0,0,1,0,0,0,0,0,0,0,0,0],-1],[[-8,0,1,0,0,0,0,1,1,0,0,0,0,0,0,0,0],-1],[[-7,0,0,0,0,0,0,0,0,0,0,0,0,1,0,0,0],1],[[-7,0,0,0,0,0,0,0,1,0,0,0,0,1,0,0,0],1],[[-7,0,0,0,0,0,0,1,0,0,0,0,0,0,0,0,0],-1],[[-7,0,0,0,0,0,0,1,1,0,0,0,0,0,0,0,0],-1],[[-6,0,0,0,0,0,0,1,0,0,0,0,0,0,0,0,1],-1],[[-6,0,0,0,0,0,0,1,1,0,0,0,0,0,0,0,1],-1],[[-5,0,0,0,0,0,0,2,0,0,0,0,0,0,0,0,0],-1],[[-5,0,0,0,0,0,0,2,1,0,0,0,0,0,0,0,0],-1],[[-5,0,1,0,0,0,0,1,0,0,0,0,0,0,0,0,0],-1],[[-5,0,1,0,0,0,0,1,1,0,0,0,0,0,0,0,0],-1],[[-4,0,0,0,0,0,0,0,0,0,0,0,0,1,0,0,0],1],[[-4,0,0,0,0,0,0,0,1,0,0,0,0,1,0,0,0],1],[[-4,0,0,0,0,0,0,0,1,1,0,0,0,0,0,0,0],1],[[-4,0,0,0,0,0,0,1,0,0,0,0,0,0,0,0,0],-1],[[-4,0,0,0,0,0,0,1,1,0,0,0,0,0,0,0,0],-1],[[-3,0,0,0,0,0,0,1,0,0,0,0,0,0,0,0,1],-1],[[-3,0,0,0,0,0,0,1,1,0,0,0,0,0,0,0,1],-1],[[-3,0,0,0,0,0,0,2,0,1,0,0,0,0,0,0,0],-1],[[-3,0,0,0,0,0,0,2,1,1,0,0,0,0,0,0,0],-1],[[-3,0,1,0,0,0,0,1,0,1,0,0,0,0,0,0,0],-1],[[-3,0,1,0,0,0,0,1,1,1,0,0,0,0,0,0,0],-1],[[-2,0,0,0,0,0,0,0,0,1,0,0,0,1,0,0,0],1],[[-2,0,0,0,0,0,0,0,1,1,0,0,0,1,0,0,0],1],[[-2,0,0,0,0,0,0,0,1,2,0,0,0,0,0,0,0],1],[[-2,0,0,0,0,0,0,1,0,1,0,0,0,0,0,0,0],-1],[[-2,0,0,0,0,0,0,1,1,1,0,0,0,0,0,0,0],-1],[[-1,0,0,0,0,0,0,1,0,1,0,0,0,0,0,0,1],-1],[[-1,0,0,0,0,0,0,1,1,1,0,0,0,0,0,0,1],-1],[[-1,0,0,0,0,0,0,2,0,2,0,0,0,0,0,0,0],-1],[[-1,0,0,0,0,0,0,2,1,2,0,0,0,0,0,0,0],-1],[[-1,0,1,0,0,0,0,1,0,2,0,0,0,0,0,0,0],-1],[[-1,0,1,0,0,0,0,1,1,2,0,0,0,0,0,0,0],-1],[[0,0,0,0,0,0,0,0,0,2,0,0,0,1,0,0,0],1],[[0,0,0,0,0,0,0,0,1,2,0,0,0,1,0,0,0],1],[[0,0,0,0,0,0,0,1,0,2,0,0,0,0,0,0,0],-1],[[0,0,0,0,0,0,0,1,1,2,0,0,0,0,0,0,0],-1],[[1,0,0,0,0,0,0,1,0,2,0,0,0,0,0,0,1],-1],[[1,0,0,0,0,0,0,1,1,2,0,0,0,0,0,0,1],-1]],
    [[[-1,0,0,0,0,0,0,2,0,0,0,0,0,0,0,0,0],-1]],
    [[[-8,0,0,0,0,0,0,0,0,0,1,0,0,0,0,0,0],1],[[-8,0,0,0,0,0,0,0,1,0,0,0,0,0,0,0,0],-1],[[-8,0,0,0,0,0,0,0,1,0,1,0,0,0,0,0,0],1],[[-8,0,0,0,0,0,0,0,2,0,0,0,0,0,0,0,0],-1],[[-8,0,0,0,0,0,0,2,0,0,0,0,0,0,0,0,0],1],[[-8,0,0,0,0,0,0,2,1,0,0,0,0,0,0,0,0],1],[[-6,0,0,0,0,0,0,1,0,0,0,0,0,0,0,0,1],1],[[-6,0,0,0,0,0,0,1,1,0,0,0,0,0,0,0,1],1],[[-5,0,0,0,0,0,0,0,0,0,1,0,0,0,0,0,0],1],[[-5,0,0,0,0,0,0,0,1,0,0,0,0,0,0,0,0],-1],[[-5,0,0,0,0,0,0,0,1,0,1,0,0,0,0,0,0],1],[[-5,0,0,0,0,0,0,0,2,0,0,0,0,0,0,0,0],-1],[[-5,0,0,0,0,0,0,2,0,0,0,0,0,0,0,0,0],1],[[-5,0,0,0,0,0,0,2,1,0,0,0,0,0,0,0,0],1],[[-4,0,0,0,0,0,0,0,1,1,0,0,0,0,0,0,0],-1],[[-3,0,0,0,0,0,0,0,0,1,1,0,0,0,0,0,0],1],[[-3,0,0,0,0,0,0,0,1,1,0,0,0,0,0,0,0],-1],[[-3,0,0,0,0,0,0,0,1,1,1,0,0,0,0,0,0],1],[[-3,0,0,0,0,0,0,0,2,1,0,0,0,0,0,0,0],-1],[[-3,0,0,0,0,0,0,1,0,0,0,0,0,0,0,0,1],1],[[-3,0,0,0,0,0,0,1,1,0,0,0,0,0,0,0,1],1],[[-3,0,0,0,0,0,0,2,0,1,0,0,0,0,0,0,0],1],[[-3,0,0,0,0,0,0,2,1,1,0,0,0,0,0,0,0],1],[[-2,0,0,0,0,0,0,0,1,2,0,0,0,0,0,0,0],-1],[[-1,0,0,0,0,0,0,0,0,2,1,0,0,0,0,0,0],1],[[-1,0,0,0,0,0,0,0,1,2,0,0,0,0,0,0,0],-1],[[-1,0,0,0,0,0,0,0,1,2,1,0,0,0,0,0,0],1],[[-1,0,0,0,0,0,0,0,2,2,0,0,0,0,0,0,0],-1],[[-1,0,0,0,0,0,0,1,0,1,0,0,0,0,0,0,1],1],[[-1,0,0,0,0,0,0,1,1,1,0,0,0,0,0,0,1],1],[[-1,0,0,0,0,0,0,2,0,2,0,0,0,0,0,0,0],1],[[-1,0,0,0,0,0,0,2,1,2,0,0,0,0,0,0,0],1],[[1,0,0,0,0,0,0,1,0,2,0,0,0,0,0,0,1],1],[[1,0,0,0,0,0,0,1,1,2,0,0,0,0,0,0,1],1]],
    [[[-8,0,0,0,0,0,0,0,0,0,0,0,0,0,0,0,0],1],[[-8,0,0,0,0,0,0,0,0,1,0,0,0,0,1,0,0],-1],[[-8,0,0,0,0,0,0,0,1,0,0,0,0,0,0,0,0],1],[[-8,0,0,0,0,0,0,0,1,1,0,0,0,0,1,0,0],-1],[[-5,0,0,0,0,0,0,0,0,0,0,0,0,0,0,0,0],1],[[-5,0,0,0,0,0,0,0,0,1,0,0,0,0,1,0,0],-1],[[-5,0,0,0,0,0,0,0,1,0,0,0,0,0,0,0,0],1],[[-5,0,0,0,0,0,0,0,1,1,0,0,0,0,1,0,0],-1],[[-3,0,0,0,0,0,0,0,0,1,0,0,0,0,0,0,0],1],[[-3,0,0,0,0,0,0,0,0,2,0,0,0,0,1,0,0],-1],[[-3,0,0,0,0,0,0,0,1,1,0,0,0,0,0,0,0],0],[[-3,0,0,0,0,0,0,0,1,2,0,0,0,0,1,0,0],-1],[[-1,0,0,0,0,0,0,0,0,1,1,0,0,0,0,0,0],-1],[[-1,0,0,0,0,0,0,0,0,2,0,0,0,0,0,0,0],1],[[-1,0,0,0,0,0,0,0,0,3,0,0,0,0,1,0,0],-1],[[-1,0,0,0,0,0,0,0,1,1,1,0,0,0,0,0,0],-1],[[-1,0,0,0,0,0,0,0,1,2,0,0,0,0,0,0,0],0],[[-1,0,0,0,0,0,0,0,1,3,0,0,0,0,1,0,0],-1],[[2,0,0,0,0,0,0,0,0,1,1,0,0,0,0,0,0],-1],[[2,0,0,0,0,0,0,0,1,1,1,0,0,0,0,0,0],-1],[[4,0,0,0,0,0,0,0,0,2,1,0,0,0,0,0,0],-1],[[4,0,0,0,0,0,0,0,1,2,1,0,0,0,0,0,0],-1],[[6,0,0,0,0,0,0,0,0,3,1,0,0,0,0,0,0],-1],[[6,0,0,0,0,0,0,0,1,3,1,0,0,0,0,0,0],-1]],
    [[[-3,0,0,0,0,0,0,0,0,0,0,0,0,2,0,0,0],1],[[-2,0,0,0,0,0,0,0,0,0,1,0,1,0,0,0,0],-1],[[-1,0,0,0,0,0,0,0,0,0,0,0,0,0,0,0,0],1],[[0,0,0,0,0,0,0,0,0,0,1,0,0,0,0,0,0],-1],[[0,0,0,0,0,0,0,0,1,0,0,0,0,0,0,0,0],1],[[1,0,0,0,0,0,0,0,0,0,1,0,0,0,0,0,0],-1],[[6,0,0,0,0,0,0,0,0,1,1,0,0,0,0,0,0],-1]],
    [[[-9,0,0,0,0,0,0,0,0,0,1,0,1,0,0,0,0],1],[[-9,0,0,0,0,0,0,0,1,0,1,0,1,0,0,0,0],1],[[-6,0,0,0,0,0,0,0,0,0,1,0,1,0,0,0,0],1],[[-6,0,0,0,0,0,0,0,1,0,1,0,1,0,0,0,0],1],[[-4,0,0,0,0,0,0,0,0,1,1,0,1,0,0,0,0],1],[[-4,0,0,0,0,0,0,0,1,1,1,0,1,0,0,0,0],1],[[-3,0,0,0,0,0,0,0,1,1,0,0,0,0,0,0,0],1],[[-2,0,0,0,0,0,0,0,0,2,1,0,1,0,0,0,0],1],[[-2,0,0,0,0,0,0,0,1,2,1,0,1,0,0,0,0],1],[[-1,0,0,0,0,0,0,0,0,1,1,0,0,0,0,0,0],1],[[-1,0,0,0,0,0,0,0,1,1,1,0,0,0,0,0,0],1],[[-1,0,0,0,0,0,0,0,1,2,0,0,0,0,0,0,0],1],[[2,0,0,0,0,0,0,0,0,1,1,0,0,0,0,0,0],1],[[2,0,0,0,0,0,0,0,1,1,1,0,0,0,0,0,0],1],[[4,0,0,0,0,0,0,0,0,2,1,0,0,0,0,0,0],1],[[4,0,0,0,0,0,0,0,1,2,1,0,0,0,0,0,0],1],[[6,0,0,0,0,0,0,0,0,3,1,0,0,0,0,0,0],1],[[6,0,0,0,0,0,0,0,1,3,1,0,0,0,0,0,0],1]],
    [[[-3,0,0,0,0,0,0,0,0,0,0,0,0,2,0,0,0],1],[[0,0,0,0,0,0,0,0,0,0,0,1,0,0,0,0,0],-1],[[0,1,0,0,0,0,0,0,0,0,0,0,0,0,0,0,0],1],[[6,0,0,0,0,0,0,0,0,1,1,0,0,0,0,0,0],1]],
    [[[-2,0,0,0,0,0,0,0,0,0,0,0,2,0,0,0,0],-1],[[-2,0,0,0,0,0,0,0,0,0,1,0,1,0,0,0,0],-1],[[-1,0,0,0,0,0,0,0,0,1,0,0,0,0,1,0,0],1]],
    [[[-3,0,0,0,0,0,0,0,0,0,0,0,0,2,0,0,0],-1],[[-2,0,0,0,0,0,0,0,0,0,1,0,1,0,0,0,0],1],[[1,0,0,0,0,0,0,0,0,0,0,0,0,1,0,0,0],-1],[[1,0,0,0,0,0,0,1,0,0,0,0,0,0,0,0,0],1]],
    [[[-3,0,0,0,0,0,0,0,0,0,0,0,0,2,0,0,0],-1]],
    [[[-1,0,0,0,0,0,0,0,0,1,0,0,0,0,1,0,0],-1],[[0,0,0,0,0,0,0,0,0,0,0,0,0,0,1,0,0],-1],[[0,0,0,0,0,0,1,0,0,0,0,0,0,0,0,0,0],1]],
    [[[-1,0,0,0,0,0,0,0,0,1,0,0,0,0,1,0,0],1],[[0,0,0,0,0,0,0,0,0,0,0,0,0,0,0,1,0],-1],[[0,0,0,0,1,0,0,0,0,0,0,0,0,0,0,0,0],1]],
    [[[-1,0,1,0,0,0,0,1,0,0,0,0,0,0,0,0,0],1],[[1,0,0,0,0,0,0,1,0,0,0,0,0,0,0,0,1],-1]],
    [[[-2,0,0,0,0,0,0,0,0,0,0,0,2,0,0,0,0],1]],
    [[[-3,0,0,0,0,0,0,0,0,0,0,0,0,0,0,0,0],-1],[[-1,0,0,0,0,0,0,0,0,0,0,0,0,0,0,1,0],1],[[-1,0,0,0,0,0,0,0,0,0,0,0,0,0,1,0,0],1],[[0,0,0,0,0,0,1,0,0,0,0,0,0,0,0,0,0],1],[[0,0,0,0,1,0,0,0,0,0,0,0,0,0,0,0,0],1]],
    [[[-2,0,0,0,0,0,0,0,0,0,0,0,0,0,0,0,0],-1],[[0,0,0,0,0,0,0,0,0,0,0,0,0,0,0,0,1],1],[[0,0,0,0,0,1,0,0,0,0,0,0,0,0,0,0,0],1],[[0,0,0,1,0,0,0,0,0,0,0,0,0,0,0,0,0],1],[[0,0,1,0,0,0,0,0,0,0,0,0,0,0,0,0,0],1]]
  ]
]
