[
  ["x1","x3","x5","x7","x11","x16","x17"],
  [
    [[[1,1,0,0,0,0,0,0],-1],[[2,0,0,0,0,0,0,1],1],[[6,0,0,0,0,0,0,0],1]],
    [[[0,0,0,0,0,0,0,0],0]],
    [[[-4,0,1,1,0,0,0,0],-1],[[1,1,0,0,0,0,0,0],1]],
    [[[0,0,0,0,0,0,0,0],0]],
    [[[-4,0,1,1,0,0,0,0],-1],[[2,0,0,0,0,0,0,1],1],[[6,0,0,0,0,0,0,0],1]],
    [[[0,0,0,0,0,0,0,0],0]],
    [[[-4,0,1,1,0,0,0,0],1],[[1,0,0,0,1,0,0,0],-1]],
    [[[0,0,0,0,0,0,0,0],0]],
    [[[0,0,0,0,0,0,0,0],0]],
    [[[0,0,0,0,0,0,0,0],0]],
    [[[1,0,0,0,0,1,0,0],-1],[[1,0,0,0,1,0,0,0],1]],
    [[[0,0,0,0,0,0,0,0],0]],
    [[[0,0,0,0,0,0,0,0],0]],
    [[[0,0,0,0,0,0,0,0],0]],
    [[[0,0,0,0,0,0,0,0],0]],
    [[[0,0,0,0,0,0,1,1],1],[[1,0,0,0,0,0,2,0],-1],[[1,0,0,0,0,1,1,0],1],[[4,0,0,0,0,0,0,1],1],[[5,0,0,0,0,0,1,0],-1],[[5,0,0,0,0,1,0,0],1],[[7,0,0,0,0,0,1,0],-1]],
    [[[0,0,0,0,0,0,0,2],-1],[[1,0,0,0,0,0,1,1],1],[[2,0,0,0,0,0,0,2],-1],[[4,0,0,0,0,0,0,1],-1],[[5,0,0,0,0,0,1,0],1],[[6,0,0,0,0,0,0,1],-1]]
  ]
]
