
----------------------------------------------------------------------
This is ptcut v3.5.1
Python 3.7.4 (default, Aug  9 2019, 18:34:13) [MSC v.1915 64 bit (AMD64)]
numpy 1.16.5, sympy 1.4, gmpy2 2.1.0a5
It is now 2020-04-09T19:14:42+02:00
Command line: ..\trop\ptcut.py BIOMD0000000410 -e11 --rat --no-cache=n --maxruntime 86400 --maxmem 14710M --comment "concurrent=4, timeout=86400"

----------------------------------------------------------------------
Solving BIOMD0000000410 with ep=1/11, round=0, complex=False, sumup=False, keep_coeff=False, paramwise=True, complete=False, filter=0, fusion=False, algorithm 3, resort=False, bbox=False, common=9, qdisjoint=False, nonewton=False, mul_denom=True, convexhull=(False, 2, 4, 0.5, 2), likeness 14, backend PPL_C_Polyhedron
Comment: concurrent=4, timeout=86400
Random seed: 35E2IURG3V6T4
Effective epsilon: 1/11.0

Loading tropical system... done.
Loading polyhedra... done.

Sorting ascending...
Dimension: 53
Formulas: 54
Order: 9 12 18 20 24 37 11 22 26 27 36 40 46 48 51 0 14 25 52 53 1 2 6 17 23 31 42 44 45 47 50 8 13 21 38 3 32 35 34 49 19 43 41 7 16 33 28 10 30 29 39 5 4 15
Possible combinations: 1 * 1 * 1 * 1 * 1 * 1 * 2 * 2 * 2 * 2 * 2 * 2 * 2 * 2 * 2 * 3 * 3 * 3 * 3 * 3 * 4 * 4 * 4 * 4 * 4 * 4 * 4 * 4 * 4 * 4 * 5 * 6 * 6 * 6 * 6 * 8 * 8 * 9 * 12 * 14 * 15 * 16 * 18 * 24 * 24 * 24 * 25 * 36 * 36 * 40 * 40 * 48 * 60 * 63 = 45,951,365,436,794,945,225,159,760,119,070,720,000,000 (10^41)
 Applying common planes (codim=6, hs=13)...
 [1/48 (#11)]: 2 => 2 (-), dim=46.0, hs=15.0
 [2/48 (#22)]: 2 => 2 (-), dim=46.0, hs=15.0
 [3/48 (#26)]: 2 => 2 (-), dim=46.0, hs=14.0
 [4/48 (#27)]: 2 => 2 (-), dim=46.0, hs=14.0
 [5/48 (#36)]: 2 => 2 (-), dim=46.0, hs=15.0
 [6/48 (#40)]: 2 => 2 (-), dim=46.0, hs=15.0
 [7/48 (#46)]: 2 => 2 (-), dim=46.0, hs=15.0
 [8/48 (#48)]: 2 => 2 (-), dim=46.0, hs=15.0
 [9/48 (#51)]: 2 => 2 (-), dim=46.0, hs=15.0
 [10/48 (#0)]: 3 => 3 (-), dim=46.0, hs=14.3
 [11/48 (#14)]: 3 => 3 (-), dim=46.0, hs=14.7
 [12/48 (#25)]: 3 => 3 (-), dim=46.0, hs=16.0
 [13/48 (#52)]: 3 => 3 (-), dim=46.0, hs=16.0
 [14/48 (#53)]: 3 => 3 (-), dim=46.0, hs=13.0
 [15/48 (#1)]: 4 => 4 (-), dim=46.0, hs=16.0
 [16/48 (#2)]: 4 => 4 (-), dim=46.0, hs=16.0
 [17/48 (#6)]: 4 => 4 (-), dim=46.0, hs=16.0
 [18/48 (#17)]: 4 => 4 (-), dim=46.0, hs=16.0
 [19/48 (#23)]: 4 => 2 (2 empty), dim=46.0, hs=15.0
  Removed: 23.1,23.3
 [20/48 (#31)]: 4 => 2 (2 empty), dim=46.0, hs=15.0
  Removed: 31.2,31.3
 [21/48 (#42)]: 4 => 2 (2 empty), dim=46.0, hs=15.0
  Removed: 42.2,42.3
 [22/48 (#44)]: 4 => 2 (2 empty), dim=46.0, hs=15.0
  Removed: 44.1,44.3
 [23/48 (#45)]: 4 => 4 (-), dim=46.0, hs=16.0
 [24/48 (#47)]: 4 => 2 (2 empty), dim=46.0, hs=15.0
  Removed: 47.2,47.3
 [25/48 (#50)]: 5 => 5 (-), dim=46.0, hs=18.0
 [26/48 (#8)]: 6 => 6 (-), dim=46.0, hs=17.0
 [27/48 (#13)]: 6 => 6 (-), dim=46.0, hs=16.7
 [28/48 (#21)]: 6 => 4 (2 incl), dim=46.0, hs=16.0
  Removed: 21.1,21.4
 [29/48 (#38)]: 6 => 6 (-), dim=46.0, hs=17.0
 [30/48 (#3)]: 8 => 4 (4 incl), dim=46.2, hs=17.0
  Removed: 3.1,3.3,3.4,3.7
 [31/48 (#32)]: 8 => 8 (-), dim=46.0, hs=18.0
 [32/48 (#35)]: 9 => 9 (-), dim=46.0, hs=18.0
 [33/48 (#34)]: 12 => 12 (-), dim=46.0, hs=18.0
 [34/48 (#49)]: 14 => 14 (-), dim=46.0, hs=20.0
 [35/48 (#19)]: 15 => 5 (10 incl), dim=46.4, hs=17.8
  Removed: 19.1,19.2,19.3,19.4,19.6,19.8,19.11,19.12,19.13,19.14
 [36/48 (#43)]: 16 => 16 (-), dim=46.0, hs=20.0
 [37/48 (#41)]: 18 => 14 (4 incl), dim=46.0, hs=18.0
  Removed: 41.9,41.2,41.14,41.15
 [38/48 (#7)]: 24 => 24 (-), dim=46.0, hs=18.3
 [39/48 (#16)]: 24 => 24 (-), dim=46.0, hs=18.3
 [40/48 (#33)]: 24 => 24 (-), dim=46.0, hs=20.0
 [41/48 (#28)]: 25 => 17 (8 incl), dim=46.1, hs=21.0
  Removed: 28.3,28.8,28.13,28.15,28.16,28.17,28.19,28.23
 [42/48 (#10)]: 36 => 21 (15 incl), dim=46.1, hs=19.3
  Removed: 10.0,10.1,10.65,10.70,10.7,10.8,10.10,10.15,10.16,10.48,10.19,10.53,10.23,10.58,10.60
 [43/48 (#30)]: 36 => 22 (14 incl), dim=46.0, hs=22.0
  Removed: 30.32,30.34,30.4,30.10,30.12,30.14,30.18,30.20,30.22,30.24,30.26,30.28,30.29,30.31
 [44/48 (#29)]: 40 => 36 (4 empty), dim=46.0, hs=21.2
  Removed: 29.72,29.75,29.69,29.78
 [45/48 (#39)]: 40 => 36 (4 empty), dim=46.0, hs=21.2
  Removed: 39.72,39.74,39.76,39.78
 [46/48 (#5)]: 48 => 39 (9 empty), dim=46.0, hs=19.9
  Removed: 5.64,5.135,5.77,5.109,5.50,5.148,5.122,5.157,5.95
 [47/48 (#4)]: 60 => 37 (23 incl), dim=46.1, hs=20.6
  Removed: 4.2,4.6,4.135,4.145,4.148,4.152,4.154,4.26,4.28,4.33,4.162,4.166,4.42,4.171,4.173,4.178,4.61,4.66,4.77,4.83,4.92,4.96,4.104
 [48/48 (#15)]: 63 => 39 (24 incl), dim=46.1, hs=20.8
  Removed: 15.130,15.3,15.135,15.8,15.139,15.142,15.146,15.151,15.26,15.156,15.28,15.32,15.161,15.164,15.42,15.58,15.63,15.66,15.76,15.85,15.90,15.99,15.114,15.126
 Savings: factor 6,080 (10^4), 6 formulas
[1/47 (#11, #22)]: 2 * 2 = 4 => 2 (2 incl), dim=45.0, hs=16.0
 Applying common planes (codim=6, hs=12)...
 [1/47 (w1)]: 2 => 2 (-), dim=45.0, hs=22.0
 [2/47 (#26)]: 2 => 2 (-), dim=46.0, hs=20.0
 [3/47 (#27)]: 2 => 2 (-), dim=46.0, hs=20.0
 [4/47 (#36)]: 2 => 2 (-), dim=46.0, hs=21.0
 [5/47 (#40)]: 2 => 2 (-), dim=46.0, hs=21.0
 [6/47 (#46)]: 2 => 2 (-), dim=46.0, hs=21.0
 [7/47 (#48)]: 2 => 2 (-), dim=46.0, hs=21.0
 [8/47 (#51)]: 2 => 2 (-), dim=46.0, hs=21.0
 [9/47 (#0)]: 3 => 3 (-), dim=46.0, hs=20.3
 [10/47 (#14)]: 3 => 3 (-), dim=46.0, hs=20.7
 [11/47 (#25)]: 3 => 3 (-), dim=46.0, hs=22.0
 [12/47 (#52)]: 3 => 3 (-), dim=46.0, hs=22.0
 [13/47 (#53)]: 3 => 3 (-), dim=46.0, hs=19.0
 [14/47 (#1)]: 4 => 4 (-), dim=46.0, hs=22.0
 [15/47 (#2)]: 4 => 4 (-), dim=46.0, hs=22.0
 [16/47 (#6)]: 4 => 4 (-), dim=46.0, hs=22.0
 [17/47 (#17)]: 4 => 4 (-), dim=46.0, hs=22.0
 [18/47 (#23)]: 2 => 2 (-), dim=46.0, hs=19.0
 [19/47 (#31)]: 2 => 2 (-), dim=46.0, hs=20.0
 [20/47 (#42)]: 2 => 2 (-), dim=46.0, hs=20.0
 [21/47 (#44)]: 2 => 2 (-), dim=46.0, hs=20.0
 [22/47 (#45)]: 4 => 4 (-), dim=46.0, hs=22.0
 [23/47 (#47)]: 2 => 2 (-), dim=46.0, hs=20.0
 [24/47 (#50)]: 5 => 5 (-), dim=46.0, hs=23.8
 [25/47 (#8)]: 6 => 6 (-), dim=46.0, hs=23.0
 [26/47 (#13)]: 6 => 6 (-), dim=46.0, hs=22.7
 [27/47 (#21)]: 4 => 4 (-), dim=46.0, hs=22.0
 [28/47 (#38)]: 6 => 6 (-), dim=46.0, hs=23.0
 [29/47 (#3)]: 4 => 4 (-), dim=46.2, hs=23.0
 [30/47 (#32)]: 8 => 8 (-), dim=46.0, hs=24.0
 [31/47 (#35)]: 9 => 9 (-), dim=46.0, hs=24.0
 [32/47 (#34)]: 12 => 12 (-), dim=46.0, hs=24.0
 [33/47 (#49)]: 14 => 14 (-), dim=46.0, hs=25.9
 [34/47 (#19)]: 5 => 5 (-), dim=46.4, hs=23.8
 [35/47 (#43)]: 16 => 7 (9 incl), dim=46.0, hs=23.0
  Removed: 43.1,43.2,43.4,43.5,43.6,43.8,43.9,43.10,43.12
 [36/47 (#41)]: 14 => 14 (-), dim=46.0, hs=24.0
 [37/47 (#7)]: 24 => 24 (-), dim=46.0, hs=24.3
 [38/47 (#16)]: 24 => 24 (-), dim=46.0, hs=24.3
 [39/47 (#33)]: 24 => 24 (-), dim=46.0, hs=26.0
 [40/47 (#28)]: 17 => 14 (3 incl), dim=46.1, hs=26.0
  Removed: 28.10,28.12,28.14
 [41/47 (#10)]: 21 => 21 (-), dim=46.1, hs=25.3
 [42/47 (#30)]: 22 => 16 (6 incl), dim=46.1, hs=26.0
  Removed: 30.3,30.6,30.13,30.15,30.25,30.27
 [43/47 (#29)]: 36 => 22 (14 incl), dim=46.0, hs=24.8
  Removed: 29.1,29.2,29.33,29.34,29.35,29.65,29.9,29.42,29.43,29.73,29.74,29.76,29.26,29.27
 [44/47 (#39)]: 36 => 22 (14 incl), dim=46.0, hs=25.0
  Removed: 39.32,39.1,39.2,39.33,39.66,39.69,39.39,39.40,39.10,39.75,39.77,39.47,39.48,39.17
 [45/47 (#5)]: 39 => 39 (-), dim=46.0, hs=25.9
 [46/47 (#4)]: 37 => 37 (-), dim=46.1, hs=26.6
 [47/47 (#15)]: 39 => 39 (-), dim=46.1, hs=26.8
 Savings: factor 10.218923933209647 (10^1), 0 formulas
[2/47 (w1, #26)]: 2 * 2 = 4 => 4 (-), dim=44.0, hs=23.0
[3/47 (w2, #27)]: 4 * 2 = 8 => 6 (2 empty), dim=43.0, hs=23.3
[4/47 (w3, #36)]: 6 * 2 = 12 => 6 (6 incl), dim=42.5, hs=24.3
[5/47 (w4, #40)]: 6 * 2 = 12 => 12 (-), dim=41.5, hs=26.3
[6/47 (w5, #46)]: 12 * 2 = 24 => 12 (12 incl), dim=41.0, hs=27.3
[7/47 (w6, #48)]: 12 * 2 = 24 => 24 (-), dim=40.0, hs=29.3
[8/47 (w7, #51)]: 24 * 2 = 48 => 36 (12 incl), dim=39.0, hs=29.7
[9/47 (w8, #23)]: 36 * 2 = 72 => 72 (-), dim=38.0, hs=29.7
[10/47 (w9, #31)]: 72 * 2 = 144 => 144 (-), dim=37.0, hs=30.7
[11/47 (w10, #42)]: 144 * 2 = 288 => 216 (72 incl), dim=36.0, hs=30.8
[12/47 (w11, #44)]: 216 * 2 = 432 => 432 (-), dim=35.0, hs=31.8
[13/47 (w12, #47)]: 432 * 2 = 864 => 648 (216 incl), dim=34.0, hs=32.0
[14/47 (w13, #0)]: 648 * 3 = 1944 => 1944 (-), dim=33.0, hs=33.3
[15/47 (w14, #14)]: 1944 * 3 = 5832 => 5832 (-), dim=32.0, hs=34.7
[16/47 (w15, #25)]: 5832 * 3 = 17496 => 11664 (1944 empty, 3888 incl), dim=31.0, hs=36.7
[17/47 (w16, #52)]: 11664 * 3 = 34992 => 15552 (19440 incl), dim=30.5, hs=38.7
[18/47 (w17, #53)]: 15552 * 3 = 46656 => 27648 (19008 empty), dim=29.5, hs=38.1
