
\\\\\\\\\\\\\\\\\\\\\\\\\\\\\\\\\\\\\\\\ file 0

\ combo: 1-1-0-0-0-0-4-0-23-0-0-1-0-0-0-1
\ dimension 3; is not compact
MAXIMIZE
Subject To
  ie0: -2 x4 >= -3          \ x4**-1 <= 36.4829
  ie1: -2 x4 +1 x11 >= -6   \ x4**-2 * x11 <= 1.77156e+06
  ie2: -1 x11 >= 1          \ x11**-1 <= 0.0909091
  ie3: +1 x4 >= 1           \ x4 <= 0.0909091
  eq0: +1 x14 = 1           \ x14 = 0.0909091
  eq1: +1 x13 = -1          \ x13 = 11.0
  eq2: +1 x12 = -1          \ x12 = 11.0
  eq3: +1 x10 = -1          \ x10 = 11.0
  eq4: +1 x8 = -2           \ x8 = 121.0
  eq5: +1 x4 +1 x7 = -3     \ x4 * x7 = 1331.0
  eq6: +1 x6 = -2           \ x6 = 121.0
  eq7: +2 x4 -1 x5 = 4      \ x4**2 * x5**-1 = 6.83013e-05
  eq8: +1 x3 = -1           \ x3 = 11.0
  eq9: +1 x2 = 3            \ x2 = 0.000751315
  eq10: +2 x1 = -7          \ x1 = 4414.43
END

\\\\\\\\\\\\\\\\\\\\\\\\\\\\\\\\\\\\\\\\ file 1

\ combo: 1-2-0-4-0-1-4-0-9-0-0-0-0-0-3-0
\ dimension 4; is not compact
MAXIMIZE
Subject To
  ie0: -2 x1 >= -1              \ x1**-1 <= 3.31662
  ie1: -1 x2 >= -1              \ x2**-1 <= 11.0
  ie2: +2 x1 -1 x7 >= -1        \ x1**2 * x7**-1 <= 11.0
  ie3: +1 x7 >= 1               \ x7 <= 0.0909091
  ie4: +1 x2 >= -1              \ x2 <= 11.0
  eq0: +1 x14 = -1              \ x14 = 11.0
  eq1: +1 x2 +1 x13 = 0         \ x2 * x13 = 1.0
  eq2: +1 x12 = -1              \ x12 = 11.0
  eq3: +2 x1 -1 x11 = 1         \ x1**2 * x11**-1 = 0.0909091
  eq4: +1 x10 = -1              \ x10 = 11.0
  eq5: +1 x7 -2 x8 = 3          \ x7 * x8**-2 = 0.000751315
  eq6: +1 x6 = 0                \ x6 = 1.0
  eq7: +2 x1 -1 x5 = 1          \ x1**2 * x5**-1 = 0.0909091
  eq8: +1 x4 = -2               \ x4 = 121.0
  eq9: +2 x1 +1 x2 -1 x3 = -3   \ x1**2 * x2 * x3**-1 = 1331.0
END

\\\\\\\\\\\\\\\\\\\\\\\\\\\\\\\\\\\\\\\\ file 2

\ combo: 1-2-0-2-0-1-4-0-4-0-0-0-0-0-3-0
\ dimension 4; is not compact
MAXIMIZE
Subject To
  ie0: -1 x1 >= -1              \ x1**-1 <= 11.0
  ie1: -1 x2 >= -1              \ x2**-1 <= 11.0
  ie2: -1 x7 >= -2              \ x7**-1 <= 121.0
  ie3: +2 x1 >= 1               \ x1 <= 0.301511
  ie4: +1 x7 >= 1               \ x7 <= 0.0909091
  ie5: +1 x2 >= -1              \ x2 <= 11.0
  eq0: +1 x14 = -1              \ x14 = 11.0
  eq1: +1 x2 +1 x13 = 0         \ x2 * x13 = 1.0
  eq2: +1 x12 = -1              \ x12 = 11.0
  eq3: +1 x11 = 0               \ x11 = 1.0
  eq4: +1 x10 = -1              \ x10 = 11.0
  eq5: +1 x7 -2 x8 = 3          \ x7 * x8**-2 = 0.000751315
  eq6: +1 x6 = 0                \ x6 = 1.0
  eq7: +2 x1 -1 x5 = 1          \ x1**2 * x5**-1 = 0.0909091
  eq8: +1 x4 = -2               \ x4 = 121.0
  eq9: +2 x1 +1 x2 -1 x3 = -3   \ x1**2 * x2 * x3**-1 = 1331.0
END

\\\\\\\\\\\\\\\\\\\\\\\\\\\\\\\\\\\\\\\\ file 3

\ combo: 1-1-0-4-0-0-4-0-23-0-0-1-0-0-2-1
\ dimension 3; is not compact
MAXIMIZE
Subject To
  ie0: -1 x6 >= 1        \ x6**-1 <= 0.0909091
  ie1: -1 x11 >= 1       \ x11**-1 <= 0.0909091
  ie2: +1 x6 >= -2       \ x6 <= 121.0
  ie3: +1 x11 >= -4      \ x11 <= 14641.0
  eq0: +1 x14 = 1        \ x14 = 0.0909091
  eq1: +1 x13 = -1       \ x13 = 11.0
  eq2: +1 x12 = -1       \ x12 = 11.0
  eq3: +1 x10 = -1       \ x10 = 11.0
  eq4: +1 x6 -2 x8 = 2   \ x6 * x8**-2 = 0.00826446
  eq5: +1 x6 -1 x7 = 2   \ x6 * x7**-1 = 0.00826446
  eq6: +1 x5 = -2        \ x5 = 121.0
  eq7: +1 x4 = 1         \ x4 = 0.0909091
  eq8: +1 x3 = -1        \ x3 = 11.0
  eq9: +1 x2 = 3         \ x2 = 0.000751315
  eq10: +2 x1 = -7       \ x1 = 4414.43
END

\\\\\\\\\\\\\\\\\\\\\\\\\\\\\\\\\\\\\\\\ file 4

\ combo: 1-2-0-4-0-0-4-0-23-0-0-0-0-0-2-0
\ dimension 4; is not compact
MAXIMIZE
Subject To
  ie0: -2 x1 >= 1               \ x1**-1 <= 0.301511
  ie1: -1 x6 >= 1               \ x6**-1 <= 0.0909091
  ie2: -1 x11 >= 1              \ x11**-1 <= 0.0909091
  ie3: +2 x1 >= -3              \ x1 <= 36.4829
  ie4: +1 x11 >= -4             \ x11 <= 14641.0
  ie5: +1 x6 >= -2              \ x6 <= 121.0
  eq0: +1 x14 = -1              \ x14 = 11.0
  eq1: +2 x1 -1 x13 = -2        \ x1**2 * x13**-1 = 121.0
  eq2: +1 x12 = -1              \ x12 = 11.0
  eq3: +1 x10 = -1              \ x10 = 11.0
  eq4: +1 x6 -2 x8 = 2          \ x6 * x8**-2 = 0.00826446
  eq5: +2 x1 +2 x6 -2 x7 = -3   \ x1 * x6 * x7**-1 = 36.4829
  eq6: +1 x5 = -2               \ x5 = 121.0
  eq7: +2 x1 +2 x4 = -5         \ x1 * x4 = 401.312
  eq8: +1 x3 = 1                \ x3 = 0.0909091
  eq9: +2 x1 +1 x2 = -2         \ x1**2 * x2 = 121.0
END

\\\\\\\\\\\\\\\\\\\\\\\\\\\\\\\\\\\\\\\\ file 5

\ combo: 1-2-0-0-0-0-4-0-9-0-0-0-0-0-3-0
\ dimension 4; is not compact
MAXIMIZE
Subject To
  ie0: -2 x1 >= -1              \ x1**-1 <= 3.31662
  ie1: -1 x2 >= -1              \ x2**-1 <= 11.0
  ie2: +2 x1 -1 x6 >= 1         \ x1**2 * x6**-1 <= 0.0909091
  ie3: +1 x6 >= -2              \ x6 <= 121.0
  ie4: +1 x2 >= -1              \ x2 <= 11.0
  ie5: +1 x1 >= 0               \ x1 <= 1.0
  eq0: +1 x14 = -1              \ x14 = 11.0
  eq1: +1 x2 +1 x13 = 0         \ x2 * x13 = 1.0
  eq2: +1 x12 = -1              \ x12 = 11.0
  eq3: +2 x1 -1 x11 = 1         \ x1**2 * x11**-1 = 0.0909091
  eq4: +1 x10 = -1              \ x10 = 11.0
  eq5: +1 x6 -2 x8 = 2          \ x6 * x8**-2 = 0.00826446
  eq6: +1 x6 -1 x7 = -1         \ x6 * x7**-1 = 11.0
  eq7: +2 x1 -1 x5 = 1          \ x1**2 * x5**-1 = 0.0909091
  eq8: +1 x4 = -2               \ x4 = 121.0
  eq9: +2 x1 +1 x2 -1 x3 = -3   \ x1**2 * x2 * x3**-1 = 1331.0
END

\\\\\\\\\\\\\\\\\\\\\\\\\\\\\\\\\\\\\\\\ file 6

\ combo: 1-2-0-4-0-0-4-0-9-0-0-0-0-0-3-0
\ dimension 4; is not compact
MAXIMIZE
Subject To
  ie0: -2 x1 +1 x6 >= -1        \ x1**-2 * x6 <= 11.0
  ie1: -1 x2 >= -1              \ x2**-1 <= 11.0
  ie2: -1 x6 >= 0               \ x6**-1 <= 1.0
  ie3: +1 x1 >= 0               \ x1 <= 1.0
  ie4: +1 x2 >= -1              \ x2 <= 11.0
  eq0: +1 x14 = -1              \ x14 = 11.0
  eq1: +1 x2 +1 x13 = 0         \ x2 * x13 = 1.0
  eq2: +1 x12 = -1              \ x12 = 11.0
  eq3: +2 x1 -1 x11 = 1         \ x1**2 * x11**-1 = 0.0909091
  eq4: +1 x10 = -1              \ x10 = 11.0
  eq5: +1 x6 -2 x8 = 2          \ x6 * x8**-2 = 0.00826446
  eq6: +1 x6 -1 x7 = -1         \ x6 * x7**-1 = 11.0
  eq7: +2 x1 -1 x5 = 1          \ x1**2 * x5**-1 = 0.0909091
  eq8: +1 x4 = -2               \ x4 = 121.0
  eq9: +2 x1 +1 x2 -1 x3 = -3   \ x1**2 * x2 * x3**-1 = 1331.0
END

\\\\\\\\\\\\\\\\\\\\\\\\\\\\\\\\\\\\\\\\ file 7

\ combo: 1-2-0-0-0-0-4-0-4-0-0-0-0-0-3-0
\ dimension 4; is not compact
MAXIMIZE
Subject To
  ie0: -1 x1 >= -1              \ x1**-1 <= 11.0
  ie1: -1 x2 >= -1              \ x2**-1 <= 11.0
  ie2: -1 x6 >= 0               \ x6**-1 <= 1.0
  ie3: +2 x1 >= 1               \ x1 <= 0.301511
  ie4: +1 x6 >= -2              \ x6 <= 121.0
  ie5: +1 x2 >= -1              \ x2 <= 11.0
  eq0: +1 x14 = -1              \ x14 = 11.0
  eq1: +1 x2 +1 x13 = 0         \ x2 * x13 = 1.0
  eq2: +1 x12 = -1              \ x12 = 11.0
  eq3: +1 x11 = 0               \ x11 = 1.0
  eq4: +1 x10 = -1              \ x10 = 11.0
  eq5: +1 x6 -2 x8 = 2          \ x6 * x8**-2 = 0.00826446
  eq6: +1 x6 -1 x7 = -1         \ x6 * x7**-1 = 11.0
  eq7: +2 x1 -1 x5 = 1          \ x1**2 * x5**-1 = 0.0909091
  eq8: +1 x4 = -2               \ x4 = 121.0
  eq9: +2 x1 +1 x2 -1 x3 = -3   \ x1**2 * x2 * x3**-1 = 1331.0
END

\\\\\\\\\\\\\\\\\\\\\\\\\\\\\\\\\\\\\\\\ file 8

\ combo: 1-1-0-4-0-0-4-0-35-0-0-0-0-0-2-0
\ dimension 4; is not compact
MAXIMIZE
Subject To
  ie0: -2 x1 -1 x2 >= 3         \ x1**-2 * x2**-1 <= 0.000751315
  ie1: -1 x2 >= -1              \ x2**-1 <= 11.0
  ie2: -1 x6 >= 1               \ x6**-1 <= 0.0909091
  ie3: +2 x1 +1 x2 >= -4        \ x1**2 * x2 <= 14641.0
  ie4: +1 x6 >= -2              \ x6 <= 121.0
  ie5: +1 x2 >= -1              \ x2 <= 11.0
  eq0: +1 x14 = -1              \ x14 = 11.0
  eq1: +1 x2 +1 x13 = 0         \ x2 * x13 = 1.0
  eq2: +1 x12 = -1              \ x12 = 11.0
  eq3: +1 x11 = 0               \ x11 = 1.0
  eq4: +1 x10 = -1              \ x10 = 11.0
  eq5: +1 x6 -2 x8 = 2          \ x6 * x8**-2 = 0.00826446
  eq6: +2 x1 +2 x6 -2 x7 = -3   \ x1 * x6 * x7**-1 = 36.4829
  eq7: +1 x5 = -2               \ x5 = 121.0
  eq8: +2 x1 +2 x4 = -5         \ x1 * x4 = 401.312
  eq9: +2 x1 +1 x2 -1 x3 = -3   \ x1**2 * x2 * x3**-1 = 1331.0
END

\\\\\\\\\\\\\\\\\\\\\\\\\\\\\\\\\\\\\\\\ file 9

\ combo: 1-1-0-4-0-0-4-0-35-0-0-1-0-0-2-1
\ dimension 3; is not compact
MAXIMIZE
Subject To
  ie0: -2 x1 >= 5               \ x1**-1 <= 0.00249183
  ie1: -1 x6 >= 1               \ x6**-1 <= 0.0909091
  ie2: +1 x1 >= -3              \ x1 <= 1331.0
  ie3: +1 x6 >= -2              \ x6 <= 121.0
  eq0: +2 x1 +1 x14 = -6        \ x1**2 * x14 = 1.77156e+06
  eq1: +1 x13 = -1              \ x13 = 11.0
  eq2: +1 x12 = -1              \ x12 = 11.0
  eq3: +1 x11 = 0               \ x11 = 1.0
  eq4: +1 x10 = -1              \ x10 = 11.0
  eq5: +1 x6 -2 x8 = 2          \ x6 * x8**-2 = 0.00826446
  eq6: +2 x1 +2 x6 -2 x7 = -3   \ x1 * x6 * x7**-1 = 36.4829
  eq7: +1 x5 = -2               \ x5 = 121.0
  eq8: +2 x1 +2 x4 = -5         \ x1 * x4 = 401.312
  eq9: +1 x3 = -1               \ x3 = 11.0
  eq10: +2 x1 +1 x2 = -4        \ x1**2 * x2 = 14641.0
END

\\\\\\\\\\\\\\\\\\\\\\\\\\\\\\\\\\\\\\\\ file 10

\ combo: 1-2-0-0-0-0-4-0-10-0-0-0-0-0-3-0
\ dimension 4; is not compact
MAXIMIZE
Subject To
  ie0: -1 x2 >= -1        \ x2**-1 <= 11.0
  ie1: -1 x6 >= 1         \ x6**-1 <= 0.0909091
  ie2: -1 x11 >= 1        \ x11**-1 <= 0.0909091
  ie3: +1 x2 >= -1        \ x2 <= 11.0
  ie4: +1 x11 >= -3       \ x11 <= 1331.0
  ie5: +1 x6 >= -2        \ x6 <= 121.0
  eq0: +1 x14 = -1        \ x14 = 11.0
  eq1: +1 x2 +1 x13 = 0   \ x2 * x13 = 1.0
  eq2: +1 x12 = -1        \ x12 = 11.0
  eq3: +1 x10 = -1        \ x10 = 11.0
  eq4: +1 x6 -2 x8 = 2    \ x6 * x8**-2 = 0.00826446
  eq5: +1 x6 -1 x7 = -1   \ x6 * x7**-1 = 11.0
  eq6: +1 x5 = -1         \ x5 = 11.0
  eq7: +1 x4 = -2         \ x4 = 121.0
  eq8: +1 x2 -1 x3 = -3   \ x2 * x3**-1 = 1331.0
  eq9: +1 x1 = 0          \ x1 = 1.0
END

\\\\\\\\\\\\\\\\\\\\\\\\\\\\\\\\\\\\\\\\ file 11

\ combo: 1-2-0-4-0-0-4-0-10-0-0-0-0-0-3-0
\ dimension 4; is not compact
MAXIMIZE
Subject To
  ie0: -1 x2 >= -1        \ x2**-1 <= 11.0
  ie1: -1 x6 >= 0         \ x6**-1 <= 1.0
  ie2: -1 x11 >= 1        \ x11**-1 <= 0.0909091
  ie3: +1 x2 >= -1        \ x2 <= 11.0
  ie4: +1 x11 >= -3       \ x11 <= 1331.0
  ie5: +1 x6 >= -1        \ x6 <= 11.0
  eq0: +1 x14 = -1        \ x14 = 11.0
  eq1: +1 x2 +1 x13 = 0   \ x2 * x13 = 1.0
  eq2: +1 x12 = -1        \ x12 = 11.0
  eq3: +1 x10 = -1        \ x10 = 11.0
  eq4: +1 x6 -2 x8 = 2    \ x6 * x8**-2 = 0.00826446
  eq5: +1 x6 -1 x7 = -1   \ x6 * x7**-1 = 11.0
  eq6: +1 x5 = -1         \ x5 = 11.0
  eq7: +1 x4 = -2         \ x4 = 121.0
  eq8: +1 x2 -1 x3 = -3   \ x2 * x3**-1 = 1331.0
  eq9: +1 x1 = 0          \ x1 = 1.0
END

\\\\\\\\\\\\\\\\\\\\\\\\\\\\\\\\\\\\\\\\ file 12

\ combo: 1-1-0-4-0-0-4-0-20-0-0-0-0-0-2-0
\ dimension 4; is not compact
MAXIMIZE
Subject To
  ie0: -2 x1 -1 x2 >= 2          \ x1**-2 * x2**-1 <= 0.00826446
  ie1: -1 x2 >= -1               \ x2**-1 <= 11.0
  ie2: -1 x6 >= 1                \ x6**-1 <= 0.0909091
  ie3: +2 x1 +1 x2 >= -3         \ x1**2 * x2 <= 1331.0
  ie4: +1 x6 >= -2               \ x6 <= 121.0
  ie5: +1 x2 >= -1               \ x2 <= 11.0
  eq0: +1 x14 = -1               \ x14 = 11.0
  eq1: +1 x2 +1 x13 = 0          \ x2 * x13 = 1.0
  eq2: +1 x12 = -1               \ x12 = 11.0
  eq3: +2 x1 +1 x2 +1 x11 = -3   \ x1**2 * x2 * x11 = 1331.0
  eq4: +1 x10 = -1               \ x10 = 11.0
  eq5: +1 x6 -2 x8 = 2           \ x6 * x8**-2 = 0.00826446
  eq6: +2 x1 +2 x6 -2 x7 = -3    \ x1 * x6 * x7**-1 = 36.4829
  eq7: +1 x5 = -2                \ x5 = 121.0
  eq8: +2 x1 +2 x4 = -5          \ x1 * x4 = 401.312
  eq9: +2 x1 +1 x2 -1 x3 = -3    \ x1**2 * x2 * x3**-1 = 1331.0
END

\\\\\\\\\\\\\\\\\\\\\\\\\\\\\\\\\\\\\\\\ file 13

\ combo: 1-1-0-4-0-0-4-0-34-0-0-1-0-0-2-1
\ dimension 3; is not compact
MAXIMIZE
Subject To
  ie0: -1 x1 >= 3               \ x1**-1 <= 0.000751315
  ie1: -1 x6 >= 1               \ x6**-1 <= 0.0909091
  ie2: +2 x1 >= -7              \ x1 <= 4414.43
  ie3: +1 x6 >= -2              \ x6 <= 121.0
  eq0: +2 x1 +1 x14 = -6        \ x1**2 * x14 = 1.77156e+06
  eq1: +1 x13 = -1              \ x13 = 11.0
  eq2: +1 x12 = -1              \ x12 = 11.0
  eq3: +2 x1 -1 x11 = -6        \ x1**2 * x11**-1 = 1.77156e+06
  eq4: +1 x10 = -1              \ x10 = 11.0
  eq5: +1 x6 -2 x8 = 2          \ x6 * x8**-2 = 0.00826446
  eq6: +2 x1 +2 x6 -2 x7 = -3   \ x1 * x6 * x7**-1 = 36.4829
  eq7: +1 x5 = -2               \ x5 = 121.0
  eq8: +2 x1 +2 x4 = -5         \ x1 * x4 = 401.312
  eq9: +1 x3 = -1               \ x3 = 11.0
  eq10: +2 x1 +1 x2 = -4        \ x1**2 * x2 = 14641.0
END

\\\\\\\\\\\\\\\\\\\\\\\\\\\\\\\\\\\\\\\\ file 14

\ combo: 1-1-0-0-0-0-4-0-23-0-0-0-0-0-0-0
\ dimension 4; is not compact
MAXIMIZE
Subject To
  ie0: -2 x1 -2 x4 +1 x11 >= 1   \ x1**-2 * x4**-2 * x11 <= 0.0909091
  ie1: -2 x1 >= 1                \ x1**-1 <= 0.301511
  ie2: -1 x1 -1 x4 >= 2          \ x1**-1 * x4**-1 <= 0.00826446
  ie3: -1 x11 >= 1               \ x11**-1 <= 0.0909091
  ie4: +2 x1 +2 x4 >= -5         \ x1 * x4 <= 401.312
  ie5: +2 x1 >= -3               \ x1 <= 36.4829
  eq0: +1 x14 = -1               \ x14 = 11.0
  eq1: +2 x1 -1 x13 = -2         \ x1**2 * x13**-1 = 121.0
  eq2: +1 x12 = -1               \ x12 = 11.0
  eq3: +1 x10 = -1               \ x10 = 11.0
  eq4: +1 x8 = -2                \ x8 = 121.0
  eq5: +1 x4 +1 x7 = -3          \ x4 * x7 = 1331.0
  eq6: +1 x6 = -2                \ x6 = 121.0
  eq7: +2 x1 +2 x4 -1 x5 = -3    \ x1**2 * x4**2 * x5**-1 = 1331.0
  eq8: +1 x3 = 1                 \ x3 = 0.0909091
  eq9: +2 x1 +1 x2 = -2          \ x1**2 * x2 = 121.0
END

\\\\\\\\\\\\\\\\\\\\\\\\\\\\\\\\\\\\\\\\ file 15

\ combo: 1-2-0-0-0-0-4-0-10-0-0-0-0-0-0-0
\ dimension 4; is not compact
MAXIMIZE
Subject To
  ie0: -1 x1 >= 0               \ x1**-1 <= 1.0
  ie1: -1 x2 >= -1              \ x2**-1 <= 11.0
  ie2: -1 x11 >= 1              \ x11**-1 <= 0.0909091
  ie3: +2 x1 +1 x2 >= -2        \ x1**2 * x2 <= 121.0
  ie4: +1 x11 >= -3             \ x11 <= 1331.0
  ie5: +1 x2 >= -1              \ x2 <= 11.0
  eq0: +1 x14 = -1              \ x14 = 11.0
  eq1: +1 x2 +1 x13 = 0         \ x2 * x13 = 1.0
  eq2: +1 x12 = -1              \ x12 = 11.0
  eq3: +1 x10 = -1              \ x10 = 11.0
  eq4: +1 x8 = -2               \ x8 = 121.0
  eq5: +1 x1 -1 x7 = 1          \ x1 * x7**-1 = 0.0909091
  eq6: +1 x6 = -2               \ x6 = 121.0
  eq7: +1 x5 = -1               \ x5 = 11.0
  eq8: +1 x1 +1 x4 = -2         \ x1 * x4 = 121.0
  eq9: +2 x1 +1 x2 -1 x3 = -3   \ x1**2 * x2 * x3**-1 = 1331.0
END

\\\\\\\\\\\\\\\\\\\\\\\\\\\\\\\\\\\\\\\\ file 16

\ combo: 5-1-0-0-0-0-4-0-21-0-0-1-0-0-0-1
\ dimension 3; is not compact
MAXIMIZE
Subject To
  ie0: -2 x1 >= 7          \ x1**-1 <= 0.00022653
  ie1: -1 x11 >= 1         \ x11**-1 <= 0.0909091
  ie2: +1 x1 >= -4         \ x1 <= 14641.0
  ie3: +1 x11 >= -3        \ x11 <= 1331.0
  eq0: +2 x1 +1 x14 = -6   \ x1**2 * x14 = 1.77156e+06
  eq1: +1 x13 = -1         \ x13 = 11.0
  eq2: +1 x12 = -1         \ x12 = 11.0
  eq3: +1 x10 = -1         \ x10 = 11.0
  eq4: +1 x8 = -2          \ x8 = 121.0
  eq5: +1 x1 -1 x7 = 1     \ x1 * x7**-1 = 0.0909091
  eq6: +1 x6 = -2          \ x6 = 121.0
  eq7: +1 x5 = -1          \ x5 = 11.0
  eq8: +1 x1 +1 x4 = -2    \ x1 * x4 = 121.0
  eq9: +1 x3 = -1          \ x3 = 11.0
  eq10: +2 x1 +1 x2 = -4   \ x1**2 * x2 = 14641.0
END

\\\\\\\\\\\\\\\\\\\\\\\\\\\\\\\\\\\\\\\\ file 17

\ combo: 1-1-0-0-0-0-4-0-35-0-0-0-0-0-0-0
\ dimension 4; is not compact
MAXIMIZE
Subject To
  ie0: -2 x1 -1 x2 >= 3         \ x1**-2 * x2**-1 <= 0.000751315
  ie1: -1 x2 >= -1              \ x2**-1 <= 11.0
  ie2: +2 x1 +1 x2 >= -4        \ x1**2 * x2 <= 14641.0
  ie3: +1 x2 -2 x4 >= 0         \ x2 * x4**-2 <= 1.0
  ie4: +1 x2 >= -1              \ x2 <= 11.0
  ie5: +2 x1 +2 x4 >= -5        \ x1 * x4 <= 401.312
  eq0: +1 x14 = -1              \ x14 = 11.0
  eq1: +1 x2 +1 x13 = 0         \ x2 * x13 = 1.0
  eq2: +1 x12 = -1              \ x12 = 11.0
  eq3: +1 x11 = 0               \ x11 = 1.0
  eq4: +1 x10 = -1              \ x10 = 11.0
  eq5: +1 x8 = -2               \ x8 = 121.0
  eq6: +1 x4 +1 x7 = -3         \ x4 * x7 = 1331.0
  eq7: +1 x6 = -2               \ x6 = 121.0
  eq8: +2 x1 +2 x4 -1 x5 = -3   \ x1**2 * x4**2 * x5**-1 = 1331.0
  eq9: +2 x1 +1 x2 -1 x3 = -3   \ x1**2 * x2 * x3**-1 = 1331.0
END

\\\\\\\\\\\\\\\\\\\\\\\\\\\\\\\\\\\\\\\\ file 18

\ combo: 5-1-0-0-0-0-4-0-28-0-0-0-0-0-0-0
\ dimension 4; is not compact
MAXIMIZE
Subject To
  ie0: -2 x1 -1 x2 >= 3         \ x1**-2 * x2**-1 <= 0.000751315
  ie1: -1 x2 >= -1              \ x2**-1 <= 11.0
  ie2: -1 x4 >= -2              \ x4**-1 <= 121.0
  ie3: +2 x1 +1 x2 >= -4        \ x1**2 * x2 <= 14641.0
  ie4: +1 x2 >= -1              \ x2 <= 11.0
  ie5: +2 x1 +2 x4 >= -3        \ x1 * x4 <= 36.4829
  eq0: +1 x14 = -1              \ x14 = 11.0
  eq1: +1 x2 +1 x13 = 0         \ x2 * x13 = 1.0
  eq2: +1 x12 = -1              \ x12 = 11.0
  eq3: +1 x11 = 0               \ x11 = 1.0
  eq4: +1 x10 = -1              \ x10 = 11.0
  eq5: +1 x8 = -2               \ x8 = 121.0
  eq6: +1 x4 +1 x7 = -3         \ x4 * x7 = 1331.0
  eq7: +1 x6 = -2               \ x6 = 121.0
  eq8: +2 x1 +2 x4 -1 x5 = -3   \ x1**2 * x4**2 * x5**-1 = 1331.0
  eq9: +2 x1 +1 x2 -1 x3 = -3   \ x1**2 * x2 * x3**-1 = 1331.0
END

\\\\\\\\\\\\\\\\\\\\\\\\\\\\\\\\\\\\\\\\ file 19

\ combo: 5-1-0-0-0-0-4-0-35-0-0-0-0-0-0-0
\ dimension 4; is not compact
MAXIMIZE
Subject To
  ie0: -2 x1 -2 x4 >= 3         \ x1**-1 * x4**-1 <= 0.0274101
  ie1: -1 x2 >= -1              \ x2**-1 <= 11.0
  ie2: -1 x2 +2 x4 >= 0         \ x2**-1 * x4**2 <= 1.0
  ie3: +2 x1 +1 x2 >= -4        \ x1**2 * x2 <= 14641.0
  ie4: +1 x2 >= -1              \ x2 <= 11.0
  eq0: +1 x14 = -1              \ x14 = 11.0
  eq1: +1 x2 +1 x13 = 0         \ x2 * x13 = 1.0
  eq2: +1 x12 = -1              \ x12 = 11.0
  eq3: +1 x11 = 0               \ x11 = 1.0
  eq4: +1 x10 = -1              \ x10 = 11.0
  eq5: +1 x8 = -2               \ x8 = 121.0
  eq6: +1 x4 +1 x7 = -3         \ x4 * x7 = 1331.0
  eq7: +1 x6 = -2               \ x6 = 121.0
  eq8: +2 x1 +2 x4 -1 x5 = -3   \ x1**2 * x4**2 * x5**-1 = 1331.0
  eq9: +2 x1 +1 x2 -1 x3 = -3   \ x1**2 * x2 * x3**-1 = 1331.0
END

\\\\\\\\\\\\\\\\\\\\\\\\\\\\\\\\\\\\\\\\ file 20

\ combo: 5-1-0-0-0-0-4-0-4-0-0-0-0-0-0-0
\ dimension 4; is not compact
MAXIMIZE
Subject To
  ie0: -2 x1 -1 x2 >= 2         \ x1**-2 * x2**-1 <= 0.00826446
  ie1: -1 x2 >= -1              \ x2**-1 <= 11.0
  ie2: -1 x2 +2 x4 >= 0         \ x2**-1 * x4**2 <= 1.0
  ie3: -1 x4 >= -2              \ x4**-1 <= 121.0
  ie4: +2 x1 +1 x2 >= -3        \ x1**2 * x2 <= 1331.0
  ie5: +1 x2 >= -1              \ x2 <= 11.0
  eq0: +1 x14 = -1              \ x14 = 11.0
  eq1: +1 x2 +1 x13 = 0         \ x2 * x13 = 1.0
  eq2: +1 x12 = -1              \ x12 = 11.0
  eq3: +1 x11 = 0               \ x11 = 1.0
  eq4: +1 x10 = -1              \ x10 = 11.0
  eq5: +1 x8 = -2               \ x8 = 121.0
  eq6: +1 x4 +1 x7 = -3         \ x4 * x7 = 1331.0
  eq7: +1 x6 = -2               \ x6 = 121.0
  eq8: +2 x1 +2 x4 -1 x5 = -3   \ x1**2 * x4**2 * x5**-1 = 1331.0
  eq9: +2 x1 +1 x2 -1 x3 = -3   \ x1**2 * x2 * x3**-1 = 1331.0
END

\\\\\\\\\\\\\\\\\\\\\\\\\\\\\\\\\\\\\\\\ file 21

\ combo: 1-1-0-0-0-0-4-0-4-0-0-0-0-0-0-0
\ dimension 4; is not compact
MAXIMIZE
Subject To
  ie0: -2 x1 -1 x2 >= 2         \ x1**-2 * x2**-1 <= 0.00826446
  ie1: -1 x2 >= -1              \ x2**-1 <= 11.0
  ie2: +2 x1 +2 x4 >= -3        \ x1 * x4 <= 36.4829
  ie3: +1 x2 -2 x4 >= 0         \ x2 * x4**-2 <= 1.0
  ie4: +1 x2 >= -1              \ x2 <= 11.0
  eq0: +1 x14 = -1              \ x14 = 11.0
  eq1: +1 x2 +1 x13 = 0         \ x2 * x13 = 1.0
  eq2: +1 x12 = -1              \ x12 = 11.0
  eq3: +1 x11 = 0               \ x11 = 1.0
  eq4: +1 x10 = -1              \ x10 = 11.0
  eq5: +1 x8 = -2               \ x8 = 121.0
  eq6: +1 x4 +1 x7 = -3         \ x4 * x7 = 1331.0
  eq7: +1 x6 = -2               \ x6 = 121.0
  eq8: +2 x1 +2 x4 -1 x5 = -3   \ x1**2 * x4**2 * x5**-1 = 1331.0
  eq9: +2 x1 +1 x2 -1 x3 = -3   \ x1**2 * x2 * x3**-1 = 1331.0
END

\\\\\\\\\\\\\\\\\\\\\\\\\\\\\\\\\\\\\\\\ file 22

\ combo: 1-2-0-0-0-0-4-0-4-0-0-0-0-0-0-0
\ dimension 4; is not compact
MAXIMIZE
Subject To
  ie0: -1 x1 -1 x4 >= 1         \ x1**-1 * x4**-1 <= 0.0909091
  ie1: -1 x2 >= -1              \ x2**-1 <= 11.0
  ie2: +2 x1 +1 x2 >= -2        \ x1**2 * x2 <= 121.0
  ie3: +1 x4 >= -2              \ x4 <= 121.0
  ie4: +1 x2 >= -1              \ x2 <= 11.0
  ie5: +2 x1 +2 x4 >= -3        \ x1 * x4 <= 36.4829
  eq0: +1 x14 = -1              \ x14 = 11.0
  eq1: +1 x2 +1 x13 = 0         \ x2 * x13 = 1.0
  eq2: +1 x12 = -1              \ x12 = 11.0
  eq3: +1 x11 = 0               \ x11 = 1.0
  eq4: +1 x10 = -1              \ x10 = 11.0
  eq5: +1 x8 = -2               \ x8 = 121.0
  eq6: +1 x4 +1 x7 = -3         \ x4 * x7 = 1331.0
  eq7: +1 x6 = -2               \ x6 = 121.0
  eq8: +2 x1 +2 x4 -1 x5 = -3   \ x1**2 * x4**2 * x5**-1 = 1331.0
  eq9: +2 x1 +1 x2 -1 x3 = -3   \ x1**2 * x2 * x3**-1 = 1331.0
END

\\\\\\\\\\\\\\\\\\\\\\\\\\\\\\\\\\\\\\\\ file 23

\ combo: 5-1-0-0-0-0-4-0-35-0-0-1-0-0-0-1
\ dimension 3; is not compact
MAXIMIZE
Subject To
  ie0: -2 x1 -2 x4 >= 3         \ x1**-1 * x4**-1 <= 0.0274101
  ie1: -2 x1 >= 5               \ x1**-1 <= 0.00249183
  ie2: +1 x1 +1 x4 >= -2        \ x1 * x4 <= 121.0
  ie3: +1 x1 >= -3              \ x1 <= 1331.0
  eq0: +2 x1 +1 x14 = -6        \ x1**2 * x14 = 1.77156e+06
  eq1: +1 x13 = -1              \ x13 = 11.0
  eq2: +1 x12 = -1              \ x12 = 11.0
  eq3: +1 x11 = 0               \ x11 = 1.0
  eq4: +1 x10 = -1              \ x10 = 11.0
  eq5: +1 x8 = -2               \ x8 = 121.0
  eq6: +1 x4 +1 x7 = -3         \ x4 * x7 = 1331.0
  eq7: +1 x6 = -2               \ x6 = 121.0
  eq8: +2 x1 +2 x4 -1 x5 = -3   \ x1**2 * x4**2 * x5**-1 = 1331.0
  eq9: +1 x3 = -1               \ x3 = 11.0
  eq10: +2 x1 +1 x2 = -4        \ x1**2 * x2 = 14641.0
END

\\\\\\\\\\\\\\\\\\\\\\\\\\\\\\\\\\\\\\\\ file 24

\ combo: 1-1-0-0-0-0-4-0-35-0-0-1-0-0-0-1
\ dimension 3; is not compact
MAXIMIZE
Subject To
  ie0: -2 x1 >= 5               \ x1**-1 <= 0.00249183
  ie1: -1 x1 -1 x4 >= 2         \ x1**-1 * x4**-1 <= 0.00826446
  ie2: +2 x1 +2 x4 >= -5        \ x1 * x4 <= 401.312
  ie3: +1 x1 >= -3              \ x1 <= 1331.0
  eq0: +2 x1 +1 x14 = -6        \ x1**2 * x14 = 1.77156e+06
  eq1: +1 x13 = -1              \ x13 = 11.0
  eq2: +1 x12 = -1              \ x12 = 11.0
  eq3: +1 x11 = 0               \ x11 = 1.0
  eq4: +1 x10 = -1              \ x10 = 11.0
  eq5: +1 x8 = -2               \ x8 = 121.0
  eq6: +1 x4 +1 x7 = -3         \ x4 * x7 = 1331.0
  eq7: +1 x6 = -2               \ x6 = 121.0
  eq8: +2 x1 +2 x4 -1 x5 = -3   \ x1**2 * x4**2 * x5**-1 = 1331.0
  eq9: +1 x3 = -1               \ x3 = 11.0
  eq10: +2 x1 +1 x2 = -4        \ x1**2 * x2 = 14641.0
END

\\\\\\\\\\\\\\\\\\\\\\\\\\\\\\\\\\\\\\\\ file 25

\ combo: 5-1-0-0-0-0-4-0-28-0-0-1-0-0-0-1
\ dimension 3; is not compact
MAXIMIZE
Subject To
  ie0: -2 x1 >= 5               \ x1**-1 <= 0.00249183
  ie1: -1 x4 >= -2              \ x4**-1 <= 121.0
  ie2: +2 x1 +2 x4 >= -3        \ x1 * x4 <= 36.4829
  ie3: +1 x1 >= -3              \ x1 <= 1331.0
  eq0: +2 x1 +1 x14 = -6        \ x1**2 * x14 = 1.77156e+06
  eq1: +1 x13 = -1              \ x13 = 11.0
  eq2: +1 x12 = -1              \ x12 = 11.0
  eq3: +1 x11 = 0               \ x11 = 1.0
  eq4: +1 x10 = -1              \ x10 = 11.0
  eq5: +1 x8 = -2               \ x8 = 121.0
  eq6: +1 x4 +1 x7 = -3         \ x4 * x7 = 1331.0
  eq7: +1 x6 = -2               \ x6 = 121.0
  eq8: +2 x1 +2 x4 -1 x5 = -3   \ x1**2 * x4**2 * x5**-1 = 1331.0
  eq9: +1 x3 = -1               \ x3 = 11.0
  eq10: +2 x1 +1 x2 = -4        \ x1**2 * x2 = 14641.0
END

\\\\\\\\\\\\\\\\\\\\\\\\\\\\\\\\\\\\\\\\ file 26

\ combo: 5-1-0-0-0-0-4-0-24-0-0-1-0-0-0-1
\ dimension 3; is not compact
MAXIMIZE
Subject To
  ie0: -1 x1 >= 3               \ x1**-1 <= 0.000751315
  ie1: -1 x4 >= -2              \ x4**-1 <= 121.0
  ie2: +2 x1 +2 x4 >= -3        \ x1 * x4 <= 36.4829
  eq0: +2 x1 +1 x14 = -6        \ x1**2 * x14 = 1.77156e+06
  eq1: +1 x13 = -1              \ x13 = 11.0
  eq2: +1 x12 = -1              \ x12 = 11.0
  eq3: +1 x11 = 0               \ x11 = 1.0
  eq4: +1 x10 = -1              \ x10 = 11.0
  eq5: +1 x8 = -2               \ x8 = 121.0
  eq6: +1 x4 +1 x7 = -3         \ x4 * x7 = 1331.0
  eq7: +1 x6 = -2               \ x6 = 121.0
  eq8: +2 x1 +2 x4 -1 x5 = -3   \ x1**2 * x4**2 * x5**-1 = 1331.0
  eq9: +1 x3 = -1               \ x3 = 11.0
  eq10: +2 x1 +1 x2 = -4        \ x1**2 * x2 = 14641.0
END

\\\\\\\\\\\\\\\\\\\\\\\\\\\\\\\\\\\\\\\\ file 27

\ combo: 1-1-0-0-0-0-4-0-9-0-0-0-0-0-0-0
\ dimension 4; is not compact
MAXIMIZE
Subject To
  ie0: -2 x1 -1 x2 >= 2          \ x1**-2 * x2**-1 <= 0.00826446
  ie1: -2 x1 -2 x4 >= 3          \ x1**-1 * x4**-1 <= 0.0274101
  ie2: -1 x2 >= -1               \ x2**-1 <= 11.0
  ie3: +4 x1 +1 x2 +2 x4 >= -6   \ x1**4 * x2 * x4**2 <= 1.77156e+06
  ie4: +1 x2 >= -1               \ x2 <= 11.0
  eq0: +1 x14 = -1               \ x14 = 11.0
  eq1: +1 x2 +1 x13 = 0          \ x2 * x13 = 1.0
  eq2: +1 x12 = -1               \ x12 = 11.0
  eq3: +2 x1 +2 x4 -1 x11 = -3   \ x1**2 * x4**2 * x11**-1 = 1331.0
  eq4: +1 x10 = -1               \ x10 = 11.0
  eq5: +1 x8 = -2                \ x8 = 121.0
  eq6: +1 x4 +1 x7 = -3          \ x4 * x7 = 1331.0
  eq7: +1 x6 = -2                \ x6 = 121.0
  eq8: +2 x1 +2 x4 -1 x5 = -3    \ x1**2 * x4**2 * x5**-1 = 1331.0
  eq9: +2 x1 +1 x2 -1 x3 = -3    \ x1**2 * x2 * x3**-1 = 1331.0
END

\\\\\\\\\\\\\\\\\\\\\\\\\\\\\\\\\\\\\\\\ file 28

\ combo: 1-2-0-0-0-0-4-0-9-0-0-0-0-0-0-0
\ dimension 4; is not compact
MAXIMIZE
Subject To
  ie0: -2 x1 -2 x4 >= 3          \ x1**-1 * x4**-1 <= 0.0274101
  ie1: -1 x2 >= -1               \ x2**-1 <= 11.0
  ie2: +2 x1 +1 x2 >= -2         \ x1**2 * x2 <= 121.0
  ie3: +1 x4 >= -2               \ x4 <= 121.0
  ie4: +1 x2 >= -1               \ x2 <= 11.0
  ie5: +1 x1 +1 x4 >= -2         \ x1 * x4 <= 121.0
  eq0: +1 x14 = -1               \ x14 = 11.0
  eq1: +1 x2 +1 x13 = 0          \ x2 * x13 = 1.0
  eq2: +1 x12 = -1               \ x12 = 11.0
  eq3: +2 x1 +2 x4 -1 x11 = -3   \ x1**2 * x4**2 * x11**-1 = 1331.0
  eq4: +1 x10 = -1               \ x10 = 11.0
  eq5: +1 x8 = -2                \ x8 = 121.0
  eq6: +1 x4 +1 x7 = -3          \ x4 * x7 = 1331.0
  eq7: +1 x6 = -2                \ x6 = 121.0
  eq8: +2 x1 +2 x4 -1 x5 = -3    \ x1**2 * x4**2 * x5**-1 = 1331.0
  eq9: +2 x1 +1 x2 -1 x3 = -3    \ x1**2 * x2 * x3**-1 = 1331.0
END

\\\\\\\\\\\\\\\\\\\\\\\\\\\\\\\\\\\\\\\\ file 29

\ combo: 1-1-0-0-0-0-4-0-20-0-0-0-0-0-0-0
\ dimension 4; is not compact
MAXIMIZE
Subject To
  ie0: -4 x1 -1 x2 -2 x4 >= 6    \ x1**-4 * x2**-1 * x4**-2 <= 5.64474e-07
  ie1: -2 x1 -1 x2 >= 2          \ x1**-2 * x2**-1 <= 0.00826446
  ie2: -1 x2 >= -1               \ x2**-1 <= 11.0
  ie3: +2 x1 +1 x2 >= -3         \ x1**2 * x2 <= 1331.0
  ie4: +1 x2 >= -1               \ x2 <= 11.0
  ie5: +2 x1 +2 x4 >= -5         \ x1 * x4 <= 401.312
  eq0: +1 x14 = -1               \ x14 = 11.0
  eq1: +1 x2 +1 x13 = 0          \ x2 * x13 = 1.0
  eq2: +1 x12 = -1               \ x12 = 11.0
  eq3: +2 x1 +1 x2 +1 x11 = -3   \ x1**2 * x2 * x11 = 1331.0
  eq4: +1 x10 = -1               \ x10 = 11.0
  eq5: +1 x8 = -2                \ x8 = 121.0
  eq6: +1 x4 +1 x7 = -3          \ x4 * x7 = 1331.0
  eq7: +1 x6 = -2                \ x6 = 121.0
  eq8: +2 x1 +2 x4 -1 x5 = -3    \ x1**2 * x4**2 * x5**-1 = 1331.0
  eq9: +2 x1 +1 x2 -1 x3 = -3    \ x1**2 * x2 * x3**-1 = 1331.0
END

\\\\\\\\\\\\\\\\\\\\\\\\\\\\\\\\\\\\\\\\ file 30

\ combo: 5-1-0-0-0-0-4-0-30-0-0-1-0-0-0-1
\ dimension 3; is not compact
MAXIMIZE
Subject To
  ie0: -2 x1 -2 x4 >= 3          \ x1**-1 * x4**-1 <= 0.0274101
  ie1: -1 x4 >= -2               \ x4**-1 <= 121.0
  ie2: +1 x1 +1 x4 >= -2         \ x1 * x4 <= 121.0
  ie3: +2 x4 >= 3                \ x4 <= 0.0274101
  eq0: +2 x1 +1 x14 = -6         \ x1**2 * x14 = 1.77156e+06
  eq1: +1 x13 = -1               \ x13 = 11.0
  eq2: +1 x12 = -1               \ x12 = 11.0
  eq3: +2 x1 +2 x4 -1 x11 = -3   \ x1**2 * x4**2 * x11**-1 = 1331.0
  eq4: +1 x10 = -1               \ x10 = 11.0
  eq5: +1 x8 = -2                \ x8 = 121.0
  eq6: +1 x4 +1 x7 = -3          \ x4 * x7 = 1331.0
  eq7: +1 x6 = -2                \ x6 = 121.0
  eq8: +2 x1 +2 x4 -1 x5 = -3    \ x1**2 * x4**2 * x5**-1 = 1331.0
  eq9: +1 x3 = -1                \ x3 = 11.0
  eq10: +2 x1 +1 x2 = -4         \ x1**2 * x2 = 14641.0
END

\\\\\\\\\\\\\\\\\\\\\\\\\\\\\\\\\\\\\\\\ file 31

\ combo: 1-1-0-0-0-0-4-0-34-0-0-1-0-0-0-1
\ dimension 3; is not compact
MAXIMIZE
Subject To
  ie0: -1 x1 -1 x4 >= 2         \ x1**-1 * x4**-1 <= 0.00826446
  ie1: -1 x1 >= 3               \ x1**-1 <= 0.000751315
  ie2: +2 x1 +2 x4 >= -5        \ x1 * x4 <= 401.312
  ie3: +2 x1 >= -7              \ x1 <= 4414.43
  eq0: +2 x1 +1 x14 = -6        \ x1**2 * x14 = 1.77156e+06
  eq1: +1 x13 = -1              \ x13 = 11.0
  eq2: +1 x12 = -1              \ x12 = 11.0
  eq3: +2 x1 -1 x11 = -6        \ x1**2 * x11**-1 = 1.77156e+06
  eq4: +1 x10 = -1              \ x10 = 11.0
  eq5: +1 x8 = -2               \ x8 = 121.0
  eq6: +1 x4 +1 x7 = -3         \ x4 * x7 = 1331.0
  eq7: +1 x6 = -2               \ x6 = 121.0
  eq8: +2 x1 +2 x4 -1 x5 = -3   \ x1**2 * x4**2 * x5**-1 = 1331.0
  eq9: +1 x3 = -1               \ x3 = 11.0
  eq10: +2 x1 +1 x2 = -4        \ x1**2 * x2 = 14641.0
END

\\\\\\\\\\\\\\\\\\\\\\\\\\\\\\\\\\\\\\\\ file 32

\ combo: 5-1-0-0-0-0-4-0-34-0-0-1-0-0-0-1
\ dimension 3; is not compact
MAXIMIZE
Subject To
  ie0: -1 x1 >= 3               \ x1**-1 <= 0.000751315
  ie1: -2 x4 >= -3              \ x4**-1 <= 36.4829
  ie2: +1 x1 +1 x4 >= -2        \ x1 * x4 <= 121.0
  eq0: +2 x1 +1 x14 = -6        \ x1**2 * x14 = 1.77156e+06
  eq1: +1 x13 = -1              \ x13 = 11.0
  eq2: +1 x12 = -1              \ x12 = 11.0
  eq3: +2 x1 -1 x11 = -6        \ x1**2 * x11**-1 = 1.77156e+06
  eq4: +1 x10 = -1              \ x10 = 11.0
  eq5: +1 x8 = -2               \ x8 = 121.0
  eq6: +1 x4 +1 x7 = -3         \ x4 * x7 = 1331.0
  eq7: +1 x6 = -2               \ x6 = 121.0
  eq8: +2 x1 +2 x4 -1 x5 = -3   \ x1**2 * x4**2 * x5**-1 = 1331.0
  eq9: +1 x3 = -1               \ x3 = 11.0
  eq10: +2 x1 +1 x2 = -4        \ x1**2 * x2 = 14641.0
END

\\\\\\\\\\\\\\\\\\\\\\\\\\\\\\\\\\\\\\\\ end

