
----------------------------------------------------------------------
This is ptcut v3.5.1
Python 3.7.4 (default, Aug  9 2019, 18:34:13) [MSC v.1915 64 bit (AMD64)]
numpy 1.16.5, sympy 1.4, gmpy2 2.1.0a5
It is now 2020-04-05T00:14:16+02:00
Command line: ..\trop\ptcut.py BIOMD0000000576 -e11 --rat --no-cache=n --maxruntime 10800 --maxmem 11513M --comment "concurrent=6, timeout=10800"

----------------------------------------------------------------------
Solving BIOMD0000000576 with ep=1/11, round=0, complex=False, sumup=False, keep_coeff=False, paramwise=True, complete=False, filter=0, fusion=False, algorithm 3, resort=False, bbox=False, common=9, qdisjoint=False, nonewton=False, mul_denom=True, convexhull=(False, 2, 4, 0.5, 2), likeness 14, backend PPL_C_Polyhedron
Comment: concurrent=6, timeout=10800
Random seed: 83O62F5C2SR7
Effective epsilon: 1/11.0

Loading tropical system... done.
Loading polyhedra... done.

Sorting ascending...
Dimension: 34
Formulas: 41
Order: 8 11 12 13 16 18 19 21 25 26 27 28 30 31 32 33 34 35 1 4 10 36 37 39 40 0 3 9 15 17 20 24 38 5 7 29 2 14 23 22 6
Possible combinations: 1 * 1 * 1 * 1 * 1 * 1 * 1 * 1 * 1 * 1 * 1 * 1 * 1 * 1 * 1 * 1 * 2 * 2 * 3 * 3 * 3 * 3 * 3 * 3 * 3 * 4 * 4 * 4 * 4 * 4 * 4 * 4 * 4 * 9 * 9 * 9 * 16 * 16 * 16 * 32 * 60 = 3,286,831,269,245,091,840 (10^19)
 Applying common planes (codim=14, hs=39)...
 [1/25 (#34)]: 2 => 2 (-), dim=19.0, hs=38.5
 [2/25 (#35)]: 2 => 2 (-), dim=19.0, hs=38.5
 [3/25 (#1)]: 3 => 3 (-), dim=19.0, hs=33.7
 [4/25 (#4)]: 3 => 3 (-), dim=19.0, hs=35.7
 [5/25 (#10)]: 3 => 3 (-), dim=19.0, hs=35.0
 [6/25 (#36)]: 3 => 2 (1 empty), dim=19.0, hs=38.5
  Removed: 36.0
 [7/25 (#37)]: 3 => 3 (-), dim=19.0, hs=33.7
 [8/25 (#39)]: 3 => 3 (-), dim=19.0, hs=33.7
 [9/25 (#40)]: 3 => 3 (-), dim=19.0, hs=33.7
 [10/25 (#0)]: 4 => 2 (2 incl), dim=20.0, hs=36.0
  Removed: 0.1,0.2
 [11/25 (#3)]: 4 => 2 (2 incl), dim=20.0, hs=36.0
  Removed: 3.1,3.2
 [12/25 (#9)]: 4 => 4 (-), dim=19.0, hs=39.5
 [13/25 (#15)]: 4 => 1 (3 empty), dim=19.0, hs=40.0
  Removed: 15.1,15.2,15.3
 [14/25 (#17)]: 4 => 2 (2 incl), dim=20.0, hs=36.0
  Removed: 17.1,17.2
 [15/25 (#20)]: 4 => 1 (3 empty), dim=20.0, hs=39.0
  Removed: 20.1,20.2,20.3
 [16/25 (#24)]: 4 => 1 (3 empty), dim=19.0, hs=40.0
  Removed: 24.1,24.2,24.3
 [17/25 (#38)]: 4 => 4 (-), dim=19.0, hs=38.8
 [18/25 (#5)]: 9 => 9 (-), dim=19.0, hs=42.7
 [19/25 (#7)]: 9 => 3 (6 incl), dim=20.0, hs=39.0
  Removed: 7.1,7.2,7.3,7.5,7.6,7.7
 [20/25 (#29)]: 9 => 3 (6 incl), dim=19.7, hs=40.7
  Removed: 29.0,29.2,29.3,29.4,29.7,29.8
 [21/25 (#2)]: 16 => 10 (6 incl), dim=19.1, hs=43.7
  Removed: 2.0,2.2,2.3,2.5,2.9,2.13
 [22/25 (#14)]: 16 => 1 (15 empty), dim=19.0, hs=40.0
  Removed: 14.0,14.1,14.2,14.4,14.5,14.6,14.7,14.8,14.9,14.10,14.11,14.12,14.13,14.14,14.15
 [23/25 (#23)]: 16 => 4 (12 incl), dim=19.0, hs=37.0
  Removed: 23.1,23.2,23.3,23.5,23.6,23.7,23.9,23.10,23.11,23.13,23.14,23.15
 [24/25 (#22)]: 32 => 24 (8 empty), dim=19.0, hs=44.3
  Removed: 22.86,22.55,22.89,22.58,22.92,22.61,22.94,22.63
 [25/25 (#6)]: 60 => 44 (16 empty), dim=19.0, hs=45.0
  Removed: 6.129,6.66,6.131,6.185,6.69,6.167,6.72,6.74,6.143,6.146,6.179,6.149,6.151,6.183,6.123,6.126
 Applying common planes (codim=17, hs=42)...
 [1/21 (#34)]: 2 => 2 (-), dim=16.0, hs=41.5
 [2/21 (#35)]: 2 => 2 (-), dim=16.0, hs=41.5
 [3/21 (#1)]: 3 => 3 (-), dim=16.0, hs=38.3
 [4/21 (#4)]: 3 => 3 (-), dim=16.0, hs=39.7
 [5/21 (#10)]: 3 => 3 (-), dim=15.7, hs=38.7
 [6/21 (#36)]: 2 => 2 (-), dim=16.0, hs=41.5
 [7/21 (#37)]: 3 => 3 (-), dim=15.3, hs=37.0
 [8/21 (#39)]: 3 => 3 (-), dim=16.0, hs=38.3
 [9/21 (#40)]: 3 => 3 (-), dim=16.0, hs=38.3
 [10/21 (#0)]: 2 => 2 (-), dim=17.0, hs=39.5
 [11/21 (#3)]: 2 => 2 (-), dim=17.0, hs=39.5
 [12/21 (#9)]: 4 => 4 (-), dim=16.0, hs=41.8
 [13/21 (#17)]: 2 => 2 (-), dim=17.0, hs=39.5
 [14/21 (#38)]: 4 => 4 (-), dim=16.0, hs=41.0
 [15/21 (#5)]: 9 => 4 (5 incl), dim=16.2, hs=43.2
  Removed: 5.0,5.2,5.4,5.6,5.7
 [16/21 (#7)]: 3 => 3 (-), dim=17.0, hs=41.0
 [17/21 (#29)]: 3 => 3 (-), dim=16.7, hs=43.7
 [18/21 (#2)]: 10 => 4 (6 incl), dim=16.8, hs=44.0
  Removed: 2.4,2.7,2.10,2.11,2.12,2.14
 [19/21 (#23)]: 4 => 4 (-), dim=16.0, hs=40.0
 [20/21 (#22)]: 24 => 12 (12 incl), dim=16.2, hs=43.2
  Removed: 22.0,22.1,22.66,22.69,22.102,22.73,22.12,22.44,22.15,22.47,22.80,22.53
 [21/21 (#6)]: 44 => 16 (28 incl), dim=16.4, hs=43.9
  Removed: 6.0,6.1,6.132,6.138,6.12,6.141,6.14,6.15,6.26,6.28,6.157,6.160,6.38,6.168,6.174,6.175,6.176,6.180,6.53,6.56,6.62,6.79,6.82,6.86,6.87,6.96,6.115,6.118
 Savings: factor 39,813,120 (10^8), 20 formulas
[1/20 (#34, #35)]: 2 * 2 = 4 => 3 (1 empty), dim=15.0, hs=41.3
[2/20 (w1, #36)]: 3 * 2 = 6 => 6 (-), dim=14.0, hs=40.8
[3/20 (w2, #0)]: 6 * 2 = 12 => 12 (-), dim=14.0, hs=38.3
[4/20 (w3, #3)]: 12 * 2 = 24 => 12 (12 incl), dim=14.0, hs=38.3
[5/20 (w4, #17)]: 12 * 2 = 24 => 12 (12 incl), dim=14.0, hs=38.3
[6/20 (w5, #1)]: 12 * 3 = 36 => 24 (12 incl), dim=13.0, hs=36.8
[7/20 (w6, #4)]: 24 * 3 = 72 => 36 (24 empty, 12 incl), dim=12.0, hs=37.0
[8/20 (w7, #10)]: 36 * 3 = 108 => 48 (24 empty, 36 incl), dim=10.8, hs=36.3
[9/20 (w8, #37)]: 48 * 3 = 144 => 48 (36 empty, 60 incl), dim=10.0, hs=35.8
[10/20 (w9, #39)]: 48 * 3 = 144 => 48 (36 empty, 60 incl), dim=9.0, hs=35.8
[11/20 (w10, #40)]: 48 * 3 = 144 => 48 (36 empty, 60 incl), dim=8.0, hs=35.8
 Applying common planes (codim=1, hs=1)...
 [1/10 (w11)]: 48 => 48 (-), dim=8.0, hs=35.8
 [2/10 (#9)]: 4 => 4 (-), dim=15.0, hs=41.8
 [3/10 (#38)]: 4 => 4 (-), dim=15.0, hs=41.0
 [4/10 (#5)]: 4 => 4 (-), dim=15.2, hs=43.2
 [5/10 (#7)]: 3 => 3 (-), dim=16.0, hs=41.0
 [6/10 (#29)]: 3 => 3 (-), dim=15.7, hs=43.7
 [7/10 (#2)]: 4 => 4 (-), dim=15.8, hs=43.0
 [8/10 (#23)]: 4 => 4 (-), dim=15.0, hs=40.0
 [9/10 (#22)]: 12 => 12 (-), dim=15.2, hs=43.2
 [10/10 (#6)]: 16 => 16 (-), dim=15.4, hs=43.9
 Savings: factor 1.0, 0 formulas
[12/20 (w11, #7)]: 48 * 3 = 144 => 120 (24 incl), dim=8.0, hs=35.5
[13/20 (w12, #29)]: 120 * 3 = 360 => 144 (216 empty), dim=7.8, hs=36.3
[14/20 (w13, #9)]: 144 * 4 = 576 => 216 (96 empty, 264 incl), dim=6.8, hs=36.5
[15/20 (w14, #38)]: 216 * 4 = 864 => 288 (312 empty, 264 incl), dim=5.8, hs=36.3
[16/20 (w15, #5)]: 288 * 4 = 1152 => 505 (647 empty), dim=5.4, hs=37.2
[17/20 (w16, #2)]: 505 * 4 = 2020 => 568 (1117 empty, 335 incl), dim=5.5, hs=37.6
[18/20 (w17, #23)]: 568 * 4 = 2272 => 512 (408 empty, 1352 incl), dim=5.2, hs=37.6
[19/20 (w18, #22)]: 512 * 12 = 6144 => 672 (4955 empty, 517 incl), dim=5.1, hs=37.7
[20/20 (w19, #6)]: 672 * 16 = 10752 => 756 (8970 empty, 1026 incl), dim=4.8, hs=37.9
Total time: 55.783 sec, total intersections: 25,463, total inclusion tests: 948,771
Common plane time: 3.094 sec
Solutions: 756, dim=4.8, hs=37.9, max=756, maxin=10752
f-vector: [0, 0, 0, 0, 276, 384, 96]
Canonicalizing...
Saving solutions... 
Calculation done.
Peak memory: working set 0.390 GiB, pagefile 0.398 GiB
Memory: pmem(rss=169963520, vms=164687872, num_page_faults=232899, peak_wset=418762752, wset=169963520, peak_paged_pool=538552, paged_pool=538376, peak_nonpaged_pool=126448, nonpaged_pool=85872, pagefile=164687872, peak_pagefile=426823680, private=164687872)
