[
  ["#0",
    [[0,0,0,0,1,1,0,1,1,0,1,1],
     [0,0,0,1,0,1,1,0,1,1,0,1],
     [0,0,0,1,1,0,1,1,0,1,1,0],
     [0,1,1,0,0,0,0,1,1,0,1,1],
     [1,0,1,0,0,0,1,0,1,1,0,1],
     [1,1,0,0,0,0,1,1,0,1,1,0],
     [0,1,1,0,1,1,0,0,0,0,1,1],
     [1,0,1,1,0,1,0,0,0,1,0,1],
     [1,1,0,1,1,0,0,0,0,1,1,0],
     [0,1,1,0,1,1,0,1,1,0,0,0],
     [1,0,1,1,0,1,1,0,1,0,0,0],
     [1,1,0,1,1,0,1,1,0,0,0,0]], [
    [[[1,1,0,0,0,1,0,0,0,0,0,-1,0]], [[-1,-1,0,0,0,-1,0,0,0,0,1,0,0],[-1,-1,0,0,0,-1,1,0,0,0,0,0,0],[1,-1,1,0,0,-1,0,0,0,0,0,0,0],[0,0,0,0,1,-1,0,0,0,0,0,0,0],[0,0,0,1,0,-1,0,0,0,0,0,0,0]], 0],
    [[[1,1,0,0,1,0,0,0,0,0,0,-1,0]], [[-1,-1,0,0,-1,0,0,0,0,0,1,0,0],[-1,-1,0,0,-1,0,1,0,0,0,0,0,0],[1,-1,1,0,-1,0,0,0,0,0,0,0,0],[0,0,0,0,-1,1,0,0,0,0,0,0,0],[0,0,0,1,-1,0,0,0,0,0,0,0,0]], 1],
    [[[1,1,0,1,0,0,0,0,0,0,0,-1,0]], [[-1,-1,0,-1,0,0,0,0,0,0,1,0,0],[-1,-1,0,-1,0,0,1,0,0,0,0,0,0],[1,-1,1,-1,0,0,0,0,0,0,0,0,0],[0,0,0,-1,0,1,0,0,0,0,0,0,0],[0,0,0,-1,1,0,0,0,0,0,0,0,0]], 2],
    [[[1,1,0,0,0,1,0,0,0,0,-1,0,0]], [[-1,-1,0,0,0,-1,0,0,0,0,0,1,0],[-1,-1,0,0,0,-1,1,0,0,0,0,0,0],[1,-1,1,0,0,-1,0,0,0,0,0,0,0],[0,0,0,0,1,-1,0,0,0,0,0,0,0],[0,0,0,1,0,-1,0,0,0,0,0,0,0]], 3],
    [[[1,1,0,0,1,0,0,0,0,0,-1,0,0]], [[-1,-1,0,0,-1,0,0,0,0,0,0,1,0],[-1,-1,0,0,-1,0,1,0,0,0,0,0,0],[1,-1,1,0,-1,0,0,0,0,0,0,0,0],[0,0,0,0,-1,1,0,0,0,0,0,0,0],[0,0,0,1,-1,0,0,0,0,0,0,0,0]], 4],
    [[[1,1,0,1,0,0,0,0,0,0,-1,0,0]], [[-1,-1,0,-1,0,0,0,0,0,0,0,1,0],[-1,-1,0,-1,0,0,1,0,0,0,0,0,0],[1,-1,1,-1,0,0,0,0,0,0,0,0,0],[0,0,0,-1,0,1,0,0,0,0,0,0,0],[0,0,0,-1,1,0,0,0,0,0,0,0,0]], 5],
    [[[1,1,0,0,0,1,-1,0,0,0,0,0,0]], [[-1,-1,0,0,0,-1,0,0,0,0,0,1,0],[-1,-1,0,0,0,-1,0,0,0,0,1,0,0],[1,-1,1,0,0,-1,0,0,0,0,0,0,0],[0,0,0,0,1,-1,0,0,0,0,0,0,0],[0,0,0,1,0,-1,0,0,0,0,0,0,0]], 6],
    [[[1,1,0,0,1,0,-1,0,0,0,0,0,0]], [[-1,-1,0,0,-1,0,0,0,0,0,0,1,0],[-1,-1,0,0,-1,0,0,0,0,0,1,0,0],[1,-1,1,0,-1,0,0,0,0,0,0,0,0],[0,0,0,0,-1,1,0,0,0,0,0,0,0],[0,0,0,1,-1,0,0,0,0,0,0,0,0]], 7],
    [[[1,1,0,1,0,0,-1,0,0,0,0,0,0]], [[-1,-1,0,-1,0,0,0,0,0,0,0,1,0],[-1,-1,0,-1,0,0,0,0,0,0,1,0,0],[1,-1,1,-1,0,0,0,0,0,0,0,0,0],[0,0,0,-1,0,1,0,0,0,0,0,0,0],[0,0,0,-1,1,0,0,0,0,0,0,0,0]], 8],
    [[[-1,1,-1,0,0,1,0,0,0,0,0,0,0]], [[-2,0,-1,0,0,0,0,0,0,0,0,1,0],[-2,0,-1,0,0,0,0,0,0,0,1,0,0],[-2,0,-1,0,0,0,1,0,0,0,0,0,0],[-1,1,-1,0,1,0,0,0,0,0,0,0,0],[-1,1,-1,1,0,0,0,0,0,0,0,0,0]], 9],
    [[[-1,1,-1,0,1,0,0,0,0,0,0,0,0]], [[-2,0,-1,0,0,0,0,0,0,0,0,1,0],[-2,0,-1,0,0,0,0,0,0,0,1,0,0],[-2,0,-1,0,0,0,1,0,0,0,0,0,0],[-1,1,-1,0,0,1,0,0,0,0,0,0,0],[-1,1,-1,1,0,0,0,0,0,0,0,0,0]], 10],
    [[[-1,1,-1,1,0,0,0,0,0,0,0,0,0]], [[-2,0,-1,0,0,0,0,0,0,0,0,1,0],[-2,0,-1,0,0,0,0,0,0,0,1,0,0],[-2,0,-1,0,0,0,1,0,0,0,0,0,0],[-1,1,-1,0,0,1,0,0,0,0,0,0,0],[-1,1,-1,0,1,0,0,0,0,0,0,0,0]], 11]
  ]],
  ["#1",
    [[0,0,0,0,0,1,1,1,0,1,1,1],
     [0,0,0,0,1,0,1,1,1,0,1,1],
     [0,0,0,0,1,1,0,1,1,1,0,1],
     [0,0,0,0,1,1,1,0,1,1,1,0],
     [0,1,1,1,0,0,0,0,0,1,1,1],
     [1,0,1,1,0,0,0,0,1,0,1,1],
     [1,1,0,1,0,0,0,0,1,1,0,1],
     [1,1,1,0,0,0,0,0,1,1,1,0],
     [0,1,1,1,0,1,1,1,0,0,0,0],
     [1,0,1,1,1,0,1,1,0,0,0,0],
     [1,1,0,1,1,1,0,1,0,0,0,0],
     [1,1,1,0,1,1,1,0,0,0,0,0]], [
    [[[1,0,1,0,0,1,0,0,0,0,0,0,-1]], [[-1,0,-1,0,0,-1,0,0,0,1,0,0,0],[-1,0,-1,0,0,-1,0,0,1,0,0,0,0],[1,0,0,0,0,-1,0,0,0,0,0,0,0],[0,0,0,0,1,-1,0,0,0,0,0,0,0],[0,0,0,1,0,-1,0,0,0,0,0,0,0]], 0],
    [[[1,0,1,0,1,0,0,0,0,0,0,0,-1]], [[-1,0,-1,0,-1,0,0,0,0,1,0,0,0],[-1,0,-1,0,-1,0,0,0,1,0,0,0,0],[1,0,0,0,-1,0,0,0,0,0,0,0,0],[0,0,0,0,-1,1,0,0,0,0,0,0,0],[0,0,0,1,-1,0,0,0,0,0,0,0,0]], 1],
    [[[1,0,1,1,0,0,0,0,0,0,0,0,-1]], [[-1,0,-1,-1,0,0,0,0,0,1,0,0,0],[-1,0,-1,-1,0,0,0,0,1,0,0,0,0],[1,0,0,-1,0,0,0,0,0,0,0,0,0],[0,0,0,-1,0,1,0,0,0,0,0,0,0],[0,0,0,-1,1,0,0,0,0,0,0,0,0]], 2],
    [[[2,0,1,0,0,0,0,0,0,0,0,0,-1]], [[-2,0,-1,0,0,0,0,0,0,1,0,0,0],[-2,0,-1,0,0,0,0,0,1,0,0,0,0],[-1,0,0,0,0,1,0,0,0,0,0,0,0],[-1,0,0,0,1,0,0,0,0,0,0,0,0],[-1,0,0,1,0,0,0,0,0,0,0,0,0]], 3],
    [[[1,0,1,0,0,1,0,0,0,-1,0,0,0]], [[-1,0,-1,0,0,-1,0,0,0,0,0,0,1],[-1,0,-1,0,0,-1,0,0,1,0,0,0,0],[1,0,0,0,0,-1,0,0,0,0,0,0,0],[0,0,0,0,1,-1,0,0,0,0,0,0,0],[0,0,0,1,0,-1,0,0,0,0,0,0,0]], 4],
    [[[1,0,1,0,1,0,0,0,0,-1,0,0,0]], [[-1,0,-1,0,-1,0,0,0,0,0,0,0,1],[-1,0,-1,0,-1,0,0,0,1,0,0,0,0],[1,0,0,0,-1,0,0,0,0,0,0,0,0],[0,0,0,0,-1,1,0,0,0,0,0,0,0],[0,0,0,1,-1,0,0,0,0,0,0,0,0]], 5],
    [[[1,0,1,1,0,0,0,0,0,-1,0,0,0]], [[-1,0,-1,-1,0,0,0,0,0,0,0,0,1],[-1,0,-1,-1,0,0,0,0,1,0,0,0,0],[1,0,0,-1,0,0,0,0,0,0,0,0,0],[0,0,0,-1,0,1,0,0,0,0,0,0,0],[0,0,0,-1,1,0,0,0,0,0,0,0,0]], 6],
    [[[2,0,1,0,0,0,0,0,0,-1,0,0,0]], [[-2,0,-1,0,0,0,0,0,0,0,0,0,1],[-2,0,-1,0,0,0,0,0,1,0,0,0,0],[-1,0,0,0,0,1,0,0,0,0,0,0,0],[-1,0,0,0,1,0,0,0,0,0,0,0,0],[-1,0,0,1,0,0,0,0,0,0,0,0,0]], 7],
    [[[1,0,1,0,0,1,0,0,-1,0,0,0,0]], [[-1,0,-1,0,0,-1,0,0,0,0,0,0,1],[-1,0,-1,0,0,-1,0,0,0,1,0,0,0],[1,0,0,0,0,-1,0,0,0,0,0,0,0],[0,0,0,0,1,-1,0,0,0,0,0,0,0],[0,0,0,1,0,-1,0,0,0,0,0,0,0]], 8],
    [[[1,0,1,0,1,0,0,0,-1,0,0,0,0]], [[-1,0,-1,0,-1,0,0,0,0,0,0,0,1],[-1,0,-1,0,-1,0,0,0,0,1,0,0,0],[1,0,0,0,-1,0,0,0,0,0,0,0,0],[0,0,0,0,-1,1,0,0,0,0,0,0,0],[0,0,0,1,-1,0,0,0,0,0,0,0,0]], 9],
    [[[1,0,1,1,0,0,0,0,-1,0,0,0,0]], [[-1,0,-1,-1,0,0,0,0,0,0,0,0,1],[-1,0,-1,-1,0,0,0,0,0,1,0,0,0],[1,0,0,-1,0,0,0,0,0,0,0,0,0],[0,0,0,-1,0,1,0,0,0,0,0,0,0],[0,0,0,-1,1,0,0,0,0,0,0,0,0]], 10],
    [[[2,0,1,0,0,0,0,0,-1,0,0,0,0]], [[-2,0,-1,0,0,0,0,0,0,0,0,0,1],[-2,0,-1,0,0,0,0,0,0,1,0,0,0],[-1,0,0,0,0,1,0,0,0,0,0,0,0],[-1,0,0,0,1,0,0,0,0,0,0,0,0],[-1,0,0,1,0,0,0,0,0,0,0,0,0]], 11]
  ]],
  ["#2",
    [[0,0,0,0,1,1,0,1,1],
     [0,0,0,1,0,1,1,0,1],
     [0,0,0,1,1,0,1,1,0],
     [0,1,1,0,0,0,0,1,1],
     [1,0,1,0,0,0,1,0,1],
     [1,1,0,0,0,0,1,1,0],
     [0,1,1,0,1,1,0,0,0],
     [1,0,1,1,0,1,0,0,0],
     [1,1,0,1,1,0,0,0,0]], [
    [[[2,0,0,1,0,-1,0,-1,0,0,0,0,0]], [[-1,0,0,-1,0,0,0,0,1,0,0,0,0],[-1,0,0,-1,0,0,1,0,0,0,0,0,0],[0,0,1,0,0,0,0,0,0,0,0,0,0],[0,1,0,0,0,0,0,0,0,0,0,0,0]], 0],
    [[[2,0,1,1,0,-1,0,-1,0,0,0,0,0]], [[-1,0,-1,-1,0,0,0,0,1,0,0,0,0],[-1,0,-1,-1,0,0,1,0,0,0,0,0,0],[0,0,-1,0,0,0,0,0,0,0,0,0,0],[0,1,-1,0,0,0,0,0,0,0,0,0,0]], 1],
    [[[2,1,0,1,0,-1,0,-1,0,0,0,0,0]], [[-1,-1,0,-1,0,0,0,0,1,0,0,0,0],[-1,-1,0,-1,0,0,1,0,0,0,0,0,0],[0,-1,0,0,0,0,0,0,0,0,0,0,0],[0,-1,1,0,0,0,0,0,0,0,0,0,0]], 2],
    [[[1,0,0,1,0,0,0,0,-1,0,0,0,0]], [[-1,0,0,-1,0,0,1,0,0,0,0,0,0],[-2,0,0,-1,0,1,0,1,0,0,0,0,0],[0,0,1,0,0,0,0,0,0,0,0,0,0],[0,1,0,0,0,0,0,0,0,0,0,0,0]], 3],
    [[[1,0,1,1,0,0,0,0,-1,0,0,0,0]], [[-1,0,-1,-1,0,0,1,0,0,0,0,0,0],[-2,0,-1,-1,0,1,0,1,0,0,0,0,0],[0,0,-1,0,0,0,0,0,0,0,0,0,0],[0,1,-1,0,0,0,0,0,0,0,0,0,0]], 4],
    [[[1,1,0,1,0,0,0,0,-1,0,0,0,0]], [[-1,-1,0,-1,0,0,1,0,0,0,0,0,0],[-2,-1,0,-1,0,1,0,1,0,0,0,0,0],[0,-1,0,0,0,0,0,0,0,0,0,0,0],[0,-1,1,0,0,0,0,0,0,0,0,0,0]], 5],
    [[[1,0,0,1,0,0,-1,0,0,0,0,0,0]], [[-1,0,0,-1,0,0,0,0,1,0,0,0,0],[-2,0,0,-1,0,1,0,1,0,0,0,0,0],[0,0,1,0,0,0,0,0,0,0,0,0,0],[0,1,0,0,0,0,0,0,0,0,0,0,0]], 6],
    [[[1,0,1,1,0,0,-1,0,0,0,0,0,0]], [[-1,0,-1,-1,0,0,0,0,1,0,0,0,0],[-2,0,-1,-1,0,1,0,1,0,0,0,0,0],[0,0,-1,0,0,0,0,0,0,0,0,0,0],[0,1,-1,0,0,0,0,0,0,0,0,0,0]], 7],
    [[[1,1,0,1,0,0,-1,0,0,0,0,0,0]], [[-1,-1,0,-1,0,0,0,0,1,0,0,0,0],[-2,-1,0,-1,0,1,0,1,0,0,0,0,0],[0,-1,0,0,0,0,0,0,0,0,0,0,0],[0,-1,1,0,0,0,0,0,0,0,0,0,0]], 8]
  ]],
  ["#3",
    [[0,0,0,0,1,1,0,0,1,1,1,1],
     [0,0,0,1,0,1,1,1,0,0,1,1],
     [0,0,0,1,1,0,1,1,1,1,0,0],
     [0,1,1,0,0,0,0,0,1,1,1,1],
     [1,0,1,0,0,0,1,1,0,0,1,1],
     [1,1,0,0,0,0,1,1,1,1,0,0],
     [0,1,1,0,1,1,0,0,0,1,0,1],
     [0,1,1,0,1,1,0,0,1,0,1,0],
     [1,0,1,1,0,1,0,1,0,0,0,1],
     [1,0,1,1,0,1,1,0,0,0,1,0],
     [1,1,0,1,1,0,0,1,0,1,0,0],
     [1,1,0,1,1,0,1,0,1,0,0,0]], [
    [[[1,0,1,0,1,0,0,0,0,0,0,-1,0]], [[-1,0,-1,0,-1,0,0,0,0,1,0,0,0],[1,0,-1,0,-1,1,0,0,0,0,0,0,0],[1,0,-1,0,0,0,0,0,0,0,0,0,0],[1,0,-1,1,-1,0,0,0,0,0,0,0,0],[0,1,-1,0,0,0,0,0,0,0,0,0,0]], 0],
    [[[1,1,0,0,1,0,0,0,0,0,0,-1,0]], [[-1,-1,0,0,-1,0,0,0,0,1,0,0,0],[1,-1,0,0,-1,1,0,0,0,0,0,0,0],[1,-1,0,0,0,0,0,0,0,0,0,0,0],[1,-1,0,1,-1,0,0,0,0,0,0,0,0],[0,-1,1,0,0,0,0,0,0,0,0,0,0]], 1],
    [[[2,0,0,0,1,0,0,0,0,0,0,-1,0]], [[-2,0,0,0,-1,0,0,0,0,1,0,0,0],[0,0,0,0,-1,1,0,0,0,0,0,0,0],[0,0,0,1,-1,0,0,0,0,0,0,0,0],[-1,0,1,0,0,0,0,0,0,0,0,0,0],[-1,1,0,0,0,0,0,0,0,0,0,0,0]], 2],
    [[[1,0,1,0,1,0,0,0,0,-1,0,0,0]], [[-1,0,-1,0,-1,0,0,0,0,0,0,1,0],[1,0,-1,0,-1,1,0,0,0,0,0,0,0],[1,0,-1,0,0,0,0,0,0,0,0,0,0],[1,0,-1,1,-1,0,0,0,0,0,0,0,0],[0,1,-1,0,0,0,0,0,0,0,0,0,0]], 3],
    [[[1,1,0,0,1,0,0,0,0,-1,0,0,0]], [[-1,-1,0,0,-1,0,0,0,0,0,0,1,0],[1,-1,0,0,-1,1,0,0,0,0,0,0,0],[1,-1,0,0,0,0,0,0,0,0,0,0,0],[1,-1,0,1,-1,0,0,0,0,0,0,0,0],[0,-1,1,0,0,0,0,0,0,0,0,0,0]], 4],
    [[[2,0,0,0,1,0,0,0,0,-1,0,0,0]], [[-2,0,0,0,-1,0,0,0,0,0,0,1,0],[0,0,0,0,-1,1,0,0,0,0,0,0,0],[0,0,0,1,-1,0,0,0,0,0,0,0,0],[-1,0,1,0,0,0,0,0,0,0,0,0,0],[-1,1,0,0,0,0,0,0,0,0,0,0,0]], 5],
    [[[-1,0,1,0,1,-1,0,0,0,0,0,0,0]], [[-1,0,-1,0,-1,0,0,0,0,0,0,1,0],[-1,0,-1,0,-1,0,0,0,0,1,0,0,0],[1,0,-1,0,0,0,0,0,0,0,0,0,0],[1,0,-1,1,-1,0,0,0,0,0,0,0,0],[0,1,-1,0,0,0,0,0,0,0,0,0,0]], 6],
    [[[-1,0,1,-1,1,0,0,0,0,0,0,0,0]], [[-2,0,0,-1,0,0,0,0,0,0,0,1,0],[-2,0,0,-1,0,0,0,0,0,1,0,0,0],[0,0,0,-1,0,1,0,0,0,0,0,0,0],[1,0,-1,0,0,0,0,0,0,0,0,0,0],[0,1,-1,0,0,0,0,0,0,0,0,0,0]], 7],
    [[[-1,1,0,0,1,-1,0,0,0,0,0,0,0]], [[-1,-1,0,0,-1,0,0,0,0,0,0,1,0],[-1,-1,0,0,-1,0,0,0,0,1,0,0,0],[1,-1,0,0,0,0,0,0,0,0,0,0,0],[1,-1,0,1,-1,0,0,0,0,0,0,0,0],[0,-1,1,0,0,0,0,0,0,0,0,0,0]], 8],
    [[[-1,1,0,-1,1,0,0,0,0,0,0,0,0]], [[-2,0,0,-1,0,0,0,0,0,0,0,1,0],[-2,0,0,-1,0,0,0,0,0,1,0,0,0],[0,0,0,-1,0,1,0,0,0,0,0,0,0],[1,-1,0,0,0,0,0,0,0,0,0,0,0],[0,-1,1,0,0,0,0,0,0,0,0,0,0]], 9],
    [[[0,0,0,0,1,-1,0,0,0,0,0,0,0]], [[-2,0,0,0,-1,0,0,0,0,0,0,1,0],[-2,0,0,0,-1,0,0,0,0,1,0,0,0],[0,0,0,1,-1,0,0,0,0,0,0,0,0],[-1,0,1,0,0,0,0,0,0,0,0,0,0],[-1,1,0,0,0,0,0,0,0,0,0,0,0]], 10],
    [[[0,0,0,1,-1,0,0,0,0,0,0,0,0]], [[-2,0,0,-1,0,0,0,0,0,0,0,1,0],[-2,0,0,-1,0,0,0,0,0,1,0,0,0],[0,0,0,-1,0,1,0,0,0,0,0,0,0],[-1,0,1,0,0,0,0,0,0,0,0,0,0],[-1,1,0,0,0,0,0,0,0,0,0,0,0]], 11]
  ]],
  ["#4",
    [[0,0,0,0,0,0,0,1,1,1,1,1,1,1,1,1],
     [0,0,0,0,1,1,1,0,0,0,1,1,1,1,1,1],
     [0,0,0,0,1,1,1,1,1,1,0,0,0,1,1,1],
     [0,0,0,0,1,1,1,1,1,1,1,1,1,0,0,0],
     [0,1,1,1,0,0,0,0,1,1,0,1,1,0,1,1],
     [0,1,1,1,0,0,0,1,0,1,1,0,1,1,0,1],
     [0,1,1,1,0,0,0,1,1,0,1,1,0,1,1,0],
     [1,0,1,1,0,1,1,0,0,0,0,1,1,0,1,1],
     [1,0,1,1,1,0,1,0,0,0,1,0,1,1,0,1],
     [1,0,1,1,1,1,0,0,0,0,1,1,0,1,1,0],
     [1,1,0,1,0,1,1,0,1,1,0,0,0,0,1,1],
     [1,1,0,1,1,0,1,1,0,1,0,0,0,1,0,1],
     [1,1,0,1,1,1,0,1,1,0,0,0,0,1,1,0],
     [1,1,1,0,0,1,1,0,1,1,0,1,1,0,0,0],
     [1,1,1,0,1,0,1,1,0,1,1,0,1,0,0,0],
     [1,1,1,0,1,1,0,1,1,0,1,1,0,0,0,0]], [
    [[[-1,0,0,0,0,1,0,1,0,0,0,0,-1]], [[1,0,0,0,0,-1,0,-1,0,0,1,0,0],[3,0,0,0,0,0,0,-1,0,0,0,0,0],[3,0,0,0,1,-1,0,-1,0,0,0,0,0],[2,0,0,1,0,-1,0,-1,0,0,0,0,0],[2,0,1,0,0,0,0,-1,0,0,0,0,0],[2,1,0,0,0,0,0,-1,0,0,0,0,0]], 0],
    [[[-1,0,0,0,0,1,0,1,0,0,-1,0,0]], [[1,0,0,0,0,-1,0,-1,0,0,0,0,1],[3,0,0,0,0,0,0,-1,0,0,0,0,0],[3,0,0,0,1,-1,0,-1,0,0,0,0,0],[2,0,0,1,0,-1,0,-1,0,0,0,0,0],[2,0,1,0,0,0,0,-1,0,0,0,0,0],[2,1,0,0,0,0,0,-1,0,0,0,0,0]], 1],
    [[[2,0,0,1,0,-1,0,-1,0,0,0,0,0]], [[-1,0,0,-1,0,0,0,0,0,0,0,0,1],[-1,0,0,-1,0,0,0,0,0,0,1,0,0],[1,0,0,-1,0,1,0,0,0,0,0,0,0],[1,0,0,-1,1,0,0,0,0,0,0,0,0],[0,0,1,-1,0,1,0,0,0,0,0,0,0],[0,1,0,-1,0,1,0,0,0,0,0,0,0]], 2],
    [[[3,0,0,0,1,-1,0,-1,0,0,0,0,0]], [[-2,0,0,0,-1,0,0,0,0,0,0,0,1],[-2,0,0,0,-1,0,0,0,0,0,1,0,0],[0,0,0,0,-1,1,0,0,0,0,0,0,0],[-1,0,0,1,-1,0,0,0,0,0,0,0,0],[-1,0,1,0,-1,1,0,0,0,0,0,0,0],[-1,1,0,0,-1,1,0,0,0,0,0,0,0]], 3],
    [[[1,0,1,0,0,1,0,0,0,0,0,0,-1]], [[-1,0,-1,0,0,-1,0,0,0,0,1,0,0],[1,0,-1,0,0,0,0,0,0,0,0,0,0],[-2,0,-1,0,0,0,0,1,0,0,0,0,0],[1,0,-1,0,1,-1,0,0,0,0,0,0,0],[0,0,-1,1,0,-1,0,0,0,0,0,0,0],[0,1,-1,0,0,0,0,0,0,0,0,0,0]], 4],
    [[[1,1,0,0,0,1,0,0,0,0,0,0,-1]], [[-1,-1,0,0,0,-1,0,0,0,0,1,0,0],[1,-1,0,0,0,0,0,0,0,0,0,0,0],[-2,-1,0,0,0,0,0,1,0,0,0,0,0],[1,-1,0,0,1,-1,0,0,0,0,0,0,0],[0,-1,0,1,0,-1,0,0,0,0,0,0,0],[0,-1,1,0,0,0,0,0,0,0,0,0,0]], 5],
    [[[2,0,0,0,0,1,0,0,0,0,0,0,-1]], [[-2,0,0,0,0,-1,0,0,0,0,1,0,0],[-3,0,0,0,0,0,0,1,0,0,0,0,0],[0,0,0,0,1,-1,0,0,0,0,0,0,0],[-1,0,0,1,0,-1,0,0,0,0,0,0,0],[-1,0,1,0,0,0,0,0,0,0,0,0,0],[-1,1,0,0,0,0,0,0,0,0,0,0,0]], 6],
    [[[1,0,1,0,0,1,0,0,0,0,-1,0,0]], [[-1,0,-1,0,0,-1,0,0,0,0,0,0,1],[1,0,-1,0,0,0,0,0,0,0,0,0,0],[-2,0,-1,0,0,0,0,1,0,0,0,0,0],[1,0,-1,0,1,-1,0,0,0,0,0,0,0],[0,0,-1,1,0,-1,0,0,0,0,0,0,0],[0,1,-1,0,0,0,0,0,0,0,0,0,0]], 7],
    [[[1,1,0,0,0,1,0,0,0,0,-1,0,0]], [[-1,-1,0,0,0,-1,0,0,0,0,0,0,1],[1,-1,0,0,0,0,0,0,0,0,0,0,0],[-2,-1,0,0,0,0,0,1,0,0,0,0,0],[1,-1,0,0,1,-1,0,0,0,0,0,0,0],[0,-1,0,1,0,-1,0,0,0,0,0,0,0],[0,-1,1,0,0,0,0,0,0,0,0,0,0]], 8],
    [[[2,0,0,0,0,1,0,0,0,0,-1,0,0]], [[-2,0,0,0,0,-1,0,0,0,0,0,0,1],[-3,0,0,0,0,0,0,1,0,0,0,0,0],[0,0,0,0,1,-1,0,0,0,0,0,0,0],[-1,0,0,1,0,-1,0,0,0,0,0,0,0],[-1,0,1,0,0,0,0,0,0,0,0,0,0],[-1,1,0,0,0,0,0,0,0,0,0,0,0]], 9],
    [[[0,0,1,-1,0,1,0,0,0,0,0,0,0]], [[-1,0,0,-1,0,0,0,0,0,0,0,0,1],[-1,0,0,-1,0,0,0,0,0,0,1,0,0],[1,0,-1,0,0,0,0,0,0,0,0,0,0],[-2,0,-1,0,0,0,0,1,0,0,0,0,0],[1,0,0,-1,1,0,0,0,0,0,0,0,0],[0,1,-1,0,0,0,0,0,0,0,0,0,0]], 10],
    [[[0,1,0,-1,0,1,0,0,0,0,0,0,0]], [[-1,0,0,-1,0,0,0,0,0,0,0,0,1],[-1,0,0,-1,0,0,0,0,0,0,1,0,0],[1,-1,0,0,0,0,0,0,0,0,0,0,0],[-2,-1,0,0,0,0,0,1,0,0,0,0,0],[1,0,0,-1,1,0,0,0,0,0,0,0,0],[0,-1,1,0,0,0,0,0,0,0,0,0,0]], 11],
    [[[-1,0,0,1,0,-1,0,0,0,0,0,0,0]], [[-1,0,0,-1,0,0,0,0,0,0,0,0,1],[-1,0,0,-1,0,0,0,0,0,0,1,0,0],[-3,0,0,0,0,0,0,1,0,0,0,0,0],[1,0,0,-1,1,0,0,0,0,0,0,0,0],[-1,0,1,0,0,0,0,0,0,0,0,0,0],[-1,1,0,0,0,0,0,0,0,0,0,0,0]], 12],
    [[[-1,0,1,0,-1,1,0,0,0,0,0,0,0]], [[-2,0,0,0,-1,0,0,0,0,0,0,0,1],[-2,0,0,0,-1,0,0,0,0,0,1,0,0],[1,0,-1,0,0,0,0,0,0,0,0,0,0],[-2,0,-1,0,0,0,0,1,0,0,0,0,0],[-1,0,0,1,-1,0,0,0,0,0,0,0,0],[0,1,-1,0,0,0,0,0,0,0,0,0,0]], 13],
    [[[-1,1,0,0,-1,1,0,0,0,0,0,0,0]], [[-2,0,0,0,-1,0,0,0,0,0,0,0,1],[-2,0,0,0,-1,0,0,0,0,0,1,0,0],[1,-1,0,0,0,0,0,0,0,0,0,0,0],[-2,-1,0,0,0,0,0,1,0,0,0,0,0],[-1,0,0,1,-1,0,0,0,0,0,0,0,0],[0,-1,1,0,0,0,0,0,0,0,0,0,0]], 14],
    [[[0,0,0,0,1,-1,0,0,0,0,0,0,0]], [[-2,0,0,0,-1,0,0,0,0,0,0,0,1],[-2,0,0,0,-1,0,0,0,0,0,1,0,0],[-3,0,0,0,0,0,0,1,0,0,0,0,0],[-1,0,0,1,-1,0,0,0,0,0,0,0,0],[-1,0,1,0,0,0,0,0,0,0,0,0,0],[-1,1,0,0,0,0,0,0,0,0,0,0,0]], 15]
  ]],
  ["#5",
    [[0,0,0],
     [0,0,0],
     [0,0,0]], [
    [[[1,0,0,0,0,0,1,-1,0,0,-1,0,0]], [[2,0,0,0,0,0,-1,0,1,0,0,0,0],[1,1,0,1,0,0,-1,0,0,0,0,0,0]], 0],
    [[[1,1,0,1,0,0,-1,0,0,0,0,0,0]], [[1,-1,0,-1,0,0,0,0,1,0,0,0,0],[-2,-1,0,-1,0,0,0,1,0,0,1,0,0]], 1],
    [[[-2,0,0,0,0,0,1,0,-1,0,0,0,0]], [[-1,0,0,0,0,0,-1,1,0,0,1,0,0],[1,1,0,1,0,0,-1,0,0,0,0,0,0]], 2]
  ]],
  ["#6",
    [[0,0,0,0,0,1,1,1,1],
     [0,0,0,1,1,0,0,1,1],
     [0,0,0,1,1,1,1,0,0],
     [0,1,1,0,0,0,1,0,1],
     [0,1,1,0,0,1,0,1,0],
     [1,0,1,0,1,0,0,0,1],
     [1,0,1,1,0,0,0,1,0],
     [1,1,0,0,1,0,1,0,0],
     [1,1,0,1,0,1,0,0,0]], [
    [[[0,0,0,0,0,0,0,1,-1,0,0,0,1]], [[0,0,0,0,0,0,0,1,-1,0,1,0,0],[2,0,0,0,0,0,1,0,-1,0,0,0,0],[0,0,0,0,0,1,0,1,-1,0,0,0,0],[2,0,0,1,0,0,0,0,-1,0,0,0,0]], 0],
    [[[0,0,0,0,0,0,0,1,-1,0,1,0,0]], [[0,0,0,0,0,0,0,1,-1,0,0,0,1],[2,0,0,0,0,0,1,0,-1,0,0,0,0],[0,0,0,0,0,1,0,1,-1,0,0,0,0],[2,0,0,1,0,0,0,0,-1,0,0,0,0]], 1],
    [[[0,0,0,0,0,1,0,1,-1,0,0,0,0]], [[0,0,0,0,0,-1,0,0,0,0,0,0,1],[0,0,0,0,0,-1,0,0,0,0,1,0,0],[2,0,0,0,0,-1,1,-1,0,0,0,0,0],[2,0,0,1,0,-1,0,-1,0,0,0,0,0]], 2],
    [[[2,0,0,0,0,0,1,-1,0,0,0,0,-1]], [[-2,0,0,0,0,0,-1,0,1,0,0,0,0],[0,0,0,1,0,0,-1,0,0,0,0,0,0],[-2,0,0,0,0,0,-1,1,0,0,1,0,0],[-2,0,0,0,0,1,-1,1,0,0,0,0,0]], 3],
    [[[2,0,0,1,0,0,0,-1,0,0,0,0,-1]], [[-2,0,0,-1,0,0,0,0,1,0,0,0,0],[-2,0,0,-1,0,1,0,1,0,0,0,0,0],[-2,0,0,-1,0,0,0,1,0,0,1,0,0],[0,0,0,-1,0,0,1,0,0,0,0,0,0]], 4],
    [[[2,0,0,0,0,0,1,-1,0,0,-1,0,0]], [[-2,0,0,0,0,0,-1,0,1,0,0,0,0],[0,0,0,1,0,0,-1,0,0,0,0,0,0],[-2,0,0,0,0,0,-1,1,0,0,0,0,1],[-2,0,0,0,0,1,-1,1,0,0,0,0,0]], 5],
    [[[2,0,0,1,0,0,0,-1,0,0,-1,0,0]], [[-2,0,0,-1,0,0,0,0,1,0,0,0,0],[-2,0,0,-1,0,1,0,1,0,0,0,0,0],[-2,0,0,-1,0,0,0,1,0,0,0,0,1],[0,0,0,-1,0,0,1,0,0,0,0,0,0]], 6],
    [[[-2,0,0,0,0,1,-1,1,0,0,0,0,0]], [[-2,0,0,0,0,0,-1,0,1,0,0,0,0],[0,0,0,1,0,0,-1,0,0,0,0,0,0],[0,0,0,0,0,-1,0,0,0,0,0,0,1],[0,0,0,0,0,-1,0,0,0,0,1,0,0]], 7],
    [[[2,0,0,1,0,-1,0,-1,0,0,0,0,0]], [[-2,0,0,-1,0,0,0,0,1,0,0,0,0],[0,0,0,0,0,-1,0,0,0,0,0,0,1],[0,0,0,0,0,-1,0,0,0,0,1,0,0],[0,0,0,-1,0,0,1,0,0,0,0,0,0]], 8]
  ]],
  ["#7",
    [[0,0],
     [0,0]], [
    [[[0,0,0,0,0,0,0,1,-1,0,0,0,1]], [[2,0,1,1,0,0,0,0,-1,0,0,0,0]], 0],
    [[[2,0,1,1,0,0,0,0,-1,0,0,0,0]], [[-2,0,-1,-1,0,0,0,1,0,0,0,0,1]], 1]
  ]],
  ["#8",
    [[0,0,0],
     [0,0,0],
     [0,0,0]], [
    [[[1,0,0,0,0,0,0,0,0,1,0,0,-1]], [[-1,0,0,0,0,0,0,0,1,-1,0,0,0],[1,0,1,0,1,0,0,0,0,-1,0,0,0]], 0],
    [[[-1,0,0,0,0,0,0,0,1,-1,0,0,0]], [[0,0,0,0,0,0,0,0,-1,0,0,0,1],[2,0,1,0,1,0,0,0,-1,0,0,0,0]], 1],
    [[[1,0,1,0,1,0,0,0,0,-1,0,0,0]], [[-2,0,-1,0,-1,0,0,0,0,0,0,0,1],[-2,0,-1,0,-1,0,0,0,1,0,0,0,0]], 2]
  ]],
  ["#9",
    [[0,0,0,0,0,1,1,1],
     [0,0,0,0,1,0,1,1],
     [0,0,0,0,1,1,0,1],
     [0,0,0,0,1,1,1,0],
     [0,1,1,1,0,0,0,0],
     [1,0,1,1,0,0,0,0],
     [1,1,0,1,0,0,0,0],
     [1,1,1,0,0,0,0,0]], [
    [[[-1,0,0,0,0,0,0,1,0,0,1,-1,0]], [[3,0,0,0,0,0,0,-1,0,0,-1,0,1],[1,0,0,0,0,0,0,-1,0,0,0,0,0],[2,1,0,0,0,1,0,-1,0,0,-1,0,0],[2,0,0,0,0,0,1,-1,0,0,-1,0,0]], 0],
    [[[2,0,0,0,0,0,1,-1,0,0,-1,0,0]], [[1,0,0,0,0,0,-1,0,0,0,0,0,1],[-1,0,0,0,0,0,-1,0,0,0,0,1,0],[1,0,0,0,0,0,0,-1,0,0,0,0,0],[0,1,0,0,0,1,-1,0,0,0,0,0,0]], 1],
    [[[2,1,0,0,0,1,0,-1,0,0,-1,0,0]], [[1,-1,0,0,0,-1,0,0,0,0,0,0,1],[-1,-1,0,0,0,-1,0,0,0,0,0,1,0],[1,0,0,0,0,0,0,-1,0,0,0,0,0],[0,-1,0,0,0,-1,1,0,0,0,0,0,0]], 2],
    [[[-3,0,0,0,0,0,0,1,0,0,1,0,-1]], [[1,0,0,0,0,0,0,-1,0,0,-1,1,0],[1,0,0,0,0,0,0,-1,0,0,0,0,0],[2,1,0,0,0,1,0,-1,0,0,-1,0,0],[2,0,0,0,0,0,1,-1,0,0,-1,0,0]], 3],
    [[[0,0,0,0,0,0,0,0,0,0,1,-1,0]], [[2,0,0,0,0,0,0,0,0,0,-1,0,1],[-1,0,0,0,0,0,0,1,0,0,0,0,0],[1,0,0,0,0,0,1,0,0,0,-1,0,0],[1,1,0,0,0,1,0,0,0,0,-1,0,0]], 4],
    [[[1,0,0,0,0,0,1,0,0,0,-1,0,0]], [[1,0,0,0,0,0,-1,0,0,0,0,0,1],[-1,0,0,0,0,0,-1,0,0,0,0,1,0],[-1,0,0,0,0,0,0,1,0,0,0,0,0],[0,1,0,0,0,1,-1,0,0,0,0,0,0]], 5],
    [[[1,1,0,0,0,1,0,0,0,0,-1,0,0]], [[1,-1,0,0,0,-1,0,0,0,0,0,0,1],[-1,-1,0,0,0,-1,0,0,0,0,0,1,0],[-1,0,0,0,0,0,0,1,0,0,0,0,0],[0,-1,0,0,0,-1,1,0,0,0,0,0,0]], 6],
    [[[-2,0,0,0,0,0,0,0,0,0,1,0,-1]], [[0,0,0,0,0,0,0,0,0,0,-1,1,0],[-1,0,0,0,0,0,0,1,0,0,0,0,0],[1,0,0,0,0,0,1,0,0,0,-1,0,0],[1,1,0,0,0,1,0,0,0,0,-1,0,0]], 7]
  ]],
  ["#10",
    [[0,0,0,0],
     [0,0,0,0],
     [0,0,0,0],
     [0,0,0,0]], [
    [[[1,1,0,0,1,0,0,0,0,0,0,-1,0]], [[1,-1,0,0,-1,0,0,0,0,0,1,0,0],[1,-1,0,0,-1,0,0,0,0,1,0,0,0],[1,-1,0,0,-1,0,1,0,0,0,0,0,0]], 0],
    [[[2,0,0,0,0,0,0,0,0,0,1,-1,0]], [[0,0,0,0,0,0,0,0,0,1,-1,0,0],[0,0,0,0,0,0,1,0,0,0,-1,0,0],[-1,1,0,0,1,0,0,0,0,0,-1,0,0]], 1],
    [[[2,0,0,0,0,0,0,0,0,1,0,-1,0]], [[0,0,0,0,0,0,0,0,0,-1,1,0,0],[0,0,0,0,0,0,1,0,0,-1,0,0,0],[-1,1,0,0,1,0,0,0,0,-1,0,0,0]], 2],
    [[[2,0,0,0,0,0,1,0,0,0,0,-1,0]], [[0,0,0,0,0,0,-1,0,0,0,1,0,0],[0,0,0,0,0,0,-1,0,0,1,0,0,0],[-1,1,0,0,1,0,-1,0,0,0,0,0,0]], 3]
  ]],
  ["#11",
    [[0,0,0,0,1,1],
     [0,0,0,1,0,1],
     [0,0,0,1,1,0],
     [0,1,1,0,0,0],
     [1,0,1,0,0,0],
     [1,1,0,0,0,0]], [
    [[[1,0,0,0,0,0,0,0,0,1,0,0,-1]], [[1,0,0,0,0,0,0,0,1,-1,0,0,0],[0,0,0,0,0,0,0,1,0,0,0,0,0],[1,0,1,0,0,1,0,0,0,-1,0,0,0]], 0],
    [[[2,0,0,0,0,0,0,0,1,0,0,0,-1]], [[-1,0,0,0,0,0,0,0,-1,1,0,0,0],[0,0,0,0,0,0,0,1,0,0,0,0,0],[0,0,1,0,0,1,0,0,-1,0,0,0,0]], 1],
    [[[2,0,1,0,0,1,0,0,0,0,0,0,-1]], [[-1,0,-1,0,0,-1,0,0,0,1,0,0,0],[0,0,-1,0,0,-1,0,0,1,0,0,0,0],[0,0,0,0,0,0,0,1,0,0,0,0,0]], 2],
    [[[-1,0,0,0,0,0,0,1,0,-1,0,0,1]], [[0,0,0,0,0,0,0,-1,0,0,0,0,0],[1,0,1,0,0,1,0,0,0,-1,0,0,0],[1,0,0,0,0,0,0,0,1,-1,0,0,0]], 3],
    [[[-2,0,0,0,0,0,0,1,-1,0,0,0,1]], [[0,0,0,0,0,0,0,-1,0,0,0,0,0],[0,0,1,0,0,1,0,0,-1,0,0,0,0],[-1,0,0,0,0,0,0,0,-1,1,0,0,0]], 4],
    [[[2,0,1,0,0,1,0,-1,0,0,0,0,-1]], [[0,0,0,0,0,0,0,-1,0,0,0,0,0],[0,0,-1,0,0,-1,0,0,1,0,0,0,0],[-1,0,-1,0,0,-1,0,0,0,1,0,0,0]], 5]
  ]],
  ["#12",
    [[0,0,0,0],
     [0,0,0,0],
     [0,0,0,0],
     [0,0,0,0]], [
    [[[2,0,0,0,0,0,0,0,1,0,0,0,0]], [[2,0,0,0,0,0,0,1,0,0,0,0,0],[2,0,0,0,0,0,1,0,0,0,0,0,0],[2,0,0,1,0,0,0,0,0,0,0,0,0]], 0],
    [[[2,0,0,0,0,0,0,1,0,0,0,0,0]], [[2,0,0,0,0,0,0,0,1,0,0,0,0],[2,0,0,0,0,0,1,0,0,0,0,0,0],[2,0,0,1,0,0,0,0,0,0,0,0,0]], 1],
    [[[2,0,0,0,0,0,1,0,0,0,0,0,0]], [[2,0,0,0,0,0,0,0,1,0,0,0,0],[2,0,0,0,0,0,0,1,0,0,0,0,0],[2,0,0,1,0,0,0,0,0,0,0,0,0]], 2],
    [[[2,0,0,1,0,0,0,0,0,0,0,0,0]], [[2,0,0,0,0,0,0,0,1,0,0,0,0],[2,0,0,0,0,0,0,1,0,0,0,0,0],[2,0,0,0,0,0,1,0,0,0,0,0,0]], 3]
  ]],
  ["#13",
    [[0,0,0,0,0,0,0,0,0],
     [0,0,0,0,0,0,0,0,0],
     [0,0,0,0,0,0,0,0,0],
     [0,0,0,0,0,0,0,0,0],
     [0,0,0,0,0,0,0,0,0],
     [0,0,0,0,0,0,0,0,0],
     [0,0,0,0,0,0,0,0,0],
     [0,0,0,0,0,0,0,0,0],
     [0,0,0,0,0,0,0,0,0]], [
    [[[2,0,0,0,0,0,0,0,0,0,0,0,1]], [[2,0,0,0,0,0,0,0,0,0,0,1,0],[2,0,0,0,0,0,0,0,0,0,1,0,0],[2,0,0,0,0,0,0,0,0,1,0,0,0],[2,0,0,0,0,0,0,0,1,0,0,0,0],[2,0,0,0,0,0,1,0,0,0,0,0,0],[2,0,0,0,0,1,0,0,0,0,0,0,0],[2,0,0,0,1,0,0,0,0,0,0,0,0],[2,0,0,1,0,0,0,0,0,0,0,0,0]], 0],
    [[[2,0,0,0,0,0,0,0,0,0,0,1,0]], [[2,0,0,0,0,0,0,0,0,0,0,0,1],[2,0,0,0,0,0,0,0,0,0,1,0,0],[2,0,0,0,0,0,0,0,0,1,0,0,0],[2,0,0,0,0,0,0,0,1,0,0,0,0],[2,0,0,0,0,0,1,0,0,0,0,0,0],[2,0,0,0,0,1,0,0,0,0,0,0,0],[2,0,0,0,1,0,0,0,0,0,0,0,0],[2,0,0,1,0,0,0,0,0,0,0,0,0]], 1],
    [[[2,0,0,0,0,0,0,0,0,0,1,0,0]], [[2,0,0,0,0,0,0,0,0,0,0,0,1],[2,0,0,0,0,0,0,0,0,0,0,1,0],[2,0,0,0,0,0,0,0,0,1,0,0,0],[2,0,0,0,0,0,0,0,1,0,0,0,0],[2,0,0,0,0,0,1,0,0,0,0,0,0],[2,0,0,0,0,1,0,0,0,0,0,0,0],[2,0,0,0,1,0,0,0,0,0,0,0,0],[2,0,0,1,0,0,0,0,0,0,0,0,0]], 2],
    [[[2,0,0,0,0,0,0,0,0,1,0,0,0]], [[2,0,0,0,0,0,0,0,0,0,0,0,1],[2,0,0,0,0,0,0,0,0,0,0,1,0],[2,0,0,0,0,0,0,0,0,0,1,0,0],[2,0,0,0,0,0,0,0,1,0,0,0,0],[2,0,0,0,0,0,1,0,0,0,0,0,0],[2,0,0,0,0,1,0,0,0,0,0,0,0],[2,0,0,0,1,0,0,0,0,0,0,0,0],[2,0,0,1,0,0,0,0,0,0,0,0,0]], 3],
    [[[2,0,0,0,0,0,0,0,1,0,0,0,0]], [[2,0,0,0,0,0,0,0,0,0,0,0,1],[2,0,0,0,0,0,0,0,0,0,0,1,0],[2,0,0,0,0,0,0,0,0,0,1,0,0],[2,0,0,0,0,0,0,0,0,1,0,0,0],[2,0,0,0,0,0,1,0,0,0,0,0,0],[2,0,0,0,0,1,0,0,0,0,0,0,0],[2,0,0,0,1,0,0,0,0,0,0,0,0],[2,0,0,1,0,0,0,0,0,0,0,0,0]], 4],
    [[[2,0,0,0,0,0,1,0,0,0,0,0,0]], [[2,0,0,0,0,0,0,0,0,0,0,0,1],[2,0,0,0,0,0,0,0,0,0,0,1,0],[2,0,0,0,0,0,0,0,0,0,1,0,0],[2,0,0,0,0,0,0,0,0,1,0,0,0],[2,0,0,0,0,0,0,0,1,0,0,0,0],[2,0,0,0,0,1,0,0,0,0,0,0,0],[2,0,0,0,1,0,0,0,0,0,0,0,0],[2,0,0,1,0,0,0,0,0,0,0,0,0]], 5],
    [[[2,0,0,0,0,1,0,0,0,0,0,0,0]], [[2,0,0,0,0,0,0,0,0,0,0,0,1],[2,0,0,0,0,0,0,0,0,0,0,1,0],[2,0,0,0,0,0,0,0,0,0,1,0,0],[2,0,0,0,0,0,0,0,0,1,0,0,0],[2,0,0,0,0,0,0,0,1,0,0,0,0],[2,0,0,0,0,0,1,0,0,0,0,0,0],[2,0,0,0,1,0,0,0,0,0,0,0,0],[2,0,0,1,0,0,0,0,0,0,0,0,0]], 6],
    [[[2,0,0,0,1,0,0,0,0,0,0,0,0]], [[2,0,0,0,0,0,0,0,0,0,0,0,1],[2,0,0,0,0,0,0,0,0,0,0,1,0],[2,0,0,0,0,0,0,0,0,0,1,0,0],[2,0,0,0,0,0,0,0,0,1,0,0,0],[2,0,0,0,0,0,0,0,1,0,0,0,0],[2,0,0,0,0,0,1,0,0,0,0,0,0],[2,0,0,0,0,1,0,0,0,0,0,0,0],[2,0,0,1,0,0,0,0,0,0,0,0,0]], 7],
    [[[2,0,0,1,0,0,0,0,0,0,0,0,0]], [[2,0,0,0,0,0,0,0,0,0,0,0,1],[2,0,0,0,0,0,0,0,0,0,0,1,0],[2,0,0,0,0,0,0,0,0,0,1,0,0],[2,0,0,0,0,0,0,0,0,1,0,0,0],[2,0,0,0,0,0,0,0,1,0,0,0,0],[2,0,0,0,0,0,1,0,0,0,0,0,0],[2,0,0,0,0,1,0,0,0,0,0,0,0],[2,0,0,0,1,0,0,0,0,0,0,0,0]], 8]
  ]],
  ["#14",
    [[0,0,0,0,0,0,0,0],
     [0,0,0,0,0,0,0,0],
     [0,0,0,0,0,0,0,0],
     [0,0,0,0,0,0,0,0],
     [0,0,0,0,0,0,0,0],
     [0,0,0,0,0,0,0,0],
     [0,0,0,0,0,0,0,0],
     [0,0,0,0,0,0,0,0]], [
    [[[2,0,0,0,0,0,0,0,0,0,0,0,1]], [[2,0,0,0,0,0,0,0,0,0,0,1,0],[2,0,0,0,0,0,0,0,0,0,1,0,0],[2,0,0,0,0,0,0,0,0,1,0,0,0],[2,0,0,0,0,0,0,0,1,0,0,0,0],[2,0,0,0,0,0,1,0,0,0,0,0,0],[2,0,1,0,0,0,0,0,0,0,0,0,0],[2,1,0,0,0,0,0,0,0,0,0,0,0]], 0],
    [[[2,0,0,0,0,0,0,0,0,0,0,1,0]], [[2,0,0,0,0,0,0,0,0,0,0,0,1],[2,0,0,0,0,0,0,0,0,0,1,0,0],[2,0,0,0,0,0,0,0,0,1,0,0,0],[2,0,0,0,0,0,0,0,1,0,0,0,0],[2,0,0,0,0,0,1,0,0,0,0,0,0],[2,0,1,0,0,0,0,0,0,0,0,0,0],[2,1,0,0,0,0,0,0,0,0,0,0,0]], 1],
    [[[2,0,0,0,0,0,0,0,0,0,1,0,0]], [[2,0,0,0,0,0,0,0,0,0,0,0,1],[2,0,0,0,0,0,0,0,0,0,0,1,0],[2,0,0,0,0,0,0,0,0,1,0,0,0],[2,0,0,0,0,0,0,0,1,0,0,0,0],[2,0,0,0,0,0,1,0,0,0,0,0,0],[2,0,1,0,0,0,0,0,0,0,0,0,0],[2,1,0,0,0,0,0,0,0,0,0,0,0]], 2],
    [[[2,0,0,0,0,0,0,0,0,1,0,0,0]], [[2,0,0,0,0,0,0,0,0,0,0,0,1],[2,0,0,0,0,0,0,0,0,0,0,1,0],[2,0,0,0,0,0,0,0,0,0,1,0,0],[2,0,0,0,0,0,0,0,1,0,0,0,0],[2,0,0,0,0,0,1,0,0,0,0,0,0],[2,0,1,0,0,0,0,0,0,0,0,0,0],[2,1,0,0,0,0,0,0,0,0,0,0,0]], 3],
    [[[2,0,0,0,0,0,0,0,1,0,0,0,0]], [[2,0,0,0,0,0,0,0,0,0,0,0,1],[2,0,0,0,0,0,0,0,0,0,0,1,0],[2,0,0,0,0,0,0,0,0,0,1,0,0],[2,0,0,0,0,0,0,0,0,1,0,0,0],[2,0,0,0,0,0,1,0,0,0,0,0,0],[2,0,1,0,0,0,0,0,0,0,0,0,0],[2,1,0,0,0,0,0,0,0,0,0,0,0]], 4],
    [[[2,0,0,0,0,0,1,0,0,0,0,0,0]], [[2,0,0,0,0,0,0,0,0,0,0,0,1],[2,0,0,0,0,0,0,0,0,0,0,1,0],[2,0,0,0,0,0,0,0,0,0,1,0,0],[2,0,0,0,0,0,0,0,0,1,0,0,0],[2,0,0,0,0,0,0,0,1,0,0,0,0],[2,0,1,0,0,0,0,0,0,0,0,0,0],[2,1,0,0,0,0,0,0,0,0,0,0,0]], 5],
    [[[2,0,1,0,0,0,0,0,0,0,0,0,0]], [[2,0,0,0,0,0,0,0,0,0,0,0,1],[2,0,0,0,0,0,0,0,0,0,0,1,0],[2,0,0,0,0,0,0,0,0,0,1,0,0],[2,0,0,0,0,0,0,0,0,1,0,0,0],[2,0,0,0,0,0,0,0,1,0,0,0,0],[2,0,0,0,0,0,1,0,0,0,0,0,0],[2,1,0,0,0,0,0,0,0,0,0,0,0]], 6],
    [[[2,1,0,0,0,0,0,0,0,0,0,0,0]], [[2,0,0,0,0,0,0,0,0,0,0,0,1],[2,0,0,0,0,0,0,0,0,0,0,1,0],[2,0,0,0,0,0,0,0,0,0,1,0,0],[2,0,0,0,0,0,0,0,0,1,0,0,0],[2,0,0,0,0,0,0,0,1,0,0,0,0],[2,0,0,0,0,0,1,0,0,0,0,0,0],[2,0,1,0,0,0,0,0,0,0,0,0,0]], 7]
  ]]
]
