
\\\\\\\\\\\\\\\\\\\\\\\\\\\\\\\\\\\\\\\\ file 0

\ combo: 1-5-7-3-2-0-0-0-1-0-0-3-1-3-3
\ dimension 2; is compact
MAXIMIZE
Subject To
  ie0: -1 x1 +1 x2 >= -1         \ x1**-1 * x2 <= 11.0
  ie1: -1 x2 >= 1                \ x2**-1 <= 0.0909091
  ie2: +1 x1 -1 x2 >= 0          \ x1 * x2**-1 <= 1.0
  ie3: +1 x2 >= -2               \ x2 <= 121.0
  eq0: +1 x12 = 1                \ x12 = 0.0909091
  eq1: +1 x1 -1 x2 -1 x11 = 2    \ x1 * x2**-1 * x11**-1 = 0.00826446
  eq2: +1 x1 -1 x2 -1 x10 = -1   \ x1 * x2**-1 * x10**-1 = 11.0
  eq3: +1 x9 = -2                \ x9 = 121.0
  eq4: +1 x8 = -1                \ x8 = 11.0
  eq5: +1 x7 = -2                \ x7 = 121.0
  eq6: +1 x1 -1 x2 -1 x6 = 2     \ x1 * x2**-1 * x6**-1 = 0.00826446
  eq7: +1 x1 -2 x2 -1 x5 = -1    \ x1 * x2**-2 * x5**-1 = 11.0
  eq8: +1 x2 +1 x4 = -3          \ x2 * x4 = 1331.0
  eq9: +1 x1 -2 x2 -1 x3 = 3     \ x1 * x2**-2 * x3**-1 = 0.000751315
END

\\\\\\\\\\\\\\\\\\\\\\\\\\\\\\\\\\\\\\\\ file 1

\ combo: 1-5-4-3-2-0-0-0-1-0-0-3-1-3-3
\ dimension 2; is compact
MAXIMIZE
Subject To
  ie0: -1 x1 +1 x2 >= -2         \ x1**-1 * x2 <= 121.0
  ie1: -1 x2 >= 1                \ x2**-1 <= 0.0909091
  ie2: +1 x1 -1 x2 >= 1          \ x1 * x2**-1 <= 0.0909091
  ie3: +1 x2 >= -2               \ x2 <= 121.0
  eq0: +1 x12 = 1                \ x12 = 0.0909091
  eq1: +1 x1 -1 x2 -1 x11 = 2    \ x1 * x2**-1 * x11**-1 = 0.00826446
  eq2: +1 x1 -1 x2 -1 x10 = -1   \ x1 * x2**-1 * x10**-1 = 11.0
  eq3: +1 x9 = -2                \ x9 = 121.0
  eq4: +1 x8 = -1                \ x8 = 11.0
  eq5: +1 x7 = -2                \ x7 = 121.0
  eq6: +1 x1 -1 x2 -1 x6 = 2     \ x1 * x2**-1 * x6**-1 = 0.00826446
  eq7: +1 x2 +1 x5 = 2           \ x2 * x5 = 0.00826446
  eq8: +1 x2 +1 x4 = -3          \ x2 * x4 = 1331.0
  eq9: +1 x2 +1 x3 = -2          \ x2 * x3 = 121.0
END

\\\\\\\\\\\\\\\\\\\\\\\\\\\\\\\\\\\\\\\\ file 2

\ combo: 8-6-8-1-2-1-0-0-1-0-0-3-2-5-5
\ dimension 3; is compact
MAXIMIZE
Subject To
  ie0: -1 x1 -1 x5 >= -1         \ x1**-1 * x5**-1 <= 11.0
  ie1: -1 x1 >= 1                \ x1**-1 <= 0.0909091
  ie2: -1 x1 +1 x2 >= 0          \ x1**-1 * x2 <= 1.0
  ie3: +1 x1 +1 x2 +1 x5 >= -2   \ x1 * x2 * x5 <= 121.0
  ie4: +1 x1 -1 x2 >= -1         \ x1 * x2**-1 <= 11.0
  ie5: +1 x1 >= -2               \ x1 <= 121.0
  ie6: +1 x1 +1 x5 >= -1         \ x1 * x5 <= 11.0
  eq0: +1 x2 +1 x5 -1 x12 = 0    \ x2 * x5 * x12**-1 = 1.0
  eq1: +1 x1 -1 x2 +1 x11 = -2   \ x1 * x2**-1 * x11 = 121.0
  eq2: +1 x2 +1 x5 -1 x10 = 0    \ x2 * x5 * x10**-1 = 1.0
  eq3: +1 x1 -1 x2 +1 x9 = -2    \ x1 * x2**-1 * x9 = 121.0
  eq4: +1 x1 -1 x2 +1 x8 = -1    \ x1 * x2**-1 * x8 = 11.0
  eq5: +1 x1 +1 x5 +1 x7 = -1    \ x1 * x5 * x7 = 11.0
  eq6: +1 x6 = -2                \ x6 = 121.0
  eq7: +2 x1 -1 x2 +1 x4 = -3    \ x1**2 * x2**-1 * x4 = 1331.0
  eq8: +1 x1 +1 x3 = -3          \ x1 * x3 = 1331.0
END

\\\\\\\\\\\\\\\\\\\\\\\\\\\\\\\\\\\\\\\\ file 3

\ combo: 8-6-8-1-2-1-1-1-0-0-0-0-2-5-5
\ dimension 3; is compact
MAXIMIZE
Subject To
  ie0: -1 x1 -1 x5 >= 1          \ x1**-1 * x5**-1 <= 0.0909091
  ie1: -1 x1 >= 1                \ x1**-1 <= 0.0909091
  ie2: +1 x1 +1 x2 +1 x5 >= -2   \ x1 * x2 * x5 <= 121.0
  ie3: +1 x1 -1 x2 >= -1         \ x1 * x2**-1 <= 11.0
  eq0: +1 x1 -1 x2 +1 x12 = -1   \ x1 * x2**-1 * x12 = 11.0
  eq1: +1 x1 -1 x2 +1 x11 = -2   \ x1 * x2**-1 * x11 = 121.0
  eq2: +1 x2 +1 x5 -1 x10 = 0    \ x2 * x5 * x10**-1 = 1.0
  eq3: +1 x1 -1 x2 +1 x9 = -2    \ x1 * x2**-1 * x9 = 121.0
  eq4: +1 x1 -1 x2 +1 x8 = -1    \ x1 * x2**-1 * x8 = 11.0
  eq5: +1 x1 +1 x5 +1 x7 = -1    \ x1 * x5 * x7 = 11.0
  eq6: +1 x6 = -2                \ x6 = 121.0
  eq7: +2 x1 -1 x2 +1 x4 = -3    \ x1**2 * x2**-1 * x4 = 1331.0
  eq8: +1 x1 +1 x3 = -3          \ x1 * x3 = 1331.0
END

\\\\\\\\\\\\\\\\\\\\\\\\\\\\\\\\\\\\\\\\ file 4

\ combo: 8-6-8-1-2-1-5-0-1-1-0-3-2-5-5
\ dimension 4; is not compact
MAXIMIZE
Subject To
  ie0: -2 x1 +1 x2 -1 x4 >= 3    \ x1**-2 * x2 * x4**-1 <= 0.000751315
  ie1: -1 x1 -1 x4 >= 1          \ x1**-1 * x4**-1 <= 0.0909091
  ie2: -1 x1 -1 x5 >= -1         \ x1**-1 * x5**-1 <= 11.0
  ie3: -1 x1 >= 1                \ x1**-1 <= 0.0909091
  ie4: +1 x1 +1 x4 >= -2         \ x1 * x4 <= 121.0
  ie5: +1 x1 >= -2               \ x1 <= 121.0
  ie6: +1 x1 +1 x5 >= -1         \ x1 * x5 <= 11.0
  eq0: +1 x2 +1 x5 -1 x12 = 0    \ x2 * x5 * x12**-1 = 1.0
  eq1: +1 x1 +1 x4 -1 x11 = -1   \ x1 * x4 * x11**-1 = 11.0
  eq2: +1 x1 +1 x5 -1 x10 = -1   \ x1 * x5 * x10**-1 = 11.0
  eq3: +1 x1 -1 x2 +1 x9 = -2    \ x1 * x2**-1 * x9 = 121.0
  eq4: +1 x1 -1 x2 +1 x8 = -1    \ x1 * x2**-1 * x8 = 11.0
  eq5: +1 x1 +1 x5 +1 x7 = -1    \ x1 * x5 * x7 = 11.0
  eq6: +1 x6 = -2                \ x6 = 121.0
  eq7: +1 x1 +1 x3 = -3          \ x1 * x3 = 1331.0
END

\\\\\\\\\\\\\\\\\\\\\\\\\\\\\\\\\\\\\\\\ file 5

\ combo: 8-6-8-1-1-1-1-1-0-0-0-0-2-5-5
\ dimension 3; is compact
MAXIMIZE
Subject To
  ie0: -1 x1 -1 x2 -1 x5 >= 2          \ x1**-1 * x2**-1 * x5**-1 <= 0.00826446
  ie1: -1 x1 >= 1                      \ x1**-1 <= 0.0909091
  ie2: -1 x1 +1 x2 -1 x5 >= 0          \ x1**-1 * x2 * x5**-1 <= 1.0
  ie3: -1 x1 +1 x2 >= 0                \ x1**-1 * x2 <= 1.0
  ie4: +3 x1 -1 x2 +1 x5 >= -4         \ x1**3 * x2**-1 * x5 <= 14641.0
  eq0: +1 x1 -1 x2 +1 x12 = -1         \ x1 * x2**-1 * x12 = 11.0
  eq1: +1 x1 -1 x2 +1 x11 = -2         \ x1 * x2**-1 * x11 = 121.0
  eq2: +1 x1 -1 x2 -1 x5 +2 x10 = -2   \ x1 * x2**-1 * x5**-1 * x10**2 = 121.0
  eq3: +1 x1 -1 x2 +1 x9 = -2          \ x1 * x2**-1 * x9 = 121.0
  eq4: +1 x1 -1 x2 +1 x8 = -1          \ x1 * x2**-1 * x8 = 11.0
  eq5: +1 x1 -1 x2 +1 x5 +2 x7 = 0     \ x1 * x2**-1 * x5 * x7**2 = 1.0
  eq6: +1 x6 = -2                      \ x6 = 121.0
  eq7: +2 x1 -1 x2 +1 x4 = -3          \ x1**2 * x2**-1 * x4 = 1331.0
  eq8: +1 x1 +1 x3 = -3                \ x1 * x3 = 1331.0
END

\\\\\\\\\\\\\\\\\\\\\\\\\\\\\\\\\\\\\\\\ file 6

\ combo: 8-6-8-1-0-1-0-0-1-0-0-3-2-5-5
\ dimension 3; is compact
MAXIMIZE
Subject To
  ie0: -1 x1 -1 x2 -1 x5 >= 2          \ x1**-1 * x2**-1 * x5**-1 <= 0.00826446
  ie1: -1 x1 +1 x2 >= 0                \ x1**-1 * x2 <= 1.0
  ie2: +1 x1 >= -2                     \ x1 <= 121.0
  ie3: +1 x1 -1 x2 +1 x5 >= 0          \ x1 * x2**-1 * x5 <= 1.0
  eq0: +1 x1 -1 x2 -1 x5 +2 x12 = -2   \ x1 * x2**-1 * x5**-1 * x12**2 = 121.0
  eq1: +1 x1 -1 x2 +1 x11 = -2         \ x1 * x2**-1 * x11 = 121.0
  eq2: +1 x1 -1 x2 -1 x5 +2 x10 = -2   \ x1 * x2**-1 * x5**-1 * x10**2 = 121.0
  eq3: +1 x1 -1 x2 +1 x9 = -2          \ x1 * x2**-1 * x9 = 121.0
  eq4: +1 x1 -1 x2 +1 x8 = -1          \ x1 * x2**-1 * x8 = 11.0
  eq5: +1 x1 -1 x2 +1 x5 +2 x7 = 0     \ x1 * x2**-1 * x5 * x7**2 = 1.0
  eq6: +1 x6 = -2                      \ x6 = 121.0
  eq7: +2 x1 -1 x2 +1 x4 = -3          \ x1**2 * x2**-1 * x4 = 1331.0
  eq8: +1 x1 +1 x3 = -3                \ x1 * x3 = 1331.0
END

\\\\\\\\\\\\\\\\\\\\\\\\\\\\\\\\\\\\\\\\ file 7

\ combo: 8-6-8-1-8-1-5-1-0-1-0-0-2-5-5
\ dimension 4; is not compact
MAXIMIZE
Subject To
  ie0: -2 x1 -1 x5 >= 3          \ x1**-2 * x5**-1 <= 0.000751315
  ie1: -2 x1 +1 x2 -1 x4 >= 3    \ x1**-2 * x2 * x4**-1 <= 0.000751315
  ie2: -1 x1 -1 x4 >= 1          \ x1**-1 * x4**-1 <= 0.0909091
  ie3: +1 x1 +1 x4 >= -2         \ x1 * x4 <= 121.0
  ie4: +1 x1 >= -2               \ x1 <= 121.0
  ie5: +1 x1 +1 x5 >= -2         \ x1 * x5 <= 121.0
  eq0: +1 x1 -1 x2 +1 x12 = -1   \ x1 * x2**-1 * x12 = 11.0
  eq1: +1 x1 +1 x4 -1 x11 = -1   \ x1 * x4 * x11**-1 = 11.0
  eq2: +1 x1 +1 x5 -1 x10 = -1   \ x1 * x5 * x10**-1 = 11.0
  eq3: +1 x1 -1 x2 +1 x9 = -2    \ x1 * x2**-1 * x9 = 121.0
  eq4: +1 x1 -1 x2 +1 x8 = -1    \ x1 * x2**-1 * x8 = 11.0
  eq5: +1 x1 +1 x5 +1 x7 = -1    \ x1 * x5 * x7 = 11.0
  eq6: +1 x6 = -2                \ x6 = 121.0
  eq7: +1 x1 +1 x3 = -3          \ x1 * x3 = 1331.0
END

\\\\\\\\\\\\\\\\\\\\\\\\\\\\\\\\\\\\\\\\ file 8

\ combo: 8-6-8-1-8-1-5-1-0-6-0-0-2-5-5
\ dimension 4; is not compact
MAXIMIZE
Subject To
  ie0: -2 x1 +1 x2 -1 x4 >= 3    \ x1**-2 * x2 * x4**-1 <= 0.000751315
  ie1: -1 x1 -1 x4 >= 1          \ x1**-1 * x4**-1 <= 0.0909091
  ie2: -1 x1 -1 x5 >= 2          \ x1**-1 * x5**-1 <= 0.00826446
  ie3: -1 x1 >= 1                \ x1**-1 <= 0.0909091
  ie4: -1 x1 +1 x2 >= 1          \ x1**-1 * x2 <= 0.0909091
  ie5: +1 x1 +1 x5 >= -3         \ x1 * x5 <= 1331.0
  ie6: +1 x4 -1 x5 >= 0          \ x4 * x5**-1 <= 1.0
  ie7: +1 x1 >= -2               \ x1 <= 121.0
  eq0: +1 x1 -1 x2 +1 x12 = -1   \ x1 * x2**-1 * x12 = 11.0
  eq1: +1 x1 +1 x4 -1 x11 = -1   \ x1 * x4 * x11**-1 = 11.0
  eq2: +1 x1 +1 x5 -1 x10 = -1   \ x1 * x5 * x10**-1 = 11.0
  eq3: +1 x1 -1 x2 +1 x9 = -2    \ x1 * x2**-1 * x9 = 121.0
  eq4: +1 x1 -1 x2 +1 x8 = -1    \ x1 * x2**-1 * x8 = 11.0
  eq5: +1 x1 +1 x5 +1 x7 = -1    \ x1 * x5 * x7 = 11.0
  eq6: +1 x6 = -2                \ x6 = 121.0
  eq7: +1 x1 +1 x3 = -3          \ x1 * x3 = 1331.0
END

\\\\\\\\\\\\\\\\\\\\\\\\\\\\\\\\\\\\\\\\ file 9

\ combo: 8-6-8-1-2-1-5-1-0-1-0-0-2-5-5
\ dimension 4; is not compact
MAXIMIZE
Subject To
  ie0: -2 x1 +1 x2 -1 x4 >= 3    \ x1**-2 * x2 * x4**-1 <= 0.000751315
  ie1: -1 x1 -1 x4 >= 1          \ x1**-1 * x4**-1 <= 0.0909091
  ie2: -1 x1 -1 x5 >= 1          \ x1**-1 * x5**-1 <= 0.0909091
  ie3: -1 x1 >= 1                \ x1**-1 <= 0.0909091
  ie4: +2 x1 +1 x5 >= -3         \ x1**2 * x5 <= 1331.0
  ie5: +1 x1 +1 x4 >= -2         \ x1 * x4 <= 121.0
  eq0: +1 x1 -1 x2 +1 x12 = -1   \ x1 * x2**-1 * x12 = 11.0
  eq1: +1 x1 +1 x4 -1 x11 = -1   \ x1 * x4 * x11**-1 = 11.0
  eq2: +1 x1 +1 x5 -1 x10 = -1   \ x1 * x5 * x10**-1 = 11.0
  eq3: +1 x1 -1 x2 +1 x9 = -2    \ x1 * x2**-1 * x9 = 121.0
  eq4: +1 x1 -1 x2 +1 x8 = -1    \ x1 * x2**-1 * x8 = 11.0
  eq5: +1 x1 +1 x5 +1 x7 = -1    \ x1 * x5 * x7 = 11.0
  eq6: +1 x6 = -2                \ x6 = 121.0
  eq7: +1 x1 +1 x3 = -3          \ x1 * x3 = 1331.0
END

\\\\\\\\\\\\\\\\\\\\\\\\\\\\\\\\\\\\\\\\ file 10

\ combo: 8-6-8-1-8-1-1-1-0-6-0-0-2-5-5
\ dimension 4; is compact
MAXIMIZE
Subject To
  ie0: -2 x1 +1 x2 -1 x4 >= 3         \ x1**-2 * x2 * x4**-1 <= 0.000751315
  ie1: -1 x1 >= 1                     \ x1**-1 <= 0.0909091
  ie2: +1 x1 +1 x5 >= -3              \ x1 * x5 <= 1331.0
  ie3: +1 x4 -1 x5 >= 0               \ x4 * x5**-1 <= 1.0
  ie4: +1 x1 -1 x2 >= -1              \ x1 * x2**-1 <= 11.0
  ie5: +1 x1 >= -2                    \ x1 <= 121.0
  eq0: +1 x1 -1 x2 +1 x12 = -1        \ x1 * x2**-1 * x12 = 11.0
  eq1: +1 x1 +1 x4 -1 x11 = -1        \ x1 * x4 * x11**-1 = 11.0
  eq2: +1 x1 +1 x5 -1 x10 = -1        \ x1 * x5 * x10**-1 = 11.0
  eq3: +1 x1 -1 x2 +1 x9 = -2         \ x1 * x2**-1 * x9 = 121.0
  eq4: +1 x1 -1 x2 +1 x8 = -1         \ x1 * x2**-1 * x8 = 11.0
  eq5: +2 x1 -1 x2 +1 x5 +1 x7 = -2   \ x1**2 * x2**-1 * x5 * x7 = 121.0
  eq6: +1 x6 = -2                     \ x6 = 121.0
  eq7: +1 x1 +1 x3 = -3               \ x1 * x3 = 1331.0
END

\\\\\\\\\\\\\\\\\\\\\\\\\\\\\\\\\\\\\\\\ file 11

\ combo: 8-6-8-1-8-1-1-1-0-0-0-0-2-5-5
\ dimension 3; is compact
MAXIMIZE
Subject To
  ie0: -3 x1 +1 x2 -1 x5 >= 4         \ x1**-3 * x2 * x5**-1 <= 6.83013e-05
  ie1: -1 x1 +1 x2 >= 0               \ x1**-1 * x2 <= 1.0
  ie2: +2 x1 -1 x2 +1 x5 >= -3        \ x1**2 * x2**-1 * x5 <= 1331.0
  ie3: +1 x1 -1 x2 >= -1              \ x1 * x2**-1 <= 11.0
  ie4: +1 x1 >= -2                    \ x1 <= 121.0
  eq0: +1 x1 -1 x2 +1 x12 = -1        \ x1 * x2**-1 * x12 = 11.0
  eq1: +1 x1 -1 x2 +1 x11 = -2        \ x1 * x2**-1 * x11 = 121.0
  eq2: +1 x1 +1 x5 -1 x10 = -1        \ x1 * x5 * x10**-1 = 11.0
  eq3: +1 x1 -1 x2 +1 x9 = -2         \ x1 * x2**-1 * x9 = 121.0
  eq4: +1 x1 -1 x2 +1 x8 = -1         \ x1 * x2**-1 * x8 = 11.0
  eq5: +2 x1 -1 x2 +1 x5 +1 x7 = -2   \ x1**2 * x2**-1 * x5 * x7 = 121.0
  eq6: +1 x6 = -2                     \ x6 = 121.0
  eq7: +2 x1 -1 x2 +1 x4 = -3         \ x1**2 * x2**-1 * x4 = 1331.0
  eq8: +1 x1 +1 x3 = -3               \ x1 * x3 = 1331.0
END

\\\\\\\\\\\\\\\\\\\\\\\\\\\\\\\\\\\\\\\\ end

